<svg version="1.1" xmlns="http://www.w3.org/2000/svg" xmlns:xlink="http://www.w3.org/1999/xlink" width="100%" height="100%" viewBox="0 0 1200.000 674.916">
<title>Brazilian new passenger car sales by type: Quarterly</title>
<desc>Created by Robbie Andrew (@robbie_andrew), CICERO Center for International Climate Research. CC-BY: Material may be freely re-used as long as you credit the author</desc>
<style type="text/css">
  #main {font-family:Helvetica,Arial,sans-serif; font-size:27.00px;
         fill-opacity:1; fill:#000000; stroke:none; stroke-linejoin:round; stroke-linecap:round; stroke-width:1.00;}
  a:hover {text-decoration: underline;}
  .marker {stroke-opacity:0;fill-opacity:0;}
  .marker:hover {stroke-opacity:0.5; fill-opacity:1;}
  .ticklabel {font-size:27.00px;fill:#808080;stroke:none;font-family:Helvetica}
  .ytl {text-anchor:end;}
  .dp1 {pointer-events:none;font-size:70%;text-anchor:middle;fill:#000000;}
  .dp2 {pointer-events:none;font-size:70%;text-anchor:middle;fill:#FFFFFF;}
  .numtip {pointer-events:none;}
  .cc {opacity:0.25;}
.dl_fe {background-color:#FDFFDF;display:flex;margin:auto;align-items:center}
.dl_fe_p {font-size:20px;text-align:center;margin:3px}
.dl_el {display:none;pointer-events:none;}
.cc:hover + .dl_el {display:block;}
text:hover + .dl_el {display:block;}
  #areas .pl {transition: all 0.2s ease;}
  #areas:hover .pl {opacity:0.5;}
  #areas:hover .thick {stroke-width:1;}
  #areas:hover .pg_1:hover .pl {opacity:1;}
  #areas:hover .pg_1:hover .pll {stroke-width:3;}
  #areas:hover .pg_1:hover .pldlm {stroke-width:2;}
  #areas:hover .pg_1:hover .thick {stroke-width:12;}
  #areas:hover .pg_2:hover .pl {opacity:1;}
  #areas:hover .pg_2:hover .pll {stroke-width:3;}
  #areas:hover .pg_2:hover .pldlm {stroke-width:2;}
  #areas:hover .pg_2:hover .thick {stroke-width:12;}
  #areas:hover .pg_3:hover .pl {opacity:1;}
  #areas:hover .pg_3:hover .pll {stroke-width:3;}
  #areas:hover .pg_3:hover .pldlm {stroke-width:2;}
  #areas:hover .pg_3:hover .thick {stroke-width:12;}
  #areas:hover .pg_4:hover .pl {opacity:1;}
  #areas:hover .pg_4:hover .pll {stroke-width:3;}
  #areas:hover .pg_4:hover .pldlm {stroke-width:2;}
  #areas:hover .pg_4:hover .thick {stroke-width:12;}
  #areas:hover .pg_5:hover .pl {opacity:1;}
  #areas:hover .pg_5:hover .pll {stroke-width:3;}
  #areas:hover .pg_5:hover .pldlm {stroke-width:2;}
  #areas:hover .pg_5:hover .thick {stroke-width:12;}
  #areas:hover .pg_6:hover .pl {opacity:1;}
  #areas:hover .pg_6:hover .pll {stroke-width:3;}
  #areas:hover .pg_6:hover .pldlm {stroke-width:2;}
  #areas:hover .pg_6:hover .thick {stroke-width:12;}
  #lines .pl {transition: all 0.2s ease;}
  #lines:hover .pl {opacity:0.3;}
  #lines:hover .thick {stroke-width:1;}
  #lines:hover .pl_1:hover .pl {opacity:1;}
  #lines:hover .pl_1:hover .pll {stroke-width:3;}
  #lines:hover .pl_1:hover .pldlm {stroke-width:2;}
  #lines:hover .pl_1:hover .thick {stroke-width:12;}
  #lines:hover .pl_2:hover .pl {opacity:1;}
  #lines:hover .pl_2:hover .pll {stroke-width:3;}
  #lines:hover .pl_2:hover .pldlm {stroke-width:2;}
  #lines:hover .pl_2:hover .thick {stroke-width:12;}
  #lines:hover .pl_3:hover .pl {opacity:1;}
  #lines:hover .pl_3:hover .pll {stroke-width:3;}
  #lines:hover .pl_3:hover .pldlm {stroke-width:2;}
  #lines:hover .pl_3:hover .thick {stroke-width:12;}
  #lines:hover .pl_4:hover .pl {opacity:1;}
  #lines:hover .pl_4:hover .pll {stroke-width:3;}
  #lines:hover .pl_4:hover .pldlm {stroke-width:2;}
  #lines:hover .pl_4:hover .thick {stroke-width:12;}
  #lines:hover .pl_5:hover .pl {opacity:1;}
  #lines:hover .pl_5:hover .pll {stroke-width:3;}
  #lines:hover .pl_5:hover .pldlm {stroke-width:2;}
  #lines:hover .pl_5:hover .thick {stroke-width:12;}
  #lines:hover .pl_6:hover .pl {opacity:1;}
  #lines:hover .pl_6:hover .pll {stroke-width:3;}
  #lines:hover .pl_6:hover .pldlm {stroke-width:2;}
  #lines:hover .pl_6:hover .thick {stroke-width:12;}
  #lines:hover .pl_7:hover .pl {opacity:1;}
  #lines:hover .pl_7:hover .pll {stroke-width:3;}
  #lines:hover .pl_7:hover .pldlm {stroke-width:2;}
  #lines:hover .pl_7:hover .thick {stroke-width:12;}
  #lines:hover .pl_8:hover .pl {opacity:1;}
  #lines:hover .pl_8:hover .pll {stroke-width:3;}
  #lines:hover .pl_8:hover .pldlm {stroke-width:2;}
  #lines:hover .pl_8:hover .thick {stroke-width:12;}
  #lines:hover .pl_9:hover .pl {opacity:1;}
  #lines:hover .pl_9:hover .pll {stroke-width:3;}
  #lines:hover .pl_9:hover .pldlm {stroke-width:2;}
  #lines:hover .pl_9:hover .thick {stroke-width:12;}
  #lines:hover .pl_10:hover .pl {opacity:1;}
  #lines:hover .pl_10:hover .pll {stroke-width:3;}
  #lines:hover .pl_10:hover .pldlm {stroke-width:2;}
  #lines:hover .pl_10:hover .thick {stroke-width:12;}
  #lines:hover .pl_11:hover .pl {opacity:1;}
  #lines:hover .pl_11:hover .pll {stroke-width:3;}
  #lines:hover .pl_11:hover .pldlm {stroke-width:2;}
  #lines:hover .pl_11:hover .thick {stroke-width:12;}
  #lines:hover .pl_12:hover .pl {opacity:1;}
  #lines:hover .pl_12:hover .pll {stroke-width:3;}
  #lines:hover .pl_12:hover .pldlm {stroke-width:2;}
  #lines:hover .pl_12:hover .thick {stroke-width:12;}
  #lines:hover .pl_13:hover .pl {opacity:1;}
  #lines:hover .pl_13:hover .pll {stroke-width:3;}
  #lines:hover .pl_13:hover .pldlm {stroke-width:2;}
  #lines:hover .pl_13:hover .thick {stroke-width:12;}
  #lines:hover .pl_14:hover .pl {opacity:1;}
  #lines:hover .pl_14:hover .pll {stroke-width:3;}
  #lines:hover .pl_14:hover .pldlm {stroke-width:2;}
  #lines:hover .pl_14:hover .thick {stroke-width:12;}
  #lines:hover .pl_15:hover .pl {opacity:1;}
  #lines:hover .pl_15:hover .pll {stroke-width:3;}
  #lines:hover .pl_15:hover .pldlm {stroke-width:2;}
  #lines:hover .pl_15:hover .thick {stroke-width:12;}
  #lines:hover .pl_16:hover .pl {opacity:1;}
  #lines:hover .pl_16:hover .pll {stroke-width:3;}
  #lines:hover .pl_16:hover .pldlm {stroke-width:2;}
  #lines:hover .pl_16:hover .thick {stroke-width:12;}
  #lines:hover .pl_17:hover .pl {opacity:1;}
  #lines:hover .pl_17:hover .pll {stroke-width:3;}
  #lines:hover .pl_17:hover .pldlm {stroke-width:2;}
  #lines:hover .pl_17:hover .thick {stroke-width:12;}
  #lines:hover .pl_18:hover .pl {opacity:1;}
  #lines:hover .pl_18:hover .pll {stroke-width:3;}
  #lines:hover .pl_18:hover .pldlm {stroke-width:2;}
  #lines:hover .pl_18:hover .thick {stroke-width:12;}
  #lines:hover .pl_19:hover .pl {opacity:1;}
  #lines:hover .pl_19:hover .pll {stroke-width:3;}
  #lines:hover .pl_19:hover .pldlm {stroke-width:2;}
  #lines:hover .pl_19:hover .thick {stroke-width:12;}
  #lines:hover .pl_20:hover .pl {opacity:1;}
  #lines:hover .pl_20:hover .pll {stroke-width:3;}
  #lines:hover .pl_20:hover .pldlm {stroke-width:2;}
  #lines:hover .pl_20:hover .thick {stroke-width:12;}
  #lines:hover .pl_21:hover .pl {opacity:1;}
  #lines:hover .pl_21:hover .pll {stroke-width:3;}
  #lines:hover .pl_21:hover .pldlm {stroke-width:2;}
  #lines:hover .pl_21:hover .thick {stroke-width:12;}
</style>
<defs>
  <clipPath id="axis_clip"><rect x="145.8" y="54.2" width="761.2" height="505.8" /></clipPath>
  <path id="line_y" d="M 0,53.993 v 506.187" stroke="#4D4D4D" stroke-opacity="0.15" stroke-width="1.00"/>
  <path id="line_x" d="M 145.600,0 h 761.600" stroke="#4D4D4D" stroke-opacity="0.15" stroke-width="1.00"/>
  <path id="tick_y" d="M 145.600,0 h -6.000" stroke="#808080" stroke-width="0.90"/>
  <path id="tick_x" d="M 0,560.180 v 6.000" stroke="#808080" stroke-width="0.90"/>
  <symbol id="line_1" viewBox="0 0 1200.000 674.916">
<polyline class="pl" points="145.6,234.4 160.2,234.4 160.2,197.6 174.9,197.6 174.9,123.9 189.5,123.9 189.5,151.9 204.2,151.9 204.2,227.6 218.8,227.6 218.8,171.7 233.5,171.7 233.5,167.2 248.1,167.2 248.1,164.2 262.8,164.2 262.8,233.1 277.4,233.1 277.4,218.7 292.1,218.7 292.1,213.2 306.7,213.2 306.7,169.6 321.4,169.6 321.4,286.1 336.0,286.1 336.0,297.8 350.6,297.8 350.6,301.7 365.3,301.7 365.3,308.8 379.9,308.8 379.9,363.8 394.6,363.8 394.6,354.8 409.2,354.8 409.2,345.7 423.9,345.7 423.9,337.5 438.5,337.5 438.5,365.9 453.2,365.9 453.2,335.6 467.8,335.6 467.8,314.3 482.5,314.3 482.5,307.1 497.1,307.1 497.1,337.4 511.8,337.4 511.8,306.7 526.4,306.7 526.4,284.4 541.0,284.4 541.0,268.1 555.7,268.1 555.7,314.9 570.3,314.9 570.3,277.4 585.0,277.4 585.0,269.8 599.6,269.8 599.6,254.2 614.3,254.2 614.3,334.8 628.9,334.8 628.9,462.8 643.6,462.8 643.6,333.9 658.2,333.9 658.2,284.7 672.9,284.7 672.9,349.9 687.5,349.9 687.5,345.3 702.2,345.3 702.2,364.7 716.8,364.7 716.8,346.8 731.4,346.8 731.4,401.8 746.1,401.8 746.1,358.7 760.7,358.7 760.7,330.5 775.4,330.5 775.4,322.7 790.0,322.7 790.0,375.9 804.7,375.9 804.7,350.2 819.3,350.2 819.3,307.0 834.0,307.0 834.0,287.9 848.6,287.9 848.6,356.0 863.3,356.0 863.3,309.5 877.9,309.5" stroke="#000" stroke-width="0.90" stroke-opacity="1.00" fill="none" clip-path="url(#axis_clip)"/>
  </symbol>
  <symbol id="line_2" viewBox="0 0 1200.000 674.916">
<polyline class="pl" points="145.6,512.1 160.2,512.1 160.2,511.6 174.9,511.6 174.9,506.9 189.5,506.9 189.5,511.3 204.2,511.3 204.2,522.0 218.8,522.0 218.8,516.5 233.5,516.5 233.5,515.8 248.1,515.8 248.1,513.1 262.8,513.1 262.8,521.2 277.4,521.2 277.4,518.8 292.1,518.8 292.1,518.9 306.7,518.9 306.7,516.1 321.4,516.1 321.4,528.3 336.0,528.3 336.0,528.7 350.6,528.7 350.6,530.5 365.3,530.5 365.3,532.4 379.9,532.4 379.9,536.4 394.6,536.4 394.6,535.7 409.2,535.7 409.2,534.9 423.9,534.9 423.9,533.4 438.5,533.4 438.5,538.3 453.2,538.3 453.2,535.0 467.8,535.0 467.8,532.4 482.5,532.4 482.5,530.0 497.1,530.0 497.1,533.0 511.8,533.0 511.8,527.4 526.4,527.4 526.4,525.9 541.0,525.9 541.0,524.8 555.7,524.8 555.7,530.3 570.3,530.3 570.3,525.2 585.0,525.2 585.0,522.6 599.6,522.6 599.6,520.5 614.3,520.5 614.3,529.3 628.9,529.3 628.9,542.1 643.6,542.1 643.6,525.7 658.2,525.7 658.2,521.3 672.9,521.3 672.9,530.4 687.5,530.4 687.5,523.6 702.2,523.6 702.2,516.8 716.8,516.8 716.8,521.0 731.4,521.0 731.4,530.3 746.1,530.3 746.1,524.7 760.7,524.7 760.7,524.2 775.4,524.2 775.4,523.5 790.0,523.5 790.0,528.9 804.7,528.9 804.7,525.0 819.3,525.0 819.3,520.9 834.0,520.9 834.0,509.7 848.6,509.7 848.6,515.5 863.3,515.5 863.3,508.2 877.9,508.2" stroke="#000" stroke-width="0.90" stroke-opacity="1.00" fill="none" clip-path="url(#axis_clip)"/>
  </symbol>
  <symbol id="line_3" viewBox="0 0 1200.000 674.916">
<polyline class="pl" points="145.6,512.1 160.2,512.1 160.2,511.7 174.9,511.7 174.9,506.9 189.5,506.9 189.5,511.3 204.2,511.3 204.2,522.1 218.8,522.1 218.8,516.5 233.5,516.5 233.5,515.9 248.1,515.9 248.1,513.2 262.8,513.2 262.8,521.2 277.4,521.2 277.4,518.8 292.1,518.8 292.1,519.0 306.7,519.0 306.7,516.2 321.4,516.2 321.4,528.4 336.0,528.4 336.0,528.8 350.6,528.8 350.6,530.6 365.3,530.6 365.3,532.5 379.9,532.5 379.9,536.4 394.6,536.4 394.6,535.8 409.2,535.8 409.2,534.9 423.9,534.9 423.9,533.6 438.5,533.6 438.5,538.6 453.2,538.6 453.2,535.2 467.8,535.2 467.8,533.0 482.5,533.0 482.5,530.4 497.1,530.4 497.1,533.3 511.8,533.3 511.8,527.9 526.4,527.9 526.4,526.3 541.0,526.3 541.0,525.4 555.7,525.4 555.7,530.8 570.3,530.8 570.3,525.8 585.0,525.8 585.0,523.9 599.6,523.9 599.6,523.2 614.3,523.2 614.3,531.5 628.9,531.5 628.9,543.1 643.6,543.1 643.6,528.1 658.2,528.1 658.2,524.0 672.9,524.0 672.9,530.6 687.5,530.6 687.5,523.8 702.2,523.8 702.2,517.1 716.8,517.1 716.8,521.7 731.4,521.7 731.4,530.8 746.1,530.8 746.1,525.6 760.7,525.6 760.7,525.4 775.4,525.4 775.4,524.4 790.0,524.4 790.0,529.7 804.7,529.7 804.7,525.7 819.3,525.7 819.3,522.6 834.0,522.6 834.0,514.5 848.6,514.5 848.6,521.5 863.3,521.5 863.3,515.4 877.9,515.4" stroke="#000" stroke-width="0.90" stroke-opacity="1.00" fill="none" clip-path="url(#axis_clip)"/>
  </symbol>
  <symbol id="line_4" viewBox="0 0 1200.000 674.916">
<polyline class="pl" points="145.6,512.1 160.2,512.1 160.2,511.7 174.9,511.7 174.9,506.9 189.5,506.9 189.5,511.3 204.2,511.3 204.2,522.1 218.8,522.1 218.8,516.5 233.5,516.5 233.5,515.9 248.1,515.9 248.1,513.2 262.8,513.2 262.8,521.2 277.4,521.2 277.4,518.8 292.1,518.8 292.1,519.0 306.7,519.0 306.7,516.2 321.4,516.2 321.4,528.4 336.0,528.4 336.0,528.8 350.6,528.8 350.6,530.6 365.3,530.6 365.3,532.5 379.9,532.5 379.9,536.4 394.6,536.4 394.6,535.8 409.2,535.8 409.2,534.9 423.9,534.9 423.9,533.6 438.5,533.6 438.5,538.6 453.2,538.6 453.2,535.2 467.8,535.2 467.8,533.0 482.5,533.0 482.5,530.4 497.1,530.4 497.1,533.3 511.8,533.3 511.8,527.9 526.4,527.9 526.4,526.3 541.0,526.3 541.0,525.4 555.7,525.4 555.7,530.8 570.3,530.8 570.3,525.8 585.0,525.8 585.0,523.9 599.6,523.9 599.6,523.2 614.3,523.2 614.3,531.5 628.9,531.5 628.9,543.1 643.6,543.1 643.6,528.1 658.2,528.1 658.2,524.0 672.9,524.0 672.9,530.6 687.5,530.6 687.5,523.8 702.2,523.8 702.2,517.1 716.8,517.1 716.8,521.7 731.4,521.7 731.4,530.8 746.1,530.8 746.1,525.6 760.7,525.6 760.7,525.4 775.4,525.4 775.4,524.4 790.0,524.4 790.0,531.8 804.7,531.8 804.7,528.2 819.3,528.2 819.3,526.4 834.0,526.4 834.0,519.8 848.6,519.8 848.6,525.8 863.3,525.8 863.3,520.5 877.9,520.5" stroke="#000" stroke-width="0.90" stroke-opacity="1.00" fill="none" clip-path="url(#axis_clip)"/>
  </symbol>
  <symbol id="line_5" viewBox="0 0 1200.000 674.916">
<polyline class="pl" points="145.6,512.1 160.2,512.1 160.2,511.7 174.9,511.7 174.9,506.9 189.5,506.9 189.5,511.3 204.2,511.3 204.2,522.1 218.8,522.1 218.8,516.5 233.5,516.5 233.5,515.9 248.1,515.9 248.1,513.2 262.8,513.2 262.8,521.2 277.4,521.2 277.4,518.8 292.1,518.8 292.1,519.0 306.7,519.0 306.7,516.2 321.4,516.2 321.4,528.4 336.0,528.4 336.0,528.8 350.6,528.8 350.6,530.6 365.3,530.6 365.3,532.5 379.9,532.5 379.9,536.4 394.6,536.4 394.6,535.8 409.2,535.8 409.2,534.9 423.9,534.9 423.9,533.6 438.5,533.6 438.5,538.6 453.2,538.6 453.2,535.2 467.8,535.2 467.8,533.0 482.5,533.0 482.5,530.4 497.1,530.4 497.1,533.3 511.8,533.3 511.8,527.9 526.4,527.9 526.4,526.3 541.0,526.3 541.0,525.4 555.7,525.4 555.7,530.8 570.3,530.8 570.3,525.8 585.0,525.8 585.0,523.9 599.6,523.9 599.6,523.2 614.3,523.2 614.3,531.5 628.9,531.5 628.9,543.1 643.6,543.1 643.6,528.1 658.2,528.1 658.2,524.0 672.9,524.0 672.9,532.4 687.5,532.4 687.5,527.5 702.2,527.5 702.2,521.2 716.8,521.2 716.8,525.6 731.4,525.6 731.4,534.4 746.1,534.4 746.1,529.2 760.7,529.2 760.7,530.0 775.4,530.0 775.4,529.8 790.0,529.8 790.0,535.1 804.7,535.1 804.7,532.3 819.3,532.3 819.3,531.6 834.0,531.6 834.0,525.0 848.6,525.0 848.6,530.8 863.3,530.8 863.3,526.4 877.9,526.4" stroke="#000" stroke-width="0.90" stroke-opacity="1.00" fill="none" clip-path="url(#axis_clip)"/>
  </symbol>
  <symbol id="line_6" viewBox="0 0 1200.000 674.916">
<polyline class="pl" points="145.6,542.6 160.2,542.6 160.2,542.1 174.9,542.1 174.9,537.1 189.5,537.1 189.5,535.7 204.2,535.7 204.2,539.6 218.8,539.6 218.8,536.4 233.5,536.4 233.5,535.9 248.1,535.9 248.1,535.5 262.8,535.5 262.8,540.3 277.4,540.3 277.4,538.1 292.1,538.1 292.1,538.2 306.7,538.2 306.7,536.6 321.4,536.6 321.4,543.5 336.0,543.5 336.0,544.0 350.6,544.0 350.6,544.8 365.3,544.8 365.3,545.4 379.9,545.4 379.9,545.8 394.6,545.8 394.6,543.6 409.2,543.6 409.2,543.3 423.9,543.3 423.9,542.2 438.5,542.2 438.5,544.9 453.2,544.9 453.2,542.3 467.8,542.3 467.8,540.7 482.5,540.7 482.5,538.3 497.1,538.3 497.1,541.0 511.8,541.0 511.8,537.1 526.4,537.1 526.4,534.9 541.0,534.9 541.0,534.3 555.7,534.3 555.7,538.2 570.3,538.2 570.3,533.6 585.0,533.6 585.0,531.9 599.6,531.9 599.6,531.1 614.3,531.1 614.3,537.4 628.9,537.4 628.9,546.9 643.6,546.9 643.6,535.8 658.2,535.8 658.2,531.5 672.9,531.5 672.9,537.2 687.5,537.2 687.5,533.8 702.2,533.8 702.2,527.5 716.8,527.5 716.8,530.8 731.4,530.8 731.4,539.2 746.1,539.2 746.1,534.8 760.7,534.8 760.7,535.3 775.4,535.3 775.4,534.7 790.0,534.7 790.0,539.7 804.7,539.7 804.7,538.1 819.3,538.1 819.3,537.8 834.0,537.8 834.0,534.0 848.6,534.0 848.6,539.9 863.3,539.9 863.3,536.4 877.9,536.4" stroke="#000" stroke-width="0.90" stroke-opacity="1.00" fill="none" clip-path="url(#axis_clip)"/>
  </symbol>
  <symbol id="line_7" viewBox="0 0 1200.000 674.916">
<polyline class="pl" points="145.6,512.1 160.2,512.1 160.2,511.6 174.9,511.6 174.9,506.9 189.5,506.9 189.5,511.3 204.2,511.3 204.2,522.0 218.8,522.0 218.8,516.5 233.5,516.5 233.5,515.8 248.1,515.8 248.1,513.1 262.8,513.1 262.8,521.2 277.4,521.2 277.4,518.8 292.1,518.8 292.1,518.9 306.7,518.9 306.7,516.1 321.4,516.1 321.4,528.3 336.0,528.3 336.0,528.7 350.6,528.7 350.6,530.5 365.3,530.5 365.3,532.4 379.9,532.4 379.9,536.4 394.6,536.4 394.6,535.7 409.2,535.7 409.2,534.9 423.9,534.9 423.9,533.4 438.5,533.4 438.5,538.3 453.2,538.3 453.2,535.0 467.8,535.0 467.8,532.4 482.5,532.4 482.5,530.0 497.1,530.0 497.1,533.0 511.8,533.0 511.8,527.4 526.4,527.4 526.4,525.9 541.0,525.9 541.0,524.8 555.7,524.8 555.7,530.3 570.3,530.3 570.3,525.2 585.0,525.2 585.0,522.6 599.6,522.6 599.6,520.5 614.3,520.5 614.3,529.3 628.9,529.3 628.9,542.1 643.6,542.1 643.6,525.7 658.2,525.7 658.2,521.3 672.9,521.3 672.9,530.4 687.5,530.4 687.5,523.6 702.2,523.6 702.2,516.8 716.8,516.8 716.8,521.0 731.4,521.0 731.4,530.3 746.1,530.3 746.1,524.7 760.7,524.7 760.7,524.2 775.4,524.2 775.4,523.5 790.0,523.5 790.0,528.9 804.7,528.9 804.7,525.0 819.3,525.0 819.3,520.9 834.0,520.9 834.0,509.7 848.6,509.7 848.6,515.5 863.3,515.5 863.3,508.2 877.9,508.2" stroke="#000" stroke-width="0.90" stroke-opacity="1.00" fill="none" clip-path="url(#axis_clip)"/>
  </symbol>
  <symbol id="line_8" viewBox="0 0 1200.000 674.916">
<polyline class="pl" points="145.6,512.1 160.2,512.1 160.2,511.7 174.9,511.7 174.9,506.9 189.5,506.9 189.5,511.3 204.2,511.3 204.2,522.1 218.8,522.1 218.8,516.5 233.5,516.5 233.5,515.9 248.1,515.9 248.1,513.2 262.8,513.2 262.8,521.2 277.4,521.2 277.4,518.8 292.1,518.8 292.1,519.0 306.7,519.0 306.7,516.2 321.4,516.2 321.4,528.4 336.0,528.4 336.0,528.8 350.6,528.8 350.6,530.6 365.3,530.6 365.3,532.5 379.9,532.5 379.9,536.4 394.6,536.4 394.6,535.8 409.2,535.8 409.2,534.9 423.9,534.9 423.9,533.6 438.5,533.6 438.5,538.6 453.2,538.6 453.2,535.2 467.8,535.2 467.8,533.0 482.5,533.0 482.5,530.4 497.1,530.4 497.1,533.3 511.8,533.3 511.8,527.9 526.4,527.9 526.4,526.3 541.0,526.3 541.0,525.4 555.7,525.4 555.7,530.8 570.3,530.8 570.3,525.8 585.0,525.8 585.0,523.9 599.6,523.9 599.6,523.2 614.3,523.2 614.3,531.5 628.9,531.5 628.9,543.1 643.6,543.1 643.6,528.1 658.2,528.1 658.2,524.0 672.9,524.0 672.9,530.6 687.5,530.6 687.5,523.8 702.2,523.8 702.2,517.1 716.8,517.1 716.8,521.7 731.4,521.7 731.4,530.8 746.1,530.8 746.1,525.6 760.7,525.6 760.7,525.4 775.4,525.4 775.4,524.4 790.0,524.4 790.0,529.7 804.7,529.7 804.7,525.7 819.3,525.7 819.3,522.6 834.0,522.6 834.0,514.5 848.6,514.5 848.6,521.5 863.3,521.5 863.3,515.4 877.9,515.4" stroke="#000" stroke-width="0.90" stroke-opacity="1.00" fill="none" clip-path="url(#axis_clip)"/>
  </symbol>
  <symbol id="line_9" viewBox="0 0 1200.000 674.916">
<polyline class="pl" points="145.6,512.1 160.2,512.1 160.2,511.7 174.9,511.7 174.9,506.9 189.5,506.9 189.5,511.3 204.2,511.3 204.2,522.1 218.8,522.1 218.8,516.5 233.5,516.5 233.5,515.9 248.1,515.9 248.1,513.2 262.8,513.2 262.8,521.2 277.4,521.2 277.4,518.8 292.1,518.8 292.1,519.0 306.7,519.0 306.7,516.2 321.4,516.2 321.4,528.4 336.0,528.4 336.0,528.8 350.6,528.8 350.6,530.6 365.3,530.6 365.3,532.5 379.9,532.5 379.9,536.4 394.6,536.4 394.6,535.8 409.2,535.8 409.2,534.9 423.9,534.9 423.9,533.6 438.5,533.6 438.5,538.6 453.2,538.6 453.2,535.2 467.8,535.2 467.8,533.0 482.5,533.0 482.5,530.4 497.1,530.4 497.1,533.3 511.8,533.3 511.8,527.9 526.4,527.9 526.4,526.3 541.0,526.3 541.0,525.4 555.7,525.4 555.7,530.8 570.3,530.8 570.3,525.8 585.0,525.8 585.0,523.9 599.6,523.9 599.6,523.2 614.3,523.2 614.3,531.5 628.9,531.5 628.9,543.1 643.6,543.1 643.6,528.1 658.2,528.1 658.2,524.0 672.9,524.0 672.9,530.6 687.5,530.6 687.5,523.8 702.2,523.8 702.2,517.1 716.8,517.1 716.8,521.7 731.4,521.7 731.4,530.8 746.1,530.8 746.1,525.6 760.7,525.6 760.7,525.4 775.4,525.4 775.4,524.4 790.0,524.4 790.0,531.8 804.7,531.8 804.7,528.2 819.3,528.2 819.3,526.4 834.0,526.4 834.0,519.8 848.6,519.8 848.6,525.8 863.3,525.8 863.3,520.5 877.9,520.5" stroke="#000" stroke-width="0.90" stroke-opacity="1.00" fill="none" clip-path="url(#axis_clip)"/>
  </symbol>
  <symbol id="line_10" viewBox="0 0 1200.000 674.916">
<polyline class="pl" points="145.6,512.1 160.2,512.1 160.2,511.7 174.9,511.7 174.9,506.9 189.5,506.9 189.5,511.3 204.2,511.3 204.2,522.1 218.8,522.1 218.8,516.5 233.5,516.5 233.5,515.9 248.1,515.9 248.1,513.2 262.8,513.2 262.8,521.2 277.4,521.2 277.4,518.8 292.1,518.8 292.1,519.0 306.7,519.0 306.7,516.2 321.4,516.2 321.4,528.4 336.0,528.4 336.0,528.8 350.6,528.8 350.6,530.6 365.3,530.6 365.3,532.5 379.9,532.5 379.9,536.4 394.6,536.4 394.6,535.8 409.2,535.8 409.2,534.9 423.9,534.9 423.9,533.6 438.5,533.6 438.5,538.6 453.2,538.6 453.2,535.2 467.8,535.2 467.8,533.0 482.5,533.0 482.5,530.4 497.1,530.4 497.1,533.3 511.8,533.3 511.8,527.9 526.4,527.9 526.4,526.3 541.0,526.3 541.0,525.4 555.7,525.4 555.7,530.8 570.3,530.8 570.3,525.8 585.0,525.8 585.0,523.9 599.6,523.9 599.6,523.2 614.3,523.2 614.3,531.5 628.9,531.5 628.9,543.1 643.6,543.1 643.6,528.1 658.2,528.1 658.2,524.0 672.9,524.0 672.9,532.4 687.5,532.4 687.5,527.5 702.2,527.5 702.2,521.2 716.8,521.2 716.8,525.6 731.4,525.6 731.4,534.4 746.1,534.4 746.1,529.2 760.7,529.2 760.7,530.0 775.4,530.0 775.4,529.8 790.0,529.8 790.0,535.1 804.7,535.1 804.7,532.3 819.3,532.3 819.3,531.6 834.0,531.6 834.0,525.0 848.6,525.0 848.6,530.8 863.3,530.8 863.3,526.4 877.9,526.4" stroke="#000" stroke-width="0.90" stroke-opacity="1.00" fill="none" clip-path="url(#axis_clip)"/>
  </symbol>
  <symbol id="line_11" viewBox="0 0 1200.000 674.916">
<polyline class="pl" points="145.6,542.6 160.2,542.6 160.2,542.1 174.9,542.1 174.9,537.1 189.5,537.1 189.5,535.7 204.2,535.7 204.2,539.6 218.8,539.6 218.8,536.4 233.5,536.4 233.5,535.9 248.1,535.9 248.1,535.5 262.8,535.5 262.8,540.3 277.4,540.3 277.4,538.1 292.1,538.1 292.1,538.2 306.7,538.2 306.7,536.6 321.4,536.6 321.4,543.5 336.0,543.5 336.0,544.0 350.6,544.0 350.6,544.8 365.3,544.8 365.3,545.4 379.9,545.4 379.9,545.8 394.6,545.8 394.6,543.6 409.2,543.6 409.2,543.3 423.9,543.3 423.9,542.2 438.5,542.2 438.5,544.9 453.2,544.9 453.2,542.3 467.8,542.3 467.8,540.7 482.5,540.7 482.5,538.3 497.1,538.3 497.1,541.0 511.8,541.0 511.8,537.1 526.4,537.1 526.4,534.9 541.0,534.9 541.0,534.3 555.7,534.3 555.7,538.2 570.3,538.2 570.3,533.6 585.0,533.6 585.0,531.9 599.6,531.9 599.6,531.1 614.3,531.1 614.3,537.4 628.9,537.4 628.9,546.9 643.6,546.9 643.6,535.8 658.2,535.8 658.2,531.5 672.9,531.5 672.9,537.2 687.5,537.2 687.5,533.8 702.2,533.8 702.2,527.5 716.8,527.5 716.8,530.8 731.4,530.8 731.4,539.2 746.1,539.2 746.1,534.8 760.7,534.8 760.7,535.3 775.4,535.3 775.4,534.7 790.0,534.7 790.0,539.7 804.7,539.7 804.7,538.1 819.3,538.1 819.3,537.8 834.0,537.8 834.0,534.0 848.6,534.0 848.6,539.9 863.3,539.9 863.3,536.4 877.9,536.4" stroke="#000" stroke-width="0.90" stroke-opacity="1.00" fill="none" clip-path="url(#axis_clip)"/>
  </symbol>
  <symbol id="line_12" viewBox="0 0 1200.000 674.916">
<polyline class="pl" points="145.6,512.1 160.2,512.1 160.2,511.7 174.9,511.7 174.9,506.9 189.5,506.9 189.5,511.3 204.2,511.3 204.2,522.1 218.8,522.1 218.8,516.5 233.5,516.5 233.5,515.9 248.1,515.9 248.1,513.2 262.8,513.2 262.8,521.2 277.4,521.2 277.4,518.8 292.1,518.8 292.1,519.0 306.7,519.0 306.7,516.2 321.4,516.2 321.4,528.4 336.0,528.4 336.0,528.8 350.6,528.8 350.6,530.6 365.3,530.6 365.3,532.5 379.9,532.5 379.9,536.4 394.6,536.4 394.6,535.8 409.2,535.8 409.2,534.9 423.9,534.9 423.9,533.6 438.5,533.6 438.5,538.6 453.2,538.6 453.2,535.2 467.8,535.2 467.8,533.0 482.5,533.0 482.5,530.4 497.1,530.4 497.1,533.3 511.8,533.3 511.8,527.9 526.4,527.9 526.4,526.3 541.0,526.3 541.0,525.4 555.7,525.4 555.7,530.8 570.3,530.8 570.3,525.8 585.0,525.8 585.0,523.9 599.6,523.9 599.6,523.2 614.3,523.2 614.3,531.5 628.9,531.5 628.9,543.1 643.6,543.1 643.6,528.1 658.2,528.1 658.2,524.0 672.9,524.0 672.9,530.6 687.5,530.6 687.5,523.8 702.2,523.8 702.2,517.1 716.8,517.1 716.8,521.7 731.4,521.7 731.4,530.8 746.1,530.8 746.1,525.6 760.7,525.6 760.7,525.4 775.4,525.4 775.4,524.4 790.0,524.4 790.0,529.7 804.7,529.7 804.7,525.7 819.3,525.7 819.3,522.6 834.0,522.6 834.0,514.5 848.6,514.5 848.6,521.5 863.3,521.5 863.3,515.4 877.9,515.4" stroke="#000" stroke-width="0.90" stroke-opacity="1.00" fill="none" clip-path="url(#axis_clip)"/>
  </symbol>
  <symbol id="line_13" viewBox="0 0 1200.000 674.916">
<polyline class="pl" points="145.6,512.1 160.2,512.1 160.2,511.7 174.9,511.7 174.9,506.9 189.5,506.9 189.5,511.3 204.2,511.3 204.2,522.1 218.8,522.1 218.8,516.5 233.5,516.5 233.5,515.9 248.1,515.9 248.1,513.2 262.8,513.2 262.8,521.2 277.4,521.2 277.4,518.8 292.1,518.8 292.1,519.0 306.7,519.0 306.7,516.2 321.4,516.2 321.4,528.4 336.0,528.4 336.0,528.8 350.6,528.8 350.6,530.6 365.3,530.6 365.3,532.5 379.9,532.5 379.9,536.4 394.6,536.4 394.6,535.8 409.2,535.8 409.2,534.9 423.9,534.9 423.9,533.6 438.5,533.6 438.5,538.6 453.2,538.6 453.2,535.2 467.8,535.2 467.8,533.0 482.5,533.0 482.5,530.4 497.1,530.4 497.1,533.3 511.8,533.3 511.8,527.9 526.4,527.9 526.4,526.3 541.0,526.3 541.0,525.4 555.7,525.4 555.7,530.8 570.3,530.8 570.3,525.8 585.0,525.8 585.0,523.9 599.6,523.9 599.6,523.2 614.3,523.2 614.3,531.5 628.9,531.5 628.9,543.1 643.6,543.1 643.6,528.1 658.2,528.1 658.2,524.0 672.9,524.0 672.9,530.6 687.5,530.6 687.5,523.8 702.2,523.8 702.2,517.1 716.8,517.1 716.8,521.7 731.4,521.7 731.4,530.8 746.1,530.8 746.1,525.6 760.7,525.6 760.7,525.4 775.4,525.4 775.4,524.4 790.0,524.4 790.0,531.8 804.7,531.8 804.7,528.2 819.3,528.2 819.3,526.4 834.0,526.4 834.0,519.8 848.6,519.8 848.6,525.8 863.3,525.8 863.3,520.5 877.9,520.5" stroke="#000" stroke-width="0.90" stroke-opacity="1.00" fill="none" clip-path="url(#axis_clip)"/>
  </symbol>
  <symbol id="line_14" viewBox="0 0 1200.000 674.916">
<polyline class="pl" points="145.6,512.1 160.2,512.1 160.2,511.7 174.9,511.7 174.9,506.9 189.5,506.9 189.5,511.3 204.2,511.3 204.2,522.1 218.8,522.1 218.8,516.5 233.5,516.5 233.5,515.9 248.1,515.9 248.1,513.2 262.8,513.2 262.8,521.2 277.4,521.2 277.4,518.8 292.1,518.8 292.1,519.0 306.7,519.0 306.7,516.2 321.4,516.2 321.4,528.4 336.0,528.4 336.0,528.8 350.6,528.8 350.6,530.6 365.3,530.6 365.3,532.5 379.9,532.5 379.9,536.4 394.6,536.4 394.6,535.8 409.2,535.8 409.2,534.9 423.9,534.9 423.9,533.6 438.5,533.6 438.5,538.6 453.2,538.6 453.2,535.2 467.8,535.2 467.8,533.0 482.5,533.0 482.5,530.4 497.1,530.4 497.1,533.3 511.8,533.3 511.8,527.9 526.4,527.9 526.4,526.3 541.0,526.3 541.0,525.4 555.7,525.4 555.7,530.8 570.3,530.8 570.3,525.8 585.0,525.8 585.0,523.9 599.6,523.9 599.6,523.2 614.3,523.2 614.3,531.5 628.9,531.5 628.9,543.1 643.6,543.1 643.6,528.1 658.2,528.1 658.2,524.0 672.9,524.0 672.9,532.4 687.5,532.4 687.5,527.5 702.2,527.5 702.2,521.2 716.8,521.2 716.8,525.6 731.4,525.6 731.4,534.4 746.1,534.4 746.1,529.2 760.7,529.2 760.7,530.0 775.4,530.0 775.4,529.8 790.0,529.8 790.0,535.1 804.7,535.1 804.7,532.3 819.3,532.3 819.3,531.6 834.0,531.6 834.0,525.0 848.6,525.0 848.6,530.8 863.3,530.8 863.3,526.4 877.9,526.4" stroke="#000" stroke-width="0.90" stroke-opacity="1.00" fill="none" clip-path="url(#axis_clip)"/>
  </symbol>
  <symbol id="line_15" viewBox="0 0 1200.000 674.916">
<polyline class="pl" points="145.6,542.6 160.2,542.6 160.2,542.1 174.9,542.1 174.9,537.1 189.5,537.1 189.5,535.7 204.2,535.7 204.2,539.6 218.8,539.6 218.8,536.4 233.5,536.4 233.5,535.9 248.1,535.9 248.1,535.5 262.8,535.5 262.8,540.3 277.4,540.3 277.4,538.1 292.1,538.1 292.1,538.2 306.7,538.2 306.7,536.6 321.4,536.6 321.4,543.5 336.0,543.5 336.0,544.0 350.6,544.0 350.6,544.8 365.3,544.8 365.3,545.4 379.9,545.4 379.9,545.8 394.6,545.8 394.6,543.6 409.2,543.6 409.2,543.3 423.9,543.3 423.9,542.2 438.5,542.2 438.5,544.9 453.2,544.9 453.2,542.3 467.8,542.3 467.8,540.7 482.5,540.7 482.5,538.3 497.1,538.3 497.1,541.0 511.8,541.0 511.8,537.1 526.4,537.1 526.4,534.9 541.0,534.9 541.0,534.3 555.7,534.3 555.7,538.2 570.3,538.2 570.3,533.6 585.0,533.6 585.0,531.9 599.6,531.9 599.6,531.1 614.3,531.1 614.3,537.4 628.9,537.4 628.9,546.9 643.6,546.9 643.6,535.8 658.2,535.8 658.2,531.5 672.9,531.5 672.9,537.2 687.5,537.2 687.5,533.8 702.2,533.8 702.2,527.5 716.8,527.5 716.8,530.8 731.4,530.8 731.4,539.2 746.1,539.2 746.1,534.8 760.7,534.8 760.7,535.3 775.4,535.3 775.4,534.7 790.0,534.7 790.0,539.7 804.7,539.7 804.7,538.1 819.3,538.1 819.3,537.8 834.0,537.8 834.0,534.0 848.6,534.0 848.6,539.9 863.3,539.9 863.3,536.4 877.9,536.4" stroke="#000" stroke-width="0.90" stroke-opacity="1.00" fill="none" clip-path="url(#axis_clip)"/>
  </symbol>
  <symbol id="line_16" viewBox="0 0 1200.000 674.916">
<polyline class="pl" points="145.6,512.1 160.2,512.1 160.2,511.7 174.9,511.7 174.9,506.9 189.5,506.9 189.5,511.3 204.2,511.3 204.2,522.1 218.8,522.1 218.8,516.5 233.5,516.5 233.5,515.9 248.1,515.9 248.1,513.2 262.8,513.2 262.8,521.2 277.4,521.2 277.4,518.8 292.1,518.8 292.1,519.0 306.7,519.0 306.7,516.2 321.4,516.2 321.4,528.4 336.0,528.4 336.0,528.8 350.6,528.8 350.6,530.6 365.3,530.6 365.3,532.5 379.9,532.5 379.9,536.4 394.6,536.4 394.6,535.8 409.2,535.8 409.2,534.9 423.9,534.9 423.9,533.6 438.5,533.6 438.5,538.6 453.2,538.6 453.2,535.2 467.8,535.2 467.8,533.0 482.5,533.0 482.5,530.4 497.1,530.4 497.1,533.3 511.8,533.3 511.8,527.9 526.4,527.9 526.4,526.3 541.0,526.3 541.0,525.4 555.7,525.4 555.7,530.8 570.3,530.8 570.3,525.8 585.0,525.8 585.0,523.9 599.6,523.9 599.6,523.2 614.3,523.2 614.3,531.5 628.9,531.5 628.9,543.1 643.6,543.1 643.6,528.1 658.2,528.1 658.2,524.0 672.9,524.0 672.9,530.6 687.5,530.6 687.5,523.8 702.2,523.8 702.2,517.1 716.8,517.1 716.8,521.7 731.4,521.7 731.4,530.8 746.1,530.8 746.1,525.6 760.7,525.6 760.7,525.4 775.4,525.4 775.4,524.4 790.0,524.4 790.0,531.8 804.7,531.8 804.7,528.2 819.3,528.2 819.3,526.4 834.0,526.4 834.0,519.8 848.6,519.8 848.6,525.8 863.3,525.8 863.3,520.5 877.9,520.5" stroke="#000" stroke-width="0.90" stroke-opacity="1.00" fill="none" clip-path="url(#axis_clip)"/>
  </symbol>
  <symbol id="line_17" viewBox="0 0 1200.000 674.916">
<polyline class="pl" points="145.6,512.1 160.2,512.1 160.2,511.7 174.9,511.7 174.9,506.9 189.5,506.9 189.5,511.3 204.2,511.3 204.2,522.1 218.8,522.1 218.8,516.5 233.5,516.5 233.5,515.9 248.1,515.9 248.1,513.2 262.8,513.2 262.8,521.2 277.4,521.2 277.4,518.8 292.1,518.8 292.1,519.0 306.7,519.0 306.7,516.2 321.4,516.2 321.4,528.4 336.0,528.4 336.0,528.8 350.6,528.8 350.6,530.6 365.3,530.6 365.3,532.5 379.9,532.5 379.9,536.4 394.6,536.4 394.6,535.8 409.2,535.8 409.2,534.9 423.9,534.9 423.9,533.6 438.5,533.6 438.5,538.6 453.2,538.6 453.2,535.2 467.8,535.2 467.8,533.0 482.5,533.0 482.5,530.4 497.1,530.4 497.1,533.3 511.8,533.3 511.8,527.9 526.4,527.9 526.4,526.3 541.0,526.3 541.0,525.4 555.7,525.4 555.7,530.8 570.3,530.8 570.3,525.8 585.0,525.8 585.0,523.9 599.6,523.9 599.6,523.2 614.3,523.2 614.3,531.5 628.9,531.5 628.9,543.1 643.6,543.1 643.6,528.1 658.2,528.1 658.2,524.0 672.9,524.0 672.9,532.4 687.5,532.4 687.5,527.5 702.2,527.5 702.2,521.2 716.8,521.2 716.8,525.6 731.4,525.6 731.4,534.4 746.1,534.4 746.1,529.2 760.7,529.2 760.7,530.0 775.4,530.0 775.4,529.8 790.0,529.8 790.0,535.1 804.7,535.1 804.7,532.3 819.3,532.3 819.3,531.6 834.0,531.6 834.0,525.0 848.6,525.0 848.6,530.8 863.3,530.8 863.3,526.4 877.9,526.4" stroke="#000" stroke-width="0.90" stroke-opacity="1.00" fill="none" clip-path="url(#axis_clip)"/>
  </symbol>
  <symbol id="line_18" viewBox="0 0 1200.000 674.916">
<polyline class="pl" points="145.6,542.6 160.2,542.6 160.2,542.1 174.9,542.1 174.9,537.1 189.5,537.1 189.5,535.7 204.2,535.7 204.2,539.6 218.8,539.6 218.8,536.4 233.5,536.4 233.5,535.9 248.1,535.9 248.1,535.5 262.8,535.5 262.8,540.3 277.4,540.3 277.4,538.1 292.1,538.1 292.1,538.2 306.7,538.2 306.7,536.6 321.4,536.6 321.4,543.5 336.0,543.5 336.0,544.0 350.6,544.0 350.6,544.8 365.3,544.8 365.3,545.4 379.9,545.4 379.9,545.8 394.6,545.8 394.6,543.6 409.2,543.6 409.2,543.3 423.9,543.3 423.9,542.2 438.5,542.2 438.5,544.9 453.2,544.9 453.2,542.3 467.8,542.3 467.8,540.7 482.5,540.7 482.5,538.3 497.1,538.3 497.1,541.0 511.8,541.0 511.8,537.1 526.4,537.1 526.4,534.9 541.0,534.9 541.0,534.3 555.7,534.3 555.7,538.2 570.3,538.2 570.3,533.6 585.0,533.6 585.0,531.9 599.6,531.9 599.6,531.1 614.3,531.1 614.3,537.4 628.9,537.4 628.9,546.9 643.6,546.9 643.6,535.8 658.2,535.8 658.2,531.5 672.9,531.5 672.9,537.2 687.5,537.2 687.5,533.8 702.2,533.8 702.2,527.5 716.8,527.5 716.8,530.8 731.4,530.8 731.4,539.2 746.1,539.2 746.1,534.8 760.7,534.8 760.7,535.3 775.4,535.3 775.4,534.7 790.0,534.7 790.0,539.7 804.7,539.7 804.7,538.1 819.3,538.1 819.3,537.8 834.0,537.8 834.0,534.0 848.6,534.0 848.6,539.9 863.3,539.9 863.3,536.4 877.9,536.4" stroke="#000" stroke-width="0.90" stroke-opacity="1.00" fill="none" clip-path="url(#axis_clip)"/>
  </symbol>
  <symbol id="line_19" viewBox="0 0 1200.000 674.916">
<polyline class="pl" points="145.6,512.1 160.2,512.1 160.2,511.7 174.9,511.7 174.9,506.9 189.5,506.9 189.5,511.3 204.2,511.3 204.2,522.1 218.8,522.1 218.8,516.5 233.5,516.5 233.5,515.9 248.1,515.9 248.1,513.2 262.8,513.2 262.8,521.2 277.4,521.2 277.4,518.8 292.1,518.8 292.1,519.0 306.7,519.0 306.7,516.2 321.4,516.2 321.4,528.4 336.0,528.4 336.0,528.8 350.6,528.8 350.6,530.6 365.3,530.6 365.3,532.5 379.9,532.5 379.9,536.4 394.6,536.4 394.6,535.8 409.2,535.8 409.2,534.9 423.9,534.9 423.9,533.6 438.5,533.6 438.5,538.6 453.2,538.6 453.2,535.2 467.8,535.2 467.8,533.0 482.5,533.0 482.5,530.4 497.1,530.4 497.1,533.3 511.8,533.3 511.8,527.9 526.4,527.9 526.4,526.3 541.0,526.3 541.0,525.4 555.7,525.4 555.7,530.8 570.3,530.8 570.3,525.8 585.0,525.8 585.0,523.9 599.6,523.9 599.6,523.2 614.3,523.2 614.3,531.5 628.9,531.5 628.9,543.1 643.6,543.1 643.6,528.1 658.2,528.1 658.2,524.0 672.9,524.0 672.9,532.4 687.5,532.4 687.5,527.5 702.2,527.5 702.2,521.2 716.8,521.2 716.8,525.6 731.4,525.6 731.4,534.4 746.1,534.4 746.1,529.2 760.7,529.2 760.7,530.0 775.4,530.0 775.4,529.8 790.0,529.8 790.0,535.1 804.7,535.1 804.7,532.3 819.3,532.3 819.3,531.6 834.0,531.6 834.0,525.0 848.6,525.0 848.6,530.8 863.3,530.8 863.3,526.4 877.9,526.4" stroke="#000" stroke-width="0.90" stroke-opacity="1.00" fill="none" clip-path="url(#axis_clip)"/>
  </symbol>
  <symbol id="line_20" viewBox="0 0 1200.000 674.916">
<polyline class="pl" points="145.6,542.6 160.2,542.6 160.2,542.1 174.9,542.1 174.9,537.1 189.5,537.1 189.5,535.7 204.2,535.7 204.2,539.6 218.8,539.6 218.8,536.4 233.5,536.4 233.5,535.9 248.1,535.9 248.1,535.5 262.8,535.5 262.8,540.3 277.4,540.3 277.4,538.1 292.1,538.1 292.1,538.2 306.7,538.2 306.7,536.6 321.4,536.6 321.4,543.5 336.0,543.5 336.0,544.0 350.6,544.0 350.6,544.8 365.3,544.8 365.3,545.4 379.9,545.4 379.9,545.8 394.6,545.8 394.6,543.6 409.2,543.6 409.2,543.3 423.9,543.3 423.9,542.2 438.5,542.2 438.5,544.9 453.2,544.9 453.2,542.3 467.8,542.3 467.8,540.7 482.5,540.7 482.5,538.3 497.1,538.3 497.1,541.0 511.8,541.0 511.8,537.1 526.4,537.1 526.4,534.9 541.0,534.9 541.0,534.3 555.7,534.3 555.7,538.2 570.3,538.2 570.3,533.6 585.0,533.6 585.0,531.9 599.6,531.9 599.6,531.1 614.3,531.1 614.3,537.4 628.9,537.4 628.9,546.9 643.6,546.9 643.6,535.8 658.2,535.8 658.2,531.5 672.9,531.5 672.9,537.2 687.5,537.2 687.5,533.8 702.2,533.8 702.2,527.5 716.8,527.5 716.8,530.8 731.4,530.8 731.4,539.2 746.1,539.2 746.1,534.8 760.7,534.8 760.7,535.3 775.4,535.3 775.4,534.7 790.0,534.7 790.0,539.7 804.7,539.7 804.7,538.1 819.3,538.1 819.3,537.8 834.0,537.8 834.0,534.0 848.6,534.0 848.6,539.9 863.3,539.9 863.3,536.4 877.9,536.4" stroke="#000" stroke-width="0.90" stroke-opacity="1.00" fill="none" clip-path="url(#axis_clip)"/>
  </symbol>
  <symbol id="line_21" viewBox="0 0 1200.000 674.916">
<polyline class="pl" points="145.6,542.6 160.2,542.6 160.2,542.1 174.9,542.1 174.9,537.1 189.5,537.1 189.5,535.7 204.2,535.7 204.2,539.6 218.8,539.6 218.8,536.4 233.5,536.4 233.5,535.9 248.1,535.9 248.1,535.5 262.8,535.5 262.8,540.3 277.4,540.3 277.4,538.1 292.1,538.1 292.1,538.2 306.7,538.2 306.7,536.6 321.4,536.6 321.4,543.5 336.0,543.5 336.0,544.0 350.6,544.0 350.6,544.8 365.3,544.8 365.3,545.4 379.9,545.4 379.9,545.8 394.6,545.8 394.6,543.6 409.2,543.6 409.2,543.3 423.9,543.3 423.9,542.2 438.5,542.2 438.5,544.9 453.2,544.9 453.2,542.3 467.8,542.3 467.8,540.7 482.5,540.7 482.5,538.3 497.1,538.3 497.1,541.0 511.8,541.0 511.8,537.1 526.4,537.1 526.4,534.9 541.0,534.9 541.0,534.3 555.7,534.3 555.7,538.2 570.3,538.2 570.3,533.6 585.0,533.6 585.0,531.9 599.6,531.9 599.6,531.1 614.3,531.1 614.3,537.4 628.9,537.4 628.9,546.9 643.6,546.9 643.6,535.8 658.2,535.8 658.2,531.5 672.9,531.5 672.9,537.2 687.5,537.2 687.5,533.8 702.2,533.8 702.2,527.5 716.8,527.5 716.8,530.8 731.4,530.8 731.4,539.2 746.1,539.2 746.1,534.8 760.7,534.8 760.7,535.3 775.4,535.3 775.4,534.7 790.0,534.7 790.0,539.7 804.7,539.7 804.7,538.1 819.3,538.1 819.3,537.8 834.0,537.8 834.0,534.0 848.6,534.0 848.6,539.9 863.3,539.9 863.3,536.4 877.9,536.4" stroke="#000" stroke-width="0.90" stroke-opacity="1.00" fill="none" clip-path="url(#axis_clip)"/>
  </symbol>
</defs>
<g id="main">
<text class="ticklabel ytl" transform="translate(128.8,568.3)">0</text>
<text class="ticklabel ytl" transform="translate(128.8,483.9)">0.20</text>
<text class="ticklabel ytl" transform="translate(128.8,399.6)">0.40</text>
<text class="ticklabel ytl" transform="translate(128.8,315.2)">0.60</text>
<text class="ticklabel ytl" transform="translate(128.8,230.8)">0.80</text>
<text class="ticklabel ytl" transform="translate(128.8,146.5)">1.00</text>
<text class="ticklabel ytl" transform="translate(128.8,62.1)">1.20</text>
<g id="areas">
  <g class="pg_6">
    <polygon class="pl" points="145.6,234.4 160.2,234.4 160.2,197.6 174.9,197.6 174.9,123.9 189.5,123.9 189.5,151.9 204.2,151.9 204.2,227.6 218.8,227.6 218.8,171.7 233.5,171.7 233.5,167.2 248.1,167.2 248.1,164.2 262.8,164.2 262.8,233.1 277.4,233.1 277.4,218.7 292.1,218.7 292.1,213.2 306.7,213.2 306.7,169.6 321.4,169.6 321.4,286.1 336.0,286.1 336.0,297.8 350.6,297.8 350.6,301.7 365.3,301.7 365.3,308.8 379.9,308.8 379.9,363.8 394.6,363.8 394.6,354.8 409.2,354.8 409.2,345.7 423.9,345.7 423.9,337.5 438.5,337.5 438.5,365.9 453.2,365.9 453.2,335.6 467.8,335.6 467.8,314.3 482.5,314.3 482.5,307.1 497.1,307.1 497.1,337.4 511.8,337.4 511.8,306.7 526.4,306.7 526.4,284.4 541.0,284.4 541.0,268.1 555.7,268.1 555.7,314.9 570.3,314.9 570.3,277.4 585.0,277.4 585.0,269.8 599.6,269.8 599.6,254.2 614.3,254.2 614.3,334.8 628.9,334.8 628.9,462.8 643.6,462.8 643.6,333.9 658.2,333.9 658.2,284.7 672.9,284.7 672.9,349.9 687.5,349.9 687.5,345.3 702.2,345.3 702.2,364.7 716.8,364.7 716.8,346.8 731.4,346.8 731.4,401.8 746.1,401.8 746.1,358.7 760.7,358.7 760.7,330.5 775.4,330.5 775.4,322.7 790.0,322.7 790.0,375.9 804.7,375.9 804.7,350.2 819.3,350.2 819.3,307.0 834.0,307.0 834.0,287.9 848.6,287.9 848.6,356.0 863.3,356.0 863.3,309.5 877.9,309.5 877.9,508.2 863.3,508.2 863.3,515.5 848.6,515.5 848.6,509.7 834.0,509.7 834.0,520.9 819.3,520.9 819.3,525.0 804.7,525.0 804.7,528.9 790.0,528.9 790.0,523.5 775.4,523.5 775.4,524.2 760.7,524.2 760.7,524.7 746.1,524.7 746.1,530.3 731.4,530.3 731.4,521.0 716.8,521.0 716.8,516.8 702.2,516.8 702.2,523.6 687.5,523.6 687.5,530.4 672.9,530.4 672.9,521.3 658.2,521.3 658.2,525.7 643.6,525.7 643.6,542.1 628.9,542.1 628.9,529.3 614.3,529.3 614.3,520.5 599.6,520.5 599.6,522.6 585.0,522.6 585.0,525.2 570.3,525.2 570.3,530.3 555.7,530.3 555.7,524.8 541.0,524.8 541.0,525.9 526.4,525.9 526.4,527.4 511.8,527.4 511.8,533.0 497.1,533.0 497.1,530.0 482.5,530.0 482.5,532.4 467.8,532.4 467.8,535.0 453.2,535.0 453.2,538.3 438.5,538.3 438.5,533.4 423.9,533.4 423.9,534.9 409.2,534.9 409.2,535.7 394.6,535.7 394.6,536.4 379.9,536.4 379.9,532.4 365.3,532.4 365.3,530.5 350.6,530.5 350.6,528.7 336.0,528.7 336.0,528.3 321.4,528.3 321.4,516.1 306.7,516.1 306.7,518.9 292.1,518.9 292.1,518.8 277.4,518.8 277.4,521.2 262.8,521.2 262.8,513.1 248.1,513.1 248.1,515.8 233.5,515.8 233.5,516.5 218.8,516.5 218.8,522.0 204.2,522.0 204.2,511.3 189.5,511.3 189.5,506.9 174.9,506.9 174.9,511.6 160.2,511.6 160.2,512.1 145.6,512.1" stroke="none" stroke-width="0.9000"  fill="#85578F" clip-path="url(#axis_clip)"/>
    <text class="pl" transform="translate(937.2,408.8)" dy="7.6" font-size="25.20" fill="#85578F" stroke="none">Ethanol/Petrol</text>
  </g>
  <g class="pg_5">
    <polygon class="pl" points="145.6,512.1 160.2,512.1 160.2,511.6 174.9,511.6 174.9,506.9 189.5,506.9 189.5,511.3 204.2,511.3 204.2,522.0 218.8,522.0 218.8,516.5 233.5,516.5 233.5,515.8 248.1,515.8 248.1,513.1 262.8,513.1 262.8,521.2 277.4,521.2 277.4,518.8 292.1,518.8 292.1,518.9 306.7,518.9 306.7,516.1 321.4,516.1 321.4,528.3 336.0,528.3 336.0,528.7 350.6,528.7 350.6,530.5 365.3,530.5 365.3,532.4 379.9,532.4 379.9,536.4 394.6,536.4 394.6,535.7 409.2,535.7 409.2,534.9 423.9,534.9 423.9,533.4 438.5,533.4 438.5,538.3 453.2,538.3 453.2,535.0 467.8,535.0 467.8,532.4 482.5,532.4 482.5,530.0 497.1,530.0 497.1,533.0 511.8,533.0 511.8,527.4 526.4,527.4 526.4,525.9 541.0,525.9 541.0,524.8 555.7,524.8 555.7,530.3 570.3,530.3 570.3,525.2 585.0,525.2 585.0,522.6 599.6,522.6 599.6,520.5 614.3,520.5 614.3,529.3 628.9,529.3 628.9,542.1 643.6,542.1 643.6,525.7 658.2,525.7 658.2,521.3 672.9,521.3 672.9,530.4 687.5,530.4 687.5,523.6 702.2,523.6 702.2,516.8 716.8,516.8 716.8,521.0 731.4,521.0 731.4,530.3 746.1,530.3 746.1,524.7 760.7,524.7 760.7,524.2 775.4,524.2 775.4,523.5 790.0,523.5 790.0,528.9 804.7,528.9 804.7,525.0 819.3,525.0 819.3,520.9 834.0,520.9 834.0,509.7 848.6,509.7 848.6,515.5 863.3,515.5 863.3,508.2 877.9,508.2 877.9,515.4 863.3,515.4 863.3,521.5 848.6,521.5 848.6,514.5 834.0,514.5 834.0,522.6 819.3,522.6 819.3,525.7 804.7,525.7 804.7,529.7 790.0,529.7 790.0,524.4 775.4,524.4 775.4,525.4 760.7,525.4 760.7,525.6 746.1,525.6 746.1,530.8 731.4,530.8 731.4,521.7 716.8,521.7 716.8,517.1 702.2,517.1 702.2,523.8 687.5,523.8 687.5,530.6 672.9,530.6 672.9,524.0 658.2,524.0 658.2,528.1 643.6,528.1 643.6,543.1 628.9,543.1 628.9,531.5 614.3,531.5 614.3,523.2 599.6,523.2 599.6,523.9 585.0,523.9 585.0,525.8 570.3,525.8 570.3,530.8 555.7,530.8 555.7,525.4 541.0,525.4 541.0,526.3 526.4,526.3 526.4,527.9 511.8,527.9 511.8,533.3 497.1,533.3 497.1,530.4 482.5,530.4 482.5,533.0 467.8,533.0 467.8,535.2 453.2,535.2 453.2,538.6 438.5,538.6 438.5,533.6 423.9,533.6 423.9,534.9 409.2,534.9 409.2,535.8 394.6,535.8 394.6,536.4 379.9,536.4 379.9,532.5 365.3,532.5 365.3,530.6 350.6,530.6 350.6,528.8 336.0,528.8 336.0,528.4 321.4,528.4 321.4,516.2 306.7,516.2 306.7,519.0 292.1,519.0 292.1,518.8 277.4,518.8 277.4,521.2 262.8,521.2 262.8,513.2 248.1,513.2 248.1,515.9 233.5,515.9 233.5,516.5 218.8,516.5 218.8,522.1 204.2,522.1 204.2,511.3 189.5,511.3 189.5,506.9 174.9,506.9 174.9,511.7 160.2,511.7 160.2,512.1 145.6,512.1" stroke="none" stroke-width="0.9000"  fill="#6298C6" clip-path="url(#axis_clip)"/>
    <text class="pl" transform="translate(937.2,462.2)" dy="7.6" font-size="25.20" fill="#6298C6" stroke="none">Battery electric</text>
<polyline class="pl" points="910.8,511.8 911.9,511.6 913.0,511.1 914.0,510.3 914.9,509.2 915.8,507.8 916.6,506.3 917.4,504.5 918.1,502.5 918.8,500.4 919.5,498.1 920.1,495.8 920.7,493.3 921.3,490.8 921.9,488.3 922.5,485.7 923.1,483.1 923.7,480.6 924.3,478.2 924.9,475.8 925.6,473.5 926.3,471.4 927.0,469.5 927.8,467.7 928.6,466.1 929.5,464.8 930.4,463.7 931.4,462.9 932.5,462.4 933.6,462.2" stroke="#6298C6" stroke-width="0.90" stroke-opacity="1.00" fill="none" />
  </g>
  <g class="pg_4">
    <polygon class="pl" points="145.6,512.1 160.2,512.1 160.2,511.7 174.9,511.7 174.9,506.9 189.5,506.9 189.5,511.3 204.2,511.3 204.2,522.1 218.8,522.1 218.8,516.5 233.5,516.5 233.5,515.9 248.1,515.9 248.1,513.2 262.8,513.2 262.8,521.2 277.4,521.2 277.4,518.8 292.1,518.8 292.1,519.0 306.7,519.0 306.7,516.2 321.4,516.2 321.4,528.4 336.0,528.4 336.0,528.8 350.6,528.8 350.6,530.6 365.3,530.6 365.3,532.5 379.9,532.5 379.9,536.4 394.6,536.4 394.6,535.8 409.2,535.8 409.2,534.9 423.9,534.9 423.9,533.6 438.5,533.6 438.5,538.6 453.2,538.6 453.2,535.2 467.8,535.2 467.8,533.0 482.5,533.0 482.5,530.4 497.1,530.4 497.1,533.3 511.8,533.3 511.8,527.9 526.4,527.9 526.4,526.3 541.0,526.3 541.0,525.4 555.7,525.4 555.7,530.8 570.3,530.8 570.3,525.8 585.0,525.8 585.0,523.9 599.6,523.9 599.6,523.2 614.3,523.2 614.3,531.5 628.9,531.5 628.9,543.1 643.6,543.1 643.6,528.1 658.2,528.1 658.2,524.0 672.9,524.0 672.9,530.6 687.5,530.6 687.5,523.8 702.2,523.8 702.2,517.1 716.8,517.1 716.8,521.7 731.4,521.7 731.4,530.8 746.1,530.8 746.1,525.6 760.7,525.6 760.7,525.4 775.4,525.4 775.4,524.4 790.0,524.4 790.0,529.7 804.7,529.7 804.7,525.7 819.3,525.7 819.3,522.6 834.0,522.6 834.0,514.5 848.6,514.5 848.6,521.5 863.3,521.5 863.3,515.4 877.9,515.4 877.9,520.5 863.3,520.5 863.3,525.8 848.6,525.8 848.6,519.8 834.0,519.8 834.0,526.4 819.3,526.4 819.3,528.2 804.7,528.2 804.7,531.8 790.0,531.8 790.0,524.4 775.4,524.4 775.4,525.4 760.7,525.4 760.7,525.6 746.1,525.6 746.1,530.8 731.4,530.8 731.4,521.7 716.8,521.7 716.8,517.1 702.2,517.1 702.2,523.8 687.5,523.8 687.5,530.6 672.9,530.6 672.9,524.0 658.2,524.0 658.2,528.1 643.6,528.1 643.6,543.1 628.9,543.1 628.9,531.5 614.3,531.5 614.3,523.2 599.6,523.2 599.6,523.9 585.0,523.9 585.0,525.8 570.3,525.8 570.3,530.8 555.7,530.8 555.7,525.4 541.0,525.4 541.0,526.3 526.4,526.3 526.4,527.9 511.8,527.9 511.8,533.3 497.1,533.3 497.1,530.4 482.5,530.4 482.5,533.0 467.8,533.0 467.8,535.2 453.2,535.2 453.2,538.6 438.5,538.6 438.5,533.6 423.9,533.6 423.9,534.9 409.2,534.9 409.2,535.8 394.6,535.8 394.6,536.4 379.9,536.4 379.9,532.5 365.3,532.5 365.3,530.6 350.6,530.6 350.6,528.8 336.0,528.8 336.0,528.4 321.4,528.4 321.4,516.2 306.7,516.2 306.7,519.0 292.1,519.0 292.1,518.8 277.4,518.8 277.4,521.2 262.8,521.2 262.8,513.2 248.1,513.2 248.1,515.9 233.5,515.9 233.5,516.5 218.8,516.5 218.8,522.1 204.2,522.1 204.2,511.3 189.5,511.3 189.5,506.9 174.9,506.9 174.9,511.7 160.2,511.7 160.2,512.1 145.6,512.1" stroke="none" stroke-width="0.9000"  fill="#77AC30" clip-path="url(#axis_clip)"/>
    <text class="pl" transform="translate(937.2,486.7)" dy="7.6" font-size="25.20" fill="#77AC30" stroke="none">Plugin hybrid</text>
<polyline class="pl" points="910.8,517.9 911.9,517.8 913.0,517.5 914.0,517.0 914.9,516.3 915.8,515.4 916.6,514.5 917.4,513.3 918.1,512.1 918.8,510.8 919.5,509.3 920.1,507.8 920.7,506.3 921.3,504.7 921.9,503.1 922.5,501.5 923.1,499.9 923.7,498.3 924.3,496.8 924.9,495.3 925.6,493.8 926.3,492.5 927.0,491.3 927.8,490.1 928.6,489.1 929.5,488.3 930.4,487.6 931.4,487.1 932.5,486.8 933.6,486.7" stroke="#77AC30" stroke-width="0.90" stroke-opacity="1.00" fill="none" />
  </g>
  <g class="pg_3">
    <polygon class="pl" points="145.6,512.1 160.2,512.1 160.2,511.7 174.9,511.7 174.9,506.9 189.5,506.9 189.5,511.3 204.2,511.3 204.2,522.1 218.8,522.1 218.8,516.5 233.5,516.5 233.5,515.9 248.1,515.9 248.1,513.2 262.8,513.2 262.8,521.2 277.4,521.2 277.4,518.8 292.1,518.8 292.1,519.0 306.7,519.0 306.7,516.2 321.4,516.2 321.4,528.4 336.0,528.4 336.0,528.8 350.6,528.8 350.6,530.6 365.3,530.6 365.3,532.5 379.9,532.5 379.9,536.4 394.6,536.4 394.6,535.8 409.2,535.8 409.2,534.9 423.9,534.9 423.9,533.6 438.5,533.6 438.5,538.6 453.2,538.6 453.2,535.2 467.8,535.2 467.8,533.0 482.5,533.0 482.5,530.4 497.1,530.4 497.1,533.3 511.8,533.3 511.8,527.9 526.4,527.9 526.4,526.3 541.0,526.3 541.0,525.4 555.7,525.4 555.7,530.8 570.3,530.8 570.3,525.8 585.0,525.8 585.0,523.9 599.6,523.9 599.6,523.2 614.3,523.2 614.3,531.5 628.9,531.5 628.9,543.1 643.6,543.1 643.6,528.1 658.2,528.1 658.2,524.0 672.9,524.0 672.9,530.6 687.5,530.6 687.5,523.8 702.2,523.8 702.2,517.1 716.8,517.1 716.8,521.7 731.4,521.7 731.4,530.8 746.1,530.8 746.1,525.6 760.7,525.6 760.7,525.4 775.4,525.4 775.4,524.4 790.0,524.4 790.0,531.8 804.7,531.8 804.7,528.2 819.3,528.2 819.3,526.4 834.0,526.4 834.0,519.8 848.6,519.8 848.6,525.8 863.3,525.8 863.3,520.5 877.9,520.5 877.9,526.4 863.3,526.4 863.3,530.8 848.6,530.8 848.6,525.0 834.0,525.0 834.0,531.6 819.3,531.6 819.3,532.3 804.7,532.3 804.7,535.1 790.0,535.1 790.0,529.8 775.4,529.8 775.4,530.0 760.7,530.0 760.7,529.2 746.1,529.2 746.1,534.4 731.4,534.4 731.4,525.6 716.8,525.6 716.8,521.2 702.2,521.2 702.2,527.5 687.5,527.5 687.5,532.4 672.9,532.4 672.9,524.0 658.2,524.0 658.2,528.1 643.6,528.1 643.6,543.1 628.9,543.1 628.9,531.5 614.3,531.5 614.3,523.2 599.6,523.2 599.6,523.9 585.0,523.9 585.0,525.8 570.3,525.8 570.3,530.8 555.7,530.8 555.7,525.4 541.0,525.4 541.0,526.3 526.4,526.3 526.4,527.9 511.8,527.9 511.8,533.3 497.1,533.3 497.1,530.4 482.5,530.4 482.5,533.0 467.8,533.0 467.8,535.2 453.2,535.2 453.2,538.6 438.5,538.6 438.5,533.6 423.9,533.6 423.9,534.9 409.2,534.9 409.2,535.8 394.6,535.8 394.6,536.4 379.9,536.4 379.9,532.5 365.3,532.5 365.3,530.6 350.6,530.6 350.6,528.8 336.0,528.8 336.0,528.4 321.4,528.4 321.4,516.2 306.7,516.2 306.7,519.0 292.1,519.0 292.1,518.8 277.4,518.8 277.4,521.2 262.8,521.2 262.8,513.2 248.1,513.2 248.1,515.9 233.5,515.9 233.5,516.5 218.8,516.5 218.8,522.1 204.2,522.1 204.2,511.3 189.5,511.3 189.5,506.9 174.9,506.9 174.9,511.7 160.2,511.7 160.2,512.1 145.6,512.1" stroke="none" stroke-width="0.9000"  fill="#91AC6E" clip-path="url(#axis_clip)"/>
    <text class="pl" transform="translate(937.2,511.2)" dy="7.6" font-size="25.20" fill="#91AC6E" stroke="none">Non-plugin hybrid</text>
<polyline class="pl" points="910.8,523.4 911.9,523.4 913.0,523.3 914.0,523.1 914.9,522.8 915.8,522.5 916.6,522.1 917.4,521.6 918.1,521.1 918.8,520.6 919.5,520.1 920.1,519.5 920.7,518.9 921.3,518.3 921.9,517.6 922.5,517.0 923.1,516.4 923.7,515.7 924.3,515.1 924.9,514.5 925.6,514.0 926.3,513.5 927.0,513.0 927.8,512.5 928.6,512.1 929.5,511.8 930.4,511.5 931.4,511.3 932.5,511.2 933.6,511.2" stroke="#91AC6E" stroke-width="0.90" stroke-opacity="1.00" fill="none" />
  </g>
  <g class="pg_2">
    <polygon class="pl" points="145.6,512.1 160.2,512.1 160.2,511.7 174.9,511.7 174.9,506.9 189.5,506.9 189.5,511.3 204.2,511.3 204.2,522.1 218.8,522.1 218.8,516.5 233.5,516.5 233.5,515.9 248.1,515.9 248.1,513.2 262.8,513.2 262.8,521.2 277.4,521.2 277.4,518.8 292.1,518.8 292.1,519.0 306.7,519.0 306.7,516.2 321.4,516.2 321.4,528.4 336.0,528.4 336.0,528.8 350.6,528.8 350.6,530.6 365.3,530.6 365.3,532.5 379.9,532.5 379.9,536.4 394.6,536.4 394.6,535.8 409.2,535.8 409.2,534.9 423.9,534.9 423.9,533.6 438.5,533.6 438.5,538.6 453.2,538.6 453.2,535.2 467.8,535.2 467.8,533.0 482.5,533.0 482.5,530.4 497.1,530.4 497.1,533.3 511.8,533.3 511.8,527.9 526.4,527.9 526.4,526.3 541.0,526.3 541.0,525.4 555.7,525.4 555.7,530.8 570.3,530.8 570.3,525.8 585.0,525.8 585.0,523.9 599.6,523.9 599.6,523.2 614.3,523.2 614.3,531.5 628.9,531.5 628.9,543.1 643.6,543.1 643.6,528.1 658.2,528.1 658.2,524.0 672.9,524.0 672.9,532.4 687.5,532.4 687.5,527.5 702.2,527.5 702.2,521.2 716.8,521.2 716.8,525.6 731.4,525.6 731.4,534.4 746.1,534.4 746.1,529.2 760.7,529.2 760.7,530.0 775.4,530.0 775.4,529.8 790.0,529.8 790.0,535.1 804.7,535.1 804.7,532.3 819.3,532.3 819.3,531.6 834.0,531.6 834.0,525.0 848.6,525.0 848.6,530.8 863.3,530.8 863.3,526.4 877.9,526.4 877.9,536.4 863.3,536.4 863.3,539.9 848.6,539.9 848.6,534.0 834.0,534.0 834.0,537.8 819.3,537.8 819.3,538.1 804.7,538.1 804.7,539.7 790.0,539.7 790.0,534.7 775.4,534.7 775.4,535.3 760.7,535.3 760.7,534.8 746.1,534.8 746.1,539.2 731.4,539.2 731.4,530.8 716.8,530.8 716.8,527.5 702.2,527.5 702.2,533.8 687.5,533.8 687.5,537.2 672.9,537.2 672.9,531.5 658.2,531.5 658.2,535.8 643.6,535.8 643.6,546.9 628.9,546.9 628.9,537.4 614.3,537.4 614.3,531.1 599.6,531.1 599.6,531.9 585.0,531.9 585.0,533.6 570.3,533.6 570.3,538.2 555.7,538.2 555.7,534.3 541.0,534.3 541.0,534.9 526.4,534.9 526.4,537.1 511.8,537.1 511.8,541.0 497.1,541.0 497.1,538.3 482.5,538.3 482.5,540.7 467.8,540.7 467.8,542.3 453.2,542.3 453.2,544.9 438.5,544.9 438.5,542.2 423.9,542.2 423.9,543.3 409.2,543.3 409.2,543.6 394.6,543.6 394.6,545.8 379.9,545.8 379.9,545.4 365.3,545.4 365.3,544.8 350.6,544.8 350.6,544.0 336.0,544.0 336.0,543.5 321.4,543.5 321.4,536.6 306.7,536.6 306.7,538.2 292.1,538.2 292.1,538.1 277.4,538.1 277.4,540.3 262.8,540.3 262.8,535.5 248.1,535.5 248.1,535.9 233.5,535.9 233.5,536.4 218.8,536.4 218.8,539.6 204.2,539.6 204.2,535.7 189.5,535.7 189.5,537.1 174.9,537.1 174.9,542.1 160.2,542.1 160.2,542.6 145.6,542.6" stroke="none" stroke-width="0.9000"  fill="#7B553E" clip-path="url(#axis_clip)"/>
    <text class="pl" transform="translate(937.2,535.7)" dy="7.6" font-size="25.20" fill="#7B553E" stroke="none">Petrol</text>
<polyline class="pl" points="910.8,531.4 911.9,531.4 913.0,531.4 914.0,531.5 914.9,531.6 915.8,531.7 916.6,531.9 917.4,532.0 918.1,532.2 918.8,532.4 919.5,532.6 920.1,532.8 920.7,533.0 921.3,533.2 921.9,533.4 922.5,533.6 923.1,533.9 923.7,534.1 924.3,534.3 924.9,534.5 925.6,534.7 926.3,534.9 927.0,535.1 927.8,535.2 928.6,535.3 929.5,535.5 930.4,535.6 931.4,535.6 932.5,535.7 933.6,535.7" stroke="#7B553E" stroke-width="0.90" stroke-opacity="1.00" fill="none" />
  </g>
  <g class="pg_1">
    <polygon class="pl" points="145.6,542.6 160.2,542.6 160.2,542.1 174.9,542.1 174.9,537.1 189.5,537.1 189.5,535.7 204.2,535.7 204.2,539.6 218.8,539.6 218.8,536.4 233.5,536.4 233.5,535.9 248.1,535.9 248.1,535.5 262.8,535.5 262.8,540.3 277.4,540.3 277.4,538.1 292.1,538.1 292.1,538.2 306.7,538.2 306.7,536.6 321.4,536.6 321.4,543.5 336.0,543.5 336.0,544.0 350.6,544.0 350.6,544.8 365.3,544.8 365.3,545.4 379.9,545.4 379.9,545.8 394.6,545.8 394.6,543.6 409.2,543.6 409.2,543.3 423.9,543.3 423.9,542.2 438.5,542.2 438.5,544.9 453.2,544.9 453.2,542.3 467.8,542.3 467.8,540.7 482.5,540.7 482.5,538.3 497.1,538.3 497.1,541.0 511.8,541.0 511.8,537.1 526.4,537.1 526.4,534.9 541.0,534.9 541.0,534.3 555.7,534.3 555.7,538.2 570.3,538.2 570.3,533.6 585.0,533.6 585.0,531.9 599.6,531.9 599.6,531.1 614.3,531.1 614.3,537.4 628.9,537.4 628.9,546.9 643.6,546.9 643.6,535.8 658.2,535.8 658.2,531.5 672.9,531.5 672.9,537.2 687.5,537.2 687.5,533.8 702.2,533.8 702.2,527.5 716.8,527.5 716.8,530.8 731.4,530.8 731.4,539.2 746.1,539.2 746.1,534.8 760.7,534.8 760.7,535.3 775.4,535.3 775.4,534.7 790.0,534.7 790.0,539.7 804.7,539.7 804.7,538.1 819.3,538.1 819.3,537.8 834.0,537.8 834.0,534.0 848.6,534.0 848.6,539.9 863.3,539.9 863.3,536.4 877.9,536.4 877.9,560.2 145.6,560.2" stroke="none" stroke-width="0.9000"  fill="#7B6E57" clip-path="url(#axis_clip)"/>
    <text class="pl" transform="translate(937.2,560.2)" dy="7.6" font-size="25.20" fill="#7B6E57" stroke="none">Diesel</text>
<polyline class="pl" points="910.8,548.3 911.9,548.3 913.0,548.4 914.0,548.6 914.9,548.9 915.8,549.2 916.6,549.6 917.4,550.0 918.1,550.5 918.8,551.0 919.5,551.6 920.1,552.1 920.7,552.7 921.3,553.3 921.9,553.9 922.5,554.5 923.1,555.2 923.7,555.8 924.3,556.3 924.9,556.9 925.6,557.5 926.3,558.0 927.0,558.4 927.8,558.9 928.6,559.2 929.5,559.6 930.4,559.8 931.4,560.0 932.5,560.1 933.6,560.2" stroke="#7B6E57" stroke-width="0.90" stroke-opacity="1.00" fill="none" />
  </g>
</g>
<g id="lines">
  <g class="pl_1">
    <use xlink:href="#line_1" class="thick" stroke="#000" stroke-width="3" opacity="0"/>
    <use xlink:href="#line_1" class="pl pll" stroke="#000" stroke-width="0.90"/>
  </g>
  <g class="pl_2">
    <use xlink:href="#line_2" class="thick" stroke="#000" stroke-width="3" opacity="0"/>
    <use xlink:href="#line_2" class="pl pll" stroke="#000" stroke-width="0.90"/>
  </g>
  <g class="pl_3">
    <use xlink:href="#line_3" class="thick" stroke="#000" stroke-width="3" opacity="0"/>
    <use xlink:href="#line_3" class="pl pll" stroke="#000" stroke-width="0.90"/>
  </g>
  <g class="pl_4">
    <use xlink:href="#line_4" class="thick" stroke="#000" stroke-width="3" opacity="0"/>
    <use xlink:href="#line_4" class="pl pll" stroke="#000" stroke-width="0.90"/>
  </g>
  <g class="pl_5">
    <use xlink:href="#line_5" class="thick" stroke="#000" stroke-width="3" opacity="0"/>
    <use xlink:href="#line_5" class="pl pll" stroke="#000" stroke-width="0.90"/>
  </g>
  <g class="pl_6">
    <use xlink:href="#line_6" class="thick" stroke="#000" stroke-width="3" opacity="0"/>
    <use xlink:href="#line_6" class="pl pll" stroke="#000" stroke-width="0.90"/>
  </g>
  <g class="pl_7">
    <use xlink:href="#line_7" class="thick" stroke="#000" stroke-width="3" opacity="0"/>
    <use xlink:href="#line_7" class="pl pll" stroke="#000" stroke-width="0.90"/>
  </g>
  <g class="pl_8">
    <use xlink:href="#line_8" class="thick" stroke="#000" stroke-width="3" opacity="0"/>
    <use xlink:href="#line_8" class="pl pll" stroke="#000" stroke-width="0.90"/>
  </g>
  <g class="pl_9">
    <use xlink:href="#line_9" class="thick" stroke="#000" stroke-width="3" opacity="0"/>
    <use xlink:href="#line_9" class="pl pll" stroke="#000" stroke-width="0.90"/>
  </g>
  <g class="pl_10">
    <use xlink:href="#line_10" class="thick" stroke="#000" stroke-width="3" opacity="0"/>
    <use xlink:href="#line_10" class="pl pll" stroke="#000" stroke-width="0.90"/>
  </g>
  <g class="pl_11">
    <use xlink:href="#line_11" class="thick" stroke="#000" stroke-width="3" opacity="0"/>
    <use xlink:href="#line_11" class="pl pll" stroke="#000" stroke-width="0.90"/>
  </g>
  <g class="pl_12">
    <use xlink:href="#line_12" class="thick" stroke="#000" stroke-width="3" opacity="0"/>
    <use xlink:href="#line_12" class="pl pll" stroke="#000" stroke-width="0.90"/>
  </g>
  <g class="pl_13">
    <use xlink:href="#line_13" class="thick" stroke="#000" stroke-width="3" opacity="0"/>
    <use xlink:href="#line_13" class="pl pll" stroke="#000" stroke-width="0.90"/>
  </g>
  <g class="pl_14">
    <use xlink:href="#line_14" class="thick" stroke="#000" stroke-width="3" opacity="0"/>
    <use xlink:href="#line_14" class="pl pll" stroke="#000" stroke-width="0.90"/>
  </g>
  <g class="pl_15">
    <use xlink:href="#line_15" class="thick" stroke="#000" stroke-width="3" opacity="0"/>
    <use xlink:href="#line_15" class="pl pll" stroke="#000" stroke-width="0.90"/>
  </g>
  <g class="pl_16">
    <use xlink:href="#line_16" class="thick" stroke="#000" stroke-width="3" opacity="0"/>
    <use xlink:href="#line_16" class="pl pll" stroke="#000" stroke-width="0.90"/>
  </g>
  <g class="pl_17">
    <use xlink:href="#line_17" class="thick" stroke="#000" stroke-width="3" opacity="0"/>
    <use xlink:href="#line_17" class="pl pll" stroke="#000" stroke-width="0.90"/>
  </g>
  <g class="pl_18">
    <use xlink:href="#line_18" class="thick" stroke="#000" stroke-width="3" opacity="0"/>
    <use xlink:href="#line_18" class="pl pll" stroke="#000" stroke-width="0.90"/>
  </g>
  <g class="pl_19">
    <use xlink:href="#line_19" class="thick" stroke="#000" stroke-width="3" opacity="0"/>
    <use xlink:href="#line_19" class="pl pll" stroke="#000" stroke-width="0.90"/>
  </g>
  <g class="pl_20">
    <use xlink:href="#line_20" class="thick" stroke="#000" stroke-width="3" opacity="0"/>
    <use xlink:href="#line_20" class="pl pll" stroke="#000" stroke-width="0.90"/>
  </g>
  <g class="pl_21">
    <use xlink:href="#line_21" class="thick" stroke="#000" stroke-width="3" opacity="0"/>
    <use xlink:href="#line_21" class="pl pll" stroke="#000" stroke-width="0.90"/>
  </g>
</g>
    <text class="pl" transform="translate(174.9,573.0) rotate(-90)" dy="8.1" font-size="27.00" fill="#808080" stroke="none" text-anchor="end">2012</text>
    <text class="pl" transform="translate(233.5,573.0) rotate(-90)" dy="8.1" font-size="27.00" fill="#808080" stroke="none" text-anchor="end">2013</text>
    <text class="pl" transform="translate(292.1,573.0) rotate(-90)" dy="8.1" font-size="27.00" fill="#808080" stroke="none" text-anchor="end">2014</text>
    <text class="pl" transform="translate(350.6,573.0) rotate(-90)" dy="8.1" font-size="27.00" fill="#808080" stroke="none" text-anchor="end">2015</text>
    <text class="pl" transform="translate(409.2,573.0) rotate(-90)" dy="8.1" font-size="27.00" fill="#808080" stroke="none" text-anchor="end">2016</text>
    <text class="pl" transform="translate(467.8,573.0) rotate(-90)" dy="8.1" font-size="27.00" fill="#808080" stroke="none" text-anchor="end">2017</text>
    <text class="pl" transform="translate(526.4,573.0) rotate(-90)" dy="8.1" font-size="27.00" fill="#808080" stroke="none" text-anchor="end">2018</text>
    <text class="pl" transform="translate(585.0,573.0) rotate(-90)" dy="8.1" font-size="27.00" fill="#808080" stroke="none" text-anchor="end">2019</text>
    <text class="pl" transform="translate(643.6,573.0) rotate(-90)" dy="8.1" font-size="27.00" fill="#808080" stroke="none" text-anchor="end">2020</text>
    <text class="pl" transform="translate(702.2,573.0) rotate(-90)" dy="8.1" font-size="27.00" fill="#808080" stroke="none" text-anchor="end">2021</text>
    <text class="pl" transform="translate(760.7,573.0) rotate(-90)" dy="8.1" font-size="27.00" fill="#808080" stroke="none" text-anchor="end">2022</text>
    <text class="pl" transform="translate(819.3,573.0) rotate(-90)" dy="8.1" font-size="27.00" fill="#808080" stroke="none" text-anchor="end">2023</text>
    <text class="pl" transform="translate(877.9,573.0) rotate(-90)" dy="8.1" font-size="27.00" fill="#808080" stroke="none" text-anchor="end">2024</text>
    <text class="pl" transform="translate(130.0,81.7)" dy="8.1" font-size="27.00" fill="#808080" stroke="none" text-anchor="end">million</text>
    <text class="pl" transform="translate(145.6,47.2)" dy="0.0" font-size="27.00" fill="#808080" stroke="none">Brazilian new passenger car sales by type: Quarterly</text>
<text transform="translate(157.6,666.1)" font-size="19.80" font-family="Helvetica" fill="#BFBFBF" stroke="none" xml:space="preserve"><a href="https://twitter.com/robbie_andrew" style="fill:#BFBFBF" target="_blank">@robbie_andrew</a>   &#9679;   Data: Anfavea   &#9679;   Includes light commercial   &#9679;   Through August 2024</text>
<text class="twitlink" transform="translate(157.6,666.1)" opacity="0" font-size="19.80" fill="#BFBFBF" stroke="none" xml:space="preserve"><a href="https://twitter.com/robbie_andrew" style="fill:#BFBFBF" target="_blank">@robbie_andrew</a></text>
  <g class="dl_el" transform="translate(154.6,578.4)">
    <g class="dl_el_balloon">
      <foreignObject x="0" y="0" width="120" height="500">
      <div xmlns="http://www.w3.org/1999/xhtml" class="dl_fe" style="height:60px">
      <p class="dl_fe_p">Find me on Twitter</p>
      </div>
	    </foreignObject>
      <path stroke="#000" fill="#FDFFDF" d="M0,60H60l5,5l5,-5H120"/>
    </g>
  </g>
<use xlink:href="#line_y" transform="translate(145.6,0)"/>
<use xlink:href="#line_y" transform="translate(204.2,0)"/>
<use xlink:href="#line_y" transform="translate(262.8,0)"/>
<use xlink:href="#line_y" transform="translate(321.4,0)"/>
<use xlink:href="#line_y" transform="translate(379.9,0)"/>
<use xlink:href="#line_y" transform="translate(438.5,0)"/>
<use xlink:href="#line_y" transform="translate(497.1,0)"/>
<use xlink:href="#line_y" transform="translate(555.7,0)"/>
<use xlink:href="#line_y" transform="translate(614.3,0)"/>
<use xlink:href="#line_y" transform="translate(672.9,0)"/>
<use xlink:href="#line_y" transform="translate(731.4,0)"/>
<use xlink:href="#line_y" transform="translate(790.0,0)"/>
<use xlink:href="#line_y" transform="translate(848.6,0)"/>
<use xlink:href="#line_y" transform="translate(907.2,0)"/>
<use xlink:href="#line_x" transform="translate(0,560.2)"/>
<use xlink:href="#line_x" transform="translate(0,475.8)"/>
<use xlink:href="#line_x" transform="translate(0,391.5)"/>
<use xlink:href="#line_x" transform="translate(0,307.1)"/>
<use xlink:href="#line_x" transform="translate(0,222.7)"/>
<use xlink:href="#line_x" transform="translate(0,138.4)"/>
<use xlink:href="#line_x" transform="translate(0,54.0)"/>
<use xlink:href="#tick_x" transform="translate(145.6,0)"/>
<use xlink:href="#tick_x" transform="translate(204.2,0)"/>
<use xlink:href="#tick_x" transform="translate(262.8,0)"/>
<use xlink:href="#tick_x" transform="translate(321.4,0)"/>
<use xlink:href="#tick_x" transform="translate(379.9,0)"/>
<use xlink:href="#tick_x" transform="translate(438.5,0)"/>
<use xlink:href="#tick_x" transform="translate(497.1,0)"/>
<use xlink:href="#tick_x" transform="translate(555.7,0)"/>
<use xlink:href="#tick_x" transform="translate(614.3,0)"/>
<use xlink:href="#tick_x" transform="translate(672.9,0)"/>
<use xlink:href="#tick_x" transform="translate(731.4,0)"/>
<use xlink:href="#tick_x" transform="translate(790.0,0)"/>
<use xlink:href="#tick_x" transform="translate(848.6,0)"/>
<use xlink:href="#tick_x" transform="translate(907.2,0)"/>
<use xlink:href="#tick_y" transform="translate(0,560.2)"/>
<use xlink:href="#tick_y" transform="translate(0,475.8)"/>
<use xlink:href="#tick_y" transform="translate(0,391.5)"/>
<use xlink:href="#tick_y" transform="translate(0,307.1)"/>
<use xlink:href="#tick_y" transform="translate(0,222.7)"/>
<use xlink:href="#tick_y" transform="translate(0,138.4)"/>
<use xlink:href="#tick_y" transform="translate(0,54.0)"/>
<polyline points="145.6,53.993 145.6,560.180 907.2,560.180" stroke="#808080" stroke-width="0.90" fill="none"/>
<g>
<a href="https://creativecommons.org/licenses/by/4.0/">
  <rect x="123.0" y="651.4" width="34" height="17" fill="#FFF" stroke="none"/>
  <g transform="translate(124.0,652.4) scale(0.24)">
  <g><circle fill="#FFF" cx="37.79" cy="28.5" r="28.84"/>
     <circle fill="none" cx="37.79" cy="28.5" r="28.84" stroke="#BFBFBF" stroke-width="5.5"/>
     <path fill="#BFBFBF" d="M37.16,23.19 l-4.29,2.23c-0.458-0.951-1.02-1.62-1.69-2c-0.667-0.38-1.29-0.571-1.86-0.571c-2.86,0-4.29,1.89-4.29,5.66 c0,1.71,0.36,3.08,1.09,4.11c0.724,1.03,1.79,1.54,3.2,1.54c1.87,0,3.18-0.915,3.94-2.74l3.94,2 c-0.838,1.56-2,2.79-3.49,3.69c-1.48,0.896-3.12,1.34-4.91,1.34c-2.86,0-5.16-0.875-6.92-2.63 c-1.75-1.75-2.63-4.19-2.63-7.31c0-3.05,0.886-5.47,2.66-7.26c1.77-1.79,4.01-2.69,6.72-2.69 C32.6,18.56,35.44,20.1,37.16,23.19z
              M55.61,23.19l-4.23,2.23c-0.457-0.951-1.02-1.62-1.69-2 c-0.668-0.38-1.31-0.571-1.91-0.571c-2.86,0-4.29,1.89-4.29,5.66c0,1.71,0.363,3.08,1.09,4.11 c0.723,1.03,1.79,1.54,3.2,1.54c1.87,0,3.18-0.915,3.94-2.74l4,2c-0.875,1.56-2.06,2.79-3.54,3.69 c-1.49,0.9-3.11,1.34-4.86,1.34c-2.9,0-5.21-0.875-6.94-2.63c-1.74-1.75-2.6-4.19-2.6-7.31 c0-3.05,0.885-5.47,2.66-7.26c1.77-1.79,4.01-2.69,6.71-2.69C51.12,18.56,53.944,20.1,55.61,23.19z"/>
  </g></g>
  <g transform="translate(140.2,652.4) scale(0.24)">
  <g><circle fill="#FFF" cx="37.79" cy="28.5" r="28.84"/>
     <circle fill="none" cx="37.79" cy="28.5" r="28.84" stroke="#BFBFBF" stroke-width="5.5"/>
     <path fill="#BFBFBF" d="M46.129,20.557v13.085h-3.656v15.542h-9.944V33.643h-3.656V20.557 c0-0.572,0.2-1.057,0.599-1.457c0.401-0.399,0.887-0.6,1.457-0.6h13.144c0.533,0,1.01,0.2,1.428,0.6 C45.918,19.5,46.129,19.986,46.129,20.557z
              M33.042,12.329c0-3.008,1.485-4.514,4.458-4.514s4.457,1.504,4.457,4.514 c0,2.971-1.486,4.457-4.457,4.457S33.042,15.3,33.042,12.329z"/>
  </g></g>
  </a>
</g>
  <g class="dl_el" transform="translate(69.1,548.4)">
    <g class="dl_el_balloon">
      <foreignObject x="0" y="0" width="250" height="500">
      <div xmlns="http://www.w3.org/1999/xhtml" class="dl_fe" style="height:90px">
      <p class="dl_fe_p">CC-BY: Material may be freely re-used as long as you credit the author</p>
      </div>
	    </foreignObject>
      <path stroke="#000" fill="#FDFFDF" d="M0,90H70l5,5l5,-5H250"/>
    </g>
  </g>
</g>
</svg>
