<svg version="1.1" xmlns="http://www.w3.org/2000/svg" xmlns:xlink="http://www.w3.org/1999/xlink" width="100%" height="100%" viewBox="0 0 1200.000 674.916">
<title>Danish new passenger car sales by type: Half-Yearly</title>
<desc>Created by Robbie Andrew (@robbie_andrew), CICERO Center for International Climate Research. CC-BY: Material may be freely re-used as long as you credit the author</desc>
<style type="text/css">
  #main {font-family:Helvetica,Arial,sans-serif; font-size:27.00px;
         fill-opacity:1; fill:#000000; stroke:none; stroke-linejoin:round; stroke-linecap:round; stroke-width:1.00;}
  a:hover {text-decoration: underline;}
  .marker {stroke-opacity:0;fill-opacity:0;}
  .marker:hover {stroke-opacity:0.5; fill-opacity:1;}
  .ticklabel {font-size:27.00px;fill:#808080;stroke:none;font-family:Helvetica}
  .ytl {text-anchor:end;}
  .dp1 {pointer-events:none;font-size:70%;text-anchor:middle;fill:#000000;}
  .dp2 {pointer-events:none;font-size:70%;text-anchor:middle;fill:#FFFFFF;}
  .numtip {pointer-events:none;}
  .cc {opacity:0.25;}
.dl_fe {background-color:#FDFFDF;display:flex;margin:auto;align-items:center}
.dl_fe_p {font-size:20px;text-align:center;margin:3px}
.dl_el {display:none;pointer-events:none;}
.cc:hover + .dl_el {display:block;}
text:hover + .dl_el {display:block;}
  #areas .pl {transition: all 0.2s ease;}
  #areas:hover .pl {opacity:0.5;}
  #areas:hover .thick {stroke-width:1;}
  #areas:hover .pg_1:hover .pl {opacity:1;}
  #areas:hover .pg_1:hover .pll {stroke-width:3;}
  #areas:hover .pg_1:hover .pldlm {stroke-width:2;}
  #areas:hover .pg_1:hover .thick {stroke-width:12;}
  #areas:hover .pg_2:hover .pl {opacity:1;}
  #areas:hover .pg_2:hover .pll {stroke-width:3;}
  #areas:hover .pg_2:hover .pldlm {stroke-width:2;}
  #areas:hover .pg_2:hover .thick {stroke-width:12;}
  #areas:hover .pg_3:hover .pl {opacity:1;}
  #areas:hover .pg_3:hover .pll {stroke-width:3;}
  #areas:hover .pg_3:hover .pldlm {stroke-width:2;}
  #areas:hover .pg_3:hover .thick {stroke-width:12;}
  #areas:hover .pg_4:hover .pl {opacity:1;}
  #areas:hover .pg_4:hover .pll {stroke-width:3;}
  #areas:hover .pg_4:hover .pldlm {stroke-width:2;}
  #areas:hover .pg_4:hover .thick {stroke-width:12;}
  #areas:hover .pg_5:hover .pl {opacity:1;}
  #areas:hover .pg_5:hover .pll {stroke-width:3;}
  #areas:hover .pg_5:hover .pldlm {stroke-width:2;}
  #areas:hover .pg_5:hover .thick {stroke-width:12;}
  #lines .pl {transition: all 0.2s ease;}
  #lines:hover .pl {opacity:0.3;}
  #lines:hover .thick {stroke-width:1;}
  #lines:hover .pl_1:hover .pl {opacity:1;}
  #lines:hover .pl_1:hover .pll {stroke-width:3;}
  #lines:hover .pl_1:hover .pldlm {stroke-width:2;}
  #lines:hover .pl_1:hover .thick {stroke-width:12;}
  #lines:hover .pl_2:hover .pl {opacity:1;}
  #lines:hover .pl_2:hover .pll {stroke-width:3;}
  #lines:hover .pl_2:hover .pldlm {stroke-width:2;}
  #lines:hover .pl_2:hover .thick {stroke-width:12;}
  #lines:hover .pl_3:hover .pl {opacity:1;}
  #lines:hover .pl_3:hover .pll {stroke-width:3;}
  #lines:hover .pl_3:hover .pldlm {stroke-width:2;}
  #lines:hover .pl_3:hover .thick {stroke-width:12;}
  #lines:hover .pl_4:hover .pl {opacity:1;}
  #lines:hover .pl_4:hover .pll {stroke-width:3;}
  #lines:hover .pl_4:hover .pldlm {stroke-width:2;}
  #lines:hover .pl_4:hover .thick {stroke-width:12;}
  #lines:hover .pl_5:hover .pl {opacity:1;}
  #lines:hover .pl_5:hover .pll {stroke-width:3;}
  #lines:hover .pl_5:hover .pldlm {stroke-width:2;}
  #lines:hover .pl_5:hover .thick {stroke-width:12;}
  #lines:hover .pl_6:hover .pl {opacity:1;}
  #lines:hover .pl_6:hover .pll {stroke-width:3;}
  #lines:hover .pl_6:hover .pldlm {stroke-width:2;}
  #lines:hover .pl_6:hover .thick {stroke-width:12;}
  #lines:hover .pl_7:hover .pl {opacity:1;}
  #lines:hover .pl_7:hover .pll {stroke-width:3;}
  #lines:hover .pl_7:hover .pldlm {stroke-width:2;}
  #lines:hover .pl_7:hover .thick {stroke-width:12;}
  #lines:hover .pl_8:hover .pl {opacity:1;}
  #lines:hover .pl_8:hover .pll {stroke-width:3;}
  #lines:hover .pl_8:hover .pldlm {stroke-width:2;}
  #lines:hover .pl_8:hover .thick {stroke-width:12;}
  #lines:hover .pl_9:hover .pl {opacity:1;}
  #lines:hover .pl_9:hover .pll {stroke-width:3;}
  #lines:hover .pl_9:hover .pldlm {stroke-width:2;}
  #lines:hover .pl_9:hover .thick {stroke-width:12;}
  #lines:hover .pl_10:hover .pl {opacity:1;}
  #lines:hover .pl_10:hover .pll {stroke-width:3;}
  #lines:hover .pl_10:hover .pldlm {stroke-width:2;}
  #lines:hover .pl_10:hover .thick {stroke-width:12;}
  #lines:hover .pl_11:hover .pl {opacity:1;}
  #lines:hover .pl_11:hover .pll {stroke-width:3;}
  #lines:hover .pl_11:hover .pldlm {stroke-width:2;}
  #lines:hover .pl_11:hover .thick {stroke-width:12;}
  #lines:hover .pl_12:hover .pl {opacity:1;}
  #lines:hover .pl_12:hover .pll {stroke-width:3;}
  #lines:hover .pl_12:hover .pldlm {stroke-width:2;}
  #lines:hover .pl_12:hover .thick {stroke-width:12;}
  #lines:hover .pl_13:hover .pl {opacity:1;}
  #lines:hover .pl_13:hover .pll {stroke-width:3;}
  #lines:hover .pl_13:hover .pldlm {stroke-width:2;}
  #lines:hover .pl_13:hover .thick {stroke-width:12;}
  #lines:hover .pl_14:hover .pl {opacity:1;}
  #lines:hover .pl_14:hover .pll {stroke-width:3;}
  #lines:hover .pl_14:hover .pldlm {stroke-width:2;}
  #lines:hover .pl_14:hover .thick {stroke-width:12;}
  #lines:hover .pl_15:hover .pl {opacity:1;}
  #lines:hover .pl_15:hover .pll {stroke-width:3;}
  #lines:hover .pl_15:hover .pldlm {stroke-width:2;}
  #lines:hover .pl_15:hover .thick {stroke-width:12;}
</style>
<defs>
  <clipPath id="axis_clip"><rect x="145.8" y="54.2" width="761.2" height="505.8" /></clipPath>
  <path id="line_y" d="M 0,53.993 v 506.187" stroke="#4D4D4D" stroke-opacity="0.15" stroke-width="1.00"/>
  <path id="line_x" d="M 145.600,0 h 761.600" stroke="#4D4D4D" stroke-opacity="0.15" stroke-width="1.00"/>
  <path id="tick_y" d="M 145.600,0 h -6.000" stroke="#808080" stroke-width="0.90"/>
  <path id="tick_x" d="M 0,560.180 v 6.000" stroke="#808080" stroke-width="0.90"/>
  <symbol id="line_1" viewBox="0 0 1200.000 674.916">
<polyline class="pl" points="-44.8,327.6 -25.8,327.6 -25.8,381.9 -6.7,381.9 -6.7,372.6 12.3,372.6 12.3,400.3 31.4,400.3 31.4,348.4 50.4,348.4 50.4,368.5 69.4,368.5 69.4,388.8 88.5,388.8 88.5,382.6 107.5,382.6 107.5,346.6 126.6,346.6 126.6,330.7 145.6,330.7 145.6,290.5 164.6,290.5 164.6,292.6 183.7,292.6 183.7,261.4 202.7,261.4 202.7,292.3 221.8,292.3 221.8,275.5 240.8,275.5 240.8,257.4 259.8,257.4 259.8,249.0 278.9,249.0 278.9,326.6 297.9,326.6 297.9,362.5 317.0,362.5 317.0,352.0 336.0,352.0 336.0,293.9 355.0,293.9 355.0,271.1 374.1,271.1 374.1,243.3 393.1,243.3 393.1,263.5 412.2,263.5 412.2,256.5 431.2,256.5 431.2,249.7 450.2,249.7 450.2,229.9 469.3,229.9 469.3,237.3 488.3,237.3 488.3,203.9 507.4,203.9 507.4,235.3 526.4,235.3 526.4,183.1 545.4,183.1 545.4,190.1 564.5,190.1 564.5,138.2 583.5,138.2 583.5,177.8 602.6,177.8 602.6,113.3 621.6,113.3 621.6,206.3 640.6,206.3 640.6,123.2 659.7,123.2 659.7,207.3 678.7,207.3 678.7,118.1 697.8,118.1 697.8,186.5 716.8,186.5 716.8,239.0 735.8,239.0 735.8,161.9 754.9,161.9 754.9,208.3 773.9,208.3 773.9,237.4 793.0,237.4 793.0,291.9 812.0,291.9 812.0,288.8 831.0,288.8 831.0,254.0 850.1,254.0 850.1,239.4 869.1,239.4 869.1,246.7 888.2,246.7" stroke="#000" stroke-width="0.90" stroke-opacity="1.00" fill="none" clip-path="url(#axis_clip)"/>
  </symbol>
  <symbol id="line_2" viewBox="0 0 1200.000 674.916">
<polyline class="pl" points="-44.8,327.6 -25.8,327.6 -25.8,382.0 -6.7,382.0 -6.7,372.6 12.3,372.6 12.3,400.3 31.4,400.3 31.4,348.4 50.4,348.4 50.4,368.5 69.4,368.5 69.4,388.8 88.5,388.8 88.5,382.6 107.5,382.6 107.5,346.6 126.6,346.6 126.6,330.7 145.6,330.7 145.6,290.5 164.6,290.5 164.6,292.6 183.7,292.6 183.7,261.4 202.7,261.4 202.7,292.3 221.8,292.3 221.8,275.5 240.8,275.5 240.8,257.4 259.8,257.4 259.8,249.0 278.9,249.0 278.9,326.6 297.9,326.6 297.9,362.6 317.0,362.6 317.0,352.2 336.0,352.2 336.0,294.0 355.0,294.0 355.0,271.1 374.1,271.1 374.1,243.3 393.1,243.3 393.1,263.5 412.2,263.5 412.2,256.5 431.2,256.5 431.2,249.7 450.2,249.7 450.2,230.0 469.3,230.0 469.3,237.3 488.3,237.3 488.3,203.9 507.4,203.9 507.4,235.4 526.4,235.4 526.4,183.1 545.4,183.1 545.4,190.2 564.5,190.2 564.5,138.3 583.5,138.3 583.5,177.9 602.6,177.9 602.6,113.4 621.6,113.4 621.6,206.4 640.6,206.4 640.6,123.2 659.7,123.2 659.7,207.3 678.7,207.3 678.7,118.2 697.8,118.2 697.8,186.5 716.8,186.5 716.8,239.0 735.8,239.0 735.8,162.1 754.9,162.1 754.9,208.3 773.9,208.3 773.9,237.7 793.0,237.7 793.0,291.9 812.0,291.9 812.0,288.8 831.0,288.8 831.0,254.0 850.1,254.0 850.1,239.4 869.1,239.4 869.1,246.7 888.2,246.7" stroke="#000" stroke-width="0.90" stroke-opacity="1.00" fill="none" clip-path="url(#axis_clip)"/>
  </symbol>
  <symbol id="line_3" viewBox="0 0 1200.000 674.916">
<polyline class="pl" points="-44.8,327.6 -25.8,327.6 -25.8,382.0 -6.7,382.0 -6.7,372.6 12.3,372.6 12.3,400.3 31.4,400.3 31.4,348.4 50.4,348.4 50.4,368.5 69.4,368.5 69.4,388.8 88.5,388.8 88.5,382.6 107.5,382.6 107.5,346.6 126.6,346.6 126.6,330.7 145.6,330.7 145.6,290.5 164.6,290.5 164.6,292.6 183.7,292.6 183.7,261.4 202.7,261.4 202.7,292.3 221.8,292.3 221.8,275.5 240.8,275.5 240.8,257.4 259.8,257.4 259.8,249.0 278.9,249.0 278.9,326.6 297.9,326.6 297.9,362.6 317.0,362.6 317.0,352.2 336.0,352.2 336.0,294.0 355.0,294.0 355.0,271.1 374.1,271.1 374.1,244.4 393.1,244.4 393.1,264.1 412.2,264.1 412.2,257.5 431.2,257.5 431.2,250.6 450.2,250.6 450.2,230.6 469.3,230.6 469.3,238.7 488.3,238.7 488.3,206.2 507.4,206.2 507.4,238.8 526.4,238.8 526.4,186.9 545.4,186.9 545.4,202.0 564.5,202.0 564.5,139.2 583.5,139.2 583.5,181.6 602.6,181.6 602.6,113.8 621.6,113.8 621.6,208.5 640.6,208.5 640.6,125.1 659.7,125.1 659.7,211.0 678.7,211.0 678.7,127.5 697.8,127.5 697.8,197.1 716.8,197.1 716.8,252.4 735.8,252.4 735.8,200.1 754.9,200.1 754.9,235.1 773.9,235.1 773.9,300.9 793.0,300.9 793.0,335.8 812.0,335.8 812.0,356.2 831.0,356.2 831.0,348.2 850.1,348.2 850.1,371.6 869.1,371.6 869.1,387.4 888.2,387.4" stroke="#000" stroke-width="0.90" stroke-opacity="1.00" fill="none" clip-path="url(#axis_clip)"/>
  </symbol>
  <symbol id="line_4" viewBox="0 0 1200.000 674.916">
<polyline class="pl" points="-44.8,327.6 -25.8,327.6 -25.8,382.0 -6.7,382.0 -6.7,372.6 12.3,372.6 12.3,400.3 31.4,400.3 31.4,348.4 50.4,348.4 50.4,368.5 69.4,368.5 69.4,388.8 88.5,388.8 88.5,382.6 107.5,382.6 107.5,346.6 126.6,346.6 126.6,330.7 145.6,330.7 145.6,290.5 164.6,290.5 164.6,292.6 183.7,292.6 183.7,261.4 202.7,261.4 202.7,292.3 221.8,292.3 221.8,275.5 240.8,275.5 240.8,257.4 259.8,257.4 259.8,249.0 278.9,249.0 278.9,326.6 297.9,326.6 297.9,362.6 317.0,362.6 317.0,352.2 336.0,352.2 336.0,294.0 355.0,294.0 355.0,271.1 374.1,271.1 374.1,244.4 393.1,244.4 393.1,264.1 412.2,264.1 412.2,257.5 431.2,257.5 431.2,250.6 450.2,250.6 450.2,230.6 469.3,230.6 469.3,238.7 488.3,238.7 488.3,206.2 507.4,206.2 507.4,239.1 526.4,239.1 526.4,187.4 545.4,187.4 545.4,203.0 564.5,203.0 564.5,139.9 583.5,139.9 583.5,182.9 602.6,182.9 602.6,114.2 621.6,114.2 621.6,210.4 640.6,210.4 640.6,131.0 659.7,131.0 659.7,216.3 678.7,216.3 678.7,133.8 697.8,133.8 697.8,204.8 716.8,204.8 716.8,268.8 735.8,268.8 735.8,249.6 754.9,249.6 754.9,301.7 773.9,301.7 773.9,380.5 793.0,380.5 793.0,381.2 812.0,381.2 812.0,406.4 831.0,406.4 831.0,381.3 850.1,381.3 850.1,400.7 869.1,400.7 869.1,401.0 888.2,401.0" stroke="#000" stroke-width="0.90" stroke-opacity="1.00" fill="none" clip-path="url(#axis_clip)"/>
  </symbol>
  <symbol id="line_5" viewBox="0 0 1200.000 674.916">
<polyline class="pl" points="-44.8,531.7 -25.8,531.7 -25.8,533.3 -6.7,533.3 -6.7,528.2 12.3,528.2 12.3,530.2 31.4,530.2 31.4,519.1 50.4,519.1 50.4,519.2 69.4,519.2 69.4,520.5 88.5,520.5 88.5,519.3 107.5,519.3 107.5,510.9 126.6,510.9 126.6,500.8 145.6,500.8 145.6,496.2 164.6,496.2 164.6,490.8 183.7,490.8 183.7,483.7 202.7,483.7 202.7,478.9 221.8,478.9 221.8,469.9 240.8,469.9 240.8,415.7 259.8,415.7 259.8,413.4 278.9,413.4 278.9,452.3 297.9,452.3 297.9,473.1 317.0,473.1 317.0,462.8 336.0,462.8 336.0,437.9 355.0,437.9 355.0,419.7 374.1,419.7 374.1,418.4 393.1,418.4 393.1,407.1 412.2,407.1 412.2,433.5 431.2,433.5 431.2,441.2 450.2,441.2 450.2,457.1 469.3,457.1 469.3,455.6 488.3,455.6 488.3,453.5 507.4,453.5 507.4,451.6 526.4,451.6 526.4,446.1 545.4,446.1 545.4,442.1 564.5,442.1 564.5,409.7 583.5,409.7 583.5,420.6 602.6,420.6 602.6,399.3 621.6,399.3 621.6,440.9 640.6,440.9 640.6,409.8 659.7,409.8 659.7,448.6 678.7,448.6 678.7,443.5 697.8,443.5 697.8,458.6 716.8,458.6 716.8,479.5 735.8,479.5 735.8,475.2 754.9,475.2 754.9,504.2 773.9,504.2 773.9,523.9 793.0,523.9 793.0,529.3 812.0,529.3 812.0,531.0 831.0,531.0 831.0,531.7 850.1,531.7 850.1,534.4 869.1,534.4 869.1,536.9 888.2,536.9" stroke="#000" stroke-width="0.90" stroke-opacity="1.00" fill="none" clip-path="url(#axis_clip)"/>
  </symbol>
  <symbol id="line_6" viewBox="0 0 1200.000 674.916">
<polyline class="pl" points="-44.8,327.6 -25.8,327.6 -25.8,382.0 -6.7,382.0 -6.7,372.6 12.3,372.6 12.3,400.3 31.4,400.3 31.4,348.4 50.4,348.4 50.4,368.5 69.4,368.5 69.4,388.8 88.5,388.8 88.5,382.6 107.5,382.6 107.5,346.6 126.6,346.6 126.6,330.7 145.6,330.7 145.6,290.5 164.6,290.5 164.6,292.6 183.7,292.6 183.7,261.4 202.7,261.4 202.7,292.3 221.8,292.3 221.8,275.5 240.8,275.5 240.8,257.4 259.8,257.4 259.8,249.0 278.9,249.0 278.9,326.6 297.9,326.6 297.9,362.6 317.0,362.6 317.0,352.2 336.0,352.2 336.0,294.0 355.0,294.0 355.0,271.1 374.1,271.1 374.1,243.3 393.1,243.3 393.1,263.5 412.2,263.5 412.2,256.5 431.2,256.5 431.2,249.7 450.2,249.7 450.2,230.0 469.3,230.0 469.3,237.3 488.3,237.3 488.3,203.9 507.4,203.9 507.4,235.4 526.4,235.4 526.4,183.1 545.4,183.1 545.4,190.2 564.5,190.2 564.5,138.3 583.5,138.3 583.5,177.9 602.6,177.9 602.6,113.4 621.6,113.4 621.6,206.4 640.6,206.4 640.6,123.2 659.7,123.2 659.7,207.3 678.7,207.3 678.7,118.2 697.8,118.2 697.8,186.5 716.8,186.5 716.8,239.0 735.8,239.0 735.8,162.1 754.9,162.1 754.9,208.3 773.9,208.3 773.9,237.7 793.0,237.7 793.0,291.9 812.0,291.9 812.0,288.8 831.0,288.8 831.0,254.0 850.1,254.0 850.1,239.4 869.1,239.4 869.1,246.7 888.2,246.7" stroke="#000" stroke-width="0.90" stroke-opacity="1.00" fill="none" clip-path="url(#axis_clip)"/>
  </symbol>
  <symbol id="line_7" viewBox="0 0 1200.000 674.916">
<polyline class="pl" points="-44.8,327.6 -25.8,327.6 -25.8,382.0 -6.7,382.0 -6.7,372.6 12.3,372.6 12.3,400.3 31.4,400.3 31.4,348.4 50.4,348.4 50.4,368.5 69.4,368.5 69.4,388.8 88.5,388.8 88.5,382.6 107.5,382.6 107.5,346.6 126.6,346.6 126.6,330.7 145.6,330.7 145.6,290.5 164.6,290.5 164.6,292.6 183.7,292.6 183.7,261.4 202.7,261.4 202.7,292.3 221.8,292.3 221.8,275.5 240.8,275.5 240.8,257.4 259.8,257.4 259.8,249.0 278.9,249.0 278.9,326.6 297.9,326.6 297.9,362.6 317.0,362.6 317.0,352.2 336.0,352.2 336.0,294.0 355.0,294.0 355.0,271.1 374.1,271.1 374.1,244.4 393.1,244.4 393.1,264.1 412.2,264.1 412.2,257.5 431.2,257.5 431.2,250.6 450.2,250.6 450.2,230.6 469.3,230.6 469.3,238.7 488.3,238.7 488.3,206.2 507.4,206.2 507.4,238.8 526.4,238.8 526.4,186.9 545.4,186.9 545.4,202.0 564.5,202.0 564.5,139.2 583.5,139.2 583.5,181.6 602.6,181.6 602.6,113.8 621.6,113.8 621.6,208.5 640.6,208.5 640.6,125.1 659.7,125.1 659.7,211.0 678.7,211.0 678.7,127.5 697.8,127.5 697.8,197.1 716.8,197.1 716.8,252.4 735.8,252.4 735.8,200.1 754.9,200.1 754.9,235.1 773.9,235.1 773.9,300.9 793.0,300.9 793.0,335.8 812.0,335.8 812.0,356.2 831.0,356.2 831.0,348.2 850.1,348.2 850.1,371.6 869.1,371.6 869.1,387.4 888.2,387.4" stroke="#000" stroke-width="0.90" stroke-opacity="1.00" fill="none" clip-path="url(#axis_clip)"/>
  </symbol>
  <symbol id="line_8" viewBox="0 0 1200.000 674.916">
<polyline class="pl" points="-44.8,327.6 -25.8,327.6 -25.8,382.0 -6.7,382.0 -6.7,372.6 12.3,372.6 12.3,400.3 31.4,400.3 31.4,348.4 50.4,348.4 50.4,368.5 69.4,368.5 69.4,388.8 88.5,388.8 88.5,382.6 107.5,382.6 107.5,346.6 126.6,346.6 126.6,330.7 145.6,330.7 145.6,290.5 164.6,290.5 164.6,292.6 183.7,292.6 183.7,261.4 202.7,261.4 202.7,292.3 221.8,292.3 221.8,275.5 240.8,275.5 240.8,257.4 259.8,257.4 259.8,249.0 278.9,249.0 278.9,326.6 297.9,326.6 297.9,362.6 317.0,362.6 317.0,352.2 336.0,352.2 336.0,294.0 355.0,294.0 355.0,271.1 374.1,271.1 374.1,244.4 393.1,244.4 393.1,264.1 412.2,264.1 412.2,257.5 431.2,257.5 431.2,250.6 450.2,250.6 450.2,230.6 469.3,230.6 469.3,238.7 488.3,238.7 488.3,206.2 507.4,206.2 507.4,239.1 526.4,239.1 526.4,187.4 545.4,187.4 545.4,203.0 564.5,203.0 564.5,139.9 583.5,139.9 583.5,182.9 602.6,182.9 602.6,114.2 621.6,114.2 621.6,210.4 640.6,210.4 640.6,131.0 659.7,131.0 659.7,216.3 678.7,216.3 678.7,133.8 697.8,133.8 697.8,204.8 716.8,204.8 716.8,268.8 735.8,268.8 735.8,249.6 754.9,249.6 754.9,301.7 773.9,301.7 773.9,380.5 793.0,380.5 793.0,381.2 812.0,381.2 812.0,406.4 831.0,406.4 831.0,381.3 850.1,381.3 850.1,400.7 869.1,400.7 869.1,401.0 888.2,401.0" stroke="#000" stroke-width="0.90" stroke-opacity="1.00" fill="none" clip-path="url(#axis_clip)"/>
  </symbol>
  <symbol id="line_9" viewBox="0 0 1200.000 674.916">
<polyline class="pl" points="-44.8,531.7 -25.8,531.7 -25.8,533.3 -6.7,533.3 -6.7,528.2 12.3,528.2 12.3,530.2 31.4,530.2 31.4,519.1 50.4,519.1 50.4,519.2 69.4,519.2 69.4,520.5 88.5,520.5 88.5,519.3 107.5,519.3 107.5,510.9 126.6,510.9 126.6,500.8 145.6,500.8 145.6,496.2 164.6,496.2 164.6,490.8 183.7,490.8 183.7,483.7 202.7,483.7 202.7,478.9 221.8,478.9 221.8,469.9 240.8,469.9 240.8,415.7 259.8,415.7 259.8,413.4 278.9,413.4 278.9,452.3 297.9,452.3 297.9,473.1 317.0,473.1 317.0,462.8 336.0,462.8 336.0,437.9 355.0,437.9 355.0,419.7 374.1,419.7 374.1,418.4 393.1,418.4 393.1,407.1 412.2,407.1 412.2,433.5 431.2,433.5 431.2,441.2 450.2,441.2 450.2,457.1 469.3,457.1 469.3,455.6 488.3,455.6 488.3,453.5 507.4,453.5 507.4,451.6 526.4,451.6 526.4,446.1 545.4,446.1 545.4,442.1 564.5,442.1 564.5,409.7 583.5,409.7 583.5,420.6 602.6,420.6 602.6,399.3 621.6,399.3 621.6,440.9 640.6,440.9 640.6,409.8 659.7,409.8 659.7,448.6 678.7,448.6 678.7,443.5 697.8,443.5 697.8,458.6 716.8,458.6 716.8,479.5 735.8,479.5 735.8,475.2 754.9,475.2 754.9,504.2 773.9,504.2 773.9,523.9 793.0,523.9 793.0,529.3 812.0,529.3 812.0,531.0 831.0,531.0 831.0,531.7 850.1,531.7 850.1,534.4 869.1,534.4 869.1,536.9 888.2,536.9" stroke="#000" stroke-width="0.90" stroke-opacity="1.00" fill="none" clip-path="url(#axis_clip)"/>
  </symbol>
  <symbol id="line_10" viewBox="0 0 1200.000 674.916">
<polyline class="pl" points="-44.8,327.6 -25.8,327.6 -25.8,382.0 -6.7,382.0 -6.7,372.6 12.3,372.6 12.3,400.3 31.4,400.3 31.4,348.4 50.4,348.4 50.4,368.5 69.4,368.5 69.4,388.8 88.5,388.8 88.5,382.6 107.5,382.6 107.5,346.6 126.6,346.6 126.6,330.7 145.6,330.7 145.6,290.5 164.6,290.5 164.6,292.6 183.7,292.6 183.7,261.4 202.7,261.4 202.7,292.3 221.8,292.3 221.8,275.5 240.8,275.5 240.8,257.4 259.8,257.4 259.8,249.0 278.9,249.0 278.9,326.6 297.9,326.6 297.9,362.6 317.0,362.6 317.0,352.2 336.0,352.2 336.0,294.0 355.0,294.0 355.0,271.1 374.1,271.1 374.1,244.4 393.1,244.4 393.1,264.1 412.2,264.1 412.2,257.5 431.2,257.5 431.2,250.6 450.2,250.6 450.2,230.6 469.3,230.6 469.3,238.7 488.3,238.7 488.3,206.2 507.4,206.2 507.4,238.8 526.4,238.8 526.4,186.9 545.4,186.9 545.4,202.0 564.5,202.0 564.5,139.2 583.5,139.2 583.5,181.6 602.6,181.6 602.6,113.8 621.6,113.8 621.6,208.5 640.6,208.5 640.6,125.1 659.7,125.1 659.7,211.0 678.7,211.0 678.7,127.5 697.8,127.5 697.8,197.1 716.8,197.1 716.8,252.4 735.8,252.4 735.8,200.1 754.9,200.1 754.9,235.1 773.9,235.1 773.9,300.9 793.0,300.9 793.0,335.8 812.0,335.8 812.0,356.2 831.0,356.2 831.0,348.2 850.1,348.2 850.1,371.6 869.1,371.6 869.1,387.4 888.2,387.4" stroke="#000" stroke-width="0.90" stroke-opacity="1.00" fill="none" clip-path="url(#axis_clip)"/>
  </symbol>
  <symbol id="line_11" viewBox="0 0 1200.000 674.916">
<polyline class="pl" points="-44.8,327.6 -25.8,327.6 -25.8,382.0 -6.7,382.0 -6.7,372.6 12.3,372.6 12.3,400.3 31.4,400.3 31.4,348.4 50.4,348.4 50.4,368.5 69.4,368.5 69.4,388.8 88.5,388.8 88.5,382.6 107.5,382.6 107.5,346.6 126.6,346.6 126.6,330.7 145.6,330.7 145.6,290.5 164.6,290.5 164.6,292.6 183.7,292.6 183.7,261.4 202.7,261.4 202.7,292.3 221.8,292.3 221.8,275.5 240.8,275.5 240.8,257.4 259.8,257.4 259.8,249.0 278.9,249.0 278.9,326.6 297.9,326.6 297.9,362.6 317.0,362.6 317.0,352.2 336.0,352.2 336.0,294.0 355.0,294.0 355.0,271.1 374.1,271.1 374.1,244.4 393.1,244.4 393.1,264.1 412.2,264.1 412.2,257.5 431.2,257.5 431.2,250.6 450.2,250.6 450.2,230.6 469.3,230.6 469.3,238.7 488.3,238.7 488.3,206.2 507.4,206.2 507.4,239.1 526.4,239.1 526.4,187.4 545.4,187.4 545.4,203.0 564.5,203.0 564.5,139.9 583.5,139.9 583.5,182.9 602.6,182.9 602.6,114.2 621.6,114.2 621.6,210.4 640.6,210.4 640.6,131.0 659.7,131.0 659.7,216.3 678.7,216.3 678.7,133.8 697.8,133.8 697.8,204.8 716.8,204.8 716.8,268.8 735.8,268.8 735.8,249.6 754.9,249.6 754.9,301.7 773.9,301.7 773.9,380.5 793.0,380.5 793.0,381.2 812.0,381.2 812.0,406.4 831.0,406.4 831.0,381.3 850.1,381.3 850.1,400.7 869.1,400.7 869.1,401.0 888.2,401.0" stroke="#000" stroke-width="0.90" stroke-opacity="1.00" fill="none" clip-path="url(#axis_clip)"/>
  </symbol>
  <symbol id="line_12" viewBox="0 0 1200.000 674.916">
<polyline class="pl" points="-44.8,531.7 -25.8,531.7 -25.8,533.3 -6.7,533.3 -6.7,528.2 12.3,528.2 12.3,530.2 31.4,530.2 31.4,519.1 50.4,519.1 50.4,519.2 69.4,519.2 69.4,520.5 88.5,520.5 88.5,519.3 107.5,519.3 107.5,510.9 126.6,510.9 126.6,500.8 145.6,500.8 145.6,496.2 164.6,496.2 164.6,490.8 183.7,490.8 183.7,483.7 202.7,483.7 202.7,478.9 221.8,478.9 221.8,469.9 240.8,469.9 240.8,415.7 259.8,415.7 259.8,413.4 278.9,413.4 278.9,452.3 297.9,452.3 297.9,473.1 317.0,473.1 317.0,462.8 336.0,462.8 336.0,437.9 355.0,437.9 355.0,419.7 374.1,419.7 374.1,418.4 393.1,418.4 393.1,407.1 412.2,407.1 412.2,433.5 431.2,433.5 431.2,441.2 450.2,441.2 450.2,457.1 469.3,457.1 469.3,455.6 488.3,455.6 488.3,453.5 507.4,453.5 507.4,451.6 526.4,451.6 526.4,446.1 545.4,446.1 545.4,442.1 564.5,442.1 564.5,409.7 583.5,409.7 583.5,420.6 602.6,420.6 602.6,399.3 621.6,399.3 621.6,440.9 640.6,440.9 640.6,409.8 659.7,409.8 659.7,448.6 678.7,448.6 678.7,443.5 697.8,443.5 697.8,458.6 716.8,458.6 716.8,479.5 735.8,479.5 735.8,475.2 754.9,475.2 754.9,504.2 773.9,504.2 773.9,523.9 793.0,523.9 793.0,529.3 812.0,529.3 812.0,531.0 831.0,531.0 831.0,531.7 850.1,531.7 850.1,534.4 869.1,534.4 869.1,536.9 888.2,536.9" stroke="#000" stroke-width="0.90" stroke-opacity="1.00" fill="none" clip-path="url(#axis_clip)"/>
  </symbol>
  <symbol id="line_13" viewBox="0 0 1200.000 674.916">
<polyline class="pl" points="-44.8,327.6 -25.8,327.6 -25.8,382.0 -6.7,382.0 -6.7,372.6 12.3,372.6 12.3,400.3 31.4,400.3 31.4,348.4 50.4,348.4 50.4,368.5 69.4,368.5 69.4,388.8 88.5,388.8 88.5,382.6 107.5,382.6 107.5,346.6 126.6,346.6 126.6,330.7 145.6,330.7 145.6,290.5 164.6,290.5 164.6,292.6 183.7,292.6 183.7,261.4 202.7,261.4 202.7,292.3 221.8,292.3 221.8,275.5 240.8,275.5 240.8,257.4 259.8,257.4 259.8,249.0 278.9,249.0 278.9,326.6 297.9,326.6 297.9,362.6 317.0,362.6 317.0,352.2 336.0,352.2 336.0,294.0 355.0,294.0 355.0,271.1 374.1,271.1 374.1,244.4 393.1,244.4 393.1,264.1 412.2,264.1 412.2,257.5 431.2,257.5 431.2,250.6 450.2,250.6 450.2,230.6 469.3,230.6 469.3,238.7 488.3,238.7 488.3,206.2 507.4,206.2 507.4,239.1 526.4,239.1 526.4,187.4 545.4,187.4 545.4,203.0 564.5,203.0 564.5,139.9 583.5,139.9 583.5,182.9 602.6,182.9 602.6,114.2 621.6,114.2 621.6,210.4 640.6,210.4 640.6,131.0 659.7,131.0 659.7,216.3 678.7,216.3 678.7,133.8 697.8,133.8 697.8,204.8 716.8,204.8 716.8,268.8 735.8,268.8 735.8,249.6 754.9,249.6 754.9,301.7 773.9,301.7 773.9,380.5 793.0,380.5 793.0,381.2 812.0,381.2 812.0,406.4 831.0,406.4 831.0,381.3 850.1,381.3 850.1,400.7 869.1,400.7 869.1,401.0 888.2,401.0" stroke="#000" stroke-width="0.90" stroke-opacity="1.00" fill="none" clip-path="url(#axis_clip)"/>
  </symbol>
  <symbol id="line_14" viewBox="0 0 1200.000 674.916">
<polyline class="pl" points="-44.8,531.7 -25.8,531.7 -25.8,533.3 -6.7,533.3 -6.7,528.2 12.3,528.2 12.3,530.2 31.4,530.2 31.4,519.1 50.4,519.1 50.4,519.2 69.4,519.2 69.4,520.5 88.5,520.5 88.5,519.3 107.5,519.3 107.5,510.9 126.6,510.9 126.6,500.8 145.6,500.8 145.6,496.2 164.6,496.2 164.6,490.8 183.7,490.8 183.7,483.7 202.7,483.7 202.7,478.9 221.8,478.9 221.8,469.9 240.8,469.9 240.8,415.7 259.8,415.7 259.8,413.4 278.9,413.4 278.9,452.3 297.9,452.3 297.9,473.1 317.0,473.1 317.0,462.8 336.0,462.8 336.0,437.9 355.0,437.9 355.0,419.7 374.1,419.7 374.1,418.4 393.1,418.4 393.1,407.1 412.2,407.1 412.2,433.5 431.2,433.5 431.2,441.2 450.2,441.2 450.2,457.1 469.3,457.1 469.3,455.6 488.3,455.6 488.3,453.5 507.4,453.5 507.4,451.6 526.4,451.6 526.4,446.1 545.4,446.1 545.4,442.1 564.5,442.1 564.5,409.7 583.5,409.7 583.5,420.6 602.6,420.6 602.6,399.3 621.6,399.3 621.6,440.9 640.6,440.9 640.6,409.8 659.7,409.8 659.7,448.6 678.7,448.6 678.7,443.5 697.8,443.5 697.8,458.6 716.8,458.6 716.8,479.5 735.8,479.5 735.8,475.2 754.9,475.2 754.9,504.2 773.9,504.2 773.9,523.9 793.0,523.9 793.0,529.3 812.0,529.3 812.0,531.0 831.0,531.0 831.0,531.7 850.1,531.7 850.1,534.4 869.1,534.4 869.1,536.9 888.2,536.9" stroke="#000" stroke-width="0.90" stroke-opacity="1.00" fill="none" clip-path="url(#axis_clip)"/>
  </symbol>
  <symbol id="line_15" viewBox="0 0 1200.000 674.916">
<polyline class="pl" points="-44.8,531.7 -25.8,531.7 -25.8,533.3 -6.7,533.3 -6.7,528.2 12.3,528.2 12.3,530.2 31.4,530.2 31.4,519.1 50.4,519.1 50.4,519.2 69.4,519.2 69.4,520.5 88.5,520.5 88.5,519.3 107.5,519.3 107.5,510.9 126.6,510.9 126.6,500.8 145.6,500.8 145.6,496.2 164.6,496.2 164.6,490.8 183.7,490.8 183.7,483.7 202.7,483.7 202.7,478.9 221.8,478.9 221.8,469.9 240.8,469.9 240.8,415.7 259.8,415.7 259.8,413.4 278.9,413.4 278.9,452.3 297.9,452.3 297.9,473.1 317.0,473.1 317.0,462.8 336.0,462.8 336.0,437.9 355.0,437.9 355.0,419.7 374.1,419.7 374.1,418.4 393.1,418.4 393.1,407.1 412.2,407.1 412.2,433.5 431.2,433.5 431.2,441.2 450.2,441.2 450.2,457.1 469.3,457.1 469.3,455.6 488.3,455.6 488.3,453.5 507.4,453.5 507.4,451.6 526.4,451.6 526.4,446.1 545.4,446.1 545.4,442.1 564.5,442.1 564.5,409.7 583.5,409.7 583.5,420.6 602.6,420.6 602.6,399.3 621.6,399.3 621.6,440.9 640.6,440.9 640.6,409.8 659.7,409.8 659.7,448.6 678.7,448.6 678.7,443.5 697.8,443.5 697.8,458.6 716.8,458.6 716.8,479.5 735.8,479.5 735.8,475.2 754.9,475.2 754.9,504.2 773.9,504.2 773.9,523.9 793.0,523.9 793.0,529.3 812.0,529.3 812.0,531.0 831.0,531.0 831.0,531.7 850.1,531.7 850.1,534.4 869.1,534.4 869.1,536.9 888.2,536.9" stroke="#000" stroke-width="0.90" stroke-opacity="1.00" fill="none" clip-path="url(#axis_clip)"/>
  </symbol>
</defs>
<g id="main">
<text class="ticklabel ytl" transform="translate(128.8,568.3)">0</text>
<text class="ticklabel ytl" transform="translate(128.8,496.0)">20 000</text>
<text class="ticklabel ytl" transform="translate(128.8,423.7)">40 000</text>
<text class="ticklabel ytl" transform="translate(128.8,351.3)">60 000</text>
<text class="ticklabel ytl" transform="translate(128.8,279.0)">80 000</text>
<text class="ticklabel ytl" transform="translate(128.8,206.7)">100 000</text>
<text class="ticklabel ytl" transform="translate(128.8,134.4)">120 000</text>
<text class="ticklabel ytl" transform="translate(128.8,62.1)">140 000</text>
<g id="areas">
  <g class="pg_5">
    <polygon class="pl" points="-44.8,327.6 -25.8,327.6 -25.8,381.9 -6.7,381.9 -6.7,372.6 12.3,372.6 12.3,400.3 31.4,400.3 31.4,348.4 50.4,348.4 50.4,368.5 69.4,368.5 69.4,388.8 88.5,388.8 88.5,382.6 107.5,382.6 107.5,346.6 126.6,346.6 126.6,330.7 145.6,330.7 145.6,290.5 164.6,290.5 164.6,292.6 183.7,292.6 183.7,261.4 202.7,261.4 202.7,292.3 221.8,292.3 221.8,275.5 240.8,275.5 240.8,257.4 259.8,257.4 259.8,249.0 278.9,249.0 278.9,326.6 297.9,326.6 297.9,362.5 317.0,362.5 317.0,352.0 336.0,352.0 336.0,293.9 355.0,293.9 355.0,271.1 374.1,271.1 374.1,243.3 393.1,243.3 393.1,263.5 412.2,263.5 412.2,256.5 431.2,256.5 431.2,249.7 450.2,249.7 450.2,229.9 469.3,229.9 469.3,237.3 488.3,237.3 488.3,203.9 507.4,203.9 507.4,235.3 526.4,235.3 526.4,183.1 545.4,183.1 545.4,190.1 564.5,190.1 564.5,138.2 583.5,138.2 583.5,177.8 602.6,177.8 602.6,113.3 621.6,113.3 621.6,206.3 640.6,206.3 640.6,123.2 659.7,123.2 659.7,207.3 678.7,207.3 678.7,118.1 697.8,118.1 697.8,186.5 716.8,186.5 716.8,239.0 735.8,239.0 735.8,161.9 754.9,161.9 754.9,208.3 773.9,208.3 773.9,237.4 793.0,237.4 793.0,291.9 812.0,291.9 812.0,288.8 831.0,288.8 831.0,254.0 850.1,254.0 850.1,239.4 869.1,239.4 869.1,246.7 888.2,246.7 888.2,246.7 869.1,246.7 869.1,239.4 850.1,239.4 850.1,254.0 831.0,254.0 831.0,288.8 812.0,288.8 812.0,291.9 793.0,291.9 793.0,237.7 773.9,237.7 773.9,208.3 754.9,208.3 754.9,162.1 735.8,162.1 735.8,239.0 716.8,239.0 716.8,186.5 697.8,186.5 697.8,118.2 678.7,118.2 678.7,207.3 659.7,207.3 659.7,123.2 640.6,123.2 640.6,206.4 621.6,206.4 621.6,113.4 602.6,113.4 602.6,177.9 583.5,177.9 583.5,138.3 564.5,138.3 564.5,190.2 545.4,190.2 545.4,183.1 526.4,183.1 526.4,235.4 507.4,235.4 507.4,203.9 488.3,203.9 488.3,237.3 469.3,237.3 469.3,230.0 450.2,230.0 450.2,249.7 431.2,249.7 431.2,256.5 412.2,256.5 412.2,263.5 393.1,263.5 393.1,243.3 374.1,243.3 374.1,271.1 355.0,271.1 355.0,294.0 336.0,294.0 336.0,352.2 317.0,352.2 317.0,362.6 297.9,362.6 297.9,326.6 278.9,326.6 278.9,249.0 259.8,249.0 259.8,257.4 240.8,257.4 240.8,275.5 221.8,275.5 221.8,292.3 202.7,292.3 202.7,261.4 183.7,261.4 183.7,292.6 164.6,292.6 164.6,290.5 145.6,290.5 145.6,330.7 126.6,330.7 126.6,346.6 107.5,346.6 107.5,382.6 88.5,382.6 88.5,388.8 69.4,388.8 69.4,368.5 50.4,368.5 50.4,348.4 31.4,348.4 31.4,400.3 12.3,400.3 12.3,372.6 -6.7,372.6 -6.7,382.0 -25.8,382.0 -25.8,327.6 -44.8,327.6" stroke="none" stroke-width="0.9000"  fill="#808080" clip-path="url(#axis_clip)"/>
    <text class="pl" transform="translate(925.2,246.7)" dy="7.6" font-size="25.20" fill="#808080" stroke="none">Others</text>
    <text class="pl" transform="translate(145.6,47.2)" dy="0.0" font-size="27.00" fill="#808080" stroke="none">Danish new passenger car sales by type: Half-Yearly</text>
  </g>
  <g class="pg_4">
    <polygon class="pl" points="-44.8,327.6 -25.8,327.6 -25.8,382.0 -6.7,382.0 -6.7,372.6 12.3,372.6 12.3,400.3 31.4,400.3 31.4,348.4 50.4,348.4 50.4,368.5 69.4,368.5 69.4,388.8 88.5,388.8 88.5,382.6 107.5,382.6 107.5,346.6 126.6,346.6 126.6,330.7 145.6,330.7 145.6,290.5 164.6,290.5 164.6,292.6 183.7,292.6 183.7,261.4 202.7,261.4 202.7,292.3 221.8,292.3 221.8,275.5 240.8,275.5 240.8,257.4 259.8,257.4 259.8,249.0 278.9,249.0 278.9,326.6 297.9,326.6 297.9,362.6 317.0,362.6 317.0,352.2 336.0,352.2 336.0,294.0 355.0,294.0 355.0,271.1 374.1,271.1 374.1,243.3 393.1,243.3 393.1,263.5 412.2,263.5 412.2,256.5 431.2,256.5 431.2,249.7 450.2,249.7 450.2,230.0 469.3,230.0 469.3,237.3 488.3,237.3 488.3,203.9 507.4,203.9 507.4,235.4 526.4,235.4 526.4,183.1 545.4,183.1 545.4,190.2 564.5,190.2 564.5,138.3 583.5,138.3 583.5,177.9 602.6,177.9 602.6,113.4 621.6,113.4 621.6,206.4 640.6,206.4 640.6,123.2 659.7,123.2 659.7,207.3 678.7,207.3 678.7,118.2 697.8,118.2 697.8,186.5 716.8,186.5 716.8,239.0 735.8,239.0 735.8,162.1 754.9,162.1 754.9,208.3 773.9,208.3 773.9,237.7 793.0,237.7 793.0,291.9 812.0,291.9 812.0,288.8 831.0,288.8 831.0,254.0 850.1,254.0 850.1,239.4 869.1,239.4 869.1,246.7 888.2,246.7 888.2,387.4 869.1,387.4 869.1,371.6 850.1,371.6 850.1,348.2 831.0,348.2 831.0,356.2 812.0,356.2 812.0,335.8 793.0,335.8 793.0,300.9 773.9,300.9 773.9,235.1 754.9,235.1 754.9,200.1 735.8,200.1 735.8,252.4 716.8,252.4 716.8,197.1 697.8,197.1 697.8,127.5 678.7,127.5 678.7,211.0 659.7,211.0 659.7,125.1 640.6,125.1 640.6,208.5 621.6,208.5 621.6,113.8 602.6,113.8 602.6,181.6 583.5,181.6 583.5,139.2 564.5,139.2 564.5,202.0 545.4,202.0 545.4,186.9 526.4,186.9 526.4,238.8 507.4,238.8 507.4,206.2 488.3,206.2 488.3,238.7 469.3,238.7 469.3,230.6 450.2,230.6 450.2,250.6 431.2,250.6 431.2,257.5 412.2,257.5 412.2,264.1 393.1,264.1 393.1,244.4 374.1,244.4 374.1,271.1 355.0,271.1 355.0,294.0 336.0,294.0 336.0,352.2 317.0,352.2 317.0,362.6 297.9,362.6 297.9,326.6 278.9,326.6 278.9,249.0 259.8,249.0 259.8,257.4 240.8,257.4 240.8,275.5 221.8,275.5 221.8,292.3 202.7,292.3 202.7,261.4 183.7,261.4 183.7,292.6 164.6,292.6 164.6,290.5 145.6,290.5 145.6,330.7 126.6,330.7 126.6,346.6 107.5,346.6 107.5,382.6 88.5,382.6 88.5,388.8 69.4,388.8 69.4,368.5 50.4,368.5 50.4,348.4 31.4,348.4 31.4,400.3 12.3,400.3 12.3,372.6 -6.7,372.6 -6.7,382.0 -25.8,382.0 -25.8,327.6 -44.8,327.6" stroke="none" stroke-width="0.9000"  fill="#6298C6" clip-path="url(#axis_clip)"/>
    <text class="pl" transform="translate(925.2,317.1)" dy="7.6" font-size="25.20" fill="#6298C6" stroke="none">Battery electric</text>
  </g>
  <g class="pg_3">
    <polygon class="pl" points="-44.8,327.6 -25.8,327.6 -25.8,382.0 -6.7,382.0 -6.7,372.6 12.3,372.6 12.3,400.3 31.4,400.3 31.4,348.4 50.4,348.4 50.4,368.5 69.4,368.5 69.4,388.8 88.5,388.8 88.5,382.6 107.5,382.6 107.5,346.6 126.6,346.6 126.6,330.7 145.6,330.7 145.6,290.5 164.6,290.5 164.6,292.6 183.7,292.6 183.7,261.4 202.7,261.4 202.7,292.3 221.8,292.3 221.8,275.5 240.8,275.5 240.8,257.4 259.8,257.4 259.8,249.0 278.9,249.0 278.9,326.6 297.9,326.6 297.9,362.6 317.0,362.6 317.0,352.2 336.0,352.2 336.0,294.0 355.0,294.0 355.0,271.1 374.1,271.1 374.1,244.4 393.1,244.4 393.1,264.1 412.2,264.1 412.2,257.5 431.2,257.5 431.2,250.6 450.2,250.6 450.2,230.6 469.3,230.6 469.3,238.7 488.3,238.7 488.3,206.2 507.4,206.2 507.4,238.8 526.4,238.8 526.4,186.9 545.4,186.9 545.4,202.0 564.5,202.0 564.5,139.2 583.5,139.2 583.5,181.6 602.6,181.6 602.6,113.8 621.6,113.8 621.6,208.5 640.6,208.5 640.6,125.1 659.7,125.1 659.7,211.0 678.7,211.0 678.7,127.5 697.8,127.5 697.8,197.1 716.8,197.1 716.8,252.4 735.8,252.4 735.8,200.1 754.9,200.1 754.9,235.1 773.9,235.1 773.9,300.9 793.0,300.9 793.0,335.8 812.0,335.8 812.0,356.2 831.0,356.2 831.0,348.2 850.1,348.2 850.1,371.6 869.1,371.6 869.1,387.4 888.2,387.4 888.2,401.0 869.1,401.0 869.1,400.7 850.1,400.7 850.1,381.3 831.0,381.3 831.0,406.4 812.0,406.4 812.0,381.2 793.0,381.2 793.0,380.5 773.9,380.5 773.9,301.7 754.9,301.7 754.9,249.6 735.8,249.6 735.8,268.8 716.8,268.8 716.8,204.8 697.8,204.8 697.8,133.8 678.7,133.8 678.7,216.3 659.7,216.3 659.7,131.0 640.6,131.0 640.6,210.4 621.6,210.4 621.6,114.2 602.6,114.2 602.6,182.9 583.5,182.9 583.5,139.9 564.5,139.9 564.5,203.0 545.4,203.0 545.4,187.4 526.4,187.4 526.4,239.1 507.4,239.1 507.4,206.2 488.3,206.2 488.3,238.7 469.3,238.7 469.3,230.6 450.2,230.6 450.2,250.6 431.2,250.6 431.2,257.5 412.2,257.5 412.2,264.1 393.1,264.1 393.1,244.4 374.1,244.4 374.1,271.1 355.0,271.1 355.0,294.0 336.0,294.0 336.0,352.2 317.0,352.2 317.0,362.6 297.9,362.6 297.9,326.6 278.9,326.6 278.9,249.0 259.8,249.0 259.8,257.4 240.8,257.4 240.8,275.5 221.8,275.5 221.8,292.3 202.7,292.3 202.7,261.4 183.7,261.4 183.7,292.6 164.6,292.6 164.6,290.5 145.6,290.5 145.6,330.7 126.6,330.7 126.6,346.6 107.5,346.6 107.5,382.6 88.5,382.6 88.5,388.8 69.4,388.8 69.4,368.5 50.4,368.5 50.4,348.4 31.4,348.4 31.4,400.3 12.3,400.3 12.3,372.6 -6.7,372.6 -6.7,382.0 -25.8,382.0 -25.8,327.6 -44.8,327.6" stroke="none" stroke-width="0.9000"  fill="#77AC30" clip-path="url(#axis_clip)"/>
    <text class="pl" transform="translate(925.2,394.2)" dy="7.6" font-size="25.20" fill="#77AC30" stroke="none">Hybrid</text>
    <text class="pl" transform="translate(925.2,409.8)" dy="18.0" font-size="18.00" fill="#77AC30" stroke="none">Includes plug-ins</text>
  </g>
  <g class="pg_2">
    <polygon class="pl" points="-44.8,327.6 -25.8,327.6 -25.8,382.0 -6.7,382.0 -6.7,372.6 12.3,372.6 12.3,400.3 31.4,400.3 31.4,348.4 50.4,348.4 50.4,368.5 69.4,368.5 69.4,388.8 88.5,388.8 88.5,382.6 107.5,382.6 107.5,346.6 126.6,346.6 126.6,330.7 145.6,330.7 145.6,290.5 164.6,290.5 164.6,292.6 183.7,292.6 183.7,261.4 202.7,261.4 202.7,292.3 221.8,292.3 221.8,275.5 240.8,275.5 240.8,257.4 259.8,257.4 259.8,249.0 278.9,249.0 278.9,326.6 297.9,326.6 297.9,362.6 317.0,362.6 317.0,352.2 336.0,352.2 336.0,294.0 355.0,294.0 355.0,271.1 374.1,271.1 374.1,244.4 393.1,244.4 393.1,264.1 412.2,264.1 412.2,257.5 431.2,257.5 431.2,250.6 450.2,250.6 450.2,230.6 469.3,230.6 469.3,238.7 488.3,238.7 488.3,206.2 507.4,206.2 507.4,239.1 526.4,239.1 526.4,187.4 545.4,187.4 545.4,203.0 564.5,203.0 564.5,139.9 583.5,139.9 583.5,182.9 602.6,182.9 602.6,114.2 621.6,114.2 621.6,210.4 640.6,210.4 640.6,131.0 659.7,131.0 659.7,216.3 678.7,216.3 678.7,133.8 697.8,133.8 697.8,204.8 716.8,204.8 716.8,268.8 735.8,268.8 735.8,249.6 754.9,249.6 754.9,301.7 773.9,301.7 773.9,380.5 793.0,380.5 793.0,381.2 812.0,381.2 812.0,406.4 831.0,406.4 831.0,381.3 850.1,381.3 850.1,400.7 869.1,400.7 869.1,401.0 888.2,401.0 888.2,536.9 869.1,536.9 869.1,534.4 850.1,534.4 850.1,531.7 831.0,531.7 831.0,531.0 812.0,531.0 812.0,529.3 793.0,529.3 793.0,523.9 773.9,523.9 773.9,504.2 754.9,504.2 754.9,475.2 735.8,475.2 735.8,479.5 716.8,479.5 716.8,458.6 697.8,458.6 697.8,443.5 678.7,443.5 678.7,448.6 659.7,448.6 659.7,409.8 640.6,409.8 640.6,440.9 621.6,440.9 621.6,399.3 602.6,399.3 602.6,420.6 583.5,420.6 583.5,409.7 564.5,409.7 564.5,442.1 545.4,442.1 545.4,446.1 526.4,446.1 526.4,451.6 507.4,451.6 507.4,453.5 488.3,453.5 488.3,455.6 469.3,455.6 469.3,457.1 450.2,457.1 450.2,441.2 431.2,441.2 431.2,433.5 412.2,433.5 412.2,407.1 393.1,407.1 393.1,418.4 374.1,418.4 374.1,419.7 355.0,419.7 355.0,437.9 336.0,437.9 336.0,462.8 317.0,462.8 317.0,473.1 297.9,473.1 297.9,452.3 278.9,452.3 278.9,413.4 259.8,413.4 259.8,415.7 240.8,415.7 240.8,469.9 221.8,469.9 221.8,478.9 202.7,478.9 202.7,483.7 183.7,483.7 183.7,490.8 164.6,490.8 164.6,496.2 145.6,496.2 145.6,500.8 126.6,500.8 126.6,510.9 107.5,510.9 107.5,519.3 88.5,519.3 88.5,520.5 69.4,520.5 69.4,519.2 50.4,519.2 50.4,519.1 31.4,519.1 31.4,530.2 12.3,530.2 12.3,528.2 -6.7,528.2 -6.7,533.3 -25.8,533.3 -25.8,531.7 -44.8,531.7" stroke="none" stroke-width="0.9000"  fill="#7B553E" clip-path="url(#axis_clip)"/>
    <text class="pl" transform="translate(925.2,468.9)" dy="7.6" font-size="25.20" fill="#7B553E" stroke="none">Petrol</text>
  </g>
  <g class="pg_1">
    <polygon class="pl" points="-44.8,531.7 -25.8,531.7 -25.8,533.3 -6.7,533.3 -6.7,528.2 12.3,528.2 12.3,530.2 31.4,530.2 31.4,519.1 50.4,519.1 50.4,519.2 69.4,519.2 69.4,520.5 88.5,520.5 88.5,519.3 107.5,519.3 107.5,510.9 126.6,510.9 126.6,500.8 145.6,500.8 145.6,496.2 164.6,496.2 164.6,490.8 183.7,490.8 183.7,483.7 202.7,483.7 202.7,478.9 221.8,478.9 221.8,469.9 240.8,469.9 240.8,415.7 259.8,415.7 259.8,413.4 278.9,413.4 278.9,452.3 297.9,452.3 297.9,473.1 317.0,473.1 317.0,462.8 336.0,462.8 336.0,437.9 355.0,437.9 355.0,419.7 374.1,419.7 374.1,418.4 393.1,418.4 393.1,407.1 412.2,407.1 412.2,433.5 431.2,433.5 431.2,441.2 450.2,441.2 450.2,457.1 469.3,457.1 469.3,455.6 488.3,455.6 488.3,453.5 507.4,453.5 507.4,451.6 526.4,451.6 526.4,446.1 545.4,446.1 545.4,442.1 564.5,442.1 564.5,409.7 583.5,409.7 583.5,420.6 602.6,420.6 602.6,399.3 621.6,399.3 621.6,440.9 640.6,440.9 640.6,409.8 659.7,409.8 659.7,448.6 678.7,448.6 678.7,443.5 697.8,443.5 697.8,458.6 716.8,458.6 716.8,479.5 735.8,479.5 735.8,475.2 754.9,475.2 754.9,504.2 773.9,504.2 773.9,523.9 793.0,523.9 793.0,529.3 812.0,529.3 812.0,531.0 831.0,531.0 831.0,531.7 850.1,531.7 850.1,534.4 869.1,534.4 869.1,536.9 888.2,536.9 888.2,560.2 -44.8,560.2" stroke="none" stroke-width="0.9000"  fill="#7B6E57" clip-path="url(#axis_clip)"/>
    <text class="pl" transform="translate(925.2,548.5)" dy="7.6" font-size="25.20" fill="#7B6E57" stroke="none">Diesel</text>
  </g>
</g>
<g id="lines">
  <g class="pl_1">
    <use xlink:href="#line_1" class="thick" stroke="#000" stroke-width="3" opacity="0"/>
    <use xlink:href="#line_1" class="pl pll" stroke="#000" stroke-width="0.90"/>
  </g>
  <g class="pl_2">
    <use xlink:href="#line_2" class="thick" stroke="#000" stroke-width="3" opacity="0"/>
    <use xlink:href="#line_2" class="pl pll" stroke="#000" stroke-width="0.90"/>
  </g>
  <g class="pl_3">
    <use xlink:href="#line_3" class="thick" stroke="#000" stroke-width="3" opacity="0"/>
    <use xlink:href="#line_3" class="pl pll" stroke="#000" stroke-width="0.90"/>
  </g>
  <g class="pl_4">
    <use xlink:href="#line_4" class="thick" stroke="#000" stroke-width="3" opacity="0"/>
    <use xlink:href="#line_4" class="pl pll" stroke="#000" stroke-width="0.90"/>
  </g>
  <g class="pl_5">
    <use xlink:href="#line_5" class="thick" stroke="#000" stroke-width="3" opacity="0"/>
    <use xlink:href="#line_5" class="pl pll" stroke="#000" stroke-width="0.90"/>
  </g>
  <g class="pl_6">
    <use xlink:href="#line_6" class="thick" stroke="#000" stroke-width="3" opacity="0"/>
    <use xlink:href="#line_6" class="pl pll" stroke="#000" stroke-width="0.90"/>
  </g>
  <g class="pl_7">
    <use xlink:href="#line_7" class="thick" stroke="#000" stroke-width="3" opacity="0"/>
    <use xlink:href="#line_7" class="pl pll" stroke="#000" stroke-width="0.90"/>
  </g>
  <g class="pl_8">
    <use xlink:href="#line_8" class="thick" stroke="#000" stroke-width="3" opacity="0"/>
    <use xlink:href="#line_8" class="pl pll" stroke="#000" stroke-width="0.90"/>
  </g>
  <g class="pl_9">
    <use xlink:href="#line_9" class="thick" stroke="#000" stroke-width="3" opacity="0"/>
    <use xlink:href="#line_9" class="pl pll" stroke="#000" stroke-width="0.90"/>
  </g>
  <g class="pl_10">
    <use xlink:href="#line_10" class="thick" stroke="#000" stroke-width="3" opacity="0"/>
    <use xlink:href="#line_10" class="pl pll" stroke="#000" stroke-width="0.90"/>
  </g>
  <g class="pl_11">
    <use xlink:href="#line_11" class="thick" stroke="#000" stroke-width="3" opacity="0"/>
    <use xlink:href="#line_11" class="pl pll" stroke="#000" stroke-width="0.90"/>
  </g>
  <g class="pl_12">
    <use xlink:href="#line_12" class="thick" stroke="#000" stroke-width="3" opacity="0"/>
    <use xlink:href="#line_12" class="pl pll" stroke="#000" stroke-width="0.90"/>
  </g>
  <g class="pl_13">
    <use xlink:href="#line_13" class="thick" stroke="#000" stroke-width="3" opacity="0"/>
    <use xlink:href="#line_13" class="pl pll" stroke="#000" stroke-width="0.90"/>
  </g>
  <g class="pl_14">
    <use xlink:href="#line_14" class="thick" stroke="#000" stroke-width="3" opacity="0"/>
    <use xlink:href="#line_14" class="pl pll" stroke="#000" stroke-width="0.90"/>
  </g>
  <g class="pl_15">
    <use xlink:href="#line_15" class="thick" stroke="#000" stroke-width="3" opacity="0"/>
    <use xlink:href="#line_15" class="pl pll" stroke="#000" stroke-width="0.90"/>
  </g>
</g>
    <text class="pl" transform="translate(164.6,573.0) rotate(-90)" dy="8.1" font-size="27.00" fill="#808080" stroke="none" text-anchor="end">2005</text>
    <text class="pl" transform="translate(202.7,573.0) rotate(-90)" dy="8.1" font-size="27.00" fill="#808080" stroke="none" text-anchor="end">2006</text>
    <text class="pl" transform="translate(240.8,573.0) rotate(-90)" dy="8.1" font-size="27.00" fill="#808080" stroke="none" text-anchor="end">2007</text>
    <text class="pl" transform="translate(278.9,573.0) rotate(-90)" dy="8.1" font-size="27.00" fill="#808080" stroke="none" text-anchor="end">2008</text>
    <text class="pl" transform="translate(317.0,573.0) rotate(-90)" dy="8.1" font-size="27.00" fill="#808080" stroke="none" text-anchor="end">2009</text>
    <text class="pl" transform="translate(355.0,573.0) rotate(-90)" dy="8.1" font-size="27.00" fill="#808080" stroke="none" text-anchor="end">2010</text>
    <text class="pl" transform="translate(393.1,573.0) rotate(-90)" dy="8.1" font-size="27.00" fill="#808080" stroke="none" text-anchor="end">2011</text>
    <text class="pl" transform="translate(431.2,573.0) rotate(-90)" dy="8.1" font-size="27.00" fill="#808080" stroke="none" text-anchor="end">2012</text>
    <text class="pl" transform="translate(469.3,573.0) rotate(-90)" dy="8.1" font-size="27.00" fill="#808080" stroke="none" text-anchor="end">2013</text>
    <text class="pl" transform="translate(507.4,573.0) rotate(-90)" dy="8.1" font-size="27.00" fill="#808080" stroke="none" text-anchor="end">2014</text>
    <text class="pl" transform="translate(545.4,573.0) rotate(-90)" dy="8.1" font-size="27.00" fill="#808080" stroke="none" text-anchor="end">2015</text>
    <text class="pl" transform="translate(583.5,573.0) rotate(-90)" dy="8.1" font-size="27.00" fill="#808080" stroke="none" text-anchor="end">2016</text>
    <text class="pl" transform="translate(621.6,573.0) rotate(-90)" dy="8.1" font-size="27.00" fill="#808080" stroke="none" text-anchor="end">2017</text>
    <text class="pl" transform="translate(659.7,573.0) rotate(-90)" dy="8.1" font-size="27.00" fill="#808080" stroke="none" text-anchor="end">2018</text>
    <text class="pl" transform="translate(697.8,573.0) rotate(-90)" dy="8.1" font-size="27.00" fill="#808080" stroke="none" text-anchor="end">2019</text>
    <text class="pl" transform="translate(735.8,573.0) rotate(-90)" dy="8.1" font-size="27.00" fill="#808080" stroke="none" text-anchor="end">2020</text>
    <text class="pl" transform="translate(773.9,573.0) rotate(-90)" dy="8.1" font-size="27.00" fill="#808080" stroke="none" text-anchor="end">2021</text>
    <text class="pl" transform="translate(812.0,573.0) rotate(-90)" dy="8.1" font-size="27.00" fill="#808080" stroke="none" text-anchor="end">2022</text>
    <text class="pl" transform="translate(850.1,573.0) rotate(-90)" dy="8.1" font-size="27.00" fill="#808080" stroke="none" text-anchor="end">2023</text>
    <text class="pl" transform="translate(888.2,573.0) rotate(-90)" dy="8.1" font-size="27.00" fill="#808080" stroke="none" text-anchor="end">2024</text>
<text transform="translate(157.6,666.1)" font-size="19.80" font-family="Helvetica" fill="#BFBFBF" stroke="none" xml:space="preserve"><a href="https://twitter.com/robbie_andrew" style="fill:#BFBFBF" target="_blank">@robbie_andrew</a>   &#9679;   Data: DST   &#9679;   Through August 2024</text>
<text class="twitlink" transform="translate(157.6,666.1)" opacity="0" font-size="19.80" fill="#BFBFBF" stroke="none" xml:space="preserve"><a href="https://twitter.com/robbie_andrew" style="fill:#BFBFBF" target="_blank">@robbie_andrew</a></text>
  <g class="dl_el" transform="translate(154.6,578.4)">
    <g class="dl_el_balloon">
      <foreignObject x="0" y="0" width="120" height="500">
      <div xmlns="http://www.w3.org/1999/xhtml" class="dl_fe" style="height:60px">
      <p class="dl_fe_p">Find me on Twitter</p>
      </div>
	    </foreignObject>
      <path stroke="#000" fill="#FDFFDF" d="M0,60H60l5,5l5,-5H120"/>
    </g>
  </g>
<use xlink:href="#line_y" transform="translate(145.6,0)"/>
<use xlink:href="#line_y" transform="translate(183.7,0)"/>
<use xlink:href="#line_y" transform="translate(221.8,0)"/>
<use xlink:href="#line_y" transform="translate(259.8,0)"/>
<use xlink:href="#line_y" transform="translate(297.9,0)"/>
<use xlink:href="#line_y" transform="translate(336.0,0)"/>
<use xlink:href="#line_y" transform="translate(374.1,0)"/>
<use xlink:href="#line_y" transform="translate(412.2,0)"/>
<use xlink:href="#line_y" transform="translate(450.2,0)"/>
<use xlink:href="#line_y" transform="translate(488.3,0)"/>
<use xlink:href="#line_y" transform="translate(526.4,0)"/>
<use xlink:href="#line_y" transform="translate(564.5,0)"/>
<use xlink:href="#line_y" transform="translate(602.6,0)"/>
<use xlink:href="#line_y" transform="translate(640.6,0)"/>
<use xlink:href="#line_y" transform="translate(678.7,0)"/>
<use xlink:href="#line_y" transform="translate(716.8,0)"/>
<use xlink:href="#line_y" transform="translate(754.9,0)"/>
<use xlink:href="#line_y" transform="translate(793.0,0)"/>
<use xlink:href="#line_y" transform="translate(831.0,0)"/>
<use xlink:href="#line_y" transform="translate(869.1,0)"/>
<use xlink:href="#line_y" transform="translate(907.2,0)"/>
<use xlink:href="#line_x" transform="translate(0,560.2)"/>
<use xlink:href="#line_x" transform="translate(0,487.9)"/>
<use xlink:href="#line_x" transform="translate(0,415.6)"/>
<use xlink:href="#line_x" transform="translate(0,343.2)"/>
<use xlink:href="#line_x" transform="translate(0,270.9)"/>
<use xlink:href="#line_x" transform="translate(0,198.6)"/>
<use xlink:href="#line_x" transform="translate(0,126.3)"/>
<use xlink:href="#line_x" transform="translate(0,54.0)"/>
<use xlink:href="#tick_x" transform="translate(145.6,0)"/>
<use xlink:href="#tick_x" transform="translate(183.7,0)"/>
<use xlink:href="#tick_x" transform="translate(221.8,0)"/>
<use xlink:href="#tick_x" transform="translate(259.8,0)"/>
<use xlink:href="#tick_x" transform="translate(297.9,0)"/>
<use xlink:href="#tick_x" transform="translate(336.0,0)"/>
<use xlink:href="#tick_x" transform="translate(374.1,0)"/>
<use xlink:href="#tick_x" transform="translate(412.2,0)"/>
<use xlink:href="#tick_x" transform="translate(450.2,0)"/>
<use xlink:href="#tick_x" transform="translate(488.3,0)"/>
<use xlink:href="#tick_x" transform="translate(526.4,0)"/>
<use xlink:href="#tick_x" transform="translate(564.5,0)"/>
<use xlink:href="#tick_x" transform="translate(602.6,0)"/>
<use xlink:href="#tick_x" transform="translate(640.6,0)"/>
<use xlink:href="#tick_x" transform="translate(678.7,0)"/>
<use xlink:href="#tick_x" transform="translate(716.8,0)"/>
<use xlink:href="#tick_x" transform="translate(754.9,0)"/>
<use xlink:href="#tick_x" transform="translate(793.0,0)"/>
<use xlink:href="#tick_x" transform="translate(831.0,0)"/>
<use xlink:href="#tick_x" transform="translate(869.1,0)"/>
<use xlink:href="#tick_x" transform="translate(907.2,0)"/>
<use xlink:href="#tick_y" transform="translate(0,560.2)"/>
<use xlink:href="#tick_y" transform="translate(0,487.9)"/>
<use xlink:href="#tick_y" transform="translate(0,415.6)"/>
<use xlink:href="#tick_y" transform="translate(0,343.2)"/>
<use xlink:href="#tick_y" transform="translate(0,270.9)"/>
<use xlink:href="#tick_y" transform="translate(0,198.6)"/>
<use xlink:href="#tick_y" transform="translate(0,126.3)"/>
<use xlink:href="#tick_y" transform="translate(0,54.0)"/>
<polyline points="145.6,53.993 145.6,560.180 907.2,560.180" stroke="#808080" stroke-width="0.90" fill="none"/>
<g>
<a href="https://creativecommons.org/licenses/by/4.0/">
  <rect x="123.0" y="651.4" width="34" height="17" fill="#FFF" stroke="none"/>
  <g transform="translate(124.0,652.4) scale(0.24)">
  <g><circle fill="#FFF" cx="37.79" cy="28.5" r="28.84"/>
     <circle fill="none" cx="37.79" cy="28.5" r="28.84" stroke="#BFBFBF" stroke-width="5.5"/>
     <path fill="#BFBFBF" d="M37.16,23.19 l-4.29,2.23c-0.458-0.951-1.02-1.62-1.69-2c-0.667-0.38-1.29-0.571-1.86-0.571c-2.86,0-4.29,1.89-4.29,5.66 c0,1.71,0.36,3.08,1.09,4.11c0.724,1.03,1.79,1.54,3.2,1.54c1.87,0,3.18-0.915,3.94-2.74l3.94,2 c-0.838,1.56-2,2.79-3.49,3.69c-1.48,0.896-3.12,1.34-4.91,1.34c-2.86,0-5.16-0.875-6.92-2.63 c-1.75-1.75-2.63-4.19-2.63-7.31c0-3.05,0.886-5.47,2.66-7.26c1.77-1.79,4.01-2.69,6.72-2.69 C32.6,18.56,35.44,20.1,37.16,23.19z
              M55.61,23.19l-4.23,2.23c-0.457-0.951-1.02-1.62-1.69-2 c-0.668-0.38-1.31-0.571-1.91-0.571c-2.86,0-4.29,1.89-4.29,5.66c0,1.71,0.363,3.08,1.09,4.11 c0.723,1.03,1.79,1.54,3.2,1.54c1.87,0,3.18-0.915,3.94-2.74l4,2c-0.875,1.56-2.06,2.79-3.54,3.69 c-1.49,0.9-3.11,1.34-4.86,1.34c-2.9,0-5.21-0.875-6.94-2.63c-1.74-1.75-2.6-4.19-2.6-7.31 c0-3.05,0.885-5.47,2.66-7.26c1.77-1.79,4.01-2.69,6.71-2.69C51.12,18.56,53.944,20.1,55.61,23.19z"/>
  </g></g>
  <g transform="translate(140.2,652.4) scale(0.24)">
  <g><circle fill="#FFF" cx="37.79" cy="28.5" r="28.84"/>
     <circle fill="none" cx="37.79" cy="28.5" r="28.84" stroke="#BFBFBF" stroke-width="5.5"/>
     <path fill="#BFBFBF" d="M46.129,20.557v13.085h-3.656v15.542h-9.944V33.643h-3.656V20.557 c0-0.572,0.2-1.057,0.599-1.457c0.401-0.399,0.887-0.6,1.457-0.6h13.144c0.533,0,1.01,0.2,1.428,0.6 C45.918,19.5,46.129,19.986,46.129,20.557z
              M33.042,12.329c0-3.008,1.485-4.514,4.458-4.514s4.457,1.504,4.457,4.514 c0,2.971-1.486,4.457-4.457,4.457S33.042,15.3,33.042,12.329z"/>
  </g></g>
  </a>
</g>
  <g class="dl_el" transform="translate(69.1,548.4)">
    <g class="dl_el_balloon">
      <foreignObject x="0" y="0" width="250" height="500">
      <div xmlns="http://www.w3.org/1999/xhtml" class="dl_fe" style="height:90px">
      <p class="dl_fe_p">CC-BY: Material may be freely re-used as long as you credit the author</p>
      </div>
	    </foreignObject>
      <path stroke="#000" fill="#FDFFDF" d="M0,90H70l5,5l5,-5H250"/>
    </g>
  </g>
</g>
</svg>
