<svg version="1.1" xmlns="http://www.w3.org/2000/svg" xmlns:xlink="http://www.w3.org/1999/xlink" width="100%" height="100%" viewBox="0 0 1200.000 674.916">
<title>Finnish new passenger car sales by type: Half-Yearly</title>
<desc>Created by Robbie Andrew (@robbie_andrew), CICERO Center for International Climate Research. CC-BY: Material may be freely re-used as long as you credit the author</desc>
<style type="text/css">
  #main {font-family:Helvetica,Arial,sans-serif; font-size:27.00px;
         fill-opacity:1; fill:#000000; stroke:none; stroke-linejoin:round; stroke-linecap:round; stroke-width:1.00;}
  a:hover {text-decoration: underline;}
  .marker {stroke-opacity:0;fill-opacity:0;}
  .marker:hover {stroke-opacity:0.5; fill-opacity:1;}
  .ticklabel {font-size:27.00px;fill:#808080;stroke:none;font-family:Helvetica}
  .ytl {text-anchor:end;}
  .dp1 {pointer-events:none;font-size:70%;text-anchor:middle;fill:#000000;}
  .dp2 {pointer-events:none;font-size:70%;text-anchor:middle;fill:#FFFFFF;}
  .numtip {pointer-events:none;}
  .cc {opacity:0.25;}
.dl_fe {background-color:#FDFFDF;display:flex;margin:auto;align-items:center}
.dl_fe_p {font-size:20px;text-align:center;margin:3px}
.dl_el {display:none;pointer-events:none;}
.cc:hover + .dl_el {display:block;}
text:hover + .dl_el {display:block;}
  #areas .pl {transition: all 0.2s ease;}
  #areas:hover .pl {opacity:0.5;}
  #areas:hover .thick {stroke-width:1;}
  #areas:hover .pg_1:hover .pl {opacity:1;}
  #areas:hover .pg_1:hover .pll {stroke-width:3;}
  #areas:hover .pg_1:hover .pldlm {stroke-width:2;}
  #areas:hover .pg_1:hover .thick {stroke-width:12;}
  #areas:hover .pg_2:hover .pl {opacity:1;}
  #areas:hover .pg_2:hover .pll {stroke-width:3;}
  #areas:hover .pg_2:hover .pldlm {stroke-width:2;}
  #areas:hover .pg_2:hover .thick {stroke-width:12;}
  #areas:hover .pg_3:hover .pl {opacity:1;}
  #areas:hover .pg_3:hover .pll {stroke-width:3;}
  #areas:hover .pg_3:hover .pldlm {stroke-width:2;}
  #areas:hover .pg_3:hover .thick {stroke-width:12;}
  #areas:hover .pg_4:hover .pl {opacity:1;}
  #areas:hover .pg_4:hover .pll {stroke-width:3;}
  #areas:hover .pg_4:hover .pldlm {stroke-width:2;}
  #areas:hover .pg_4:hover .thick {stroke-width:12;}
  #areas:hover .pg_5:hover .pl {opacity:1;}
  #areas:hover .pg_5:hover .pll {stroke-width:3;}
  #areas:hover .pg_5:hover .pldlm {stroke-width:2;}
  #areas:hover .pg_5:hover .thick {stroke-width:12;}
  #lines .pl {transition: all 0.2s ease;}
  #lines:hover .pl {opacity:0.3;}
  #lines:hover .thick {stroke-width:1;}
  #lines:hover .pl_1:hover .pl {opacity:1;}
  #lines:hover .pl_1:hover .pll {stroke-width:3;}
  #lines:hover .pl_1:hover .pldlm {stroke-width:2;}
  #lines:hover .pl_1:hover .thick {stroke-width:12;}
  #lines:hover .pl_2:hover .pl {opacity:1;}
  #lines:hover .pl_2:hover .pll {stroke-width:3;}
  #lines:hover .pl_2:hover .pldlm {stroke-width:2;}
  #lines:hover .pl_2:hover .thick {stroke-width:12;}
  #lines:hover .pl_3:hover .pl {opacity:1;}
  #lines:hover .pl_3:hover .pll {stroke-width:3;}
  #lines:hover .pl_3:hover .pldlm {stroke-width:2;}
  #lines:hover .pl_3:hover .thick {stroke-width:12;}
  #lines:hover .pl_4:hover .pl {opacity:1;}
  #lines:hover .pl_4:hover .pll {stroke-width:3;}
  #lines:hover .pl_4:hover .pldlm {stroke-width:2;}
  #lines:hover .pl_4:hover .thick {stroke-width:12;}
  #lines:hover .pl_5:hover .pl {opacity:1;}
  #lines:hover .pl_5:hover .pll {stroke-width:3;}
  #lines:hover .pl_5:hover .pldlm {stroke-width:2;}
  #lines:hover .pl_5:hover .thick {stroke-width:12;}
  #lines:hover .pl_6:hover .pl {opacity:1;}
  #lines:hover .pl_6:hover .pll {stroke-width:3;}
  #lines:hover .pl_6:hover .pldlm {stroke-width:2;}
  #lines:hover .pl_6:hover .thick {stroke-width:12;}
  #lines:hover .pl_7:hover .pl {opacity:1;}
  #lines:hover .pl_7:hover .pll {stroke-width:3;}
  #lines:hover .pl_7:hover .pldlm {stroke-width:2;}
  #lines:hover .pl_7:hover .thick {stroke-width:12;}
  #lines:hover .pl_8:hover .pl {opacity:1;}
  #lines:hover .pl_8:hover .pll {stroke-width:3;}
  #lines:hover .pl_8:hover .pldlm {stroke-width:2;}
  #lines:hover .pl_8:hover .thick {stroke-width:12;}
  #lines:hover .pl_9:hover .pl {opacity:1;}
  #lines:hover .pl_9:hover .pll {stroke-width:3;}
  #lines:hover .pl_9:hover .pldlm {stroke-width:2;}
  #lines:hover .pl_9:hover .thick {stroke-width:12;}
  #lines:hover .pl_10:hover .pl {opacity:1;}
  #lines:hover .pl_10:hover .pll {stroke-width:3;}
  #lines:hover .pl_10:hover .pldlm {stroke-width:2;}
  #lines:hover .pl_10:hover .thick {stroke-width:12;}
</style>
<defs>
  <clipPath id="axis_clip"><rect x="145.8" y="54.2" width="761.2" height="505.8" /></clipPath>
  <path id="line_y" d="M 0,53.993 v 506.187" stroke="#FFF" stroke-opacity="0.15" stroke-width="1.00"/>
  <path id="line_x" d="M 145.600,0 h 761.600" stroke="#FFF" stroke-opacity="0.15" stroke-width="1.00"/>
  <path id="tick_y" d="M 145.600,0 h -6.000" stroke="#808080" stroke-width="0.90"/>
  <path id="tick_x" d="M 0,560.180 v 6.000" stroke="#808080" stroke-width="0.90"/>
  <symbol id="line_1" viewBox="0 0 1200.000 674.916">
<polyline class="pl" points="145.6,54.2 180.2,54.2 180.2,54.2 214.8,54.2 214.8,54.0 249.5,54.0 249.5,54.1 284.1,54.1 284.1,54.1 318.7,54.1 318.7,54.2 353.3,54.2 353.3,54.2 387.9,54.2 387.9,54.4 422.5,54.4 422.5,54.6 457.2,54.6 457.2,55.0 491.8,55.0 491.8,59.2 526.4,59.2 526.4,68.2 561.0,68.2 561.0,66.1 595.6,66.1 595.6,61.3 630.3,61.3 630.3,59.2 664.9,59.2 664.9,58.0 699.5,58.0 699.5,56.2 734.1,56.2 734.1,59.4 768.7,59.4 768.7,56.4 803.3,56.4 803.3,56.8 838.0,56.8 838.0,55.2 872.6,55.2 872.6,54.3 907.2,54.3" stroke="#000" stroke-width="0.90" stroke-opacity="1.00" fill="none" clip-path="url(#axis_clip)"/>
  </symbol>
  <symbol id="line_2" viewBox="0 0 1200.000 674.916">
<polyline class="pl" points="145.6,54.8 180.2,54.8 180.2,55.3 214.8,55.3 214.8,55.1 249.5,55.1 249.5,55.3 284.1,55.3 284.1,55.0 318.7,55.0 318.7,55.3 353.3,55.3 353.3,56.3 387.9,56.3 387.9,56.5 422.5,56.5 422.5,57.1 457.2,57.1 457.2,59.2 491.8,59.2 491.8,67.6 526.4,67.6 526.4,76.7 561.0,76.7 561.0,82.1 595.6,82.1 595.6,89.6 630.3,89.6 630.3,96.1 664.9,96.1 664.9,130.9 699.5,130.9 699.5,125.4 734.1,125.4 734.1,173.1 768.7,173.1 768.7,221.6 803.3,221.6 803.3,234.2 838.0,234.2 838.0,191.9 872.6,191.9 872.6,193.7 907.2,193.7" stroke="#000" stroke-width="0.90" stroke-opacity="1.00" fill="none" clip-path="url(#axis_clip)"/>
  </symbol>
  <symbol id="line_3" viewBox="0 0 1200.000 674.916">
<polyline class="pl" points="145.6,55.9 180.2,55.9 180.2,56.8 214.8,56.8 214.8,57.0 249.5,57.0 249.5,57.3 284.1,57.3 284.1,59.4 318.7,59.4 318.7,61.3 353.3,61.3 353.3,64.3 387.9,64.3 387.9,70.9 422.5,70.9 422.5,78.1 457.2,78.1 457.2,79.7 491.8,79.7 491.8,87.8 526.4,87.8 526.4,110.1 561.0,110.1 561.0,144.6 595.6,144.6 595.6,165.8 630.3,165.8 630.3,203.0 664.9,203.0 664.9,229.9 699.5,229.9 699.5,226.7 734.1,226.7 734.1,272.1 768.7,272.1 768.7,317.0 803.3,317.0 803.3,349.5 838.0,349.5 838.0,292.9 872.6,292.9 872.6,292.4 907.2,292.4" stroke="#000" stroke-width="0.90" stroke-opacity="1.00" fill="none" clip-path="url(#axis_clip)"/>
  </symbol>
  <symbol id="line_4" viewBox="0 0 1200.000 674.916">
<polyline class="pl" points="145.6,365.1 180.2,365.1 180.2,360.6 214.8,360.6 214.8,373.1 249.5,373.1 249.5,386.7 284.1,386.7 284.1,389.6 318.7,389.6 318.7,395.7 353.3,395.7 353.3,394.7 387.9,394.7 387.9,420.0 422.5,420.0 422.5,438.4 457.2,438.4 457.2,438.9 491.8,438.9 491.8,453.2 526.4,453.2 526.4,474.5 561.0,474.5 561.0,479.7 595.6,479.7 595.6,492.0 630.3,492.0 630.3,501.8 664.9,501.8 664.9,510.6 699.5,510.6 699.5,513.9 734.1,513.9 734.1,519.5 768.7,519.5 768.7,529.8 803.3,529.8 803.3,532.3 838.0,532.3 838.0,530.9 872.6,530.9 872.6,531.9 907.2,531.9" stroke="#000" stroke-width="0.90" stroke-opacity="1.00" fill="none" clip-path="url(#axis_clip)"/>
  </symbol>
  <symbol id="line_5" viewBox="0 0 1200.000 674.916">
<polyline class="pl" points="145.6,54.8 180.2,54.8 180.2,55.3 214.8,55.3 214.8,55.1 249.5,55.1 249.5,55.3 284.1,55.3 284.1,55.0 318.7,55.0 318.7,55.3 353.3,55.3 353.3,56.3 387.9,56.3 387.9,56.5 422.5,56.5 422.5,57.1 457.2,57.1 457.2,59.2 491.8,59.2 491.8,67.6 526.4,67.6 526.4,76.7 561.0,76.7 561.0,82.1 595.6,82.1 595.6,89.6 630.3,89.6 630.3,96.1 664.9,96.1 664.9,130.9 699.5,130.9 699.5,125.4 734.1,125.4 734.1,173.1 768.7,173.1 768.7,221.6 803.3,221.6 803.3,234.2 838.0,234.2 838.0,191.9 872.6,191.9 872.6,193.7 907.2,193.7" stroke="#000" stroke-width="0.90" stroke-opacity="1.00" fill="none" clip-path="url(#axis_clip)"/>
  </symbol>
  <symbol id="line_6" viewBox="0 0 1200.000 674.916">
<polyline class="pl" points="145.6,55.9 180.2,55.9 180.2,56.8 214.8,56.8 214.8,57.0 249.5,57.0 249.5,57.3 284.1,57.3 284.1,59.4 318.7,59.4 318.7,61.3 353.3,61.3 353.3,64.3 387.9,64.3 387.9,70.9 422.5,70.9 422.5,78.1 457.2,78.1 457.2,79.7 491.8,79.7 491.8,87.8 526.4,87.8 526.4,110.1 561.0,110.1 561.0,144.6 595.6,144.6 595.6,165.8 630.3,165.8 630.3,203.0 664.9,203.0 664.9,229.9 699.5,229.9 699.5,226.7 734.1,226.7 734.1,272.1 768.7,272.1 768.7,317.0 803.3,317.0 803.3,349.5 838.0,349.5 838.0,292.9 872.6,292.9 872.6,292.4 907.2,292.4" stroke="#000" stroke-width="0.90" stroke-opacity="1.00" fill="none" clip-path="url(#axis_clip)"/>
  </symbol>
  <symbol id="line_7" viewBox="0 0 1200.000 674.916">
<polyline class="pl" points="145.6,365.1 180.2,365.1 180.2,360.6 214.8,360.6 214.8,373.1 249.5,373.1 249.5,386.7 284.1,386.7 284.1,389.6 318.7,389.6 318.7,395.7 353.3,395.7 353.3,394.7 387.9,394.7 387.9,420.0 422.5,420.0 422.5,438.4 457.2,438.4 457.2,438.9 491.8,438.9 491.8,453.2 526.4,453.2 526.4,474.5 561.0,474.5 561.0,479.7 595.6,479.7 595.6,492.0 630.3,492.0 630.3,501.8 664.9,501.8 664.9,510.6 699.5,510.6 699.5,513.9 734.1,513.9 734.1,519.5 768.7,519.5 768.7,529.8 803.3,529.8 803.3,532.3 838.0,532.3 838.0,530.9 872.6,530.9 872.6,531.9 907.2,531.9" stroke="#000" stroke-width="0.90" stroke-opacity="1.00" fill="none" clip-path="url(#axis_clip)"/>
  </symbol>
  <symbol id="line_8" viewBox="0 0 1200.000 674.916">
<polyline class="pl" points="145.6,55.9 180.2,55.9 180.2,56.8 214.8,56.8 214.8,57.0 249.5,57.0 249.5,57.3 284.1,57.3 284.1,59.4 318.7,59.4 318.7,61.3 353.3,61.3 353.3,64.3 387.9,64.3 387.9,70.9 422.5,70.9 422.5,78.1 457.2,78.1 457.2,79.7 491.8,79.7 491.8,87.8 526.4,87.8 526.4,110.1 561.0,110.1 561.0,144.6 595.6,144.6 595.6,165.8 630.3,165.8 630.3,203.0 664.9,203.0 664.9,229.9 699.5,229.9 699.5,226.7 734.1,226.7 734.1,272.1 768.7,272.1 768.7,317.0 803.3,317.0 803.3,349.5 838.0,349.5 838.0,292.9 872.6,292.9 872.6,292.4 907.2,292.4" stroke="#000" stroke-width="0.90" stroke-opacity="1.00" fill="none" clip-path="url(#axis_clip)"/>
  </symbol>
  <symbol id="line_9" viewBox="0 0 1200.000 674.916">
<polyline class="pl" points="145.6,365.1 180.2,365.1 180.2,360.6 214.8,360.6 214.8,373.1 249.5,373.1 249.5,386.7 284.1,386.7 284.1,389.6 318.7,389.6 318.7,395.7 353.3,395.7 353.3,394.7 387.9,394.7 387.9,420.0 422.5,420.0 422.5,438.4 457.2,438.4 457.2,438.9 491.8,438.9 491.8,453.2 526.4,453.2 526.4,474.5 561.0,474.5 561.0,479.7 595.6,479.7 595.6,492.0 630.3,492.0 630.3,501.8 664.9,501.8 664.9,510.6 699.5,510.6 699.5,513.9 734.1,513.9 734.1,519.5 768.7,519.5 768.7,529.8 803.3,529.8 803.3,532.3 838.0,532.3 838.0,530.9 872.6,530.9 872.6,531.9 907.2,531.9" stroke="#000" stroke-width="0.90" stroke-opacity="1.00" fill="none" clip-path="url(#axis_clip)"/>
  </symbol>
  <symbol id="line_10" viewBox="0 0 1200.000 674.916">
<polyline class="pl" points="145.6,365.1 180.2,365.1 180.2,360.6 214.8,360.6 214.8,373.1 249.5,373.1 249.5,386.7 284.1,386.7 284.1,389.6 318.7,389.6 318.7,395.7 353.3,395.7 353.3,394.7 387.9,394.7 387.9,420.0 422.5,420.0 422.5,438.4 457.2,438.4 457.2,438.9 491.8,438.9 491.8,453.2 526.4,453.2 526.4,474.5 561.0,474.5 561.0,479.7 595.6,479.7 595.6,492.0 630.3,492.0 630.3,501.8 664.9,501.8 664.9,510.6 699.5,510.6 699.5,513.9 734.1,513.9 734.1,519.5 768.7,519.5 768.7,529.8 803.3,529.8 803.3,532.3 838.0,532.3 838.0,530.9 872.6,530.9 872.6,531.9 907.2,531.9" stroke="#000" stroke-width="0.90" stroke-opacity="1.00" fill="none" clip-path="url(#axis_clip)"/>
  </symbol>
</defs>
<g id="main">
<text class="ticklabel ytl" transform="translate(128.8,568.3)">0 %</text>
<text class="ticklabel ytl" transform="translate(128.8,467.0)">20 %</text>
<text class="ticklabel ytl" transform="translate(128.8,365.8)">40 %</text>
<text class="ticklabel ytl" transform="translate(128.8,264.6)">60 %</text>
<text class="ticklabel ytl" transform="translate(128.8,163.3)">80 %</text>
<text class="ticklabel ytl" transform="translate(128.8,62.1)">100 %</text>
<g id="areas">
  <g class="pg_5">
    <polygon class="pl" points="145.6,54.0 180.2,54.0 180.2,54.0 214.8,54.0 214.8,54.0 249.5,54.0 249.5,54.0 284.1,54.0 284.1,54.0 318.7,54.0 318.7,54.0 353.3,54.0 353.3,54.0 387.9,54.0 387.9,54.0 422.5,54.0 422.5,54.0 457.2,54.0 457.2,54.0 491.8,54.0 491.8,54.0 526.4,54.0 526.4,54.0 561.0,54.0 561.0,54.0 595.6,54.0 595.6,54.0 630.3,54.0 630.3,54.0 664.9,54.0 664.9,54.0 699.5,54.0 699.5,54.0 734.1,54.0 734.1,54.0 768.7,54.0 768.7,54.0 803.3,54.0 803.3,54.0 838.0,54.0 838.0,54.0 872.6,54.0 872.6,54.0 907.2,54.0 907.2,54.3 872.6,54.3 872.6,55.2 838.0,55.2 838.0,56.8 803.3,56.8 803.3,56.4 768.7,56.4 768.7,59.4 734.1,59.4 734.1,56.2 699.5,56.2 699.5,58.0 664.9,58.0 664.9,59.2 630.3,59.2 630.3,61.3 595.6,61.3 595.6,66.1 561.0,66.1 561.0,68.2 526.4,68.2 526.4,59.2 491.8,59.2 491.8,55.0 457.2,55.0 457.2,54.6 422.5,54.6 422.5,54.4 387.9,54.4 387.9,54.2 353.3,54.2 353.3,54.2 318.7,54.2 318.7,54.1 284.1,54.1 284.1,54.1 249.5,54.1 249.5,54.0 214.8,54.0 214.8,54.2 180.2,54.2 180.2,54.2 145.6,54.2" stroke="none" stroke-width="0.9000"  fill="#808080" clip-path="url(#axis_clip)"/>
    <text class="pl" transform="translate(925.2,54.2)" dy="7.6" font-size="25.20" fill="#808080" stroke="none">Others</text>
    <text class="pl" transform="translate(145.6,47.2)" dy="0.0" font-size="27.00" fill="#808080" stroke="none">Finnish new passenger car sales by type: Half-Yearly</text>
  </g>
  <g class="pg_4">
    <polygon class="pl" points="145.6,54.2 180.2,54.2 180.2,54.2 214.8,54.2 214.8,54.0 249.5,54.0 249.5,54.1 284.1,54.1 284.1,54.1 318.7,54.1 318.7,54.2 353.3,54.2 353.3,54.2 387.9,54.2 387.9,54.4 422.5,54.4 422.5,54.6 457.2,54.6 457.2,55.0 491.8,55.0 491.8,59.2 526.4,59.2 526.4,68.2 561.0,68.2 561.0,66.1 595.6,66.1 595.6,61.3 630.3,61.3 630.3,59.2 664.9,59.2 664.9,58.0 699.5,58.0 699.5,56.2 734.1,56.2 734.1,59.4 768.7,59.4 768.7,56.4 803.3,56.4 803.3,56.8 838.0,56.8 838.0,55.2 872.6,55.2 872.6,54.3 907.2,54.3 907.2,193.7 872.6,193.7 872.6,191.9 838.0,191.9 838.0,234.2 803.3,234.2 803.3,221.6 768.7,221.6 768.7,173.1 734.1,173.1 734.1,125.4 699.5,125.4 699.5,130.9 664.9,130.9 664.9,96.1 630.3,96.1 630.3,89.6 595.6,89.6 595.6,82.1 561.0,82.1 561.0,76.7 526.4,76.7 526.4,67.6 491.8,67.6 491.8,59.2 457.2,59.2 457.2,57.1 422.5,57.1 422.5,56.5 387.9,56.5 387.9,56.3 353.3,56.3 353.3,55.3 318.7,55.3 318.7,55.0 284.1,55.0 284.1,55.3 249.5,55.3 249.5,55.1 214.8,55.1 214.8,55.3 180.2,55.3 180.2,54.8 145.6,54.8" stroke="none" stroke-width="0.9000"  fill="#6298C6" clip-path="url(#axis_clip)"/>
    <text class="pl" transform="translate(925.2,124.0)" dy="7.6" font-size="25.20" fill="#6298C6" stroke="none">Battery electric</text>
  </g>
  <g class="pg_3">
    <polygon class="pl" points="145.6,54.8 180.2,54.8 180.2,55.3 214.8,55.3 214.8,55.1 249.5,55.1 249.5,55.3 284.1,55.3 284.1,55.0 318.7,55.0 318.7,55.3 353.3,55.3 353.3,56.3 387.9,56.3 387.9,56.5 422.5,56.5 422.5,57.1 457.2,57.1 457.2,59.2 491.8,59.2 491.8,67.6 526.4,67.6 526.4,76.7 561.0,76.7 561.0,82.1 595.6,82.1 595.6,89.6 630.3,89.6 630.3,96.1 664.9,96.1 664.9,130.9 699.5,130.9 699.5,125.4 734.1,125.4 734.1,173.1 768.7,173.1 768.7,221.6 803.3,221.6 803.3,234.2 838.0,234.2 838.0,191.9 872.6,191.9 872.6,193.7 907.2,193.7 907.2,292.4 872.6,292.4 872.6,292.9 838.0,292.9 838.0,349.5 803.3,349.5 803.3,317.0 768.7,317.0 768.7,272.1 734.1,272.1 734.1,226.7 699.5,226.7 699.5,229.9 664.9,229.9 664.9,203.0 630.3,203.0 630.3,165.8 595.6,165.8 595.6,144.6 561.0,144.6 561.0,110.1 526.4,110.1 526.4,87.8 491.8,87.8 491.8,79.7 457.2,79.7 457.2,78.1 422.5,78.1 422.5,70.9 387.9,70.9 387.9,64.3 353.3,64.3 353.3,61.3 318.7,61.3 318.7,59.4 284.1,59.4 284.1,57.3 249.5,57.3 249.5,57.0 214.8,57.0 214.8,56.8 180.2,56.8 180.2,55.9 145.6,55.9" stroke="none" stroke-width="0.9000"  fill="#77AC30" clip-path="url(#axis_clip)"/>
    <text class="pl" transform="translate(925.2,243.0)" dy="7.6" font-size="25.20" fill="#77AC30" stroke="none">Plugin hybrid</text>
  </g>
  <g class="pg_2">
    <polygon class="pl" points="145.6,55.9 180.2,55.9 180.2,56.8 214.8,56.8 214.8,57.0 249.5,57.0 249.5,57.3 284.1,57.3 284.1,59.4 318.7,59.4 318.7,61.3 353.3,61.3 353.3,64.3 387.9,64.3 387.9,70.9 422.5,70.9 422.5,78.1 457.2,78.1 457.2,79.7 491.8,79.7 491.8,87.8 526.4,87.8 526.4,110.1 561.0,110.1 561.0,144.6 595.6,144.6 595.6,165.8 630.3,165.8 630.3,203.0 664.9,203.0 664.9,229.9 699.5,229.9 699.5,226.7 734.1,226.7 734.1,272.1 768.7,272.1 768.7,317.0 803.3,317.0 803.3,349.5 838.0,349.5 838.0,292.9 872.6,292.9 872.6,292.4 907.2,292.4 907.2,531.9 872.6,531.9 872.6,530.9 838.0,530.9 838.0,532.3 803.3,532.3 803.3,529.8 768.7,529.8 768.7,519.5 734.1,519.5 734.1,513.9 699.5,513.9 699.5,510.6 664.9,510.6 664.9,501.8 630.3,501.8 630.3,492.0 595.6,492.0 595.6,479.7 561.0,479.7 561.0,474.5 526.4,474.5 526.4,453.2 491.8,453.2 491.8,438.9 457.2,438.9 457.2,438.4 422.5,438.4 422.5,420.0 387.9,420.0 387.9,394.7 353.3,394.7 353.3,395.7 318.7,395.7 318.7,389.6 284.1,389.6 284.1,386.7 249.5,386.7 249.5,373.1 214.8,373.1 214.8,360.6 180.2,360.6 180.2,365.1 145.6,365.1" stroke="none" stroke-width="0.9000"  fill="#7B553E" clip-path="url(#axis_clip)"/>
    <text class="pl" transform="translate(925.2,412.1)" dy="7.6" font-size="25.20" fill="#7B553E" stroke="none">Petrol</text>
  </g>
  <g class="pg_1">
    <polygon class="pl" points="145.6,365.1 180.2,365.1 180.2,360.6 214.8,360.6 214.8,373.1 249.5,373.1 249.5,386.7 284.1,386.7 284.1,389.6 318.7,389.6 318.7,395.7 353.3,395.7 353.3,394.7 387.9,394.7 387.9,420.0 422.5,420.0 422.5,438.4 457.2,438.4 457.2,438.9 491.8,438.9 491.8,453.2 526.4,453.2 526.4,474.5 561.0,474.5 561.0,479.7 595.6,479.7 595.6,492.0 630.3,492.0 630.3,501.8 664.9,501.8 664.9,510.6 699.5,510.6 699.5,513.9 734.1,513.9 734.1,519.5 768.7,519.5 768.7,529.8 803.3,529.8 803.3,532.3 838.0,532.3 838.0,530.9 872.6,530.9 872.6,531.9 907.2,531.9 907.2,560.2 145.6,560.2" stroke="none" stroke-width="0.9000"  fill="#7B6E57" clip-path="url(#axis_clip)"/>
    <text class="pl" transform="translate(925.2,546.0)" dy="7.6" font-size="25.20" fill="#7B6E57" stroke="none">Diesel</text>
  </g>
</g>
<g id="lines">
  <g class="pl_1">
    <use xlink:href="#line_1" class="thick" stroke="#000" stroke-width="3" opacity="0"/>
    <use xlink:href="#line_1" class="pl pll" stroke="#000" stroke-width="0.90"/>
  </g>
  <g class="pl_2">
    <use xlink:href="#line_2" class="thick" stroke="#000" stroke-width="3" opacity="0"/>
    <use xlink:href="#line_2" class="pl pll" stroke="#000" stroke-width="0.90"/>
  </g>
  <g class="pl_3">
    <use xlink:href="#line_3" class="thick" stroke="#000" stroke-width="3" opacity="0"/>
    <use xlink:href="#line_3" class="pl pll" stroke="#000" stroke-width="0.90"/>
  </g>
  <g class="pl_4">
    <use xlink:href="#line_4" class="thick" stroke="#000" stroke-width="3" opacity="0"/>
    <use xlink:href="#line_4" class="pl pll" stroke="#000" stroke-width="0.90"/>
  </g>
  <g class="pl_5">
    <use xlink:href="#line_5" class="thick" stroke="#000" stroke-width="3" opacity="0"/>
    <use xlink:href="#line_5" class="pl pll" stroke="#000" stroke-width="0.90"/>
  </g>
  <g class="pl_6">
    <use xlink:href="#line_6" class="thick" stroke="#000" stroke-width="3" opacity="0"/>
    <use xlink:href="#line_6" class="pl pll" stroke="#000" stroke-width="0.90"/>
  </g>
  <g class="pl_7">
    <use xlink:href="#line_7" class="thick" stroke="#000" stroke-width="3" opacity="0"/>
    <use xlink:href="#line_7" class="pl pll" stroke="#000" stroke-width="0.90"/>
  </g>
  <g class="pl_8">
    <use xlink:href="#line_8" class="thick" stroke="#000" stroke-width="3" opacity="0"/>
    <use xlink:href="#line_8" class="pl pll" stroke="#000" stroke-width="0.90"/>
  </g>
  <g class="pl_9">
    <use xlink:href="#line_9" class="thick" stroke="#000" stroke-width="3" opacity="0"/>
    <use xlink:href="#line_9" class="pl pll" stroke="#000" stroke-width="0.90"/>
  </g>
  <g class="pl_10">
    <use xlink:href="#line_10" class="thick" stroke="#000" stroke-width="3" opacity="0"/>
    <use xlink:href="#line_10" class="pl pll" stroke="#000" stroke-width="0.90"/>
  </g>
</g>
    <text class="pl" transform="translate(180.2,573.0) rotate(-90)" dy="8.1" font-size="27.00" fill="#808080" stroke="none" text-anchor="end">2014</text>
    <text class="pl" transform="translate(249.5,573.0) rotate(-90)" dy="8.1" font-size="27.00" fill="#808080" stroke="none" text-anchor="end">2015</text>
    <text class="pl" transform="translate(318.7,573.0) rotate(-90)" dy="8.1" font-size="27.00" fill="#808080" stroke="none" text-anchor="end">2016</text>
    <text class="pl" transform="translate(387.9,573.0) rotate(-90)" dy="8.1" font-size="27.00" fill="#808080" stroke="none" text-anchor="end">2017</text>
    <text class="pl" transform="translate(457.2,573.0) rotate(-90)" dy="8.1" font-size="27.00" fill="#808080" stroke="none" text-anchor="end">2018</text>
    <text class="pl" transform="translate(526.4,573.0) rotate(-90)" dy="8.1" font-size="27.00" fill="#808080" stroke="none" text-anchor="end">2019</text>
    <text class="pl" transform="translate(595.6,573.0) rotate(-90)" dy="8.1" font-size="27.00" fill="#808080" stroke="none" text-anchor="end">2020</text>
    <text class="pl" transform="translate(664.9,573.0) rotate(-90)" dy="8.1" font-size="27.00" fill="#808080" stroke="none" text-anchor="end">2021</text>
    <text class="pl" transform="translate(734.1,573.0) rotate(-90)" dy="8.1" font-size="27.00" fill="#808080" stroke="none" text-anchor="end">2022</text>
    <text class="pl" transform="translate(803.3,573.0) rotate(-90)" dy="8.1" font-size="27.00" fill="#808080" stroke="none" text-anchor="end">2023</text>
    <text class="pl" transform="translate(872.6,573.0) rotate(-90)" dy="8.1" font-size="27.00" fill="#808080" stroke="none" text-anchor="end">2024</text>
<text transform="translate(157.6,666.1)" font-size="19.80" font-family="Helvetica" fill="#BFBFBF" stroke="none" xml:space="preserve"><a href="https://twitter.com/robbie_andrew" style="fill:#BFBFBF" target="_blank">@robbie_andrew</a>   &#9679;   Data: Statistics Finland   &#9679;   Through August 2024</text>
<text class="twitlink" transform="translate(157.6,666.1)" opacity="0" font-size="19.80" fill="#BFBFBF" stroke="none" xml:space="preserve"><a href="https://twitter.com/robbie_andrew" style="fill:#BFBFBF" target="_blank">@robbie_andrew</a></text>
  <g class="dl_el" transform="translate(154.6,578.4)">
    <g class="dl_el_balloon">
      <foreignObject x="0" y="0" width="120" height="500">
      <div xmlns="http://www.w3.org/1999/xhtml" class="dl_fe" style="height:60px">
      <p class="dl_fe_p">Find me on Twitter</p>
      </div>
	    </foreignObject>
      <path stroke="#000" fill="#FDFFDF" d="M0,60H60l5,5l5,-5H120"/>
    </g>
  </g>
<use xlink:href="#line_y" transform="translate(145.6,0)"/>
<use xlink:href="#line_y" transform="translate(214.8,0)"/>
<use xlink:href="#line_y" transform="translate(284.1,0)"/>
<use xlink:href="#line_y" transform="translate(353.3,0)"/>
<use xlink:href="#line_y" transform="translate(422.5,0)"/>
<use xlink:href="#line_y" transform="translate(491.8,0)"/>
<use xlink:href="#line_y" transform="translate(561.0,0)"/>
<use xlink:href="#line_y" transform="translate(630.3,0)"/>
<use xlink:href="#line_y" transform="translate(699.5,0)"/>
<use xlink:href="#line_y" transform="translate(768.7,0)"/>
<use xlink:href="#line_y" transform="translate(838.0,0)"/>
<use xlink:href="#line_y" transform="translate(907.2,0)"/>
<use xlink:href="#line_x" transform="translate(0,560.2)"/>
<use xlink:href="#line_x" transform="translate(0,458.9)"/>
<use xlink:href="#line_x" transform="translate(0,357.7)"/>
<use xlink:href="#line_x" transform="translate(0,256.5)"/>
<use xlink:href="#line_x" transform="translate(0,155.2)"/>
<use xlink:href="#line_x" transform="translate(0,54.0)"/>
<use xlink:href="#tick_x" transform="translate(145.6,0)"/>
<use xlink:href="#tick_x" transform="translate(214.8,0)"/>
<use xlink:href="#tick_x" transform="translate(284.1,0)"/>
<use xlink:href="#tick_x" transform="translate(353.3,0)"/>
<use xlink:href="#tick_x" transform="translate(422.5,0)"/>
<use xlink:href="#tick_x" transform="translate(491.8,0)"/>
<use xlink:href="#tick_x" transform="translate(561.0,0)"/>
<use xlink:href="#tick_x" transform="translate(630.3,0)"/>
<use xlink:href="#tick_x" transform="translate(699.5,0)"/>
<use xlink:href="#tick_x" transform="translate(768.7,0)"/>
<use xlink:href="#tick_x" transform="translate(838.0,0)"/>
<use xlink:href="#tick_x" transform="translate(907.2,0)"/>
<use xlink:href="#tick_y" transform="translate(0,560.2)"/>
<use xlink:href="#tick_y" transform="translate(0,458.9)"/>
<use xlink:href="#tick_y" transform="translate(0,357.7)"/>
<use xlink:href="#tick_y" transform="translate(0,256.5)"/>
<use xlink:href="#tick_y" transform="translate(0,155.2)"/>
<use xlink:href="#tick_y" transform="translate(0,54.0)"/>
<polyline points="145.6,53.993 145.6,560.180 907.2,560.180" stroke="#808080" stroke-width="0.90" fill="none"/>
<g>
<a href="https://creativecommons.org/licenses/by/4.0/">
  <rect x="123.0" y="651.4" width="34" height="17" fill="#FFF" stroke="none"/>
  <g transform="translate(124.0,652.4) scale(0.24)">
  <g><circle fill="#FFF" cx="37.79" cy="28.5" r="28.84"/>
     <circle fill="none" cx="37.79" cy="28.5" r="28.84" stroke="#BFBFBF" stroke-width="5.5"/>
     <path fill="#BFBFBF" d="M37.16,23.19 l-4.29,2.23c-0.458-0.951-1.02-1.62-1.69-2c-0.667-0.38-1.29-0.571-1.86-0.571c-2.86,0-4.29,1.89-4.29,5.66 c0,1.71,0.36,3.08,1.09,4.11c0.724,1.03,1.79,1.54,3.2,1.54c1.87,0,3.18-0.915,3.94-2.74l3.94,2 c-0.838,1.56-2,2.79-3.49,3.69c-1.48,0.896-3.12,1.34-4.91,1.34c-2.86,0-5.16-0.875-6.92-2.63 c-1.75-1.75-2.63-4.19-2.63-7.31c0-3.05,0.886-5.47,2.66-7.26c1.77-1.79,4.01-2.69,6.72-2.69 C32.6,18.56,35.44,20.1,37.16,23.19z
              M55.61,23.19l-4.23,2.23c-0.457-0.951-1.02-1.62-1.69-2 c-0.668-0.38-1.31-0.571-1.91-0.571c-2.86,0-4.29,1.89-4.29,5.66c0,1.71,0.363,3.08,1.09,4.11 c0.723,1.03,1.79,1.54,3.2,1.54c1.87,0,3.18-0.915,3.94-2.74l4,2c-0.875,1.56-2.06,2.79-3.54,3.69 c-1.49,0.9-3.11,1.34-4.86,1.34c-2.9,0-5.21-0.875-6.94-2.63c-1.74-1.75-2.6-4.19-2.6-7.31 c0-3.05,0.885-5.47,2.66-7.26c1.77-1.79,4.01-2.69,6.71-2.69C51.12,18.56,53.944,20.1,55.61,23.19z"/>
  </g></g>
  <g transform="translate(140.2,652.4) scale(0.24)">
  <g><circle fill="#FFF" cx="37.79" cy="28.5" r="28.84"/>
     <circle fill="none" cx="37.79" cy="28.5" r="28.84" stroke="#BFBFBF" stroke-width="5.5"/>
     <path fill="#BFBFBF" d="M46.129,20.557v13.085h-3.656v15.542h-9.944V33.643h-3.656V20.557 c0-0.572,0.2-1.057,0.599-1.457c0.401-0.399,0.887-0.6,1.457-0.6h13.144c0.533,0,1.01,0.2,1.428,0.6 C45.918,19.5,46.129,19.986,46.129,20.557z
              M33.042,12.329c0-3.008,1.485-4.514,4.458-4.514s4.457,1.504,4.457,4.514 c0,2.971-1.486,4.457-4.457,4.457S33.042,15.3,33.042,12.329z"/>
  </g></g>
  </a>
</g>
  <g class="dl_el" transform="translate(69.1,548.4)">
    <g class="dl_el_balloon">
      <foreignObject x="0" y="0" width="250" height="500">
      <div xmlns="http://www.w3.org/1999/xhtml" class="dl_fe" style="height:90px">
      <p class="dl_fe_p">CC-BY: Material may be freely re-used as long as you credit the author</p>
      </div>
	    </foreignObject>
      <path stroke="#000" fill="#FDFFDF" d="M0,90H70l5,5l5,-5H250"/>
    </g>
  </g>
</g>
</svg>
