<svg version="1.1" xmlns="http://www.w3.org/2000/svg" xmlns:xlink="http://www.w3.org/1999/xlink" width="100%" height="100%" viewBox="0 0 1200.000 674.916">
<title>Irish new passenger car sales by type: Quarterly</title>
<desc>Created by Robbie Andrew (@robbie_andrew), CICERO Center for International Climate Research. CC-BY: Material may be freely re-used as long as you credit the author</desc>
<style type="text/css">
  #main {font-family:Helvetica,Arial,sans-serif; font-size:27.00px;
         fill-opacity:1; fill:#000000; stroke:none; stroke-linejoin:round; stroke-linecap:round; stroke-width:1.00;}
  a:hover {text-decoration: underline;}
  .marker {stroke-opacity:0;fill-opacity:0;}
  .marker:hover {stroke-opacity:0.5; fill-opacity:1;}
  .ticklabel {font-size:27.00px;fill:#808080;stroke:none;font-family:Helvetica}
  .ytl {text-anchor:end;}
  .dp1 {pointer-events:none;font-size:70%;text-anchor:middle;fill:#000000;}
  .dp2 {pointer-events:none;font-size:70%;text-anchor:middle;fill:#FFFFFF;}
  .numtip {pointer-events:none;}
  .cc {opacity:0.25;}
.dl_fe {background-color:#FDFFDF;display:flex;margin:auto;align-items:center}
.dl_fe_p {font-size:20px;text-align:center;margin:3px}
.dl_el {display:none;pointer-events:none;}
.cc:hover + .dl_el {display:block;}
text:hover + .dl_el {display:block;}
  #areas .pl {transition: all 0.2s ease;}
  #areas:hover .pl {opacity:0.5;}
  #areas:hover .thick {stroke-width:1;}
  #areas:hover .pg_1:hover .pl {opacity:1;}
  #areas:hover .pg_1:hover .pll {stroke-width:3;}
  #areas:hover .pg_1:hover .pldlm {stroke-width:2;}
  #areas:hover .pg_1:hover .thick {stroke-width:12;}
  #areas:hover .pg_2:hover .pl {opacity:1;}
  #areas:hover .pg_2:hover .pll {stroke-width:3;}
  #areas:hover .pg_2:hover .pldlm {stroke-width:2;}
  #areas:hover .pg_2:hover .thick {stroke-width:12;}
  #areas:hover .pg_3:hover .pl {opacity:1;}
  #areas:hover .pg_3:hover .pll {stroke-width:3;}
  #areas:hover .pg_3:hover .pldlm {stroke-width:2;}
  #areas:hover .pg_3:hover .thick {stroke-width:12;}
  #areas:hover .pg_4:hover .pl {opacity:1;}
  #areas:hover .pg_4:hover .pll {stroke-width:3;}
  #areas:hover .pg_4:hover .pldlm {stroke-width:2;}
  #areas:hover .pg_4:hover .thick {stroke-width:12;}
  #areas:hover .pg_5:hover .pl {opacity:1;}
  #areas:hover .pg_5:hover .pll {stroke-width:3;}
  #areas:hover .pg_5:hover .pldlm {stroke-width:2;}
  #areas:hover .pg_5:hover .thick {stroke-width:12;}
  #areas:hover .pg_6:hover .pl {opacity:1;}
  #areas:hover .pg_6:hover .pll {stroke-width:3;}
  #areas:hover .pg_6:hover .pldlm {stroke-width:2;}
  #areas:hover .pg_6:hover .thick {stroke-width:12;}
  #lines .pl {transition: all 0.2s ease;}
  #lines:hover .pl {opacity:0.3;}
  #lines:hover .thick {stroke-width:1;}
  #lines:hover .pl_1:hover .pl {opacity:1;}
  #lines:hover .pl_1:hover .pll {stroke-width:3;}
  #lines:hover .pl_1:hover .pldlm {stroke-width:2;}
  #lines:hover .pl_1:hover .thick {stroke-width:12;}
  #lines:hover .pl_2:hover .pl {opacity:1;}
  #lines:hover .pl_2:hover .pll {stroke-width:3;}
  #lines:hover .pl_2:hover .pldlm {stroke-width:2;}
  #lines:hover .pl_2:hover .thick {stroke-width:12;}
  #lines:hover .pl_3:hover .pl {opacity:1;}
  #lines:hover .pl_3:hover .pll {stroke-width:3;}
  #lines:hover .pl_3:hover .pldlm {stroke-width:2;}
  #lines:hover .pl_3:hover .thick {stroke-width:12;}
  #lines:hover .pl_4:hover .pl {opacity:1;}
  #lines:hover .pl_4:hover .pll {stroke-width:3;}
  #lines:hover .pl_4:hover .pldlm {stroke-width:2;}
  #lines:hover .pl_4:hover .thick {stroke-width:12;}
  #lines:hover .pl_5:hover .pl {opacity:1;}
  #lines:hover .pl_5:hover .pll {stroke-width:3;}
  #lines:hover .pl_5:hover .pldlm {stroke-width:2;}
  #lines:hover .pl_5:hover .thick {stroke-width:12;}
  #lines:hover .pl_6:hover .pl {opacity:1;}
  #lines:hover .pl_6:hover .pll {stroke-width:3;}
  #lines:hover .pl_6:hover .pldlm {stroke-width:2;}
  #lines:hover .pl_6:hover .thick {stroke-width:12;}
  #lines:hover .pl_7:hover .pl {opacity:1;}
  #lines:hover .pl_7:hover .pll {stroke-width:3;}
  #lines:hover .pl_7:hover .pldlm {stroke-width:2;}
  #lines:hover .pl_7:hover .thick {stroke-width:12;}
  #lines:hover .pl_8:hover .pl {opacity:1;}
  #lines:hover .pl_8:hover .pll {stroke-width:3;}
  #lines:hover .pl_8:hover .pldlm {stroke-width:2;}
  #lines:hover .pl_8:hover .thick {stroke-width:12;}
  #lines:hover .pl_9:hover .pl {opacity:1;}
  #lines:hover .pl_9:hover .pll {stroke-width:3;}
  #lines:hover .pl_9:hover .pldlm {stroke-width:2;}
  #lines:hover .pl_9:hover .thick {stroke-width:12;}
  #lines:hover .pl_10:hover .pl {opacity:1;}
  #lines:hover .pl_10:hover .pll {stroke-width:3;}
  #lines:hover .pl_10:hover .pldlm {stroke-width:2;}
  #lines:hover .pl_10:hover .thick {stroke-width:12;}
  #lines:hover .pl_11:hover .pl {opacity:1;}
  #lines:hover .pl_11:hover .pll {stroke-width:3;}
  #lines:hover .pl_11:hover .pldlm {stroke-width:2;}
  #lines:hover .pl_11:hover .thick {stroke-width:12;}
  #lines:hover .pl_12:hover .pl {opacity:1;}
  #lines:hover .pl_12:hover .pll {stroke-width:3;}
  #lines:hover .pl_12:hover .pldlm {stroke-width:2;}
  #lines:hover .pl_12:hover .thick {stroke-width:12;}
  #lines:hover .pl_13:hover .pl {opacity:1;}
  #lines:hover .pl_13:hover .pll {stroke-width:3;}
  #lines:hover .pl_13:hover .pldlm {stroke-width:2;}
  #lines:hover .pl_13:hover .thick {stroke-width:12;}
  #lines:hover .pl_14:hover .pl {opacity:1;}
  #lines:hover .pl_14:hover .pll {stroke-width:3;}
  #lines:hover .pl_14:hover .pldlm {stroke-width:2;}
  #lines:hover .pl_14:hover .thick {stroke-width:12;}
  #lines:hover .pl_15:hover .pl {opacity:1;}
  #lines:hover .pl_15:hover .pll {stroke-width:3;}
  #lines:hover .pl_15:hover .pldlm {stroke-width:2;}
  #lines:hover .pl_15:hover .thick {stroke-width:12;}
</style>
<defs>
  <clipPath id="axis_clip"><rect x="145.8" y="54.2" width="761.2" height="505.8" /></clipPath>
  <path id="line_y" d="M 0,53.993 v 506.187" stroke="#FFF" stroke-opacity="0.15" stroke-width="1.00"/>
  <path id="line_x" d="M 145.600,0 h 761.600" stroke="#FFF" stroke-opacity="0.15" stroke-width="1.00"/>
  <path id="tick_y" d="M 145.600,0 h -6.000" stroke="#808080" stroke-width="0.90"/>
  <path id="tick_x" d="M 0,560.180 v 6.000" stroke="#808080" stroke-width="0.90"/>
  <symbol id="line_1" viewBox="0 0 1200.000 674.916">
<polyline class="pl" points="145.6,55.6 156.2,55.6 156.2,56.5 166.8,56.5 166.8,57.3 177.3,57.3 177.3,61.7 187.9,61.7 187.9,62.4 198.5,62.4 198.5,71.9 209.1,71.9 209.1,56.4 219.6,56.4 219.6,57.3 230.2,57.3 230.2,59.0 240.8,59.0 240.8,63.8 251.4,63.8 251.4,56.6 262.0,56.6 262.0,71.0 272.5,71.0 272.5,70.6 283.1,70.6 283.1,69.3 293.7,69.3 293.7,72.5 304.3,72.5 304.3,87.5 314.8,87.5 314.8,60.2 325.4,60.2 325.4,66.4 336.0,66.4 336.0,55.9 346.6,55.9 346.6,55.7 357.2,55.7 357.2,54.0 367.7,54.0 367.7,54.1 378.3,54.1 378.3,54.1 388.9,54.1 388.9,54.5 399.5,54.5 399.5,54.0 410.0,54.0 410.0,54.1 420.6,54.1 420.6,54.0 431.2,54.0 431.2,54.0 441.8,54.0 441.8,54.1 452.4,54.1 452.4,54.1 462.9,54.1 462.9,54.1 473.5,54.1 473.5,54.3 484.1,54.3 484.1,54.0 494.7,54.0 494.7,54.2 505.2,54.2 505.2,54.2 515.8,54.2 515.8,55.6 526.4,55.6 526.4,54.0 537.0,54.0 537.0,54.0 547.6,54.0 547.6,54.0 558.1,54.0 558.1,54.0 568.7,54.0 568.7,54.1 579.3,54.1 579.3,54.4 589.9,54.4 589.9,54.2 600.4,54.2 600.4,56.2 611.0,56.2 611.0,54.0 621.6,54.0 621.6,54.0 632.2,54.0 632.2,54.0 642.8,54.0 642.8,54.0 653.3,54.0 653.3,54.1 663.9,54.1 663.9,54.4 674.5,54.4 674.5,54.2 685.1,54.2 685.1,55.9 695.6,55.9 695.6,54.0 706.2,54.0 706.2,54.0 716.8,54.0 716.8,54.0 727.4,54.0 727.4,54.0 738.0,54.0 738.0,54.2 748.5,54.2 748.5,56.9 759.1,56.9 759.1,56.4 769.7,56.4 769.7,55.4 780.3,55.4 780.3,59.8 790.8,59.8 790.8,56.2 801.4,56.2 801.4,55.1 812.0,55.1 812.0,54.0 822.6,54.0 822.6,54.1 833.2,54.1 833.2,54.3 843.7,54.3 843.7,54.2 854.3,54.2 854.3,55.7 864.9,55.7 864.9,54.0 875.5,54.0 875.5,54.0 886.0,54.0 886.0,54.0 896.6,54.0" stroke="#000" stroke-width="0.90" stroke-opacity="1.00" fill="none" clip-path="url(#axis_clip)"/>
  </symbol>
  <symbol id="line_2" viewBox="0 0 1200.000 674.916">
<polyline class="pl" points="145.6,55.6 156.2,55.6 156.2,56.5 166.8,56.5 166.8,57.3 177.3,57.3 177.3,61.7 187.9,61.7 187.9,62.4 198.5,62.4 198.5,72.0 209.1,72.0 209.1,56.4 219.6,56.4 219.6,57.9 230.2,57.9 230.2,59.1 240.8,59.1 240.8,63.8 251.4,63.8 251.4,56.6 262.0,56.6 262.0,71.0 272.5,71.0 272.5,70.6 283.1,70.6 283.1,69.6 293.7,69.6 293.7,72.5 304.3,72.5 304.3,87.7 314.8,87.7 314.8,60.2 325.4,60.2 325.4,67.0 336.0,67.0 336.0,56.3 346.6,56.3 346.6,56.0 357.2,56.0 357.2,54.3 367.7,54.3 367.7,55.0 378.3,55.0 378.3,57.7 388.9,57.7 388.9,56.3 399.5,56.3 399.5,54.2 410.0,54.2 410.0,54.4 420.6,54.4 420.6,54.6 431.2,54.6 431.2,55.4 441.8,55.4 441.8,55.2 452.4,55.2 452.4,54.9 462.9,54.9 462.9,55.6 473.5,55.6 473.5,57.5 484.1,57.5 484.1,56.0 494.7,56.0 494.7,56.0 505.2,56.0 505.2,55.9 515.8,55.9 515.8,57.8 526.4,57.8 526.4,55.6 537.0,55.6 537.0,54.7 547.6,54.7 547.6,55.0 558.1,55.0 558.1,57.1 568.7,57.1 568.7,56.1 579.3,56.1 579.3,56.9 589.9,56.9 589.9,57.0 600.4,57.0 600.4,63.6 611.0,63.6 611.0,56.0 621.6,56.0 621.6,62.1 632.2,62.1 632.2,63.0 642.8,63.0 642.8,66.1 653.3,66.1 653.3,65.4 663.9,65.4 663.9,70.1 674.5,70.1 674.5,69.7 685.1,69.7 685.1,130.8 695.6,130.8 695.6,70.8 706.2,70.8 706.2,93.1 716.8,93.1 716.8,81.6 727.4,81.6 727.4,107.0 738.0,107.0 738.0,83.9 748.5,83.9 748.5,105.3 759.1,105.3 759.1,104.3 769.7,104.3 769.7,155.5 780.3,155.5 780.3,123.0 790.8,123.0 790.8,129.3 801.4,129.3 801.4,139.5 812.0,139.5 812.0,209.2 822.6,209.2 822.6,135.0 833.2,135.0 833.2,184.6 843.7,184.6 843.7,140.9 854.3,140.9 854.3,218.7 864.9,218.7 864.9,118.2 875.5,118.2 875.5,140.4 886.0,140.4 886.0,120.8 896.6,120.8" stroke="#000" stroke-width="0.90" stroke-opacity="1.00" fill="none" clip-path="url(#axis_clip)"/>
  </symbol>
  <symbol id="line_3" viewBox="0 0 1200.000 674.916">
<polyline class="pl" points="145.6,55.6 156.2,55.6 156.2,56.5 166.8,56.5 166.8,57.3 177.3,57.3 177.3,61.7 187.9,61.7 187.9,62.4 198.5,62.4 198.5,72.0 209.1,72.0 209.1,56.4 219.6,56.4 219.6,57.9 230.2,57.9 230.2,59.1 240.8,59.1 240.8,63.8 251.4,63.8 251.4,56.6 262.0,56.6 262.0,71.0 272.5,71.0 272.5,70.6 283.1,70.6 283.1,69.6 293.7,69.6 293.7,72.5 304.3,72.5 304.3,87.7 314.8,87.7 314.8,60.2 325.4,60.2 325.4,67.0 336.0,67.0 336.0,56.3 346.6,56.3 346.6,56.0 357.2,56.0 357.2,54.3 367.7,54.3 367.7,55.0 378.3,55.0 378.3,57.7 388.9,57.7 388.9,56.3 399.5,56.3 399.5,54.2 410.0,54.2 410.0,54.4 420.6,54.4 420.6,54.6 431.2,54.6 431.2,55.4 441.8,55.4 441.8,55.2 452.4,55.2 452.4,55.1 462.9,55.1 462.9,56.0 473.5,56.0 473.5,58.7 484.1,58.7 484.1,56.3 494.7,56.3 494.7,56.6 505.2,56.6 505.2,56.4 515.8,56.4 515.8,62.5 526.4,62.5 526.4,56.2 537.0,56.2 537.0,56.2 547.6,56.2 547.6,56.5 558.1,56.5 558.1,59.7 568.7,59.7 568.7,57.0 579.3,57.0 579.3,57.8 589.9,57.8 589.9,58.8 600.4,58.8 600.4,69.7 611.0,69.7 611.0,58.1 621.6,58.1 621.6,66.8 632.2,66.8 632.2,66.6 642.8,66.6 642.8,76.9 653.3,76.9 653.3,70.3 663.9,70.3 663.9,76.8 674.5,76.8 674.5,76.0 685.1,76.0 685.1,146.6 695.6,146.6 695.6,81.3 706.2,81.3 706.2,115.4 716.8,115.4 716.8,100.4 727.4,100.4 727.4,127.6 738.0,127.6 738.0,112.7 748.5,112.7 748.5,151.2 759.1,151.2 759.1,149.4 769.7,149.4 769.7,208.7 780.3,208.7 780.3,163.3 790.8,163.3 790.8,162.2 801.4,162.2 801.4,174.0 812.0,174.0 812.0,241.1 822.6,241.1 822.6,175.3 833.2,175.3 833.2,226.9 843.7,226.9 843.7,185.5 854.3,185.5 854.3,277.4 864.9,277.4 864.9,164.5 875.5,164.5 875.5,198.8 886.0,198.8 886.0,174.0 896.6,174.0" stroke="#000" stroke-width="0.90" stroke-opacity="1.00" fill="none" clip-path="url(#axis_clip)"/>
  </symbol>
  <symbol id="line_4" viewBox="0 0 1200.000 674.916">
<polyline class="pl" points="145.6,58.0 156.2,58.0 156.2,59.6 166.8,59.6 166.8,61.5 177.3,61.5 177.3,64.3 187.9,64.3 187.9,65.9 198.5,65.9 198.5,75.9 209.1,75.9 209.1,62.5 219.6,62.5 219.6,63.2 230.2,63.2 230.2,60.8 240.8,60.8 240.8,66.7 251.4,66.7 251.4,61.1 262.0,61.1 262.0,75.9 272.5,75.9 272.5,74.9 283.1,74.9 283.1,74.0 293.7,74.0 293.7,76.4 304.3,76.4 304.3,91.8 314.8,91.8 314.8,62.8 325.4,62.8 325.4,70.0 336.0,70.0 336.0,60.8 346.6,60.8 346.6,66.7 357.2,66.7 357.2,58.3 367.7,58.3 367.7,58.9 378.3,58.9 378.3,62.0 388.9,62.0 388.9,62.7 399.5,62.7 399.5,57.0 410.0,57.0 410.0,58.6 420.6,58.6 420.6,60.6 431.2,60.6 431.2,61.8 441.8,61.8 441.8,60.7 452.4,60.7 452.4,60.9 462.9,60.9 462.9,60.4 473.5,60.4 473.5,65.0 484.1,65.0 484.1,61.8 494.7,61.8 494.7,62.1 505.2,62.1 505.2,63.8 515.8,63.8 515.8,69.2 526.4,69.2 526.4,64.1 537.0,64.1 537.0,65.2 547.6,65.2 547.6,66.7 558.1,66.7 558.1,76.0 568.7,76.0 568.7,72.7 579.3,72.7 579.3,74.7 589.9,74.7 589.9,78.7 600.4,78.7 600.4,86.2 611.0,86.2 611.0,85.5 621.6,85.5 621.6,93.7 632.2,93.7 632.2,96.2 642.8,96.2 642.8,99.0 653.3,99.0 653.3,109.2 663.9,109.2 663.9,133.4 674.5,133.4 674.5,124.6 685.1,124.6 685.1,180.9 695.6,180.9 695.6,145.7 706.2,145.7 706.2,160.6 716.8,160.6 716.8,165.4 727.4,165.4 727.4,169.1 738.0,169.1 738.0,209.8 748.5,209.8 748.5,237.5 759.1,237.5 759.1,240.0 769.7,240.0 769.7,298.1 780.3,298.1 780.3,292.4 790.8,292.4 790.8,244.5 801.4,244.5 801.4,252.8 812.0,252.8 812.0,290.0 822.6,290.0 822.6,285.6 833.2,285.6 833.2,318.1 843.7,318.1 843.7,290.1 854.3,290.1 854.3,363.7 864.9,363.7 864.9,277.6 875.5,277.6 875.5,287.2 886.0,287.2 886.0,296.5 896.6,296.5" stroke="#000" stroke-width="0.90" stroke-opacity="1.00" fill="none" clip-path="url(#axis_clip)"/>
  </symbol>
  <symbol id="line_5" viewBox="0 0 1200.000 674.916">
<polyline class="pl" points="145.6,424.7 156.2,424.7 156.2,414.5 166.8,414.5 166.8,406.3 177.3,406.3 177.3,387.7 187.9,387.7 187.9,409.8 198.5,409.8 198.5,427.9 209.1,427.9 209.1,251.6 219.6,251.6 219.6,283.5 230.2,283.5 230.2,269.3 240.8,269.3 240.8,284.5 251.4,284.5 251.4,271.3 262.0,271.3 262.0,246.2 272.5,246.2 272.5,254.2 283.1,254.2 283.1,215.9 293.7,215.9 293.7,221.9 304.3,221.9 304.3,242.6 314.8,242.6 314.8,201.7 325.4,201.7 325.4,204.6 336.0,204.6 336.0,178.3 346.6,178.3 346.6,193.2 357.2,193.2 357.2,181.1 367.7,181.1 367.7,174.7 378.3,174.7 378.3,180.4 388.9,180.4 388.9,172.0 399.5,172.0 399.5,194.5 410.0,194.5 410.0,188.6 420.6,188.6 420.6,192.7 431.2,192.7 431.2,196.1 441.8,196.1 441.8,186.3 452.4,186.3 452.4,198.6 462.9,198.6 462.9,185.8 473.5,185.8 473.5,189.7 484.1,189.7 484.1,201.7 494.7,201.7 494.7,193.1 505.2,193.1 505.2,201.6 515.8,201.6 515.8,191.5 526.4,191.5 526.4,205.7 537.0,205.7 537.0,193.9 547.6,193.9 547.6,208.6 558.1,208.6 558.1,227.3 568.7,227.3 568.7,222.4 579.3,222.4 579.3,244.5 589.9,244.5 589.9,238.2 600.4,238.2 600.4,255.6 611.0,255.6 611.0,275.4 621.6,275.4 621.6,298.4 632.2,298.4 632.2,298.7 642.8,298.7 642.8,271.6 653.3,271.6 653.3,316.9 663.9,316.9 663.9,331.4 674.5,331.4 674.5,335.6 685.1,335.6 685.1,324.0 695.6,324.0 695.6,337.9 706.2,337.9 706.2,316.6 716.8,316.6 716.8,351.9 727.4,351.9 727.4,313.0 738.0,313.0 738.0,374.7 748.5,374.7 748.5,386.4 759.1,386.4 759.1,409.6 769.7,409.6 769.7,429.8 780.3,429.8 780.3,429.5 790.8,429.5 790.8,407.4 801.4,407.4 801.4,423.1 812.0,423.1 812.0,449.7 822.6,449.7 822.6,444.6 833.2,444.6 833.2,462.4 843.7,462.4 843.7,442.7 854.3,442.7 854.3,463.8 864.9,463.8 864.9,443.1 875.5,443.1 875.5,448.7 886.0,448.7 886.0,441.5 896.6,441.5" stroke="#000" stroke-width="0.90" stroke-opacity="1.00" fill="none" clip-path="url(#axis_clip)"/>
  </symbol>
  <symbol id="line_6" viewBox="0 0 1200.000 674.916">
<polyline class="pl" points="145.6,55.6 156.2,55.6 156.2,56.5 166.8,56.5 166.8,57.3 177.3,57.3 177.3,61.7 187.9,61.7 187.9,62.4 198.5,62.4 198.5,72.0 209.1,72.0 209.1,56.4 219.6,56.4 219.6,57.9 230.2,57.9 230.2,59.1 240.8,59.1 240.8,63.8 251.4,63.8 251.4,56.6 262.0,56.6 262.0,71.0 272.5,71.0 272.5,70.6 283.1,70.6 283.1,69.6 293.7,69.6 293.7,72.5 304.3,72.5 304.3,87.7 314.8,87.7 314.8,60.2 325.4,60.2 325.4,67.0 336.0,67.0 336.0,56.3 346.6,56.3 346.6,56.0 357.2,56.0 357.2,54.3 367.7,54.3 367.7,55.0 378.3,55.0 378.3,57.7 388.9,57.7 388.9,56.3 399.5,56.3 399.5,54.2 410.0,54.2 410.0,54.4 420.6,54.4 420.6,54.6 431.2,54.6 431.2,55.4 441.8,55.4 441.8,55.2 452.4,55.2 452.4,54.9 462.9,54.9 462.9,55.6 473.5,55.6 473.5,57.5 484.1,57.5 484.1,56.0 494.7,56.0 494.7,56.0 505.2,56.0 505.2,55.9 515.8,55.9 515.8,57.8 526.4,57.8 526.4,55.6 537.0,55.6 537.0,54.7 547.6,54.7 547.6,55.0 558.1,55.0 558.1,57.1 568.7,57.1 568.7,56.1 579.3,56.1 579.3,56.9 589.9,56.9 589.9,57.0 600.4,57.0 600.4,63.6 611.0,63.6 611.0,56.0 621.6,56.0 621.6,62.1 632.2,62.1 632.2,63.0 642.8,63.0 642.8,66.1 653.3,66.1 653.3,65.4 663.9,65.4 663.9,70.1 674.5,70.1 674.5,69.7 685.1,69.7 685.1,130.8 695.6,130.8 695.6,70.8 706.2,70.8 706.2,93.1 716.8,93.1 716.8,81.6 727.4,81.6 727.4,107.0 738.0,107.0 738.0,83.9 748.5,83.9 748.5,105.3 759.1,105.3 759.1,104.3 769.7,104.3 769.7,155.5 780.3,155.5 780.3,123.0 790.8,123.0 790.8,129.3 801.4,129.3 801.4,139.5 812.0,139.5 812.0,209.2 822.6,209.2 822.6,135.0 833.2,135.0 833.2,184.6 843.7,184.6 843.7,140.9 854.3,140.9 854.3,218.7 864.9,218.7 864.9,118.2 875.5,118.2 875.5,140.4 886.0,140.4 886.0,120.8 896.6,120.8" stroke="#000" stroke-width="0.90" stroke-opacity="1.00" fill="none" clip-path="url(#axis_clip)"/>
  </symbol>
  <symbol id="line_7" viewBox="0 0 1200.000 674.916">
<polyline class="pl" points="145.6,55.6 156.2,55.6 156.2,56.5 166.8,56.5 166.8,57.3 177.3,57.3 177.3,61.7 187.9,61.7 187.9,62.4 198.5,62.4 198.5,72.0 209.1,72.0 209.1,56.4 219.6,56.4 219.6,57.9 230.2,57.9 230.2,59.1 240.8,59.1 240.8,63.8 251.4,63.8 251.4,56.6 262.0,56.6 262.0,71.0 272.5,71.0 272.5,70.6 283.1,70.6 283.1,69.6 293.7,69.6 293.7,72.5 304.3,72.5 304.3,87.7 314.8,87.7 314.8,60.2 325.4,60.2 325.4,67.0 336.0,67.0 336.0,56.3 346.6,56.3 346.6,56.0 357.2,56.0 357.2,54.3 367.7,54.3 367.7,55.0 378.3,55.0 378.3,57.7 388.9,57.7 388.9,56.3 399.5,56.3 399.5,54.2 410.0,54.2 410.0,54.4 420.6,54.4 420.6,54.6 431.2,54.6 431.2,55.4 441.8,55.4 441.8,55.2 452.4,55.2 452.4,55.1 462.9,55.1 462.9,56.0 473.5,56.0 473.5,58.7 484.1,58.7 484.1,56.3 494.7,56.3 494.7,56.6 505.2,56.6 505.2,56.4 515.8,56.4 515.8,62.5 526.4,62.5 526.4,56.2 537.0,56.2 537.0,56.2 547.6,56.2 547.6,56.5 558.1,56.5 558.1,59.7 568.7,59.7 568.7,57.0 579.3,57.0 579.3,57.8 589.9,57.8 589.9,58.8 600.4,58.8 600.4,69.7 611.0,69.7 611.0,58.1 621.6,58.1 621.6,66.8 632.2,66.8 632.2,66.6 642.8,66.6 642.8,76.9 653.3,76.9 653.3,70.3 663.9,70.3 663.9,76.8 674.5,76.8 674.5,76.0 685.1,76.0 685.1,146.6 695.6,146.6 695.6,81.3 706.2,81.3 706.2,115.4 716.8,115.4 716.8,100.4 727.4,100.4 727.4,127.6 738.0,127.6 738.0,112.7 748.5,112.7 748.5,151.2 759.1,151.2 759.1,149.4 769.7,149.4 769.7,208.7 780.3,208.7 780.3,163.3 790.8,163.3 790.8,162.2 801.4,162.2 801.4,174.0 812.0,174.0 812.0,241.1 822.6,241.1 822.6,175.3 833.2,175.3 833.2,226.9 843.7,226.9 843.7,185.5 854.3,185.5 854.3,277.4 864.9,277.4 864.9,164.5 875.5,164.5 875.5,198.8 886.0,198.8 886.0,174.0 896.6,174.0" stroke="#000" stroke-width="0.90" stroke-opacity="1.00" fill="none" clip-path="url(#axis_clip)"/>
  </symbol>
  <symbol id="line_8" viewBox="0 0 1200.000 674.916">
<polyline class="pl" points="145.6,58.0 156.2,58.0 156.2,59.6 166.8,59.6 166.8,61.5 177.3,61.5 177.3,64.3 187.9,64.3 187.9,65.9 198.5,65.9 198.5,75.9 209.1,75.9 209.1,62.5 219.6,62.5 219.6,63.2 230.2,63.2 230.2,60.8 240.8,60.8 240.8,66.7 251.4,66.7 251.4,61.1 262.0,61.1 262.0,75.9 272.5,75.9 272.5,74.9 283.1,74.9 283.1,74.0 293.7,74.0 293.7,76.4 304.3,76.4 304.3,91.8 314.8,91.8 314.8,62.8 325.4,62.8 325.4,70.0 336.0,70.0 336.0,60.8 346.6,60.8 346.6,66.7 357.2,66.7 357.2,58.3 367.7,58.3 367.7,58.9 378.3,58.9 378.3,62.0 388.9,62.0 388.9,62.7 399.5,62.7 399.5,57.0 410.0,57.0 410.0,58.6 420.6,58.6 420.6,60.6 431.2,60.6 431.2,61.8 441.8,61.8 441.8,60.7 452.4,60.7 452.4,60.9 462.9,60.9 462.9,60.4 473.5,60.4 473.5,65.0 484.1,65.0 484.1,61.8 494.7,61.8 494.7,62.1 505.2,62.1 505.2,63.8 515.8,63.8 515.8,69.2 526.4,69.2 526.4,64.1 537.0,64.1 537.0,65.2 547.6,65.2 547.6,66.7 558.1,66.7 558.1,76.0 568.7,76.0 568.7,72.7 579.3,72.7 579.3,74.7 589.9,74.7 589.9,78.7 600.4,78.7 600.4,86.2 611.0,86.2 611.0,85.5 621.6,85.5 621.6,93.7 632.2,93.7 632.2,96.2 642.8,96.2 642.8,99.0 653.3,99.0 653.3,109.2 663.9,109.2 663.9,133.4 674.5,133.4 674.5,124.6 685.1,124.6 685.1,180.9 695.6,180.9 695.6,145.7 706.2,145.7 706.2,160.6 716.8,160.6 716.8,165.4 727.4,165.4 727.4,169.1 738.0,169.1 738.0,209.8 748.5,209.8 748.5,237.5 759.1,237.5 759.1,240.0 769.7,240.0 769.7,298.1 780.3,298.1 780.3,292.4 790.8,292.4 790.8,244.5 801.4,244.5 801.4,252.8 812.0,252.8 812.0,290.0 822.6,290.0 822.6,285.6 833.2,285.6 833.2,318.1 843.7,318.1 843.7,290.1 854.3,290.1 854.3,363.7 864.9,363.7 864.9,277.6 875.5,277.6 875.5,287.2 886.0,287.2 886.0,296.5 896.6,296.5" stroke="#000" stroke-width="0.90" stroke-opacity="1.00" fill="none" clip-path="url(#axis_clip)"/>
  </symbol>
  <symbol id="line_9" viewBox="0 0 1200.000 674.916">
<polyline class="pl" points="145.6,424.7 156.2,424.7 156.2,414.5 166.8,414.5 166.8,406.3 177.3,406.3 177.3,387.7 187.9,387.7 187.9,409.8 198.5,409.8 198.5,427.9 209.1,427.9 209.1,251.6 219.6,251.6 219.6,283.5 230.2,283.5 230.2,269.3 240.8,269.3 240.8,284.5 251.4,284.5 251.4,271.3 262.0,271.3 262.0,246.2 272.5,246.2 272.5,254.2 283.1,254.2 283.1,215.9 293.7,215.9 293.7,221.9 304.3,221.9 304.3,242.6 314.8,242.6 314.8,201.7 325.4,201.7 325.4,204.6 336.0,204.6 336.0,178.3 346.6,178.3 346.6,193.2 357.2,193.2 357.2,181.1 367.7,181.1 367.7,174.7 378.3,174.7 378.3,180.4 388.9,180.4 388.9,172.0 399.5,172.0 399.5,194.5 410.0,194.5 410.0,188.6 420.6,188.6 420.6,192.7 431.2,192.7 431.2,196.1 441.8,196.1 441.8,186.3 452.4,186.3 452.4,198.6 462.9,198.6 462.9,185.8 473.5,185.8 473.5,189.7 484.1,189.7 484.1,201.7 494.7,201.7 494.7,193.1 505.2,193.1 505.2,201.6 515.8,201.6 515.8,191.5 526.4,191.5 526.4,205.7 537.0,205.7 537.0,193.9 547.6,193.9 547.6,208.6 558.1,208.6 558.1,227.3 568.7,227.3 568.7,222.4 579.3,222.4 579.3,244.5 589.9,244.5 589.9,238.2 600.4,238.2 600.4,255.6 611.0,255.6 611.0,275.4 621.6,275.4 621.6,298.4 632.2,298.4 632.2,298.7 642.8,298.7 642.8,271.6 653.3,271.6 653.3,316.9 663.9,316.9 663.9,331.4 674.5,331.4 674.5,335.6 685.1,335.6 685.1,324.0 695.6,324.0 695.6,337.9 706.2,337.9 706.2,316.6 716.8,316.6 716.8,351.9 727.4,351.9 727.4,313.0 738.0,313.0 738.0,374.7 748.5,374.7 748.5,386.4 759.1,386.4 759.1,409.6 769.7,409.6 769.7,429.8 780.3,429.8 780.3,429.5 790.8,429.5 790.8,407.4 801.4,407.4 801.4,423.1 812.0,423.1 812.0,449.7 822.6,449.7 822.6,444.6 833.2,444.6 833.2,462.4 843.7,462.4 843.7,442.7 854.3,442.7 854.3,463.8 864.9,463.8 864.9,443.1 875.5,443.1 875.5,448.7 886.0,448.7 886.0,441.5 896.6,441.5" stroke="#000" stroke-width="0.90" stroke-opacity="1.00" fill="none" clip-path="url(#axis_clip)"/>
  </symbol>
  <symbol id="line_10" viewBox="0 0 1200.000 674.916">
<polyline class="pl" points="145.6,55.6 156.2,55.6 156.2,56.5 166.8,56.5 166.8,57.3 177.3,57.3 177.3,61.7 187.9,61.7 187.9,62.4 198.5,62.4 198.5,72.0 209.1,72.0 209.1,56.4 219.6,56.4 219.6,57.9 230.2,57.9 230.2,59.1 240.8,59.1 240.8,63.8 251.4,63.8 251.4,56.6 262.0,56.6 262.0,71.0 272.5,71.0 272.5,70.6 283.1,70.6 283.1,69.6 293.7,69.6 293.7,72.5 304.3,72.5 304.3,87.7 314.8,87.7 314.8,60.2 325.4,60.2 325.4,67.0 336.0,67.0 336.0,56.3 346.6,56.3 346.6,56.0 357.2,56.0 357.2,54.3 367.7,54.3 367.7,55.0 378.3,55.0 378.3,57.7 388.9,57.7 388.9,56.3 399.5,56.3 399.5,54.2 410.0,54.2 410.0,54.4 420.6,54.4 420.6,54.6 431.2,54.6 431.2,55.4 441.8,55.4 441.8,55.2 452.4,55.2 452.4,55.1 462.9,55.1 462.9,56.0 473.5,56.0 473.5,58.7 484.1,58.7 484.1,56.3 494.7,56.3 494.7,56.6 505.2,56.6 505.2,56.4 515.8,56.4 515.8,62.5 526.4,62.5 526.4,56.2 537.0,56.2 537.0,56.2 547.6,56.2 547.6,56.5 558.1,56.5 558.1,59.7 568.7,59.7 568.7,57.0 579.3,57.0 579.3,57.8 589.9,57.8 589.9,58.8 600.4,58.8 600.4,69.7 611.0,69.7 611.0,58.1 621.6,58.1 621.6,66.8 632.2,66.8 632.2,66.6 642.8,66.6 642.8,76.9 653.3,76.9 653.3,70.3 663.9,70.3 663.9,76.8 674.5,76.8 674.5,76.0 685.1,76.0 685.1,146.6 695.6,146.6 695.6,81.3 706.2,81.3 706.2,115.4 716.8,115.4 716.8,100.4 727.4,100.4 727.4,127.6 738.0,127.6 738.0,112.7 748.5,112.7 748.5,151.2 759.1,151.2 759.1,149.4 769.7,149.4 769.7,208.7 780.3,208.7 780.3,163.3 790.8,163.3 790.8,162.2 801.4,162.2 801.4,174.0 812.0,174.0 812.0,241.1 822.6,241.1 822.6,175.3 833.2,175.3 833.2,226.9 843.7,226.9 843.7,185.5 854.3,185.5 854.3,277.4 864.9,277.4 864.9,164.5 875.5,164.5 875.5,198.8 886.0,198.8 886.0,174.0 896.6,174.0" stroke="#000" stroke-width="0.90" stroke-opacity="1.00" fill="none" clip-path="url(#axis_clip)"/>
  </symbol>
  <symbol id="line_11" viewBox="0 0 1200.000 674.916">
<polyline class="pl" points="145.6,58.0 156.2,58.0 156.2,59.6 166.8,59.6 166.8,61.5 177.3,61.5 177.3,64.3 187.9,64.3 187.9,65.9 198.5,65.9 198.5,75.9 209.1,75.9 209.1,62.5 219.6,62.5 219.6,63.2 230.2,63.2 230.2,60.8 240.8,60.8 240.8,66.7 251.4,66.7 251.4,61.1 262.0,61.1 262.0,75.9 272.5,75.9 272.5,74.9 283.1,74.9 283.1,74.0 293.7,74.0 293.7,76.4 304.3,76.4 304.3,91.8 314.8,91.8 314.8,62.8 325.4,62.8 325.4,70.0 336.0,70.0 336.0,60.8 346.6,60.8 346.6,66.7 357.2,66.7 357.2,58.3 367.7,58.3 367.7,58.9 378.3,58.9 378.3,62.0 388.9,62.0 388.9,62.7 399.5,62.7 399.5,57.0 410.0,57.0 410.0,58.6 420.6,58.6 420.6,60.6 431.2,60.6 431.2,61.8 441.8,61.8 441.8,60.7 452.4,60.7 452.4,60.9 462.9,60.9 462.9,60.4 473.5,60.4 473.5,65.0 484.1,65.0 484.1,61.8 494.7,61.8 494.7,62.1 505.2,62.1 505.2,63.8 515.8,63.8 515.8,69.2 526.4,69.2 526.4,64.1 537.0,64.1 537.0,65.2 547.6,65.2 547.6,66.7 558.1,66.7 558.1,76.0 568.7,76.0 568.7,72.7 579.3,72.7 579.3,74.7 589.9,74.7 589.9,78.7 600.4,78.7 600.4,86.2 611.0,86.2 611.0,85.5 621.6,85.5 621.6,93.7 632.2,93.7 632.2,96.2 642.8,96.2 642.8,99.0 653.3,99.0 653.3,109.2 663.9,109.2 663.9,133.4 674.5,133.4 674.5,124.6 685.1,124.6 685.1,180.9 695.6,180.9 695.6,145.7 706.2,145.7 706.2,160.6 716.8,160.6 716.8,165.4 727.4,165.4 727.4,169.1 738.0,169.1 738.0,209.8 748.5,209.8 748.5,237.5 759.1,237.5 759.1,240.0 769.7,240.0 769.7,298.1 780.3,298.1 780.3,292.4 790.8,292.4 790.8,244.5 801.4,244.5 801.4,252.8 812.0,252.8 812.0,290.0 822.6,290.0 822.6,285.6 833.2,285.6 833.2,318.1 843.7,318.1 843.7,290.1 854.3,290.1 854.3,363.7 864.9,363.7 864.9,277.6 875.5,277.6 875.5,287.2 886.0,287.2 886.0,296.5 896.6,296.5" stroke="#000" stroke-width="0.90" stroke-opacity="1.00" fill="none" clip-path="url(#axis_clip)"/>
  </symbol>
  <symbol id="line_12" viewBox="0 0 1200.000 674.916">
<polyline class="pl" points="145.6,424.7 156.2,424.7 156.2,414.5 166.8,414.5 166.8,406.3 177.3,406.3 177.3,387.7 187.9,387.7 187.9,409.8 198.5,409.8 198.5,427.9 209.1,427.9 209.1,251.6 219.6,251.6 219.6,283.5 230.2,283.5 230.2,269.3 240.8,269.3 240.8,284.5 251.4,284.5 251.4,271.3 262.0,271.3 262.0,246.2 272.5,246.2 272.5,254.2 283.1,254.2 283.1,215.9 293.7,215.9 293.7,221.9 304.3,221.9 304.3,242.6 314.8,242.6 314.8,201.7 325.4,201.7 325.4,204.6 336.0,204.6 336.0,178.3 346.6,178.3 346.6,193.2 357.2,193.2 357.2,181.1 367.7,181.1 367.7,174.7 378.3,174.7 378.3,180.4 388.9,180.4 388.9,172.0 399.5,172.0 399.5,194.5 410.0,194.5 410.0,188.6 420.6,188.6 420.6,192.7 431.2,192.7 431.2,196.1 441.8,196.1 441.8,186.3 452.4,186.3 452.4,198.6 462.9,198.6 462.9,185.8 473.5,185.8 473.5,189.7 484.1,189.7 484.1,201.7 494.7,201.7 494.7,193.1 505.2,193.1 505.2,201.6 515.8,201.6 515.8,191.5 526.4,191.5 526.4,205.7 537.0,205.7 537.0,193.9 547.6,193.9 547.6,208.6 558.1,208.6 558.1,227.3 568.7,227.3 568.7,222.4 579.3,222.4 579.3,244.5 589.9,244.5 589.9,238.2 600.4,238.2 600.4,255.6 611.0,255.6 611.0,275.4 621.6,275.4 621.6,298.4 632.2,298.4 632.2,298.7 642.8,298.7 642.8,271.6 653.3,271.6 653.3,316.9 663.9,316.9 663.9,331.4 674.5,331.4 674.5,335.6 685.1,335.6 685.1,324.0 695.6,324.0 695.6,337.9 706.2,337.9 706.2,316.6 716.8,316.6 716.8,351.9 727.4,351.9 727.4,313.0 738.0,313.0 738.0,374.7 748.5,374.7 748.5,386.4 759.1,386.4 759.1,409.6 769.7,409.6 769.7,429.8 780.3,429.8 780.3,429.5 790.8,429.5 790.8,407.4 801.4,407.4 801.4,423.1 812.0,423.1 812.0,449.7 822.6,449.7 822.6,444.6 833.2,444.6 833.2,462.4 843.7,462.4 843.7,442.7 854.3,442.7 854.3,463.8 864.9,463.8 864.9,443.1 875.5,443.1 875.5,448.7 886.0,448.7 886.0,441.5 896.6,441.5" stroke="#000" stroke-width="0.90" stroke-opacity="1.00" fill="none" clip-path="url(#axis_clip)"/>
  </symbol>
  <symbol id="line_13" viewBox="0 0 1200.000 674.916">
<polyline class="pl" points="145.6,58.0 156.2,58.0 156.2,59.6 166.8,59.6 166.8,61.5 177.3,61.5 177.3,64.3 187.9,64.3 187.9,65.9 198.5,65.9 198.5,75.9 209.1,75.9 209.1,62.5 219.6,62.5 219.6,63.2 230.2,63.2 230.2,60.8 240.8,60.8 240.8,66.7 251.4,66.7 251.4,61.1 262.0,61.1 262.0,75.9 272.5,75.9 272.5,74.9 283.1,74.9 283.1,74.0 293.7,74.0 293.7,76.4 304.3,76.4 304.3,91.8 314.8,91.8 314.8,62.8 325.4,62.8 325.4,70.0 336.0,70.0 336.0,60.8 346.6,60.8 346.6,66.7 357.2,66.7 357.2,58.3 367.7,58.3 367.7,58.9 378.3,58.9 378.3,62.0 388.9,62.0 388.9,62.7 399.5,62.7 399.5,57.0 410.0,57.0 410.0,58.6 420.6,58.6 420.6,60.6 431.2,60.6 431.2,61.8 441.8,61.8 441.8,60.7 452.4,60.7 452.4,60.9 462.9,60.9 462.9,60.4 473.5,60.4 473.5,65.0 484.1,65.0 484.1,61.8 494.7,61.8 494.7,62.1 505.2,62.1 505.2,63.8 515.8,63.8 515.8,69.2 526.4,69.2 526.4,64.1 537.0,64.1 537.0,65.2 547.6,65.2 547.6,66.7 558.1,66.7 558.1,76.0 568.7,76.0 568.7,72.7 579.3,72.7 579.3,74.7 589.9,74.7 589.9,78.7 600.4,78.7 600.4,86.2 611.0,86.2 611.0,85.5 621.6,85.5 621.6,93.7 632.2,93.7 632.2,96.2 642.8,96.2 642.8,99.0 653.3,99.0 653.3,109.2 663.9,109.2 663.9,133.4 674.5,133.4 674.5,124.6 685.1,124.6 685.1,180.9 695.6,180.9 695.6,145.7 706.2,145.7 706.2,160.6 716.8,160.6 716.8,165.4 727.4,165.4 727.4,169.1 738.0,169.1 738.0,209.8 748.5,209.8 748.5,237.5 759.1,237.5 759.1,240.0 769.7,240.0 769.7,298.1 780.3,298.1 780.3,292.4 790.8,292.4 790.8,244.5 801.4,244.5 801.4,252.8 812.0,252.8 812.0,290.0 822.6,290.0 822.6,285.6 833.2,285.6 833.2,318.1 843.7,318.1 843.7,290.1 854.3,290.1 854.3,363.7 864.9,363.7 864.9,277.6 875.5,277.6 875.5,287.2 886.0,287.2 886.0,296.5 896.6,296.5" stroke="#000" stroke-width="0.90" stroke-opacity="1.00" fill="none" clip-path="url(#axis_clip)"/>
  </symbol>
  <symbol id="line_14" viewBox="0 0 1200.000 674.916">
<polyline class="pl" points="145.6,424.7 156.2,424.7 156.2,414.5 166.8,414.5 166.8,406.3 177.3,406.3 177.3,387.7 187.9,387.7 187.9,409.8 198.5,409.8 198.5,427.9 209.1,427.9 209.1,251.6 219.6,251.6 219.6,283.5 230.2,283.5 230.2,269.3 240.8,269.3 240.8,284.5 251.4,284.5 251.4,271.3 262.0,271.3 262.0,246.2 272.5,246.2 272.5,254.2 283.1,254.2 283.1,215.9 293.7,215.9 293.7,221.9 304.3,221.9 304.3,242.6 314.8,242.6 314.8,201.7 325.4,201.7 325.4,204.6 336.0,204.6 336.0,178.3 346.6,178.3 346.6,193.2 357.2,193.2 357.2,181.1 367.7,181.1 367.7,174.7 378.3,174.7 378.3,180.4 388.9,180.4 388.9,172.0 399.5,172.0 399.5,194.5 410.0,194.5 410.0,188.6 420.6,188.6 420.6,192.7 431.2,192.7 431.2,196.1 441.8,196.1 441.8,186.3 452.4,186.3 452.4,198.6 462.9,198.6 462.9,185.8 473.5,185.8 473.5,189.7 484.1,189.7 484.1,201.7 494.7,201.7 494.7,193.1 505.2,193.1 505.2,201.6 515.8,201.6 515.8,191.5 526.4,191.5 526.4,205.7 537.0,205.7 537.0,193.9 547.6,193.9 547.6,208.6 558.1,208.6 558.1,227.3 568.7,227.3 568.7,222.4 579.3,222.4 579.3,244.5 589.9,244.5 589.9,238.2 600.4,238.2 600.4,255.6 611.0,255.6 611.0,275.4 621.6,275.4 621.6,298.4 632.2,298.4 632.2,298.7 642.8,298.7 642.8,271.6 653.3,271.6 653.3,316.9 663.9,316.9 663.9,331.4 674.5,331.4 674.5,335.6 685.1,335.6 685.1,324.0 695.6,324.0 695.6,337.9 706.2,337.9 706.2,316.6 716.8,316.6 716.8,351.9 727.4,351.9 727.4,313.0 738.0,313.0 738.0,374.7 748.5,374.7 748.5,386.4 759.1,386.4 759.1,409.6 769.7,409.6 769.7,429.8 780.3,429.8 780.3,429.5 790.8,429.5 790.8,407.4 801.4,407.4 801.4,423.1 812.0,423.1 812.0,449.7 822.6,449.7 822.6,444.6 833.2,444.6 833.2,462.4 843.7,462.4 843.7,442.7 854.3,442.7 854.3,463.8 864.9,463.8 864.9,443.1 875.5,443.1 875.5,448.7 886.0,448.7 886.0,441.5 896.6,441.5" stroke="#000" stroke-width="0.90" stroke-opacity="1.00" fill="none" clip-path="url(#axis_clip)"/>
  </symbol>
  <symbol id="line_15" viewBox="0 0 1200.000 674.916">
<polyline class="pl" points="145.6,424.7 156.2,424.7 156.2,414.5 166.8,414.5 166.8,406.3 177.3,406.3 177.3,387.7 187.9,387.7 187.9,409.8 198.5,409.8 198.5,427.9 209.1,427.9 209.1,251.6 219.6,251.6 219.6,283.5 230.2,283.5 230.2,269.3 240.8,269.3 240.8,284.5 251.4,284.5 251.4,271.3 262.0,271.3 262.0,246.2 272.5,246.2 272.5,254.2 283.1,254.2 283.1,215.9 293.7,215.9 293.7,221.9 304.3,221.9 304.3,242.6 314.8,242.6 314.8,201.7 325.4,201.7 325.4,204.6 336.0,204.6 336.0,178.3 346.6,178.3 346.6,193.2 357.2,193.2 357.2,181.1 367.7,181.1 367.7,174.7 378.3,174.7 378.3,180.4 388.9,180.4 388.9,172.0 399.5,172.0 399.5,194.5 410.0,194.5 410.0,188.6 420.6,188.6 420.6,192.7 431.2,192.7 431.2,196.1 441.8,196.1 441.8,186.3 452.4,186.3 452.4,198.6 462.9,198.6 462.9,185.8 473.5,185.8 473.5,189.7 484.1,189.7 484.1,201.7 494.7,201.7 494.7,193.1 505.2,193.1 505.2,201.6 515.8,201.6 515.8,191.5 526.4,191.5 526.4,205.7 537.0,205.7 537.0,193.9 547.6,193.9 547.6,208.6 558.1,208.6 558.1,227.3 568.7,227.3 568.7,222.4 579.3,222.4 579.3,244.5 589.9,244.5 589.9,238.2 600.4,238.2 600.4,255.6 611.0,255.6 611.0,275.4 621.6,275.4 621.6,298.4 632.2,298.4 632.2,298.7 642.8,298.7 642.8,271.6 653.3,271.6 653.3,316.9 663.9,316.9 663.9,331.4 674.5,331.4 674.5,335.6 685.1,335.6 685.1,324.0 695.6,324.0 695.6,337.9 706.2,337.9 706.2,316.6 716.8,316.6 716.8,351.9 727.4,351.9 727.4,313.0 738.0,313.0 738.0,374.7 748.5,374.7 748.5,386.4 759.1,386.4 759.1,409.6 769.7,409.6 769.7,429.8 780.3,429.8 780.3,429.5 790.8,429.5 790.8,407.4 801.4,407.4 801.4,423.1 812.0,423.1 812.0,449.7 822.6,449.7 822.6,444.6 833.2,444.6 833.2,462.4 843.7,462.4 843.7,442.7 854.3,442.7 854.3,463.8 864.9,463.8 864.9,443.1 875.5,443.1 875.5,448.7 886.0,448.7 886.0,441.5 896.6,441.5" stroke="#000" stroke-width="0.90" stroke-opacity="1.00" fill="none" clip-path="url(#axis_clip)"/>
  </symbol>
</defs>
<g id="main">
<text class="ticklabel ytl" transform="translate(128.8,568.3)">0 %</text>
<text class="ticklabel ytl" transform="translate(128.8,467.0)">20 %</text>
<text class="ticklabel ytl" transform="translate(128.8,365.8)">40 %</text>
<text class="ticklabel ytl" transform="translate(128.8,264.6)">60 %</text>
<text class="ticklabel ytl" transform="translate(128.8,163.3)">80 %</text>
<text class="ticklabel ytl" transform="translate(128.8,62.1)">100 %</text>
<g id="areas">
  <g class="pg_6">
    <polygon class="pl" points="145.6,54.0 156.2,54.0 156.2,54.0 166.8,54.0 166.8,54.0 177.3,54.0 177.3,54.0 187.9,54.0 187.9,54.0 198.5,54.0 198.5,54.0 209.1,54.0 209.1,54.0 219.6,54.0 219.6,54.0 230.2,54.0 230.2,54.0 240.8,54.0 240.8,54.0 251.4,54.0 251.4,54.0 262.0,54.0 262.0,54.0 272.5,54.0 272.5,54.0 283.1,54.0 283.1,54.0 293.7,54.0 293.7,54.0 304.3,54.0 304.3,54.0 314.8,54.0 314.8,54.0 325.4,54.0 325.4,54.0 336.0,54.0 336.0,54.0 346.6,54.0 346.6,54.0 357.2,54.0 357.2,54.0 367.7,54.0 367.7,54.0 378.3,54.0 378.3,54.0 388.9,54.0 388.9,54.0 399.5,54.0 399.5,54.0 410.0,54.0 410.0,54.0 420.6,54.0 420.6,54.0 431.2,54.0 431.2,54.0 441.8,54.0 441.8,54.0 452.4,54.0 452.4,54.0 462.9,54.0 462.9,54.0 473.5,54.0 473.5,54.0 484.1,54.0 484.1,54.0 494.7,54.0 494.7,54.0 505.2,54.0 505.2,54.0 515.8,54.0 515.8,54.0 526.4,54.0 526.4,54.0 537.0,54.0 537.0,54.0 547.6,54.0 547.6,54.0 558.1,54.0 558.1,54.0 568.7,54.0 568.7,54.0 579.3,54.0 579.3,54.0 589.9,54.0 589.9,54.0 600.4,54.0 600.4,54.0 611.0,54.0 611.0,54.0 621.6,54.0 621.6,54.0 632.2,54.0 632.2,54.0 642.8,54.0 642.8,54.0 653.3,54.0 653.3,54.0 663.9,54.0 663.9,54.0 674.5,54.0 674.5,54.0 685.1,54.0 685.1,54.0 695.6,54.0 695.6,54.0 706.2,54.0 706.2,54.0 716.8,54.0 716.8,54.0 727.4,54.0 727.4,54.0 738.0,54.0 738.0,54.0 748.5,54.0 748.5,54.0 759.1,54.0 759.1,54.0 769.7,54.0 769.7,54.0 780.3,54.0 780.3,54.0 790.8,54.0 790.8,54.0 801.4,54.0 801.4,54.0 812.0,54.0 812.0,54.0 822.6,54.0 822.6,54.0 833.2,54.0 833.2,54.0 843.7,54.0 843.7,54.0 854.3,54.0 854.3,54.0 864.9,54.0 864.9,54.0 875.5,54.0 875.5,54.0 886.0,54.0 886.0,54.0 896.6,54.0 896.6,54.0 886.0,54.0 886.0,54.0 875.5,54.0 875.5,54.0 864.9,54.0 864.9,55.7 854.3,55.7 854.3,54.2 843.7,54.2 843.7,54.3 833.2,54.3 833.2,54.1 822.6,54.1 822.6,54.0 812.0,54.0 812.0,55.1 801.4,55.1 801.4,56.2 790.8,56.2 790.8,59.8 780.3,59.8 780.3,55.4 769.7,55.4 769.7,56.4 759.1,56.4 759.1,56.9 748.5,56.9 748.5,54.2 738.0,54.2 738.0,54.0 727.4,54.0 727.4,54.0 716.8,54.0 716.8,54.0 706.2,54.0 706.2,54.0 695.6,54.0 695.6,55.9 685.1,55.9 685.1,54.2 674.5,54.2 674.5,54.4 663.9,54.4 663.9,54.1 653.3,54.1 653.3,54.0 642.8,54.0 642.8,54.0 632.2,54.0 632.2,54.0 621.6,54.0 621.6,54.0 611.0,54.0 611.0,56.2 600.4,56.2 600.4,54.2 589.9,54.2 589.9,54.4 579.3,54.4 579.3,54.1 568.7,54.1 568.7,54.0 558.1,54.0 558.1,54.0 547.6,54.0 547.6,54.0 537.0,54.0 537.0,54.0 526.4,54.0 526.4,55.6 515.8,55.6 515.8,54.2 505.2,54.2 505.2,54.2 494.7,54.2 494.7,54.0 484.1,54.0 484.1,54.3 473.5,54.3 473.5,54.1 462.9,54.1 462.9,54.1 452.4,54.1 452.4,54.1 441.8,54.1 441.8,54.0 431.2,54.0 431.2,54.0 420.6,54.0 420.6,54.1 410.0,54.1 410.0,54.0 399.5,54.0 399.5,54.5 388.9,54.5 388.9,54.1 378.3,54.1 378.3,54.1 367.7,54.1 367.7,54.0 357.2,54.0 357.2,55.7 346.6,55.7 346.6,55.9 336.0,55.9 336.0,66.4 325.4,66.4 325.4,60.2 314.8,60.2 314.8,87.5 304.3,87.5 304.3,72.5 293.7,72.5 293.7,69.3 283.1,69.3 283.1,70.6 272.5,70.6 272.5,71.0 262.0,71.0 262.0,56.6 251.4,56.6 251.4,63.8 240.8,63.8 240.8,59.0 230.2,59.0 230.2,57.3 219.6,57.3 219.6,56.4 209.1,56.4 209.1,71.9 198.5,71.9 198.5,62.4 187.9,62.4 187.9,61.7 177.3,61.7 177.3,57.3 166.8,57.3 166.8,56.5 156.2,56.5 156.2,55.6 145.6,55.6" stroke="none" stroke-width="0.9000"  fill="#808080" clip-path="url(#axis_clip)"/>
    <text class="pl" transform="translate(937.2,54.0)" dy="7.6" font-size="25.20" fill="#808080" stroke="none">Others</text>
<polyline class="pl" points="910.8,54.0 911.9,54.0 913.0,54.0 914.0,54.0 914.9,54.0 915.8,54.0 916.6,54.0 917.4,54.0 918.1,54.0 918.8,54.0 919.5,54.0 920.1,54.0 920.7,54.0 921.3,54.0 921.9,54.0 922.5,54.0 923.1,54.0 923.7,54.0 924.3,54.0 924.9,54.0 925.6,54.0 926.3,54.0 927.0,54.0 927.8,54.0 928.6,54.0 929.5,54.0 930.4,54.0 931.4,54.0 932.5,54.0 933.6,54.0" stroke="#808080" stroke-width="0.90" stroke-opacity="1.00" fill="none" />
    <text class="pl" transform="translate(145.6,47.2)" dy="0.0" font-size="27.00" fill="#808080" stroke="none">Irish new passenger car sales by type: Quarterly</text>
  </g>
  <g class="pg_5">
    <polygon class="pl" points="145.6,55.6 156.2,55.6 156.2,56.5 166.8,56.5 166.8,57.3 177.3,57.3 177.3,61.7 187.9,61.7 187.9,62.4 198.5,62.4 198.5,71.9 209.1,71.9 209.1,56.4 219.6,56.4 219.6,57.3 230.2,57.3 230.2,59.0 240.8,59.0 240.8,63.8 251.4,63.8 251.4,56.6 262.0,56.6 262.0,71.0 272.5,71.0 272.5,70.6 283.1,70.6 283.1,69.3 293.7,69.3 293.7,72.5 304.3,72.5 304.3,87.5 314.8,87.5 314.8,60.2 325.4,60.2 325.4,66.4 336.0,66.4 336.0,55.9 346.6,55.9 346.6,55.7 357.2,55.7 357.2,54.0 367.7,54.0 367.7,54.1 378.3,54.1 378.3,54.1 388.9,54.1 388.9,54.5 399.5,54.5 399.5,54.0 410.0,54.0 410.0,54.1 420.6,54.1 420.6,54.0 431.2,54.0 431.2,54.0 441.8,54.0 441.8,54.1 452.4,54.1 452.4,54.1 462.9,54.1 462.9,54.1 473.5,54.1 473.5,54.3 484.1,54.3 484.1,54.0 494.7,54.0 494.7,54.2 505.2,54.2 505.2,54.2 515.8,54.2 515.8,55.6 526.4,55.6 526.4,54.0 537.0,54.0 537.0,54.0 547.6,54.0 547.6,54.0 558.1,54.0 558.1,54.0 568.7,54.0 568.7,54.1 579.3,54.1 579.3,54.4 589.9,54.4 589.9,54.2 600.4,54.2 600.4,56.2 611.0,56.2 611.0,54.0 621.6,54.0 621.6,54.0 632.2,54.0 632.2,54.0 642.8,54.0 642.8,54.0 653.3,54.0 653.3,54.1 663.9,54.1 663.9,54.4 674.5,54.4 674.5,54.2 685.1,54.2 685.1,55.9 695.6,55.9 695.6,54.0 706.2,54.0 706.2,54.0 716.8,54.0 716.8,54.0 727.4,54.0 727.4,54.0 738.0,54.0 738.0,54.2 748.5,54.2 748.5,56.9 759.1,56.9 759.1,56.4 769.7,56.4 769.7,55.4 780.3,55.4 780.3,59.8 790.8,59.8 790.8,56.2 801.4,56.2 801.4,55.1 812.0,55.1 812.0,54.0 822.6,54.0 822.6,54.1 833.2,54.1 833.2,54.3 843.7,54.3 843.7,54.2 854.3,54.2 854.3,55.7 864.9,55.7 864.9,54.0 875.5,54.0 875.5,54.0 886.0,54.0 886.0,54.0 896.6,54.0 896.6,120.8 886.0,120.8 886.0,140.4 875.5,140.4 875.5,118.2 864.9,118.2 864.9,218.7 854.3,218.7 854.3,140.9 843.7,140.9 843.7,184.6 833.2,184.6 833.2,135.0 822.6,135.0 822.6,209.2 812.0,209.2 812.0,139.5 801.4,139.5 801.4,129.3 790.8,129.3 790.8,123.0 780.3,123.0 780.3,155.5 769.7,155.5 769.7,104.3 759.1,104.3 759.1,105.3 748.5,105.3 748.5,83.9 738.0,83.9 738.0,107.0 727.4,107.0 727.4,81.6 716.8,81.6 716.8,93.1 706.2,93.1 706.2,70.8 695.6,70.8 695.6,130.8 685.1,130.8 685.1,69.7 674.5,69.7 674.5,70.1 663.9,70.1 663.9,65.4 653.3,65.4 653.3,66.1 642.8,66.1 642.8,63.0 632.2,63.0 632.2,62.1 621.6,62.1 621.6,56.0 611.0,56.0 611.0,63.6 600.4,63.6 600.4,57.0 589.9,57.0 589.9,56.9 579.3,56.9 579.3,56.1 568.7,56.1 568.7,57.1 558.1,57.1 558.1,55.0 547.6,55.0 547.6,54.7 537.0,54.7 537.0,55.6 526.4,55.6 526.4,57.8 515.8,57.8 515.8,55.9 505.2,55.9 505.2,56.0 494.7,56.0 494.7,56.0 484.1,56.0 484.1,57.5 473.5,57.5 473.5,55.6 462.9,55.6 462.9,54.9 452.4,54.9 452.4,55.2 441.8,55.2 441.8,55.4 431.2,55.4 431.2,54.6 420.6,54.6 420.6,54.4 410.0,54.4 410.0,54.2 399.5,54.2 399.5,56.3 388.9,56.3 388.9,57.7 378.3,57.7 378.3,55.0 367.7,55.0 367.7,54.3 357.2,54.3 357.2,56.0 346.6,56.0 346.6,56.3 336.0,56.3 336.0,67.0 325.4,67.0 325.4,60.2 314.8,60.2 314.8,87.7 304.3,87.7 304.3,72.5 293.7,72.5 293.7,69.6 283.1,69.6 283.1,70.6 272.5,70.6 272.5,71.0 262.0,71.0 262.0,56.6 251.4,56.6 251.4,63.8 240.8,63.8 240.8,59.1 230.2,59.1 230.2,57.9 219.6,57.9 219.6,56.4 209.1,56.4 209.1,72.0 198.5,72.0 198.5,62.4 187.9,62.4 187.9,61.7 177.3,61.7 177.3,57.3 166.8,57.3 166.8,56.5 156.2,56.5 156.2,55.6 145.6,55.6" stroke="none" stroke-width="0.9000"  fill="#6298C6" clip-path="url(#axis_clip)"/>
    <text class="pl" transform="translate(937.2,87.4)" dy="7.6" font-size="25.20" fill="#6298C6" stroke="none">Battery electric</text>
  </g>
  <g class="pg_4">
    <polygon class="pl" points="145.6,55.6 156.2,55.6 156.2,56.5 166.8,56.5 166.8,57.3 177.3,57.3 177.3,61.7 187.9,61.7 187.9,62.4 198.5,62.4 198.5,72.0 209.1,72.0 209.1,56.4 219.6,56.4 219.6,57.9 230.2,57.9 230.2,59.1 240.8,59.1 240.8,63.8 251.4,63.8 251.4,56.6 262.0,56.6 262.0,71.0 272.5,71.0 272.5,70.6 283.1,70.6 283.1,69.6 293.7,69.6 293.7,72.5 304.3,72.5 304.3,87.7 314.8,87.7 314.8,60.2 325.4,60.2 325.4,67.0 336.0,67.0 336.0,56.3 346.6,56.3 346.6,56.0 357.2,56.0 357.2,54.3 367.7,54.3 367.7,55.0 378.3,55.0 378.3,57.7 388.9,57.7 388.9,56.3 399.5,56.3 399.5,54.2 410.0,54.2 410.0,54.4 420.6,54.4 420.6,54.6 431.2,54.6 431.2,55.4 441.8,55.4 441.8,55.2 452.4,55.2 452.4,54.9 462.9,54.9 462.9,55.6 473.5,55.6 473.5,57.5 484.1,57.5 484.1,56.0 494.7,56.0 494.7,56.0 505.2,56.0 505.2,55.9 515.8,55.9 515.8,57.8 526.4,57.8 526.4,55.6 537.0,55.6 537.0,54.7 547.6,54.7 547.6,55.0 558.1,55.0 558.1,57.1 568.7,57.1 568.7,56.1 579.3,56.1 579.3,56.9 589.9,56.9 589.9,57.0 600.4,57.0 600.4,63.6 611.0,63.6 611.0,56.0 621.6,56.0 621.6,62.1 632.2,62.1 632.2,63.0 642.8,63.0 642.8,66.1 653.3,66.1 653.3,65.4 663.9,65.4 663.9,70.1 674.5,70.1 674.5,69.7 685.1,69.7 685.1,130.8 695.6,130.8 695.6,70.8 706.2,70.8 706.2,93.1 716.8,93.1 716.8,81.6 727.4,81.6 727.4,107.0 738.0,107.0 738.0,83.9 748.5,83.9 748.5,105.3 759.1,105.3 759.1,104.3 769.7,104.3 769.7,155.5 780.3,155.5 780.3,123.0 790.8,123.0 790.8,129.3 801.4,129.3 801.4,139.5 812.0,139.5 812.0,209.2 822.6,209.2 822.6,135.0 833.2,135.0 833.2,184.6 843.7,184.6 843.7,140.9 854.3,140.9 854.3,218.7 864.9,218.7 864.9,118.2 875.5,118.2 875.5,140.4 886.0,140.4 886.0,120.8 896.6,120.8 896.6,174.0 886.0,174.0 886.0,198.8 875.5,198.8 875.5,164.5 864.9,164.5 864.9,277.4 854.3,277.4 854.3,185.5 843.7,185.5 843.7,226.9 833.2,226.9 833.2,175.3 822.6,175.3 822.6,241.1 812.0,241.1 812.0,174.0 801.4,174.0 801.4,162.2 790.8,162.2 790.8,163.3 780.3,163.3 780.3,208.7 769.7,208.7 769.7,149.4 759.1,149.4 759.1,151.2 748.5,151.2 748.5,112.7 738.0,112.7 738.0,127.6 727.4,127.6 727.4,100.4 716.8,100.4 716.8,115.4 706.2,115.4 706.2,81.3 695.6,81.3 695.6,146.6 685.1,146.6 685.1,76.0 674.5,76.0 674.5,76.8 663.9,76.8 663.9,70.3 653.3,70.3 653.3,76.9 642.8,76.9 642.8,66.6 632.2,66.6 632.2,66.8 621.6,66.8 621.6,58.1 611.0,58.1 611.0,69.7 600.4,69.7 600.4,58.8 589.9,58.8 589.9,57.8 579.3,57.8 579.3,57.0 568.7,57.0 568.7,59.7 558.1,59.7 558.1,56.5 547.6,56.5 547.6,56.2 537.0,56.2 537.0,56.2 526.4,56.2 526.4,62.5 515.8,62.5 515.8,56.4 505.2,56.4 505.2,56.6 494.7,56.6 494.7,56.3 484.1,56.3 484.1,58.7 473.5,58.7 473.5,56.0 462.9,56.0 462.9,55.1 452.4,55.1 452.4,55.2 441.8,55.2 441.8,55.4 431.2,55.4 431.2,54.6 420.6,54.6 420.6,54.4 410.0,54.4 410.0,54.2 399.5,54.2 399.5,56.3 388.9,56.3 388.9,57.7 378.3,57.7 378.3,55.0 367.7,55.0 367.7,54.3 357.2,54.3 357.2,56.0 346.6,56.0 346.6,56.3 336.0,56.3 336.0,67.0 325.4,67.0 325.4,60.2 314.8,60.2 314.8,87.7 304.3,87.7 304.3,72.5 293.7,72.5 293.7,69.6 283.1,69.6 283.1,70.6 272.5,70.6 272.5,71.0 262.0,71.0 262.0,56.6 251.4,56.6 251.4,63.8 240.8,63.8 240.8,59.1 230.2,59.1 230.2,57.9 219.6,57.9 219.6,56.4 209.1,56.4 209.1,72.0 198.5,72.0 198.5,62.4 187.9,62.4 187.9,61.7 177.3,61.7 177.3,57.3 166.8,57.3 166.8,56.5 156.2,56.5 156.2,55.6 145.6,55.6" stroke="none" stroke-width="0.9000"  fill="#77AC30" clip-path="url(#axis_clip)"/>
    <text class="pl" transform="translate(937.2,147.4)" dy="7.6" font-size="25.20" fill="#77AC30" stroke="none">Plugin hybrid</text>
  </g>
  <g class="pg_3">
    <polygon class="pl" points="145.6,55.6 156.2,55.6 156.2,56.5 166.8,56.5 166.8,57.3 177.3,57.3 177.3,61.7 187.9,61.7 187.9,62.4 198.5,62.4 198.5,72.0 209.1,72.0 209.1,56.4 219.6,56.4 219.6,57.9 230.2,57.9 230.2,59.1 240.8,59.1 240.8,63.8 251.4,63.8 251.4,56.6 262.0,56.6 262.0,71.0 272.5,71.0 272.5,70.6 283.1,70.6 283.1,69.6 293.7,69.6 293.7,72.5 304.3,72.5 304.3,87.7 314.8,87.7 314.8,60.2 325.4,60.2 325.4,67.0 336.0,67.0 336.0,56.3 346.6,56.3 346.6,56.0 357.2,56.0 357.2,54.3 367.7,54.3 367.7,55.0 378.3,55.0 378.3,57.7 388.9,57.7 388.9,56.3 399.5,56.3 399.5,54.2 410.0,54.2 410.0,54.4 420.6,54.4 420.6,54.6 431.2,54.6 431.2,55.4 441.8,55.4 441.8,55.2 452.4,55.2 452.4,55.1 462.9,55.1 462.9,56.0 473.5,56.0 473.5,58.7 484.1,58.7 484.1,56.3 494.7,56.3 494.7,56.6 505.2,56.6 505.2,56.4 515.8,56.4 515.8,62.5 526.4,62.5 526.4,56.2 537.0,56.2 537.0,56.2 547.6,56.2 547.6,56.5 558.1,56.5 558.1,59.7 568.7,59.7 568.7,57.0 579.3,57.0 579.3,57.8 589.9,57.8 589.9,58.8 600.4,58.8 600.4,69.7 611.0,69.7 611.0,58.1 621.6,58.1 621.6,66.8 632.2,66.8 632.2,66.6 642.8,66.6 642.8,76.9 653.3,76.9 653.3,70.3 663.9,70.3 663.9,76.8 674.5,76.8 674.5,76.0 685.1,76.0 685.1,146.6 695.6,146.6 695.6,81.3 706.2,81.3 706.2,115.4 716.8,115.4 716.8,100.4 727.4,100.4 727.4,127.6 738.0,127.6 738.0,112.7 748.5,112.7 748.5,151.2 759.1,151.2 759.1,149.4 769.7,149.4 769.7,208.7 780.3,208.7 780.3,163.3 790.8,163.3 790.8,162.2 801.4,162.2 801.4,174.0 812.0,174.0 812.0,241.1 822.6,241.1 822.6,175.3 833.2,175.3 833.2,226.9 843.7,226.9 843.7,185.5 854.3,185.5 854.3,277.4 864.9,277.4 864.9,164.5 875.5,164.5 875.5,198.8 886.0,198.8 886.0,174.0 896.6,174.0 896.6,296.5 886.0,296.5 886.0,287.2 875.5,287.2 875.5,277.6 864.9,277.6 864.9,363.7 854.3,363.7 854.3,290.1 843.7,290.1 843.7,318.1 833.2,318.1 833.2,285.6 822.6,285.6 822.6,290.0 812.0,290.0 812.0,252.8 801.4,252.8 801.4,244.5 790.8,244.5 790.8,292.4 780.3,292.4 780.3,298.1 769.7,298.1 769.7,240.0 759.1,240.0 759.1,237.5 748.5,237.5 748.5,209.8 738.0,209.8 738.0,169.1 727.4,169.1 727.4,165.4 716.8,165.4 716.8,160.6 706.2,160.6 706.2,145.7 695.6,145.7 695.6,180.9 685.1,180.9 685.1,124.6 674.5,124.6 674.5,133.4 663.9,133.4 663.9,109.2 653.3,109.2 653.3,99.0 642.8,99.0 642.8,96.2 632.2,96.2 632.2,93.7 621.6,93.7 621.6,85.5 611.0,85.5 611.0,86.2 600.4,86.2 600.4,78.7 589.9,78.7 589.9,74.7 579.3,74.7 579.3,72.7 568.7,72.7 568.7,76.0 558.1,76.0 558.1,66.7 547.6,66.7 547.6,65.2 537.0,65.2 537.0,64.1 526.4,64.1 526.4,69.2 515.8,69.2 515.8,63.8 505.2,63.8 505.2,62.1 494.7,62.1 494.7,61.8 484.1,61.8 484.1,65.0 473.5,65.0 473.5,60.4 462.9,60.4 462.9,60.9 452.4,60.9 452.4,60.7 441.8,60.7 441.8,61.8 431.2,61.8 431.2,60.6 420.6,60.6 420.6,58.6 410.0,58.6 410.0,57.0 399.5,57.0 399.5,62.7 388.9,62.7 388.9,62.0 378.3,62.0 378.3,58.9 367.7,58.9 367.7,58.3 357.2,58.3 357.2,66.7 346.6,66.7 346.6,60.8 336.0,60.8 336.0,70.0 325.4,70.0 325.4,62.8 314.8,62.8 314.8,91.8 304.3,91.8 304.3,76.4 293.7,76.4 293.7,74.0 283.1,74.0 283.1,74.9 272.5,74.9 272.5,75.9 262.0,75.9 262.0,61.1 251.4,61.1 251.4,66.7 240.8,66.7 240.8,60.8 230.2,60.8 230.2,63.2 219.6,63.2 219.6,62.5 209.1,62.5 209.1,75.9 198.5,75.9 198.5,65.9 187.9,65.9 187.9,64.3 177.3,64.3 177.3,61.5 166.8,61.5 166.8,59.6 156.2,59.6 156.2,58.0 145.6,58.0" stroke="none" stroke-width="0.9000"  fill="#91AC6E" clip-path="url(#axis_clip)"/>
    <text class="pl" transform="translate(937.2,235.2)" dy="7.6" font-size="25.20" fill="#91AC6E" stroke="none">Non-plugin hybrid</text>
  </g>
  <g class="pg_2">
    <polygon class="pl" points="145.6,58.0 156.2,58.0 156.2,59.6 166.8,59.6 166.8,61.5 177.3,61.5 177.3,64.3 187.9,64.3 187.9,65.9 198.5,65.9 198.5,75.9 209.1,75.9 209.1,62.5 219.6,62.5 219.6,63.2 230.2,63.2 230.2,60.8 240.8,60.8 240.8,66.7 251.4,66.7 251.4,61.1 262.0,61.1 262.0,75.9 272.5,75.9 272.5,74.9 283.1,74.9 283.1,74.0 293.7,74.0 293.7,76.4 304.3,76.4 304.3,91.8 314.8,91.8 314.8,62.8 325.4,62.8 325.4,70.0 336.0,70.0 336.0,60.8 346.6,60.8 346.6,66.7 357.2,66.7 357.2,58.3 367.7,58.3 367.7,58.9 378.3,58.9 378.3,62.0 388.9,62.0 388.9,62.7 399.5,62.7 399.5,57.0 410.0,57.0 410.0,58.6 420.6,58.6 420.6,60.6 431.2,60.6 431.2,61.8 441.8,61.8 441.8,60.7 452.4,60.7 452.4,60.9 462.9,60.9 462.9,60.4 473.5,60.4 473.5,65.0 484.1,65.0 484.1,61.8 494.7,61.8 494.7,62.1 505.2,62.1 505.2,63.8 515.8,63.8 515.8,69.2 526.4,69.2 526.4,64.1 537.0,64.1 537.0,65.2 547.6,65.2 547.6,66.7 558.1,66.7 558.1,76.0 568.7,76.0 568.7,72.7 579.3,72.7 579.3,74.7 589.9,74.7 589.9,78.7 600.4,78.7 600.4,86.2 611.0,86.2 611.0,85.5 621.6,85.5 621.6,93.7 632.2,93.7 632.2,96.2 642.8,96.2 642.8,99.0 653.3,99.0 653.3,109.2 663.9,109.2 663.9,133.4 674.5,133.4 674.5,124.6 685.1,124.6 685.1,180.9 695.6,180.9 695.6,145.7 706.2,145.7 706.2,160.6 716.8,160.6 716.8,165.4 727.4,165.4 727.4,169.1 738.0,169.1 738.0,209.8 748.5,209.8 748.5,237.5 759.1,237.5 759.1,240.0 769.7,240.0 769.7,298.1 780.3,298.1 780.3,292.4 790.8,292.4 790.8,244.5 801.4,244.5 801.4,252.8 812.0,252.8 812.0,290.0 822.6,290.0 822.6,285.6 833.2,285.6 833.2,318.1 843.7,318.1 843.7,290.1 854.3,290.1 854.3,363.7 864.9,363.7 864.9,277.6 875.5,277.6 875.5,287.2 886.0,287.2 886.0,296.5 896.6,296.5 896.6,441.5 886.0,441.5 886.0,448.7 875.5,448.7 875.5,443.1 864.9,443.1 864.9,463.8 854.3,463.8 854.3,442.7 843.7,442.7 843.7,462.4 833.2,462.4 833.2,444.6 822.6,444.6 822.6,449.7 812.0,449.7 812.0,423.1 801.4,423.1 801.4,407.4 790.8,407.4 790.8,429.5 780.3,429.5 780.3,429.8 769.7,429.8 769.7,409.6 759.1,409.6 759.1,386.4 748.5,386.4 748.5,374.7 738.0,374.7 738.0,313.0 727.4,313.0 727.4,351.9 716.8,351.9 716.8,316.6 706.2,316.6 706.2,337.9 695.6,337.9 695.6,324.0 685.1,324.0 685.1,335.6 674.5,335.6 674.5,331.4 663.9,331.4 663.9,316.9 653.3,316.9 653.3,271.6 642.8,271.6 642.8,298.7 632.2,298.7 632.2,298.4 621.6,298.4 621.6,275.4 611.0,275.4 611.0,255.6 600.4,255.6 600.4,238.2 589.9,238.2 589.9,244.5 579.3,244.5 579.3,222.4 568.7,222.4 568.7,227.3 558.1,227.3 558.1,208.6 547.6,208.6 547.6,193.9 537.0,193.9 537.0,205.7 526.4,205.7 526.4,191.5 515.8,191.5 515.8,201.6 505.2,201.6 505.2,193.1 494.7,193.1 494.7,201.7 484.1,201.7 484.1,189.7 473.5,189.7 473.5,185.8 462.9,185.8 462.9,198.6 452.4,198.6 452.4,186.3 441.8,186.3 441.8,196.1 431.2,196.1 431.2,192.7 420.6,192.7 420.6,188.6 410.0,188.6 410.0,194.5 399.5,194.5 399.5,172.0 388.9,172.0 388.9,180.4 378.3,180.4 378.3,174.7 367.7,174.7 367.7,181.1 357.2,181.1 357.2,193.2 346.6,193.2 346.6,178.3 336.0,178.3 336.0,204.6 325.4,204.6 325.4,201.7 314.8,201.7 314.8,242.6 304.3,242.6 304.3,221.9 293.7,221.9 293.7,215.9 283.1,215.9 283.1,254.2 272.5,254.2 272.5,246.2 262.0,246.2 262.0,271.3 251.4,271.3 251.4,284.5 240.8,284.5 240.8,269.3 230.2,269.3 230.2,283.5 219.6,283.5 219.6,251.6 209.1,251.6 209.1,427.9 198.5,427.9 198.5,409.8 187.9,409.8 187.9,387.7 177.3,387.7 177.3,406.3 166.8,406.3 166.8,414.5 156.2,414.5 156.2,424.7 145.6,424.7" stroke="none" stroke-width="0.9000"  fill="#7B553E" clip-path="url(#axis_clip)"/>
    <text class="pl" transform="translate(937.2,369.0)" dy="7.6" font-size="25.20" fill="#7B553E" stroke="none">Petrol</text>
  </g>
  <g class="pg_1">
    <polygon class="pl" points="145.6,424.7 156.2,424.7 156.2,414.5 166.8,414.5 166.8,406.3 177.3,406.3 177.3,387.7 187.9,387.7 187.9,409.8 198.5,409.8 198.5,427.9 209.1,427.9 209.1,251.6 219.6,251.6 219.6,283.5 230.2,283.5 230.2,269.3 240.8,269.3 240.8,284.5 251.4,284.5 251.4,271.3 262.0,271.3 262.0,246.2 272.5,246.2 272.5,254.2 283.1,254.2 283.1,215.9 293.7,215.9 293.7,221.9 304.3,221.9 304.3,242.6 314.8,242.6 314.8,201.7 325.4,201.7 325.4,204.6 336.0,204.6 336.0,178.3 346.6,178.3 346.6,193.2 357.2,193.2 357.2,181.1 367.7,181.1 367.7,174.7 378.3,174.7 378.3,180.4 388.9,180.4 388.9,172.0 399.5,172.0 399.5,194.5 410.0,194.5 410.0,188.6 420.6,188.6 420.6,192.7 431.2,192.7 431.2,196.1 441.8,196.1 441.8,186.3 452.4,186.3 452.4,198.6 462.9,198.6 462.9,185.8 473.5,185.8 473.5,189.7 484.1,189.7 484.1,201.7 494.7,201.7 494.7,193.1 505.2,193.1 505.2,201.6 515.8,201.6 515.8,191.5 526.4,191.5 526.4,205.7 537.0,205.7 537.0,193.9 547.6,193.9 547.6,208.6 558.1,208.6 558.1,227.3 568.7,227.3 568.7,222.4 579.3,222.4 579.3,244.5 589.9,244.5 589.9,238.2 600.4,238.2 600.4,255.6 611.0,255.6 611.0,275.4 621.6,275.4 621.6,298.4 632.2,298.4 632.2,298.7 642.8,298.7 642.8,271.6 653.3,271.6 653.3,316.9 663.9,316.9 663.9,331.4 674.5,331.4 674.5,335.6 685.1,335.6 685.1,324.0 695.6,324.0 695.6,337.9 706.2,337.9 706.2,316.6 716.8,316.6 716.8,351.9 727.4,351.9 727.4,313.0 738.0,313.0 738.0,374.7 748.5,374.7 748.5,386.4 759.1,386.4 759.1,409.6 769.7,409.6 769.7,429.8 780.3,429.8 780.3,429.5 790.8,429.5 790.8,407.4 801.4,407.4 801.4,423.1 812.0,423.1 812.0,449.7 822.6,449.7 822.6,444.6 833.2,444.6 833.2,462.4 843.7,462.4 843.7,442.7 854.3,442.7 854.3,463.8 864.9,463.8 864.9,443.1 875.5,443.1 875.5,448.7 886.0,448.7 886.0,441.5 896.6,441.5 896.6,560.2 145.6,560.2" stroke="none" stroke-width="0.9000"  fill="#7B6E57" clip-path="url(#axis_clip)"/>
    <text class="pl" transform="translate(937.2,500.8)" dy="7.6" font-size="25.20" fill="#7B6E57" stroke="none">Diesel</text>
  </g>
</g>
<g id="lines">
  <g class="pl_1">
    <use xlink:href="#line_1" class="thick" stroke="#000" stroke-width="3" opacity="0"/>
    <use xlink:href="#line_1" class="pl pll" stroke="#000" stroke-width="0.90"/>
  </g>
  <g class="pl_2">
    <use xlink:href="#line_2" class="thick" stroke="#000" stroke-width="3" opacity="0"/>
    <use xlink:href="#line_2" class="pl pll" stroke="#000" stroke-width="0.90"/>
  </g>
  <g class="pl_3">
    <use xlink:href="#line_3" class="thick" stroke="#000" stroke-width="3" opacity="0"/>
    <use xlink:href="#line_3" class="pl pll" stroke="#000" stroke-width="0.90"/>
  </g>
  <g class="pl_4">
    <use xlink:href="#line_4" class="thick" stroke="#000" stroke-width="3" opacity="0"/>
    <use xlink:href="#line_4" class="pl pll" stroke="#000" stroke-width="0.90"/>
  </g>
  <g class="pl_5">
    <use xlink:href="#line_5" class="thick" stroke="#000" stroke-width="3" opacity="0"/>
    <use xlink:href="#line_5" class="pl pll" stroke="#000" stroke-width="0.90"/>
  </g>
  <g class="pl_6">
    <use xlink:href="#line_6" class="thick" stroke="#000" stroke-width="3" opacity="0"/>
    <use xlink:href="#line_6" class="pl pll" stroke="#000" stroke-width="0.90"/>
  </g>
  <g class="pl_7">
    <use xlink:href="#line_7" class="thick" stroke="#000" stroke-width="3" opacity="0"/>
    <use xlink:href="#line_7" class="pl pll" stroke="#000" stroke-width="0.90"/>
  </g>
  <g class="pl_8">
    <use xlink:href="#line_8" class="thick" stroke="#000" stroke-width="3" opacity="0"/>
    <use xlink:href="#line_8" class="pl pll" stroke="#000" stroke-width="0.90"/>
  </g>
  <g class="pl_9">
    <use xlink:href="#line_9" class="thick" stroke="#000" stroke-width="3" opacity="0"/>
    <use xlink:href="#line_9" class="pl pll" stroke="#000" stroke-width="0.90"/>
  </g>
  <g class="pl_10">
    <use xlink:href="#line_10" class="thick" stroke="#000" stroke-width="3" opacity="0"/>
    <use xlink:href="#line_10" class="pl pll" stroke="#000" stroke-width="0.90"/>
  </g>
  <g class="pl_11">
    <use xlink:href="#line_11" class="thick" stroke="#000" stroke-width="3" opacity="0"/>
    <use xlink:href="#line_11" class="pl pll" stroke="#000" stroke-width="0.90"/>
  </g>
  <g class="pl_12">
    <use xlink:href="#line_12" class="thick" stroke="#000" stroke-width="3" opacity="0"/>
    <use xlink:href="#line_12" class="pl pll" stroke="#000" stroke-width="0.90"/>
  </g>
  <g class="pl_13">
    <use xlink:href="#line_13" class="thick" stroke="#000" stroke-width="3" opacity="0"/>
    <use xlink:href="#line_13" class="pl pll" stroke="#000" stroke-width="0.90"/>
  </g>
  <g class="pl_14">
    <use xlink:href="#line_14" class="thick" stroke="#000" stroke-width="3" opacity="0"/>
    <use xlink:href="#line_14" class="pl pll" stroke="#000" stroke-width="0.90"/>
  </g>
  <g class="pl_15">
    <use xlink:href="#line_15" class="thick" stroke="#000" stroke-width="3" opacity="0"/>
    <use xlink:href="#line_15" class="pl pll" stroke="#000" stroke-width="0.90"/>
  </g>
</g>
    <text class="pl" transform="translate(166.8,573.0) rotate(-90)" dy="8.1" font-size="27.00" fill="#808080" stroke="none" text-anchor="end">2007</text>
    <text class="pl" transform="translate(209.1,573.0) rotate(-90)" dy="8.1" font-size="27.00" fill="#808080" stroke="none" text-anchor="end">2008</text>
    <text class="pl" transform="translate(251.4,573.0) rotate(-90)" dy="8.1" font-size="27.00" fill="#808080" stroke="none" text-anchor="end">2009</text>
    <text class="pl" transform="translate(293.7,573.0) rotate(-90)" dy="8.1" font-size="27.00" fill="#808080" stroke="none" text-anchor="end">2010</text>
    <text class="pl" transform="translate(336.0,573.0) rotate(-90)" dy="8.1" font-size="27.00" fill="#808080" stroke="none" text-anchor="end">2011</text>
    <text class="pl" transform="translate(378.3,573.0) rotate(-90)" dy="8.1" font-size="27.00" fill="#808080" stroke="none" text-anchor="end">2012</text>
    <text class="pl" transform="translate(420.6,573.0) rotate(-90)" dy="8.1" font-size="27.00" fill="#808080" stroke="none" text-anchor="end">2013</text>
    <text class="pl" transform="translate(462.9,573.0) rotate(-90)" dy="8.1" font-size="27.00" fill="#808080" stroke="none" text-anchor="end">2014</text>
    <text class="pl" transform="translate(505.2,573.0) rotate(-90)" dy="8.1" font-size="27.00" fill="#808080" stroke="none" text-anchor="end">2015</text>
    <text class="pl" transform="translate(547.6,573.0) rotate(-90)" dy="8.1" font-size="27.00" fill="#808080" stroke="none" text-anchor="end">2016</text>
    <text class="pl" transform="translate(589.9,573.0) rotate(-90)" dy="8.1" font-size="27.00" fill="#808080" stroke="none" text-anchor="end">2017</text>
    <text class="pl" transform="translate(632.2,573.0) rotate(-90)" dy="8.1" font-size="27.00" fill="#808080" stroke="none" text-anchor="end">2018</text>
    <text class="pl" transform="translate(674.5,573.0) rotate(-90)" dy="8.1" font-size="27.00" fill="#808080" stroke="none" text-anchor="end">2019</text>
    <text class="pl" transform="translate(716.8,573.0) rotate(-90)" dy="8.1" font-size="27.00" fill="#808080" stroke="none" text-anchor="end">2020</text>
    <text class="pl" transform="translate(759.1,573.0) rotate(-90)" dy="8.1" font-size="27.00" fill="#808080" stroke="none" text-anchor="end">2021</text>
    <text class="pl" transform="translate(801.4,573.0) rotate(-90)" dy="8.1" font-size="27.00" fill="#808080" stroke="none" text-anchor="end">2022</text>
    <text class="pl" transform="translate(843.7,573.0) rotate(-90)" dy="8.1" font-size="27.00" fill="#808080" stroke="none" text-anchor="end">2023</text>
    <text class="pl" transform="translate(886.0,573.0) rotate(-90)" dy="8.1" font-size="27.00" fill="#808080" stroke="none" text-anchor="end">2024</text>
<text transform="translate(157.6,666.1)" font-size="19.80" font-family="Helvetica" fill="#BFBFBF" stroke="none" xml:space="preserve"><a href="https://twitter.com/robbie_andrew" style="fill:#BFBFBF" target="_blank">@robbie_andrew</a>   &#9679;   Data: SIMI   &#9679;   Through August 2024</text>
<text class="twitlink" transform="translate(157.6,666.1)" opacity="0" font-size="19.80" fill="#BFBFBF" stroke="none" xml:space="preserve"><a href="https://twitter.com/robbie_andrew" style="fill:#BFBFBF" target="_blank">@robbie_andrew</a></text>
  <g class="dl_el" transform="translate(154.6,578.4)">
    <g class="dl_el_balloon">
      <foreignObject x="0" y="0" width="120" height="500">
      <div xmlns="http://www.w3.org/1999/xhtml" class="dl_fe" style="height:60px">
      <p class="dl_fe_p">Find me on Twitter</p>
      </div>
	    </foreignObject>
      <path stroke="#000" fill="#FDFFDF" d="M0,60H60l5,5l5,-5H120"/>
    </g>
  </g>
<use xlink:href="#line_y" transform="translate(145.6,0)"/>
<use xlink:href="#line_y" transform="translate(187.9,0)"/>
<use xlink:href="#line_y" transform="translate(230.2,0)"/>
<use xlink:href="#line_y" transform="translate(272.5,0)"/>
<use xlink:href="#line_y" transform="translate(314.8,0)"/>
<use xlink:href="#line_y" transform="translate(357.2,0)"/>
<use xlink:href="#line_y" transform="translate(399.5,0)"/>
<use xlink:href="#line_y" transform="translate(441.8,0)"/>
<use xlink:href="#line_y" transform="translate(484.1,0)"/>
<use xlink:href="#line_y" transform="translate(526.4,0)"/>
<use xlink:href="#line_y" transform="translate(568.7,0)"/>
<use xlink:href="#line_y" transform="translate(611.0,0)"/>
<use xlink:href="#line_y" transform="translate(653.3,0)"/>
<use xlink:href="#line_y" transform="translate(695.6,0)"/>
<use xlink:href="#line_y" transform="translate(738.0,0)"/>
<use xlink:href="#line_y" transform="translate(780.3,0)"/>
<use xlink:href="#line_y" transform="translate(822.6,0)"/>
<use xlink:href="#line_y" transform="translate(864.9,0)"/>
<use xlink:href="#line_y" transform="translate(907.2,0)"/>
<use xlink:href="#line_x" transform="translate(0,560.2)"/>
<use xlink:href="#line_x" transform="translate(0,458.9)"/>
<use xlink:href="#line_x" transform="translate(0,357.7)"/>
<use xlink:href="#line_x" transform="translate(0,256.5)"/>
<use xlink:href="#line_x" transform="translate(0,155.2)"/>
<use xlink:href="#line_x" transform="translate(0,54.0)"/>
<use xlink:href="#tick_x" transform="translate(145.6,0)"/>
<use xlink:href="#tick_x" transform="translate(187.9,0)"/>
<use xlink:href="#tick_x" transform="translate(230.2,0)"/>
<use xlink:href="#tick_x" transform="translate(272.5,0)"/>
<use xlink:href="#tick_x" transform="translate(314.8,0)"/>
<use xlink:href="#tick_x" transform="translate(357.2,0)"/>
<use xlink:href="#tick_x" transform="translate(399.5,0)"/>
<use xlink:href="#tick_x" transform="translate(441.8,0)"/>
<use xlink:href="#tick_x" transform="translate(484.1,0)"/>
<use xlink:href="#tick_x" transform="translate(526.4,0)"/>
<use xlink:href="#tick_x" transform="translate(568.7,0)"/>
<use xlink:href="#tick_x" transform="translate(611.0,0)"/>
<use xlink:href="#tick_x" transform="translate(653.3,0)"/>
<use xlink:href="#tick_x" transform="translate(695.6,0)"/>
<use xlink:href="#tick_x" transform="translate(738.0,0)"/>
<use xlink:href="#tick_x" transform="translate(780.3,0)"/>
<use xlink:href="#tick_x" transform="translate(822.6,0)"/>
<use xlink:href="#tick_x" transform="translate(864.9,0)"/>
<use xlink:href="#tick_x" transform="translate(907.2,0)"/>
<use xlink:href="#tick_y" transform="translate(0,560.2)"/>
<use xlink:href="#tick_y" transform="translate(0,458.9)"/>
<use xlink:href="#tick_y" transform="translate(0,357.7)"/>
<use xlink:href="#tick_y" transform="translate(0,256.5)"/>
<use xlink:href="#tick_y" transform="translate(0,155.2)"/>
<use xlink:href="#tick_y" transform="translate(0,54.0)"/>
<polyline points="145.6,53.993 145.6,560.180 907.2,560.180" stroke="#808080" stroke-width="0.90" fill="none"/>
<g>
<a href="https://creativecommons.org/licenses/by/4.0/">
  <rect x="123.0" y="651.4" width="34" height="17" fill="#FFF" stroke="none"/>
  <g transform="translate(124.0,652.4) scale(0.24)">
  <g><circle fill="#FFF" cx="37.79" cy="28.5" r="28.84"/>
     <circle fill="none" cx="37.79" cy="28.5" r="28.84" stroke="#BFBFBF" stroke-width="5.5"/>
     <path fill="#BFBFBF" d="M37.16,23.19 l-4.29,2.23c-0.458-0.951-1.02-1.62-1.69-2c-0.667-0.38-1.29-0.571-1.86-0.571c-2.86,0-4.29,1.89-4.29,5.66 c0,1.71,0.36,3.08,1.09,4.11c0.724,1.03,1.79,1.54,3.2,1.54c1.87,0,3.18-0.915,3.94-2.74l3.94,2 c-0.838,1.56-2,2.79-3.49,3.69c-1.48,0.896-3.12,1.34-4.91,1.34c-2.86,0-5.16-0.875-6.92-2.63 c-1.75-1.75-2.63-4.19-2.63-7.31c0-3.05,0.886-5.47,2.66-7.26c1.77-1.79,4.01-2.69,6.72-2.69 C32.6,18.56,35.44,20.1,37.16,23.19z
              M55.61,23.19l-4.23,2.23c-0.457-0.951-1.02-1.62-1.69-2 c-0.668-0.38-1.31-0.571-1.91-0.571c-2.86,0-4.29,1.89-4.29,5.66c0,1.71,0.363,3.08,1.09,4.11 c0.723,1.03,1.79,1.54,3.2,1.54c1.87,0,3.18-0.915,3.94-2.74l4,2c-0.875,1.56-2.06,2.79-3.54,3.69 c-1.49,0.9-3.11,1.34-4.86,1.34c-2.9,0-5.21-0.875-6.94-2.63c-1.74-1.75-2.6-4.19-2.6-7.31 c0-3.05,0.885-5.47,2.66-7.26c1.77-1.79,4.01-2.69,6.71-2.69C51.12,18.56,53.944,20.1,55.61,23.19z"/>
  </g></g>
  <g transform="translate(140.2,652.4) scale(0.24)">
  <g><circle fill="#FFF" cx="37.79" cy="28.5" r="28.84"/>
     <circle fill="none" cx="37.79" cy="28.5" r="28.84" stroke="#BFBFBF" stroke-width="5.5"/>
     <path fill="#BFBFBF" d="M46.129,20.557v13.085h-3.656v15.542h-9.944V33.643h-3.656V20.557 c0-0.572,0.2-1.057,0.599-1.457c0.401-0.399,0.887-0.6,1.457-0.6h13.144c0.533,0,1.01,0.2,1.428,0.6 C45.918,19.5,46.129,19.986,46.129,20.557z
              M33.042,12.329c0-3.008,1.485-4.514,4.458-4.514s4.457,1.504,4.457,4.514 c0,2.971-1.486,4.457-4.457,4.457S33.042,15.3,33.042,12.329z"/>
  </g></g>
  </a>
</g>
  <g class="dl_el" transform="translate(69.1,548.4)">
    <g class="dl_el_balloon">
      <foreignObject x="0" y="0" width="250" height="500">
      <div xmlns="http://www.w3.org/1999/xhtml" class="dl_fe" style="height:90px">
      <p class="dl_fe_p">CC-BY: Material may be freely re-used as long as you credit the author</p>
      </div>
	    </foreignObject>
      <path stroke="#000" fill="#FDFFDF" d="M0,90H70l5,5l5,-5H250"/>
    </g>
  </g>
</g>
</svg>
