<svg version="1.1" xmlns="http://www.w3.org/2000/svg" xmlns:xlink="http://www.w3.org/1999/xlink" width="100%" height="100%" viewBox="0 0 1200.000 674.916">
<title>Italian new passenger car sales by type: Quarterly</title>
<desc>Created by Robbie Andrew (@robbie_andrew), CICERO Center for International Climate Research. CC-BY: Material may be freely re-used as long as you credit the author</desc>
<style type="text/css">
  #main {font-family:Helvetica,Arial,sans-serif; font-size:27.00px;
         fill-opacity:1; fill:#000000; stroke:none; stroke-linejoin:round; stroke-linecap:round; stroke-width:1.00;}
  a:hover {text-decoration: underline;}
  .marker {stroke-opacity:0;fill-opacity:0;}
  .marker:hover {stroke-opacity:0.5; fill-opacity:1;}
  .ticklabel {font-size:27.00px;fill:#808080;stroke:none;font-family:Helvetica}
  .ytl {text-anchor:end;}
  .dp1 {pointer-events:none;font-size:70%;text-anchor:middle;fill:#000000;}
  .dp2 {pointer-events:none;font-size:70%;text-anchor:middle;fill:#FFFFFF;}
  .numtip {pointer-events:none;}
  .cc {opacity:0.25;}
.dl_fe {background-color:#FDFFDF;display:flex;margin:auto;align-items:center}
.dl_fe_p {font-size:20px;text-align:center;margin:3px}
.dl_el {display:none;pointer-events:none;}
.cc:hover + .dl_el {display:block;}
text:hover + .dl_el {display:block;}
  #areas .pl {transition: all 0.2s ease;}
  #areas:hover .pl {opacity:0.5;}
  #areas:hover .thick {stroke-width:1;}
  #areas:hover .pg_1:hover .pl {opacity:1;}
  #areas:hover .pg_1:hover .pll {stroke-width:3;}
  #areas:hover .pg_1:hover .pldlm {stroke-width:2;}
  #areas:hover .pg_1:hover .thick {stroke-width:12;}
  #areas:hover .pg_2:hover .pl {opacity:1;}
  #areas:hover .pg_2:hover .pll {stroke-width:3;}
  #areas:hover .pg_2:hover .pldlm {stroke-width:2;}
  #areas:hover .pg_2:hover .thick {stroke-width:12;}
  #areas:hover .pg_3:hover .pl {opacity:1;}
  #areas:hover .pg_3:hover .pll {stroke-width:3;}
  #areas:hover .pg_3:hover .pldlm {stroke-width:2;}
  #areas:hover .pg_3:hover .thick {stroke-width:12;}
  #areas:hover .pg_4:hover .pl {opacity:1;}
  #areas:hover .pg_4:hover .pll {stroke-width:3;}
  #areas:hover .pg_4:hover .pldlm {stroke-width:2;}
  #areas:hover .pg_4:hover .thick {stroke-width:12;}
  #areas:hover .pg_5:hover .pl {opacity:1;}
  #areas:hover .pg_5:hover .pll {stroke-width:3;}
  #areas:hover .pg_5:hover .pldlm {stroke-width:2;}
  #areas:hover .pg_5:hover .thick {stroke-width:12;}
  #areas:hover .pg_6:hover .pl {opacity:1;}
  #areas:hover .pg_6:hover .pll {stroke-width:3;}
  #areas:hover .pg_6:hover .pldlm {stroke-width:2;}
  #areas:hover .pg_6:hover .thick {stroke-width:12;}
  #areas:hover .pg_7:hover .pl {opacity:1;}
  #areas:hover .pg_7:hover .pll {stroke-width:3;}
  #areas:hover .pg_7:hover .pldlm {stroke-width:2;}
  #areas:hover .pg_7:hover .thick {stroke-width:12;}
  #lines .pl {transition: all 0.2s ease;}
  #lines:hover .pl {opacity:0.3;}
  #lines:hover .thick {stroke-width:1;}
  #lines:hover .pl_1:hover .pl {opacity:1;}
  #lines:hover .pl_1:hover .pll {stroke-width:3;}
  #lines:hover .pl_1:hover .pldlm {stroke-width:2;}
  #lines:hover .pl_1:hover .thick {stroke-width:12;}
  #lines:hover .pl_2:hover .pl {opacity:1;}
  #lines:hover .pl_2:hover .pll {stroke-width:3;}
  #lines:hover .pl_2:hover .pldlm {stroke-width:2;}
  #lines:hover .pl_2:hover .thick {stroke-width:12;}
  #lines:hover .pl_3:hover .pl {opacity:1;}
  #lines:hover .pl_3:hover .pll {stroke-width:3;}
  #lines:hover .pl_3:hover .pldlm {stroke-width:2;}
  #lines:hover .pl_3:hover .thick {stroke-width:12;}
  #lines:hover .pl_4:hover .pl {opacity:1;}
  #lines:hover .pl_4:hover .pll {stroke-width:3;}
  #lines:hover .pl_4:hover .pldlm {stroke-width:2;}
  #lines:hover .pl_4:hover .thick {stroke-width:12;}
  #lines:hover .pl_5:hover .pl {opacity:1;}
  #lines:hover .pl_5:hover .pll {stroke-width:3;}
  #lines:hover .pl_5:hover .pldlm {stroke-width:2;}
  #lines:hover .pl_5:hover .thick {stroke-width:12;}
  #lines:hover .pl_6:hover .pl {opacity:1;}
  #lines:hover .pl_6:hover .pll {stroke-width:3;}
  #lines:hover .pl_6:hover .pldlm {stroke-width:2;}
  #lines:hover .pl_6:hover .thick {stroke-width:12;}
  #lines:hover .pl_7:hover .pl {opacity:1;}
  #lines:hover .pl_7:hover .pll {stroke-width:3;}
  #lines:hover .pl_7:hover .pldlm {stroke-width:2;}
  #lines:hover .pl_7:hover .thick {stroke-width:12;}
  #lines:hover .pl_8:hover .pl {opacity:1;}
  #lines:hover .pl_8:hover .pll {stroke-width:3;}
  #lines:hover .pl_8:hover .pldlm {stroke-width:2;}
  #lines:hover .pl_8:hover .thick {stroke-width:12;}
  #lines:hover .pl_9:hover .pl {opacity:1;}
  #lines:hover .pl_9:hover .pll {stroke-width:3;}
  #lines:hover .pl_9:hover .pldlm {stroke-width:2;}
  #lines:hover .pl_9:hover .thick {stroke-width:12;}
  #lines:hover .pl_10:hover .pl {opacity:1;}
  #lines:hover .pl_10:hover .pll {stroke-width:3;}
  #lines:hover .pl_10:hover .pldlm {stroke-width:2;}
  #lines:hover .pl_10:hover .thick {stroke-width:12;}
  #lines:hover .pl_11:hover .pl {opacity:1;}
  #lines:hover .pl_11:hover .pll {stroke-width:3;}
  #lines:hover .pl_11:hover .pldlm {stroke-width:2;}
  #lines:hover .pl_11:hover .thick {stroke-width:12;}
  #lines:hover .pl_12:hover .pl {opacity:1;}
  #lines:hover .pl_12:hover .pll {stroke-width:3;}
  #lines:hover .pl_12:hover .pldlm {stroke-width:2;}
  #lines:hover .pl_12:hover .thick {stroke-width:12;}
  #lines:hover .pl_13:hover .pl {opacity:1;}
  #lines:hover .pl_13:hover .pll {stroke-width:3;}
  #lines:hover .pl_13:hover .pldlm {stroke-width:2;}
  #lines:hover .pl_13:hover .thick {stroke-width:12;}
  #lines:hover .pl_14:hover .pl {opacity:1;}
  #lines:hover .pl_14:hover .pll {stroke-width:3;}
  #lines:hover .pl_14:hover .pldlm {stroke-width:2;}
  #lines:hover .pl_14:hover .thick {stroke-width:12;}
  #lines:hover .pl_15:hover .pl {opacity:1;}
  #lines:hover .pl_15:hover .pll {stroke-width:3;}
  #lines:hover .pl_15:hover .pldlm {stroke-width:2;}
  #lines:hover .pl_15:hover .thick {stroke-width:12;}
  #lines:hover .pl_16:hover .pl {opacity:1;}
  #lines:hover .pl_16:hover .pll {stroke-width:3;}
  #lines:hover .pl_16:hover .pldlm {stroke-width:2;}
  #lines:hover .pl_16:hover .thick {stroke-width:12;}
  #lines:hover .pl_17:hover .pl {opacity:1;}
  #lines:hover .pl_17:hover .pll {stroke-width:3;}
  #lines:hover .pl_17:hover .pldlm {stroke-width:2;}
  #lines:hover .pl_17:hover .thick {stroke-width:12;}
  #lines:hover .pl_18:hover .pl {opacity:1;}
  #lines:hover .pl_18:hover .pll {stroke-width:3;}
  #lines:hover .pl_18:hover .pldlm {stroke-width:2;}
  #lines:hover .pl_18:hover .thick {stroke-width:12;}
  #lines:hover .pl_19:hover .pl {opacity:1;}
  #lines:hover .pl_19:hover .pll {stroke-width:3;}
  #lines:hover .pl_19:hover .pldlm {stroke-width:2;}
  #lines:hover .pl_19:hover .thick {stroke-width:12;}
  #lines:hover .pl_20:hover .pl {opacity:1;}
  #lines:hover .pl_20:hover .pll {stroke-width:3;}
  #lines:hover .pl_20:hover .pldlm {stroke-width:2;}
  #lines:hover .pl_20:hover .thick {stroke-width:12;}
  #lines:hover .pl_21:hover .pl {opacity:1;}
  #lines:hover .pl_21:hover .pll {stroke-width:3;}
  #lines:hover .pl_21:hover .pldlm {stroke-width:2;}
  #lines:hover .pl_21:hover .thick {stroke-width:12;}
  #lines:hover .pl_22:hover .pl {opacity:1;}
  #lines:hover .pl_22:hover .pll {stroke-width:3;}
  #lines:hover .pl_22:hover .pldlm {stroke-width:2;}
  #lines:hover .pl_22:hover .thick {stroke-width:12;}
  #lines:hover .pl_23:hover .pl {opacity:1;}
  #lines:hover .pl_23:hover .pll {stroke-width:3;}
  #lines:hover .pl_23:hover .pldlm {stroke-width:2;}
  #lines:hover .pl_23:hover .thick {stroke-width:12;}
  #lines:hover .pl_24:hover .pl {opacity:1;}
  #lines:hover .pl_24:hover .pll {stroke-width:3;}
  #lines:hover .pl_24:hover .pldlm {stroke-width:2;}
  #lines:hover .pl_24:hover .thick {stroke-width:12;}
  #lines:hover .pl_25:hover .pl {opacity:1;}
  #lines:hover .pl_25:hover .pll {stroke-width:3;}
  #lines:hover .pl_25:hover .pldlm {stroke-width:2;}
  #lines:hover .pl_25:hover .thick {stroke-width:12;}
  #lines:hover .pl_26:hover .pl {opacity:1;}
  #lines:hover .pl_26:hover .pll {stroke-width:3;}
  #lines:hover .pl_26:hover .pldlm {stroke-width:2;}
  #lines:hover .pl_26:hover .thick {stroke-width:12;}
  #lines:hover .pl_27:hover .pl {opacity:1;}
  #lines:hover .pl_27:hover .pll {stroke-width:3;}
  #lines:hover .pl_27:hover .pldlm {stroke-width:2;}
  #lines:hover .pl_27:hover .thick {stroke-width:12;}
  #lines:hover .pl_28:hover .pl {opacity:1;}
  #lines:hover .pl_28:hover .pll {stroke-width:3;}
  #lines:hover .pl_28:hover .pldlm {stroke-width:2;}
  #lines:hover .pl_28:hover .thick {stroke-width:12;}
</style>
<defs>
  <clipPath id="axis_clip"><rect x="145.8" y="54.2" width="761.2" height="505.8" /></clipPath>
  <path id="line_y" d="M 0,53.993 v 506.187" stroke="#4D4D4D" stroke-opacity="0.15" stroke-width="1.00"/>
  <path id="line_x" d="M 145.600,0 h 761.600" stroke="#4D4D4D" stroke-opacity="0.15" stroke-width="1.00"/>
  <path id="tick_y" d="M 145.600,0 h -6.000" stroke="#808080" stroke-width="0.90"/>
  <path id="tick_x" d="M 0,560.180 v 6.000" stroke="#808080" stroke-width="0.90"/>
  <symbol id="line_1" viewBox="0 0 1200.000 674.916">
<polyline class="pl" points="145.6,214.1 160.2,214.1 160.2,215.4 174.9,215.4 174.9,325.8 189.5,325.8 189.5,294.4 204.2,294.4 204.2,259.8 218.8,259.8 218.8,243.0 233.5,243.0 233.5,333.7 248.1,333.7 248.1,303.7 262.8,303.7 262.8,241.3 277.4,241.3 277.4,239.1 292.1,239.1 292.1,324.1 306.7,324.1 306.7,285.8 321.4,285.8 321.4,197.0 336.0,197.0 336.0,186.3 350.6,186.3 350.6,287.8 365.3,287.8 365.3,239.7 379.9,239.7 379.9,119.8 394.6,119.8 394.6,118.3 409.2,118.3 409.2,252.4 423.9,252.4 423.9,200.6 438.5,200.6 438.5,66.8 453.2,66.8 453.2,91.8 467.8,91.8 467.8,223.4 482.5,223.4 482.5,187.3 497.1,187.3 497.1,73.3 511.8,73.3 511.8,97.8 526.4,97.8 526.4,246.6 541.0,246.6 541.0,204.8 555.7,204.8 555.7,106.5 570.3,106.5 570.3,100.2 585.0,100.2 585.0,235.0 599.6,235.0 599.6,179.7 614.3,179.7 614.3,266.1 628.9,266.1 628.9,359.4 643.6,359.4 643.6,236.6 658.2,236.6 658.2,206.4 672.9,206.4 672.9,180.6 687.5,180.6 687.5,188.5 702.2,188.5 702.2,321.6 716.8,321.6 716.8,308.6 731.4,308.6 731.4,271.0 746.1,271.0 746.1,264.9 760.7,264.9 760.7,310.6 775.4,310.6 775.4,268.2 790.0,268.2 790.0,195.3 804.7,195.3 804.7,206.5 819.3,206.5 819.3,272.7 834.0,272.7 834.0,225.4 848.6,225.4 848.6,174.4 863.3,174.4 863.3,189.4 877.9,189.4" stroke="#000" stroke-width="0.90" stroke-opacity="1.00" fill="none" clip-path="url(#axis_clip)"/>
  </symbol>
  <symbol id="line_2" viewBox="0 0 1200.000 674.916">
<polyline class="pl" points="145.6,224.8 160.2,224.8 160.2,229.4 174.9,229.4 174.9,335.0 189.5,335.0 189.5,306.0 204.2,306.0 204.2,274.5 218.8,274.5 218.8,259.3 233.5,259.3 233.5,346.4 248.1,346.4 248.1,317.4 262.8,317.4 262.8,254.9 277.4,254.9 277.4,254.2 292.1,254.2 292.1,339.0 306.7,339.0 306.7,303.0 321.4,303.0 321.4,212.5 336.0,212.5 336.0,200.5 350.6,200.5 350.6,299.6 365.3,299.6 365.3,251.2 379.9,251.2 379.9,131.8 394.6,131.8 394.6,129.0 409.2,129.0 409.2,258.7 423.9,258.7 423.9,208.4 438.5,208.4 438.5,74.6 453.2,74.6 453.2,98.0 467.8,98.0 467.8,229.2 482.5,229.2 482.5,195.1 497.1,195.1 497.1,83.4 511.8,83.4 511.8,110.1 526.4,110.1 526.4,251.8 541.0,251.8 541.0,208.7 555.7,208.7 555.7,111.9 570.3,111.9 570.3,108.9 585.0,108.9 585.0,243.1 599.6,243.1 599.6,189.9 614.3,189.9 614.3,273.2 628.9,273.2 628.9,363.7 643.6,363.7 643.6,244.7 658.2,244.7 658.2,213.4 672.9,213.4 672.9,189.4 687.5,189.4 687.5,197.0 702.2,197.0 702.2,326.5 716.8,326.5 716.8,312.8 731.4,312.8 731.4,274.5 746.1,274.5 746.1,267.8 760.7,267.8 760.7,312.0 775.4,312.0 775.4,269.4 790.0,269.4 790.0,195.9 804.7,195.9 804.7,206.7 819.3,206.7 819.3,272.9 834.0,272.9 834.0,225.9 848.6,225.9 848.6,175.1 863.3,175.1 863.3,189.7 877.9,189.7" stroke="#000" stroke-width="0.90" stroke-opacity="1.00" fill="none" clip-path="url(#axis_clip)"/>
  </symbol>
  <symbol id="line_3" viewBox="0 0 1200.000 674.916">
<polyline class="pl" points="145.6,224.9 160.2,224.9 160.2,229.5 174.9,229.5 174.9,335.1 189.5,335.1 189.5,306.1 204.2,306.1 204.2,274.6 218.8,274.6 218.8,259.5 233.5,259.5 233.5,346.6 248.1,346.6 248.1,317.6 262.8,317.6 262.8,255.0 277.4,255.0 277.4,254.5 292.1,254.5 292.1,339.2 306.7,339.2 306.7,303.3 321.4,303.3 321.4,213.0 336.0,213.0 336.0,200.8 350.6,200.8 350.6,299.8 365.3,299.8 365.3,251.4 379.9,251.4 379.9,132.1 394.6,132.1 394.6,129.2 409.2,129.2 409.2,259.0 423.9,259.0 423.9,208.7 438.5,208.7 438.5,75.0 453.2,75.0 453.2,98.3 467.8,98.3 467.8,229.5 482.5,229.5 482.5,195.6 497.1,195.6 497.1,84.2 511.8,84.2 511.8,111.1 526.4,111.1 526.4,252.9 541.0,252.9 541.0,209.9 555.7,209.9 555.7,112.9 570.3,112.9 570.3,112.1 585.0,112.1 585.0,245.4 599.6,245.4 599.6,192.3 614.3,192.3 614.3,277.8 628.9,277.8 628.9,367.6 643.6,367.6 643.6,251.1 658.2,251.1 658.2,226.0 672.9,226.0 672.9,200.7 687.5,200.7 687.5,211.4 702.2,211.4 702.2,340.7 716.8,340.7 716.8,329.9 731.4,329.9 731.4,284.0 746.1,284.0 746.1,279.4 760.7,279.4 760.7,321.3 775.4,321.3 775.4,280.8 790.0,280.8 790.0,209.8 804.7,209.8 804.7,220.6 819.3,220.6 819.3,284.1 834.0,284.1 834.0,243.3 848.6,243.3 848.6,186.5 863.3,186.5 863.3,208.0 877.9,208.0" stroke="#000" stroke-width="0.90" stroke-opacity="1.00" fill="none" clip-path="url(#axis_clip)"/>
  </symbol>
  <symbol id="line_4" viewBox="0 0 1200.000 674.916">
<polyline class="pl" points="145.6,224.9 160.2,224.9 160.2,229.5 174.9,229.5 174.9,335.1 189.5,335.1 189.5,306.1 204.2,306.1 204.2,274.6 218.8,274.6 218.8,259.5 233.5,259.5 233.5,346.6 248.1,346.6 248.1,317.6 262.8,317.6 262.8,255.0 277.4,255.0 277.4,254.5 292.1,254.5 292.1,339.2 306.7,339.2 306.7,303.3 321.4,303.3 321.4,213.0 336.0,213.0 336.0,200.8 350.6,200.8 350.6,299.8 365.3,299.8 365.3,251.4 379.9,251.4 379.9,132.1 394.6,132.1 394.6,129.2 409.2,129.2 409.2,259.0 423.9,259.0 423.9,208.7 438.5,208.7 438.5,75.0 453.2,75.0 453.2,98.3 467.8,98.3 467.8,229.5 482.5,229.5 482.5,195.6 497.1,195.6 497.1,84.7 511.8,84.7 511.8,112.1 526.4,112.1 526.4,254.0 541.0,254.0 541.0,210.8 555.7,210.8 555.7,113.7 570.3,113.7 570.3,113.1 585.0,113.1 585.0,247.2 599.6,247.2 599.6,194.4 614.3,194.4 614.3,280.3 628.9,280.3 628.9,370.0 643.6,370.0 643.6,256.6 658.2,256.6 658.2,238.7 672.9,238.7 672.9,214.5 687.5,214.5 687.5,229.5 702.2,229.5 702.2,353.4 716.8,353.4 716.8,343.7 731.4,343.7 731.4,298.4 746.1,298.4 746.1,296.3 760.7,296.3 760.7,331.7 775.4,331.7 775.4,296.2 790.0,296.2 790.0,225.9 804.7,225.9 804.7,238.0 819.3,238.0 819.3,296.1 834.0,296.1 834.0,256.9 848.6,256.9 848.6,198.7 863.3,198.7 863.3,220.4 877.9,220.4" stroke="#000" stroke-width="0.90" stroke-opacity="1.00" fill="none" clip-path="url(#axis_clip)"/>
  </symbol>
  <symbol id="line_5" viewBox="0 0 1200.000 674.916">
<polyline class="pl" points="145.6,225.8 160.2,225.8 160.2,230.9 174.9,230.9 174.9,336.3 189.5,336.3 189.5,308.3 204.2,308.3 204.2,277.1 218.8,277.1 218.8,262.6 233.5,262.6 233.5,349.3 248.1,349.3 248.1,321.3 262.8,321.3 262.8,259.2 277.4,259.2 277.4,259.6 292.1,259.6 292.1,342.5 306.7,342.5 306.7,308.1 321.4,308.1 321.4,218.4 336.0,218.4 336.0,206.2 350.6,206.2 350.6,304.1 365.3,304.1 365.3,257.5 379.9,257.5 379.9,140.6 394.6,140.6 394.6,137.3 409.2,137.3 409.2,265.7 423.9,265.7 423.9,217.5 438.5,217.5 438.5,88.3 453.2,88.3 453.2,113.4 467.8,113.4 467.8,241.5 482.5,241.5 482.5,211.0 497.1,211.0 497.1,102.1 511.8,102.1 511.8,130.5 526.4,130.5 526.4,269.6 541.0,269.6 541.0,228.8 555.7,228.8 555.7,136.6 570.3,136.6 570.3,137.0 585.0,137.0 585.0,265.7 599.6,265.7 599.6,220.7 614.3,220.7 614.3,309.5 628.9,309.5 628.9,393.4 643.6,393.4 643.6,310.0 658.2,310.0 658.2,320.8 672.9,320.8 672.9,316.3 687.5,316.3 687.5,333.7 702.2,333.7 702.2,426.4 716.8,426.4 716.8,425.0 731.4,425.0 731.4,396.2 746.1,396.2 746.1,391.7 760.7,391.7 760.7,420.4 775.4,420.4 775.4,397.9 790.0,397.9 790.0,356.4 804.7,356.4 804.7,360.9 819.3,360.9 819.3,402.2 834.0,402.2 834.0,382.6 848.6,382.6 848.6,346.3 863.3,346.3 863.3,366.8 877.9,366.8" stroke="#000" stroke-width="0.90" stroke-opacity="1.00" fill="none" clip-path="url(#axis_clip)"/>
  </symbol>
  <symbol id="line_6" viewBox="0 0 1200.000 674.916">
<polyline class="pl" points="145.6,243.8 160.2,243.8 160.2,264.9 174.9,264.9 174.9,361.8 189.5,361.8 189.5,340.0 204.2,340.0 204.2,304.5 218.8,304.5 218.8,290.3 233.5,290.3 233.5,370.1 248.1,370.1 248.1,343.0 262.8,343.0 262.8,284.6 277.4,284.6 277.4,287.3 292.1,287.3 292.1,365.9 306.7,365.9 306.7,336.2 321.4,336.2 321.4,248.2 336.0,248.2 336.0,236.9 350.6,236.9 350.6,324.7 365.3,324.7 365.3,278.2 379.9,278.2 379.9,164.6 394.6,164.6 394.6,161.7 409.2,161.7 409.2,283.0 423.9,283.0 423.9,238.0 438.5,238.0 438.5,119.5 453.2,119.5 453.2,143.1 467.8,143.1 467.8,264.5 482.5,264.5 482.5,236.4 497.1,236.4 497.1,130.9 511.8,130.9 511.8,159.7 526.4,159.7 526.4,292.7 541.0,292.7 541.0,253.1 555.7,253.1 555.7,166.5 570.3,166.5 570.3,168.2 585.0,168.2 585.0,294.5 599.6,294.5 599.6,246.0 614.3,246.0 614.3,327.2 628.9,327.2 628.9,407.1 643.6,407.1 643.6,332.6 658.2,332.6 658.2,346.1 672.9,346.1 672.9,338.3 687.5,338.3 687.5,359.8 702.2,359.8 702.2,448.1 716.8,448.1 716.8,446.0 731.4,446.0 731.4,422.0 746.1,422.0 746.1,416.4 760.7,416.4 760.7,441.4 775.4,441.4 775.4,426.7 790.0,426.7 790.0,389.8 804.7,389.8 804.7,390.6 819.3,390.6 819.3,428.3 834.0,428.3 834.0,414.5 848.6,414.5 848.6,382.0 863.3,382.0 863.3,398.0 877.9,398.0" stroke="#000" stroke-width="0.90" stroke-opacity="1.00" fill="none" clip-path="url(#axis_clip)"/>
  </symbol>
  <symbol id="line_7" viewBox="0 0 1200.000 674.916">
<polyline class="pl" points="145.6,367.4 160.2,367.4 160.2,380.7 174.9,380.7 174.9,434.9 189.5,434.9 189.5,422.2 204.2,422.2 204.2,398.5 218.8,398.5 218.8,391.8 233.5,391.8 233.5,437.3 248.1,437.3 248.1,418.2 262.8,418.2 262.8,381.2 277.4,381.2 277.4,381.0 292.1,381.0 292.1,431.7 306.7,431.7 306.7,411.6 321.4,411.6 321.4,357.7 336.0,357.7 336.0,353.0 350.6,353.0 350.6,412.3 365.3,412.3 365.3,378.6 379.9,378.6 379.9,312.5 394.6,312.5 394.6,311.0 409.2,311.0 409.2,380.6 423.9,380.6 423.9,347.5 438.5,347.5 438.5,284.6 453.2,284.6 453.2,290.6 467.8,290.6 467.8,367.7 482.5,367.7 482.5,350.1 497.1,350.1 497.1,290.9 511.8,290.9 511.8,318.0 526.4,318.0 526.4,399.4 541.0,399.4 541.0,399.9 555.7,399.9 555.7,361.0 570.3,361.0 570.3,369.8 585.0,369.8 585.0,439.3 599.6,439.3 599.6,423.9 614.3,423.9 614.3,459.1 628.9,459.1 628.9,488.1 643.6,488.1 643.6,448.0 658.2,448.0 658.2,458.6 672.9,458.6 672.9,463.9 687.5,463.9 687.5,475.2 702.2,475.2 702.2,509.9 716.8,509.9 716.8,512.1 731.4,512.1 731.4,500.0 746.1,500.0 746.1,500.0 760.7,500.0 760.7,511.4 775.4,511.4 775.4,504.5 790.0,504.5 790.0,488.7 804.7,488.7 804.7,492.2 819.3,492.2 819.3,512.1 834.0,512.1 834.0,509.6 848.6,509.6 848.6,501.4 863.3,501.4 863.3,508.9 877.9,508.9" stroke="#000" stroke-width="0.90" stroke-opacity="1.00" fill="none" clip-path="url(#axis_clip)"/>
  </symbol>
  <symbol id="line_8" viewBox="0 0 1200.000 674.916">
<polyline class="pl" points="145.6,224.8 160.2,224.8 160.2,229.4 174.9,229.4 174.9,335.0 189.5,335.0 189.5,306.0 204.2,306.0 204.2,274.5 218.8,274.5 218.8,259.3 233.5,259.3 233.5,346.4 248.1,346.4 248.1,317.4 262.8,317.4 262.8,254.9 277.4,254.9 277.4,254.2 292.1,254.2 292.1,339.0 306.7,339.0 306.7,303.0 321.4,303.0 321.4,212.5 336.0,212.5 336.0,200.5 350.6,200.5 350.6,299.6 365.3,299.6 365.3,251.2 379.9,251.2 379.9,131.8 394.6,131.8 394.6,129.0 409.2,129.0 409.2,258.7 423.9,258.7 423.9,208.4 438.5,208.4 438.5,74.6 453.2,74.6 453.2,98.0 467.8,98.0 467.8,229.2 482.5,229.2 482.5,195.1 497.1,195.1 497.1,83.4 511.8,83.4 511.8,110.1 526.4,110.1 526.4,251.8 541.0,251.8 541.0,208.7 555.7,208.7 555.7,111.9 570.3,111.9 570.3,108.9 585.0,108.9 585.0,243.1 599.6,243.1 599.6,189.9 614.3,189.9 614.3,273.2 628.9,273.2 628.9,363.7 643.6,363.7 643.6,244.7 658.2,244.7 658.2,213.4 672.9,213.4 672.9,189.4 687.5,189.4 687.5,197.0 702.2,197.0 702.2,326.5 716.8,326.5 716.8,312.8 731.4,312.8 731.4,274.5 746.1,274.5 746.1,267.8 760.7,267.8 760.7,312.0 775.4,312.0 775.4,269.4 790.0,269.4 790.0,195.9 804.7,195.9 804.7,206.7 819.3,206.7 819.3,272.9 834.0,272.9 834.0,225.9 848.6,225.9 848.6,175.1 863.3,175.1 863.3,189.7 877.9,189.7" stroke="#000" stroke-width="0.90" stroke-opacity="1.00" fill="none" clip-path="url(#axis_clip)"/>
  </symbol>
  <symbol id="line_9" viewBox="0 0 1200.000 674.916">
<polyline class="pl" points="145.6,224.9 160.2,224.9 160.2,229.5 174.9,229.5 174.9,335.1 189.5,335.1 189.5,306.1 204.2,306.1 204.2,274.6 218.8,274.6 218.8,259.5 233.5,259.5 233.5,346.6 248.1,346.6 248.1,317.6 262.8,317.6 262.8,255.0 277.4,255.0 277.4,254.5 292.1,254.5 292.1,339.2 306.7,339.2 306.7,303.3 321.4,303.3 321.4,213.0 336.0,213.0 336.0,200.8 350.6,200.8 350.6,299.8 365.3,299.8 365.3,251.4 379.9,251.4 379.9,132.1 394.6,132.1 394.6,129.2 409.2,129.2 409.2,259.0 423.9,259.0 423.9,208.7 438.5,208.7 438.5,75.0 453.2,75.0 453.2,98.3 467.8,98.3 467.8,229.5 482.5,229.5 482.5,195.6 497.1,195.6 497.1,84.2 511.8,84.2 511.8,111.1 526.4,111.1 526.4,252.9 541.0,252.9 541.0,209.9 555.7,209.9 555.7,112.9 570.3,112.9 570.3,112.1 585.0,112.1 585.0,245.4 599.6,245.4 599.6,192.3 614.3,192.3 614.3,277.8 628.9,277.8 628.9,367.6 643.6,367.6 643.6,251.1 658.2,251.1 658.2,226.0 672.9,226.0 672.9,200.7 687.5,200.7 687.5,211.4 702.2,211.4 702.2,340.7 716.8,340.7 716.8,329.9 731.4,329.9 731.4,284.0 746.1,284.0 746.1,279.4 760.7,279.4 760.7,321.3 775.4,321.3 775.4,280.8 790.0,280.8 790.0,209.8 804.7,209.8 804.7,220.6 819.3,220.6 819.3,284.1 834.0,284.1 834.0,243.3 848.6,243.3 848.6,186.5 863.3,186.5 863.3,208.0 877.9,208.0" stroke="#000" stroke-width="0.90" stroke-opacity="1.00" fill="none" clip-path="url(#axis_clip)"/>
  </symbol>
  <symbol id="line_10" viewBox="0 0 1200.000 674.916">
<polyline class="pl" points="145.6,224.9 160.2,224.9 160.2,229.5 174.9,229.5 174.9,335.1 189.5,335.1 189.5,306.1 204.2,306.1 204.2,274.6 218.8,274.6 218.8,259.5 233.5,259.5 233.5,346.6 248.1,346.6 248.1,317.6 262.8,317.6 262.8,255.0 277.4,255.0 277.4,254.5 292.1,254.5 292.1,339.2 306.7,339.2 306.7,303.3 321.4,303.3 321.4,213.0 336.0,213.0 336.0,200.8 350.6,200.8 350.6,299.8 365.3,299.8 365.3,251.4 379.9,251.4 379.9,132.1 394.6,132.1 394.6,129.2 409.2,129.2 409.2,259.0 423.9,259.0 423.9,208.7 438.5,208.7 438.5,75.0 453.2,75.0 453.2,98.3 467.8,98.3 467.8,229.5 482.5,229.5 482.5,195.6 497.1,195.6 497.1,84.7 511.8,84.7 511.8,112.1 526.4,112.1 526.4,254.0 541.0,254.0 541.0,210.8 555.7,210.8 555.7,113.7 570.3,113.7 570.3,113.1 585.0,113.1 585.0,247.2 599.6,247.2 599.6,194.4 614.3,194.4 614.3,280.3 628.9,280.3 628.9,370.0 643.6,370.0 643.6,256.6 658.2,256.6 658.2,238.7 672.9,238.7 672.9,214.5 687.5,214.5 687.5,229.5 702.2,229.5 702.2,353.4 716.8,353.4 716.8,343.7 731.4,343.7 731.4,298.4 746.1,298.4 746.1,296.3 760.7,296.3 760.7,331.7 775.4,331.7 775.4,296.2 790.0,296.2 790.0,225.9 804.7,225.9 804.7,238.0 819.3,238.0 819.3,296.1 834.0,296.1 834.0,256.9 848.6,256.9 848.6,198.7 863.3,198.7 863.3,220.4 877.9,220.4" stroke="#000" stroke-width="0.90" stroke-opacity="1.00" fill="none" clip-path="url(#axis_clip)"/>
  </symbol>
  <symbol id="line_11" viewBox="0 0 1200.000 674.916">
<polyline class="pl" points="145.6,225.8 160.2,225.8 160.2,230.9 174.9,230.9 174.9,336.3 189.5,336.3 189.5,308.3 204.2,308.3 204.2,277.1 218.8,277.1 218.8,262.6 233.5,262.6 233.5,349.3 248.1,349.3 248.1,321.3 262.8,321.3 262.8,259.2 277.4,259.2 277.4,259.6 292.1,259.6 292.1,342.5 306.7,342.5 306.7,308.1 321.4,308.1 321.4,218.4 336.0,218.4 336.0,206.2 350.6,206.2 350.6,304.1 365.3,304.1 365.3,257.5 379.9,257.5 379.9,140.6 394.6,140.6 394.6,137.3 409.2,137.3 409.2,265.7 423.9,265.7 423.9,217.5 438.5,217.5 438.5,88.3 453.2,88.3 453.2,113.4 467.8,113.4 467.8,241.5 482.5,241.5 482.5,211.0 497.1,211.0 497.1,102.1 511.8,102.1 511.8,130.5 526.4,130.5 526.4,269.6 541.0,269.6 541.0,228.8 555.7,228.8 555.7,136.6 570.3,136.6 570.3,137.0 585.0,137.0 585.0,265.7 599.6,265.7 599.6,220.7 614.3,220.7 614.3,309.5 628.9,309.5 628.9,393.4 643.6,393.4 643.6,310.0 658.2,310.0 658.2,320.8 672.9,320.8 672.9,316.3 687.5,316.3 687.5,333.7 702.2,333.7 702.2,426.4 716.8,426.4 716.8,425.0 731.4,425.0 731.4,396.2 746.1,396.2 746.1,391.7 760.7,391.7 760.7,420.4 775.4,420.4 775.4,397.9 790.0,397.9 790.0,356.4 804.7,356.4 804.7,360.9 819.3,360.9 819.3,402.2 834.0,402.2 834.0,382.6 848.6,382.6 848.6,346.3 863.3,346.3 863.3,366.8 877.9,366.8" stroke="#000" stroke-width="0.90" stroke-opacity="1.00" fill="none" clip-path="url(#axis_clip)"/>
  </symbol>
  <symbol id="line_12" viewBox="0 0 1200.000 674.916">
<polyline class="pl" points="145.6,243.8 160.2,243.8 160.2,264.9 174.9,264.9 174.9,361.8 189.5,361.8 189.5,340.0 204.2,340.0 204.2,304.5 218.8,304.5 218.8,290.3 233.5,290.3 233.5,370.1 248.1,370.1 248.1,343.0 262.8,343.0 262.8,284.6 277.4,284.6 277.4,287.3 292.1,287.3 292.1,365.9 306.7,365.9 306.7,336.2 321.4,336.2 321.4,248.2 336.0,248.2 336.0,236.9 350.6,236.9 350.6,324.7 365.3,324.7 365.3,278.2 379.9,278.2 379.9,164.6 394.6,164.6 394.6,161.7 409.2,161.7 409.2,283.0 423.9,283.0 423.9,238.0 438.5,238.0 438.5,119.5 453.2,119.5 453.2,143.1 467.8,143.1 467.8,264.5 482.5,264.5 482.5,236.4 497.1,236.4 497.1,130.9 511.8,130.9 511.8,159.7 526.4,159.7 526.4,292.7 541.0,292.7 541.0,253.1 555.7,253.1 555.7,166.5 570.3,166.5 570.3,168.2 585.0,168.2 585.0,294.5 599.6,294.5 599.6,246.0 614.3,246.0 614.3,327.2 628.9,327.2 628.9,407.1 643.6,407.1 643.6,332.6 658.2,332.6 658.2,346.1 672.9,346.1 672.9,338.3 687.5,338.3 687.5,359.8 702.2,359.8 702.2,448.1 716.8,448.1 716.8,446.0 731.4,446.0 731.4,422.0 746.1,422.0 746.1,416.4 760.7,416.4 760.7,441.4 775.4,441.4 775.4,426.7 790.0,426.7 790.0,389.8 804.7,389.8 804.7,390.6 819.3,390.6 819.3,428.3 834.0,428.3 834.0,414.5 848.6,414.5 848.6,382.0 863.3,382.0 863.3,398.0 877.9,398.0" stroke="#000" stroke-width="0.90" stroke-opacity="1.00" fill="none" clip-path="url(#axis_clip)"/>
  </symbol>
  <symbol id="line_13" viewBox="0 0 1200.000 674.916">
<polyline class="pl" points="145.6,367.4 160.2,367.4 160.2,380.7 174.9,380.7 174.9,434.9 189.5,434.9 189.5,422.2 204.2,422.2 204.2,398.5 218.8,398.5 218.8,391.8 233.5,391.8 233.5,437.3 248.1,437.3 248.1,418.2 262.8,418.2 262.8,381.2 277.4,381.2 277.4,381.0 292.1,381.0 292.1,431.7 306.7,431.7 306.7,411.6 321.4,411.6 321.4,357.7 336.0,357.7 336.0,353.0 350.6,353.0 350.6,412.3 365.3,412.3 365.3,378.6 379.9,378.6 379.9,312.5 394.6,312.5 394.6,311.0 409.2,311.0 409.2,380.6 423.9,380.6 423.9,347.5 438.5,347.5 438.5,284.6 453.2,284.6 453.2,290.6 467.8,290.6 467.8,367.7 482.5,367.7 482.5,350.1 497.1,350.1 497.1,290.9 511.8,290.9 511.8,318.0 526.4,318.0 526.4,399.4 541.0,399.4 541.0,399.9 555.7,399.9 555.7,361.0 570.3,361.0 570.3,369.8 585.0,369.8 585.0,439.3 599.6,439.3 599.6,423.9 614.3,423.9 614.3,459.1 628.9,459.1 628.9,488.1 643.6,488.1 643.6,448.0 658.2,448.0 658.2,458.6 672.9,458.6 672.9,463.9 687.5,463.9 687.5,475.2 702.2,475.2 702.2,509.9 716.8,509.9 716.8,512.1 731.4,512.1 731.4,500.0 746.1,500.0 746.1,500.0 760.7,500.0 760.7,511.4 775.4,511.4 775.4,504.5 790.0,504.5 790.0,488.7 804.7,488.7 804.7,492.2 819.3,492.2 819.3,512.1 834.0,512.1 834.0,509.6 848.6,509.6 848.6,501.4 863.3,501.4 863.3,508.9 877.9,508.9" stroke="#000" stroke-width="0.90" stroke-opacity="1.00" fill="none" clip-path="url(#axis_clip)"/>
  </symbol>
  <symbol id="line_14" viewBox="0 0 1200.000 674.916">
<polyline class="pl" points="145.6,224.9 160.2,224.9 160.2,229.5 174.9,229.5 174.9,335.1 189.5,335.1 189.5,306.1 204.2,306.1 204.2,274.6 218.8,274.6 218.8,259.5 233.5,259.5 233.5,346.6 248.1,346.6 248.1,317.6 262.8,317.6 262.8,255.0 277.4,255.0 277.4,254.5 292.1,254.5 292.1,339.2 306.7,339.2 306.7,303.3 321.4,303.3 321.4,213.0 336.0,213.0 336.0,200.8 350.6,200.8 350.6,299.8 365.3,299.8 365.3,251.4 379.9,251.4 379.9,132.1 394.6,132.1 394.6,129.2 409.2,129.2 409.2,259.0 423.9,259.0 423.9,208.7 438.5,208.7 438.5,75.0 453.2,75.0 453.2,98.3 467.8,98.3 467.8,229.5 482.5,229.5 482.5,195.6 497.1,195.6 497.1,84.2 511.8,84.2 511.8,111.1 526.4,111.1 526.4,252.9 541.0,252.9 541.0,209.9 555.7,209.9 555.7,112.9 570.3,112.9 570.3,112.1 585.0,112.1 585.0,245.4 599.6,245.4 599.6,192.3 614.3,192.3 614.3,277.8 628.9,277.8 628.9,367.6 643.6,367.6 643.6,251.1 658.2,251.1 658.2,226.0 672.9,226.0 672.9,200.7 687.5,200.7 687.5,211.4 702.2,211.4 702.2,340.7 716.8,340.7 716.8,329.9 731.4,329.9 731.4,284.0 746.1,284.0 746.1,279.4 760.7,279.4 760.7,321.3 775.4,321.3 775.4,280.8 790.0,280.8 790.0,209.8 804.7,209.8 804.7,220.6 819.3,220.6 819.3,284.1 834.0,284.1 834.0,243.3 848.6,243.3 848.6,186.5 863.3,186.5 863.3,208.0 877.9,208.0" stroke="#000" stroke-width="0.90" stroke-opacity="1.00" fill="none" clip-path="url(#axis_clip)"/>
  </symbol>
  <symbol id="line_15" viewBox="0 0 1200.000 674.916">
<polyline class="pl" points="145.6,224.9 160.2,224.9 160.2,229.5 174.9,229.5 174.9,335.1 189.5,335.1 189.5,306.1 204.2,306.1 204.2,274.6 218.8,274.6 218.8,259.5 233.5,259.5 233.5,346.6 248.1,346.6 248.1,317.6 262.8,317.6 262.8,255.0 277.4,255.0 277.4,254.5 292.1,254.5 292.1,339.2 306.7,339.2 306.7,303.3 321.4,303.3 321.4,213.0 336.0,213.0 336.0,200.8 350.6,200.8 350.6,299.8 365.3,299.8 365.3,251.4 379.9,251.4 379.9,132.1 394.6,132.1 394.6,129.2 409.2,129.2 409.2,259.0 423.9,259.0 423.9,208.7 438.5,208.7 438.5,75.0 453.2,75.0 453.2,98.3 467.8,98.3 467.8,229.5 482.5,229.5 482.5,195.6 497.1,195.6 497.1,84.7 511.8,84.7 511.8,112.1 526.4,112.1 526.4,254.0 541.0,254.0 541.0,210.8 555.7,210.8 555.7,113.7 570.3,113.7 570.3,113.1 585.0,113.1 585.0,247.2 599.6,247.2 599.6,194.4 614.3,194.4 614.3,280.3 628.9,280.3 628.9,370.0 643.6,370.0 643.6,256.6 658.2,256.6 658.2,238.7 672.9,238.7 672.9,214.5 687.5,214.5 687.5,229.5 702.2,229.5 702.2,353.4 716.8,353.4 716.8,343.7 731.4,343.7 731.4,298.4 746.1,298.4 746.1,296.3 760.7,296.3 760.7,331.7 775.4,331.7 775.4,296.2 790.0,296.2 790.0,225.9 804.7,225.9 804.7,238.0 819.3,238.0 819.3,296.1 834.0,296.1 834.0,256.9 848.6,256.9 848.6,198.7 863.3,198.7 863.3,220.4 877.9,220.4" stroke="#000" stroke-width="0.90" stroke-opacity="1.00" fill="none" clip-path="url(#axis_clip)"/>
  </symbol>
  <symbol id="line_16" viewBox="0 0 1200.000 674.916">
<polyline class="pl" points="145.6,225.8 160.2,225.8 160.2,230.9 174.9,230.9 174.9,336.3 189.5,336.3 189.5,308.3 204.2,308.3 204.2,277.1 218.8,277.1 218.8,262.6 233.5,262.6 233.5,349.3 248.1,349.3 248.1,321.3 262.8,321.3 262.8,259.2 277.4,259.2 277.4,259.6 292.1,259.6 292.1,342.5 306.7,342.5 306.7,308.1 321.4,308.1 321.4,218.4 336.0,218.4 336.0,206.2 350.6,206.2 350.6,304.1 365.3,304.1 365.3,257.5 379.9,257.5 379.9,140.6 394.6,140.6 394.6,137.3 409.2,137.3 409.2,265.7 423.9,265.7 423.9,217.5 438.5,217.5 438.5,88.3 453.2,88.3 453.2,113.4 467.8,113.4 467.8,241.5 482.5,241.5 482.5,211.0 497.1,211.0 497.1,102.1 511.8,102.1 511.8,130.5 526.4,130.5 526.4,269.6 541.0,269.6 541.0,228.8 555.7,228.8 555.7,136.6 570.3,136.6 570.3,137.0 585.0,137.0 585.0,265.7 599.6,265.7 599.6,220.7 614.3,220.7 614.3,309.5 628.9,309.5 628.9,393.4 643.6,393.4 643.6,310.0 658.2,310.0 658.2,320.8 672.9,320.8 672.9,316.3 687.5,316.3 687.5,333.7 702.2,333.7 702.2,426.4 716.8,426.4 716.8,425.0 731.4,425.0 731.4,396.2 746.1,396.2 746.1,391.7 760.7,391.7 760.7,420.4 775.4,420.4 775.4,397.9 790.0,397.9 790.0,356.4 804.7,356.4 804.7,360.9 819.3,360.9 819.3,402.2 834.0,402.2 834.0,382.6 848.6,382.6 848.6,346.3 863.3,346.3 863.3,366.8 877.9,366.8" stroke="#000" stroke-width="0.90" stroke-opacity="1.00" fill="none" clip-path="url(#axis_clip)"/>
  </symbol>
  <symbol id="line_17" viewBox="0 0 1200.000 674.916">
<polyline class="pl" points="145.6,243.8 160.2,243.8 160.2,264.9 174.9,264.9 174.9,361.8 189.5,361.8 189.5,340.0 204.2,340.0 204.2,304.5 218.8,304.5 218.8,290.3 233.5,290.3 233.5,370.1 248.1,370.1 248.1,343.0 262.8,343.0 262.8,284.6 277.4,284.6 277.4,287.3 292.1,287.3 292.1,365.9 306.7,365.9 306.7,336.2 321.4,336.2 321.4,248.2 336.0,248.2 336.0,236.9 350.6,236.9 350.6,324.7 365.3,324.7 365.3,278.2 379.9,278.2 379.9,164.6 394.6,164.6 394.6,161.7 409.2,161.7 409.2,283.0 423.9,283.0 423.9,238.0 438.5,238.0 438.5,119.5 453.2,119.5 453.2,143.1 467.8,143.1 467.8,264.5 482.5,264.5 482.5,236.4 497.1,236.4 497.1,130.9 511.8,130.9 511.8,159.7 526.4,159.7 526.4,292.7 541.0,292.7 541.0,253.1 555.7,253.1 555.7,166.5 570.3,166.5 570.3,168.2 585.0,168.2 585.0,294.5 599.6,294.5 599.6,246.0 614.3,246.0 614.3,327.2 628.9,327.2 628.9,407.1 643.6,407.1 643.6,332.6 658.2,332.6 658.2,346.1 672.9,346.1 672.9,338.3 687.5,338.3 687.5,359.8 702.2,359.8 702.2,448.1 716.8,448.1 716.8,446.0 731.4,446.0 731.4,422.0 746.1,422.0 746.1,416.4 760.7,416.4 760.7,441.4 775.4,441.4 775.4,426.7 790.0,426.7 790.0,389.8 804.7,389.8 804.7,390.6 819.3,390.6 819.3,428.3 834.0,428.3 834.0,414.5 848.6,414.5 848.6,382.0 863.3,382.0 863.3,398.0 877.9,398.0" stroke="#000" stroke-width="0.90" stroke-opacity="1.00" fill="none" clip-path="url(#axis_clip)"/>
  </symbol>
  <symbol id="line_18" viewBox="0 0 1200.000 674.916">
<polyline class="pl" points="145.6,367.4 160.2,367.4 160.2,380.7 174.9,380.7 174.9,434.9 189.5,434.9 189.5,422.2 204.2,422.2 204.2,398.5 218.8,398.5 218.8,391.8 233.5,391.8 233.5,437.3 248.1,437.3 248.1,418.2 262.8,418.2 262.8,381.2 277.4,381.2 277.4,381.0 292.1,381.0 292.1,431.7 306.7,431.7 306.7,411.6 321.4,411.6 321.4,357.7 336.0,357.7 336.0,353.0 350.6,353.0 350.6,412.3 365.3,412.3 365.3,378.6 379.9,378.6 379.9,312.5 394.6,312.5 394.6,311.0 409.2,311.0 409.2,380.6 423.9,380.6 423.9,347.5 438.5,347.5 438.5,284.6 453.2,284.6 453.2,290.6 467.8,290.6 467.8,367.7 482.5,367.7 482.5,350.1 497.1,350.1 497.1,290.9 511.8,290.9 511.8,318.0 526.4,318.0 526.4,399.4 541.0,399.4 541.0,399.9 555.7,399.9 555.7,361.0 570.3,361.0 570.3,369.8 585.0,369.8 585.0,439.3 599.6,439.3 599.6,423.9 614.3,423.9 614.3,459.1 628.9,459.1 628.9,488.1 643.6,488.1 643.6,448.0 658.2,448.0 658.2,458.6 672.9,458.6 672.9,463.9 687.5,463.9 687.5,475.2 702.2,475.2 702.2,509.9 716.8,509.9 716.8,512.1 731.4,512.1 731.4,500.0 746.1,500.0 746.1,500.0 760.7,500.0 760.7,511.4 775.4,511.4 775.4,504.5 790.0,504.5 790.0,488.7 804.7,488.7 804.7,492.2 819.3,492.2 819.3,512.1 834.0,512.1 834.0,509.6 848.6,509.6 848.6,501.4 863.3,501.4 863.3,508.9 877.9,508.9" stroke="#000" stroke-width="0.90" stroke-opacity="1.00" fill="none" clip-path="url(#axis_clip)"/>
  </symbol>
  <symbol id="line_19" viewBox="0 0 1200.000 674.916">
<polyline class="pl" points="145.6,224.9 160.2,224.9 160.2,229.5 174.9,229.5 174.9,335.1 189.5,335.1 189.5,306.1 204.2,306.1 204.2,274.6 218.8,274.6 218.8,259.5 233.5,259.5 233.5,346.6 248.1,346.6 248.1,317.6 262.8,317.6 262.8,255.0 277.4,255.0 277.4,254.5 292.1,254.5 292.1,339.2 306.7,339.2 306.7,303.3 321.4,303.3 321.4,213.0 336.0,213.0 336.0,200.8 350.6,200.8 350.6,299.8 365.3,299.8 365.3,251.4 379.9,251.4 379.9,132.1 394.6,132.1 394.6,129.2 409.2,129.2 409.2,259.0 423.9,259.0 423.9,208.7 438.5,208.7 438.5,75.0 453.2,75.0 453.2,98.3 467.8,98.3 467.8,229.5 482.5,229.5 482.5,195.6 497.1,195.6 497.1,84.7 511.8,84.7 511.8,112.1 526.4,112.1 526.4,254.0 541.0,254.0 541.0,210.8 555.7,210.8 555.7,113.7 570.3,113.7 570.3,113.1 585.0,113.1 585.0,247.2 599.6,247.2 599.6,194.4 614.3,194.4 614.3,280.3 628.9,280.3 628.9,370.0 643.6,370.0 643.6,256.6 658.2,256.6 658.2,238.7 672.9,238.7 672.9,214.5 687.5,214.5 687.5,229.5 702.2,229.5 702.2,353.4 716.8,353.4 716.8,343.7 731.4,343.7 731.4,298.4 746.1,298.4 746.1,296.3 760.7,296.3 760.7,331.7 775.4,331.7 775.4,296.2 790.0,296.2 790.0,225.9 804.7,225.9 804.7,238.0 819.3,238.0 819.3,296.1 834.0,296.1 834.0,256.9 848.6,256.9 848.6,198.7 863.3,198.7 863.3,220.4 877.9,220.4" stroke="#000" stroke-width="0.90" stroke-opacity="1.00" fill="none" clip-path="url(#axis_clip)"/>
  </symbol>
  <symbol id="line_20" viewBox="0 0 1200.000 674.916">
<polyline class="pl" points="145.6,225.8 160.2,225.8 160.2,230.9 174.9,230.9 174.9,336.3 189.5,336.3 189.5,308.3 204.2,308.3 204.2,277.1 218.8,277.1 218.8,262.6 233.5,262.6 233.5,349.3 248.1,349.3 248.1,321.3 262.8,321.3 262.8,259.2 277.4,259.2 277.4,259.6 292.1,259.6 292.1,342.5 306.7,342.5 306.7,308.1 321.4,308.1 321.4,218.4 336.0,218.4 336.0,206.2 350.6,206.2 350.6,304.1 365.3,304.1 365.3,257.5 379.9,257.5 379.9,140.6 394.6,140.6 394.6,137.3 409.2,137.3 409.2,265.7 423.9,265.7 423.9,217.5 438.5,217.5 438.5,88.3 453.2,88.3 453.2,113.4 467.8,113.4 467.8,241.5 482.5,241.5 482.5,211.0 497.1,211.0 497.1,102.1 511.8,102.1 511.8,130.5 526.4,130.5 526.4,269.6 541.0,269.6 541.0,228.8 555.7,228.8 555.7,136.6 570.3,136.6 570.3,137.0 585.0,137.0 585.0,265.7 599.6,265.7 599.6,220.7 614.3,220.7 614.3,309.5 628.9,309.5 628.9,393.4 643.6,393.4 643.6,310.0 658.2,310.0 658.2,320.8 672.9,320.8 672.9,316.3 687.5,316.3 687.5,333.7 702.2,333.7 702.2,426.4 716.8,426.4 716.8,425.0 731.4,425.0 731.4,396.2 746.1,396.2 746.1,391.7 760.7,391.7 760.7,420.4 775.4,420.4 775.4,397.9 790.0,397.9 790.0,356.4 804.7,356.4 804.7,360.9 819.3,360.9 819.3,402.2 834.0,402.2 834.0,382.6 848.6,382.6 848.6,346.3 863.3,346.3 863.3,366.8 877.9,366.8" stroke="#000" stroke-width="0.90" stroke-opacity="1.00" fill="none" clip-path="url(#axis_clip)"/>
  </symbol>
  <symbol id="line_21" viewBox="0 0 1200.000 674.916">
<polyline class="pl" points="145.6,243.8 160.2,243.8 160.2,264.9 174.9,264.9 174.9,361.8 189.5,361.8 189.5,340.0 204.2,340.0 204.2,304.5 218.8,304.5 218.8,290.3 233.5,290.3 233.5,370.1 248.1,370.1 248.1,343.0 262.8,343.0 262.8,284.6 277.4,284.6 277.4,287.3 292.1,287.3 292.1,365.9 306.7,365.9 306.7,336.2 321.4,336.2 321.4,248.2 336.0,248.2 336.0,236.9 350.6,236.9 350.6,324.7 365.3,324.7 365.3,278.2 379.9,278.2 379.9,164.6 394.6,164.6 394.6,161.7 409.2,161.7 409.2,283.0 423.9,283.0 423.9,238.0 438.5,238.0 438.5,119.5 453.2,119.5 453.2,143.1 467.8,143.1 467.8,264.5 482.5,264.5 482.5,236.4 497.1,236.4 497.1,130.9 511.8,130.9 511.8,159.7 526.4,159.7 526.4,292.7 541.0,292.7 541.0,253.1 555.7,253.1 555.7,166.5 570.3,166.5 570.3,168.2 585.0,168.2 585.0,294.5 599.6,294.5 599.6,246.0 614.3,246.0 614.3,327.2 628.9,327.2 628.9,407.1 643.6,407.1 643.6,332.6 658.2,332.6 658.2,346.1 672.9,346.1 672.9,338.3 687.5,338.3 687.5,359.8 702.2,359.8 702.2,448.1 716.8,448.1 716.8,446.0 731.4,446.0 731.4,422.0 746.1,422.0 746.1,416.4 760.7,416.4 760.7,441.4 775.4,441.4 775.4,426.7 790.0,426.7 790.0,389.8 804.7,389.8 804.7,390.6 819.3,390.6 819.3,428.3 834.0,428.3 834.0,414.5 848.6,414.5 848.6,382.0 863.3,382.0 863.3,398.0 877.9,398.0" stroke="#000" stroke-width="0.90" stroke-opacity="1.00" fill="none" clip-path="url(#axis_clip)"/>
  </symbol>
  <symbol id="line_22" viewBox="0 0 1200.000 674.916">
<polyline class="pl" points="145.6,367.4 160.2,367.4 160.2,380.7 174.9,380.7 174.9,434.9 189.5,434.9 189.5,422.2 204.2,422.2 204.2,398.5 218.8,398.5 218.8,391.8 233.5,391.8 233.5,437.3 248.1,437.3 248.1,418.2 262.8,418.2 262.8,381.2 277.4,381.2 277.4,381.0 292.1,381.0 292.1,431.7 306.7,431.7 306.7,411.6 321.4,411.6 321.4,357.7 336.0,357.7 336.0,353.0 350.6,353.0 350.6,412.3 365.3,412.3 365.3,378.6 379.9,378.6 379.9,312.5 394.6,312.5 394.6,311.0 409.2,311.0 409.2,380.6 423.9,380.6 423.9,347.5 438.5,347.5 438.5,284.6 453.2,284.6 453.2,290.6 467.8,290.6 467.8,367.7 482.5,367.7 482.5,350.1 497.1,350.1 497.1,290.9 511.8,290.9 511.8,318.0 526.4,318.0 526.4,399.4 541.0,399.4 541.0,399.9 555.7,399.9 555.7,361.0 570.3,361.0 570.3,369.8 585.0,369.8 585.0,439.3 599.6,439.3 599.6,423.9 614.3,423.9 614.3,459.1 628.9,459.1 628.9,488.1 643.6,488.1 643.6,448.0 658.2,448.0 658.2,458.6 672.9,458.6 672.9,463.9 687.5,463.9 687.5,475.2 702.2,475.2 702.2,509.9 716.8,509.9 716.8,512.1 731.4,512.1 731.4,500.0 746.1,500.0 746.1,500.0 760.7,500.0 760.7,511.4 775.4,511.4 775.4,504.5 790.0,504.5 790.0,488.7 804.7,488.7 804.7,492.2 819.3,492.2 819.3,512.1 834.0,512.1 834.0,509.6 848.6,509.6 848.6,501.4 863.3,501.4 863.3,508.9 877.9,508.9" stroke="#000" stroke-width="0.90" stroke-opacity="1.00" fill="none" clip-path="url(#axis_clip)"/>
  </symbol>
  <symbol id="line_23" viewBox="0 0 1200.000 674.916">
<polyline class="pl" points="145.6,225.8 160.2,225.8 160.2,230.9 174.9,230.9 174.9,336.3 189.5,336.3 189.5,308.3 204.2,308.3 204.2,277.1 218.8,277.1 218.8,262.6 233.5,262.6 233.5,349.3 248.1,349.3 248.1,321.3 262.8,321.3 262.8,259.2 277.4,259.2 277.4,259.6 292.1,259.6 292.1,342.5 306.7,342.5 306.7,308.1 321.4,308.1 321.4,218.4 336.0,218.4 336.0,206.2 350.6,206.2 350.6,304.1 365.3,304.1 365.3,257.5 379.9,257.5 379.9,140.6 394.6,140.6 394.6,137.3 409.2,137.3 409.2,265.7 423.9,265.7 423.9,217.5 438.5,217.5 438.5,88.3 453.2,88.3 453.2,113.4 467.8,113.4 467.8,241.5 482.5,241.5 482.5,211.0 497.1,211.0 497.1,102.1 511.8,102.1 511.8,130.5 526.4,130.5 526.4,269.6 541.0,269.6 541.0,228.8 555.7,228.8 555.7,136.6 570.3,136.6 570.3,137.0 585.0,137.0 585.0,265.7 599.6,265.7 599.6,220.7 614.3,220.7 614.3,309.5 628.9,309.5 628.9,393.4 643.6,393.4 643.6,310.0 658.2,310.0 658.2,320.8 672.9,320.8 672.9,316.3 687.5,316.3 687.5,333.7 702.2,333.7 702.2,426.4 716.8,426.4 716.8,425.0 731.4,425.0 731.4,396.2 746.1,396.2 746.1,391.7 760.7,391.7 760.7,420.4 775.4,420.4 775.4,397.9 790.0,397.9 790.0,356.4 804.7,356.4 804.7,360.9 819.3,360.9 819.3,402.2 834.0,402.2 834.0,382.6 848.6,382.6 848.6,346.3 863.3,346.3 863.3,366.8 877.9,366.8" stroke="#000" stroke-width="0.90" stroke-opacity="1.00" fill="none" clip-path="url(#axis_clip)"/>
  </symbol>
  <symbol id="line_24" viewBox="0 0 1200.000 674.916">
<polyline class="pl" points="145.6,243.8 160.2,243.8 160.2,264.9 174.9,264.9 174.9,361.8 189.5,361.8 189.5,340.0 204.2,340.0 204.2,304.5 218.8,304.5 218.8,290.3 233.5,290.3 233.5,370.1 248.1,370.1 248.1,343.0 262.8,343.0 262.8,284.6 277.4,284.6 277.4,287.3 292.1,287.3 292.1,365.9 306.7,365.9 306.7,336.2 321.4,336.2 321.4,248.2 336.0,248.2 336.0,236.9 350.6,236.9 350.6,324.7 365.3,324.7 365.3,278.2 379.9,278.2 379.9,164.6 394.6,164.6 394.6,161.7 409.2,161.7 409.2,283.0 423.9,283.0 423.9,238.0 438.5,238.0 438.5,119.5 453.2,119.5 453.2,143.1 467.8,143.1 467.8,264.5 482.5,264.5 482.5,236.4 497.1,236.4 497.1,130.9 511.8,130.9 511.8,159.7 526.4,159.7 526.4,292.7 541.0,292.7 541.0,253.1 555.7,253.1 555.7,166.5 570.3,166.5 570.3,168.2 585.0,168.2 585.0,294.5 599.6,294.5 599.6,246.0 614.3,246.0 614.3,327.2 628.9,327.2 628.9,407.1 643.6,407.1 643.6,332.6 658.2,332.6 658.2,346.1 672.9,346.1 672.9,338.3 687.5,338.3 687.5,359.8 702.2,359.8 702.2,448.1 716.8,448.1 716.8,446.0 731.4,446.0 731.4,422.0 746.1,422.0 746.1,416.4 760.7,416.4 760.7,441.4 775.4,441.4 775.4,426.7 790.0,426.7 790.0,389.8 804.7,389.8 804.7,390.6 819.3,390.6 819.3,428.3 834.0,428.3 834.0,414.5 848.6,414.5 848.6,382.0 863.3,382.0 863.3,398.0 877.9,398.0" stroke="#000" stroke-width="0.90" stroke-opacity="1.00" fill="none" clip-path="url(#axis_clip)"/>
  </symbol>
  <symbol id="line_25" viewBox="0 0 1200.000 674.916">
<polyline class="pl" points="145.6,367.4 160.2,367.4 160.2,380.7 174.9,380.7 174.9,434.9 189.5,434.9 189.5,422.2 204.2,422.2 204.2,398.5 218.8,398.5 218.8,391.8 233.5,391.8 233.5,437.3 248.1,437.3 248.1,418.2 262.8,418.2 262.8,381.2 277.4,381.2 277.4,381.0 292.1,381.0 292.1,431.7 306.7,431.7 306.7,411.6 321.4,411.6 321.4,357.7 336.0,357.7 336.0,353.0 350.6,353.0 350.6,412.3 365.3,412.3 365.3,378.6 379.9,378.6 379.9,312.5 394.6,312.5 394.6,311.0 409.2,311.0 409.2,380.6 423.9,380.6 423.9,347.5 438.5,347.5 438.5,284.6 453.2,284.6 453.2,290.6 467.8,290.6 467.8,367.7 482.5,367.7 482.5,350.1 497.1,350.1 497.1,290.9 511.8,290.9 511.8,318.0 526.4,318.0 526.4,399.4 541.0,399.4 541.0,399.9 555.7,399.9 555.7,361.0 570.3,361.0 570.3,369.8 585.0,369.8 585.0,439.3 599.6,439.3 599.6,423.9 614.3,423.9 614.3,459.1 628.9,459.1 628.9,488.1 643.6,488.1 643.6,448.0 658.2,448.0 658.2,458.6 672.9,458.6 672.9,463.9 687.5,463.9 687.5,475.2 702.2,475.2 702.2,509.9 716.8,509.9 716.8,512.1 731.4,512.1 731.4,500.0 746.1,500.0 746.1,500.0 760.7,500.0 760.7,511.4 775.4,511.4 775.4,504.5 790.0,504.5 790.0,488.7 804.7,488.7 804.7,492.2 819.3,492.2 819.3,512.1 834.0,512.1 834.0,509.6 848.6,509.6 848.6,501.4 863.3,501.4 863.3,508.9 877.9,508.9" stroke="#000" stroke-width="0.90" stroke-opacity="1.00" fill="none" clip-path="url(#axis_clip)"/>
  </symbol>
  <symbol id="line_26" viewBox="0 0 1200.000 674.916">
<polyline class="pl" points="145.6,243.8 160.2,243.8 160.2,264.9 174.9,264.9 174.9,361.8 189.5,361.8 189.5,340.0 204.2,340.0 204.2,304.5 218.8,304.5 218.8,290.3 233.5,290.3 233.5,370.1 248.1,370.1 248.1,343.0 262.8,343.0 262.8,284.6 277.4,284.6 277.4,287.3 292.1,287.3 292.1,365.9 306.7,365.9 306.7,336.2 321.4,336.2 321.4,248.2 336.0,248.2 336.0,236.9 350.6,236.9 350.6,324.7 365.3,324.7 365.3,278.2 379.9,278.2 379.9,164.6 394.6,164.6 394.6,161.7 409.2,161.7 409.2,283.0 423.9,283.0 423.9,238.0 438.5,238.0 438.5,119.5 453.2,119.5 453.2,143.1 467.8,143.1 467.8,264.5 482.5,264.5 482.5,236.4 497.1,236.4 497.1,130.9 511.8,130.9 511.8,159.7 526.4,159.7 526.4,292.7 541.0,292.7 541.0,253.1 555.7,253.1 555.7,166.5 570.3,166.5 570.3,168.2 585.0,168.2 585.0,294.5 599.6,294.5 599.6,246.0 614.3,246.0 614.3,327.2 628.9,327.2 628.9,407.1 643.6,407.1 643.6,332.6 658.2,332.6 658.2,346.1 672.9,346.1 672.9,338.3 687.5,338.3 687.5,359.8 702.2,359.8 702.2,448.1 716.8,448.1 716.8,446.0 731.4,446.0 731.4,422.0 746.1,422.0 746.1,416.4 760.7,416.4 760.7,441.4 775.4,441.4 775.4,426.7 790.0,426.7 790.0,389.8 804.7,389.8 804.7,390.6 819.3,390.6 819.3,428.3 834.0,428.3 834.0,414.5 848.6,414.5 848.6,382.0 863.3,382.0 863.3,398.0 877.9,398.0" stroke="#000" stroke-width="0.90" stroke-opacity="1.00" fill="none" clip-path="url(#axis_clip)"/>
  </symbol>
  <symbol id="line_27" viewBox="0 0 1200.000 674.916">
<polyline class="pl" points="145.6,367.4 160.2,367.4 160.2,380.7 174.9,380.7 174.9,434.9 189.5,434.9 189.5,422.2 204.2,422.2 204.2,398.5 218.8,398.5 218.8,391.8 233.5,391.8 233.5,437.3 248.1,437.3 248.1,418.2 262.8,418.2 262.8,381.2 277.4,381.2 277.4,381.0 292.1,381.0 292.1,431.7 306.7,431.7 306.7,411.6 321.4,411.6 321.4,357.7 336.0,357.7 336.0,353.0 350.6,353.0 350.6,412.3 365.3,412.3 365.3,378.6 379.9,378.6 379.9,312.5 394.6,312.5 394.6,311.0 409.2,311.0 409.2,380.6 423.9,380.6 423.9,347.5 438.5,347.5 438.5,284.6 453.2,284.6 453.2,290.6 467.8,290.6 467.8,367.7 482.5,367.7 482.5,350.1 497.1,350.1 497.1,290.9 511.8,290.9 511.8,318.0 526.4,318.0 526.4,399.4 541.0,399.4 541.0,399.9 555.7,399.9 555.7,361.0 570.3,361.0 570.3,369.8 585.0,369.8 585.0,439.3 599.6,439.3 599.6,423.9 614.3,423.9 614.3,459.1 628.9,459.1 628.9,488.1 643.6,488.1 643.6,448.0 658.2,448.0 658.2,458.6 672.9,458.6 672.9,463.9 687.5,463.9 687.5,475.2 702.2,475.2 702.2,509.9 716.8,509.9 716.8,512.1 731.4,512.1 731.4,500.0 746.1,500.0 746.1,500.0 760.7,500.0 760.7,511.4 775.4,511.4 775.4,504.5 790.0,504.5 790.0,488.7 804.7,488.7 804.7,492.2 819.3,492.2 819.3,512.1 834.0,512.1 834.0,509.6 848.6,509.6 848.6,501.4 863.3,501.4 863.3,508.9 877.9,508.9" stroke="#000" stroke-width="0.90" stroke-opacity="1.00" fill="none" clip-path="url(#axis_clip)"/>
  </symbol>
  <symbol id="line_28" viewBox="0 0 1200.000 674.916">
<polyline class="pl" points="145.6,367.4 160.2,367.4 160.2,380.7 174.9,380.7 174.9,434.9 189.5,434.9 189.5,422.2 204.2,422.2 204.2,398.5 218.8,398.5 218.8,391.8 233.5,391.8 233.5,437.3 248.1,437.3 248.1,418.2 262.8,418.2 262.8,381.2 277.4,381.2 277.4,381.0 292.1,381.0 292.1,431.7 306.7,431.7 306.7,411.6 321.4,411.6 321.4,357.7 336.0,357.7 336.0,353.0 350.6,353.0 350.6,412.3 365.3,412.3 365.3,378.6 379.9,378.6 379.9,312.5 394.6,312.5 394.6,311.0 409.2,311.0 409.2,380.6 423.9,380.6 423.9,347.5 438.5,347.5 438.5,284.6 453.2,284.6 453.2,290.6 467.8,290.6 467.8,367.7 482.5,367.7 482.5,350.1 497.1,350.1 497.1,290.9 511.8,290.9 511.8,318.0 526.4,318.0 526.4,399.4 541.0,399.4 541.0,399.9 555.7,399.9 555.7,361.0 570.3,361.0 570.3,369.8 585.0,369.8 585.0,439.3 599.6,439.3 599.6,423.9 614.3,423.9 614.3,459.1 628.9,459.1 628.9,488.1 643.6,488.1 643.6,448.0 658.2,448.0 658.2,458.6 672.9,458.6 672.9,463.9 687.5,463.9 687.5,475.2 702.2,475.2 702.2,509.9 716.8,509.9 716.8,512.1 731.4,512.1 731.4,500.0 746.1,500.0 746.1,500.0 760.7,500.0 760.7,511.4 775.4,511.4 775.4,504.5 790.0,504.5 790.0,488.7 804.7,488.7 804.7,492.2 819.3,492.2 819.3,512.1 834.0,512.1 834.0,509.6 848.6,509.6 848.6,501.4 863.3,501.4 863.3,508.9 877.9,508.9" stroke="#000" stroke-width="0.90" stroke-opacity="1.00" fill="none" clip-path="url(#axis_clip)"/>
  </symbol>
</defs>
<g id="main">
<text class="ticklabel ytl" transform="translate(128.8,568.3)">0</text>
<text class="ticklabel ytl" transform="translate(128.8,483.9)">100 000</text>
<text class="ticklabel ytl" transform="translate(128.8,399.6)">200 000</text>
<text class="ticklabel ytl" transform="translate(128.8,315.2)">300 000</text>
<text class="ticklabel ytl" transform="translate(128.8,230.8)">400 000</text>
<text class="ticklabel ytl" transform="translate(128.8,146.5)">500 000</text>
<text class="ticklabel ytl" transform="translate(128.8,62.1)">600 000</text>
<g id="areas">
  <g class="pg_7">
    <polygon class="pl" points="145.6,214.1 160.2,214.1 160.2,215.4 174.9,215.4 174.9,325.8 189.5,325.8 189.5,294.4 204.2,294.4 204.2,259.8 218.8,259.8 218.8,243.0 233.5,243.0 233.5,333.7 248.1,333.7 248.1,303.7 262.8,303.7 262.8,241.3 277.4,241.3 277.4,239.1 292.1,239.1 292.1,324.1 306.7,324.1 306.7,285.8 321.4,285.8 321.4,197.0 336.0,197.0 336.0,186.3 350.6,186.3 350.6,287.8 365.3,287.8 365.3,239.7 379.9,239.7 379.9,119.8 394.6,119.8 394.6,118.3 409.2,118.3 409.2,252.4 423.9,252.4 423.9,200.6 438.5,200.6 438.5,66.8 453.2,66.8 453.2,91.8 467.8,91.8 467.8,223.4 482.5,223.4 482.5,187.3 497.1,187.3 497.1,73.3 511.8,73.3 511.8,97.8 526.4,97.8 526.4,246.6 541.0,246.6 541.0,204.8 555.7,204.8 555.7,106.5 570.3,106.5 570.3,100.2 585.0,100.2 585.0,235.0 599.6,235.0 599.6,179.7 614.3,179.7 614.3,266.1 628.9,266.1 628.9,359.4 643.6,359.4 643.6,236.6 658.2,236.6 658.2,206.4 672.9,206.4 672.9,180.6 687.5,180.6 687.5,188.5 702.2,188.5 702.2,321.6 716.8,321.6 716.8,308.6 731.4,308.6 731.4,271.0 746.1,271.0 746.1,264.9 760.7,264.9 760.7,310.6 775.4,310.6 775.4,268.2 790.0,268.2 790.0,195.3 804.7,195.3 804.7,206.5 819.3,206.5 819.3,272.7 834.0,272.7 834.0,225.4 848.6,225.4 848.6,174.4 863.3,174.4 863.3,189.4 877.9,189.4 877.9,189.7 863.3,189.7 863.3,175.1 848.6,175.1 848.6,225.9 834.0,225.9 834.0,272.9 819.3,272.9 819.3,206.7 804.7,206.7 804.7,195.9 790.0,195.9 790.0,269.4 775.4,269.4 775.4,312.0 760.7,312.0 760.7,267.8 746.1,267.8 746.1,274.5 731.4,274.5 731.4,312.8 716.8,312.8 716.8,326.5 702.2,326.5 702.2,197.0 687.5,197.0 687.5,189.4 672.9,189.4 672.9,213.4 658.2,213.4 658.2,244.7 643.6,244.7 643.6,363.7 628.9,363.7 628.9,273.2 614.3,273.2 614.3,189.9 599.6,189.9 599.6,243.1 585.0,243.1 585.0,108.9 570.3,108.9 570.3,111.9 555.7,111.9 555.7,208.7 541.0,208.7 541.0,251.8 526.4,251.8 526.4,110.1 511.8,110.1 511.8,83.4 497.1,83.4 497.1,195.1 482.5,195.1 482.5,229.2 467.8,229.2 467.8,98.0 453.2,98.0 453.2,74.6 438.5,74.6 438.5,208.4 423.9,208.4 423.9,258.7 409.2,258.7 409.2,129.0 394.6,129.0 394.6,131.8 379.9,131.8 379.9,251.2 365.3,251.2 365.3,299.6 350.6,299.6 350.6,200.5 336.0,200.5 336.0,212.5 321.4,212.5 321.4,303.0 306.7,303.0 306.7,339.0 292.1,339.0 292.1,254.2 277.4,254.2 277.4,254.9 262.8,254.9 262.8,317.4 248.1,317.4 248.1,346.4 233.5,346.4 233.5,259.3 218.8,259.3 218.8,274.5 204.2,274.5 204.2,306.0 189.5,306.0 189.5,335.0 174.9,335.0 174.9,229.4 160.2,229.4 160.2,224.8 145.6,224.8" stroke="none" stroke-width="0.9000"  fill="#808080" clip-path="url(#axis_clip)"/>
    <text class="pl" transform="translate(937.2,175.8)" dy="7.6" font-size="25.20" fill="#808080" stroke="none">Others</text>
<polyline class="pl" points="910.8,189.5 911.9,189.5 913.0,189.3 914.0,189.1 914.9,188.8 915.8,188.5 916.6,188.0 917.4,187.5 918.1,187.0 918.8,186.4 919.5,185.8 920.1,185.1 920.7,184.4 921.3,183.7 921.9,183.0 922.5,182.3 923.1,181.6 923.7,180.9 924.3,180.2 924.9,179.6 925.6,179.0 926.3,178.4 927.0,177.8 927.8,177.3 928.6,176.9 929.5,176.5 930.4,176.2 931.4,176.0 932.5,175.9 933.6,175.8" stroke="#808080" stroke-width="0.90" stroke-opacity="1.00" fill="none" />
    <text class="pl" transform="translate(145.6,47.2)" dy="0.0" font-size="27.00" fill="#808080" stroke="none">Italian new passenger car sales by type: Quarterly</text>
  </g>
  <g class="pg_6">
    <polygon class="pl" points="145.6,224.8 160.2,224.8 160.2,229.4 174.9,229.4 174.9,335.0 189.5,335.0 189.5,306.0 204.2,306.0 204.2,274.5 218.8,274.5 218.8,259.3 233.5,259.3 233.5,346.4 248.1,346.4 248.1,317.4 262.8,317.4 262.8,254.9 277.4,254.9 277.4,254.2 292.1,254.2 292.1,339.0 306.7,339.0 306.7,303.0 321.4,303.0 321.4,212.5 336.0,212.5 336.0,200.5 350.6,200.5 350.6,299.6 365.3,299.6 365.3,251.2 379.9,251.2 379.9,131.8 394.6,131.8 394.6,129.0 409.2,129.0 409.2,258.7 423.9,258.7 423.9,208.4 438.5,208.4 438.5,74.6 453.2,74.6 453.2,98.0 467.8,98.0 467.8,229.2 482.5,229.2 482.5,195.1 497.1,195.1 497.1,83.4 511.8,83.4 511.8,110.1 526.4,110.1 526.4,251.8 541.0,251.8 541.0,208.7 555.7,208.7 555.7,111.9 570.3,111.9 570.3,108.9 585.0,108.9 585.0,243.1 599.6,243.1 599.6,189.9 614.3,189.9 614.3,273.2 628.9,273.2 628.9,363.7 643.6,363.7 643.6,244.7 658.2,244.7 658.2,213.4 672.9,213.4 672.9,189.4 687.5,189.4 687.5,197.0 702.2,197.0 702.2,326.5 716.8,326.5 716.8,312.8 731.4,312.8 731.4,274.5 746.1,274.5 746.1,267.8 760.7,267.8 760.7,312.0 775.4,312.0 775.4,269.4 790.0,269.4 790.0,195.9 804.7,195.9 804.7,206.7 819.3,206.7 819.3,272.9 834.0,272.9 834.0,225.9 848.6,225.9 848.6,175.1 863.3,175.1 863.3,189.7 877.9,189.7 877.9,208.0 863.3,208.0 863.3,186.5 848.6,186.5 848.6,243.3 834.0,243.3 834.0,284.1 819.3,284.1 819.3,220.6 804.7,220.6 804.7,209.8 790.0,209.8 790.0,280.8 775.4,280.8 775.4,321.3 760.7,321.3 760.7,279.4 746.1,279.4 746.1,284.0 731.4,284.0 731.4,329.9 716.8,329.9 716.8,340.7 702.2,340.7 702.2,211.4 687.5,211.4 687.5,200.7 672.9,200.7 672.9,226.0 658.2,226.0 658.2,251.1 643.6,251.1 643.6,367.6 628.9,367.6 628.9,277.8 614.3,277.8 614.3,192.3 599.6,192.3 599.6,245.4 585.0,245.4 585.0,112.1 570.3,112.1 570.3,112.9 555.7,112.9 555.7,209.9 541.0,209.9 541.0,252.9 526.4,252.9 526.4,111.1 511.8,111.1 511.8,84.2 497.1,84.2 497.1,195.6 482.5,195.6 482.5,229.5 467.8,229.5 467.8,98.3 453.2,98.3 453.2,75.0 438.5,75.0 438.5,208.7 423.9,208.7 423.9,259.0 409.2,259.0 409.2,129.2 394.6,129.2 394.6,132.1 379.9,132.1 379.9,251.4 365.3,251.4 365.3,299.8 350.6,299.8 350.6,200.8 336.0,200.8 336.0,213.0 321.4,213.0 321.4,303.3 306.7,303.3 306.7,339.2 292.1,339.2 292.1,254.5 277.4,254.5 277.4,255.0 262.8,255.0 262.8,317.6 248.1,317.6 248.1,346.6 233.5,346.6 233.5,259.5 218.8,259.5 218.8,274.6 204.2,274.6 204.2,306.1 189.5,306.1 189.5,335.1 174.9,335.1 174.9,229.5 160.2,229.5 160.2,224.9 145.6,224.9" stroke="none" stroke-width="0.9000"  fill="#6298C6" clip-path="url(#axis_clip)"/>
    <text class="pl" transform="translate(937.2,200.9)" dy="7.6" font-size="25.20" fill="#6298C6" stroke="none">Battery electric</text>
<polyline class="pl" points="910.8,198.8 911.9,198.9 913.0,198.9 914.0,198.9 914.9,199.0 915.8,199.0 916.6,199.1 917.4,199.1 918.1,199.2 918.8,199.3 919.5,199.4 920.1,199.5 920.7,199.6 921.3,199.7 921.9,199.8 922.5,199.9 923.1,200.0 923.7,200.1 924.3,200.2 924.9,200.3 925.6,200.4 926.3,200.5 927.0,200.6 927.8,200.6 928.6,200.7 929.5,200.8 930.4,200.8 931.4,200.8 932.5,200.9 933.6,200.9" stroke="#6298C6" stroke-width="0.90" stroke-opacity="1.00" fill="none" />
  </g>
  <g class="pg_5">
    <polygon class="pl" points="145.6,224.9 160.2,224.9 160.2,229.5 174.9,229.5 174.9,335.1 189.5,335.1 189.5,306.1 204.2,306.1 204.2,274.6 218.8,274.6 218.8,259.5 233.5,259.5 233.5,346.6 248.1,346.6 248.1,317.6 262.8,317.6 262.8,255.0 277.4,255.0 277.4,254.5 292.1,254.5 292.1,339.2 306.7,339.2 306.7,303.3 321.4,303.3 321.4,213.0 336.0,213.0 336.0,200.8 350.6,200.8 350.6,299.8 365.3,299.8 365.3,251.4 379.9,251.4 379.9,132.1 394.6,132.1 394.6,129.2 409.2,129.2 409.2,259.0 423.9,259.0 423.9,208.7 438.5,208.7 438.5,75.0 453.2,75.0 453.2,98.3 467.8,98.3 467.8,229.5 482.5,229.5 482.5,195.6 497.1,195.6 497.1,84.2 511.8,84.2 511.8,111.1 526.4,111.1 526.4,252.9 541.0,252.9 541.0,209.9 555.7,209.9 555.7,112.9 570.3,112.9 570.3,112.1 585.0,112.1 585.0,245.4 599.6,245.4 599.6,192.3 614.3,192.3 614.3,277.8 628.9,277.8 628.9,367.6 643.6,367.6 643.6,251.1 658.2,251.1 658.2,226.0 672.9,226.0 672.9,200.7 687.5,200.7 687.5,211.4 702.2,211.4 702.2,340.7 716.8,340.7 716.8,329.9 731.4,329.9 731.4,284.0 746.1,284.0 746.1,279.4 760.7,279.4 760.7,321.3 775.4,321.3 775.4,280.8 790.0,280.8 790.0,209.8 804.7,209.8 804.7,220.6 819.3,220.6 819.3,284.1 834.0,284.1 834.0,243.3 848.6,243.3 848.6,186.5 863.3,186.5 863.3,208.0 877.9,208.0 877.9,220.4 863.3,220.4 863.3,198.7 848.6,198.7 848.6,256.9 834.0,256.9 834.0,296.1 819.3,296.1 819.3,238.0 804.7,238.0 804.7,225.9 790.0,225.9 790.0,296.2 775.4,296.2 775.4,331.7 760.7,331.7 760.7,296.3 746.1,296.3 746.1,298.4 731.4,298.4 731.4,343.7 716.8,343.7 716.8,353.4 702.2,353.4 702.2,229.5 687.5,229.5 687.5,214.5 672.9,214.5 672.9,238.7 658.2,238.7 658.2,256.6 643.6,256.6 643.6,370.0 628.9,370.0 628.9,280.3 614.3,280.3 614.3,194.4 599.6,194.4 599.6,247.2 585.0,247.2 585.0,113.1 570.3,113.1 570.3,113.7 555.7,113.7 555.7,210.8 541.0,210.8 541.0,254.0 526.4,254.0 526.4,112.1 511.8,112.1 511.8,84.7 497.1,84.7 497.1,195.6 482.5,195.6 482.5,229.5 467.8,229.5 467.8,98.3 453.2,98.3 453.2,75.0 438.5,75.0 438.5,208.7 423.9,208.7 423.9,259.0 409.2,259.0 409.2,129.2 394.6,129.2 394.6,132.1 379.9,132.1 379.9,251.4 365.3,251.4 365.3,299.8 350.6,299.8 350.6,200.8 336.0,200.8 336.0,213.0 321.4,213.0 321.4,303.3 306.7,303.3 306.7,339.2 292.1,339.2 292.1,254.5 277.4,254.5 277.4,255.0 262.8,255.0 262.8,317.6 248.1,317.6 248.1,346.6 233.5,346.6 233.5,259.5 218.8,259.5 218.8,274.6 204.2,274.6 204.2,306.1 189.5,306.1 189.5,335.1 174.9,335.1 174.9,229.5 160.2,229.5 160.2,224.9 145.6,224.9" stroke="none" stroke-width="0.9000"  fill="#77AC30" clip-path="url(#axis_clip)"/>
    <text class="pl" transform="translate(937.2,225.9)" dy="7.6" font-size="25.20" fill="#77AC30" stroke="none">Plugin hybrid</text>
<polyline class="pl" points="910.8,214.2 911.9,214.2 913.0,214.4 914.0,214.5 914.9,214.8 915.8,215.1 916.6,215.5 917.4,215.9 918.1,216.4 918.8,216.9 919.5,217.4 920.1,218.0 920.7,218.5 921.3,219.1 921.9,219.7 922.5,220.3 923.1,220.9 923.7,221.5 924.3,222.1 924.9,222.7 925.6,223.2 926.3,223.7 927.0,224.2 927.8,224.6 928.6,225.0 929.5,225.3 930.4,225.5 931.4,225.7 932.5,225.9 933.6,225.9" stroke="#77AC30" stroke-width="0.90" stroke-opacity="1.00" fill="none" />
  </g>
  <g class="pg_4">
    <polygon class="pl" points="145.6,224.9 160.2,224.9 160.2,229.5 174.9,229.5 174.9,335.1 189.5,335.1 189.5,306.1 204.2,306.1 204.2,274.6 218.8,274.6 218.8,259.5 233.5,259.5 233.5,346.6 248.1,346.6 248.1,317.6 262.8,317.6 262.8,255.0 277.4,255.0 277.4,254.5 292.1,254.5 292.1,339.2 306.7,339.2 306.7,303.3 321.4,303.3 321.4,213.0 336.0,213.0 336.0,200.8 350.6,200.8 350.6,299.8 365.3,299.8 365.3,251.4 379.9,251.4 379.9,132.1 394.6,132.1 394.6,129.2 409.2,129.2 409.2,259.0 423.9,259.0 423.9,208.7 438.5,208.7 438.5,75.0 453.2,75.0 453.2,98.3 467.8,98.3 467.8,229.5 482.5,229.5 482.5,195.6 497.1,195.6 497.1,84.7 511.8,84.7 511.8,112.1 526.4,112.1 526.4,254.0 541.0,254.0 541.0,210.8 555.7,210.8 555.7,113.7 570.3,113.7 570.3,113.1 585.0,113.1 585.0,247.2 599.6,247.2 599.6,194.4 614.3,194.4 614.3,280.3 628.9,280.3 628.9,370.0 643.6,370.0 643.6,256.6 658.2,256.6 658.2,238.7 672.9,238.7 672.9,214.5 687.5,214.5 687.5,229.5 702.2,229.5 702.2,353.4 716.8,353.4 716.8,343.7 731.4,343.7 731.4,298.4 746.1,298.4 746.1,296.3 760.7,296.3 760.7,331.7 775.4,331.7 775.4,296.2 790.0,296.2 790.0,225.9 804.7,225.9 804.7,238.0 819.3,238.0 819.3,296.1 834.0,296.1 834.0,256.9 848.6,256.9 848.6,198.7 863.3,198.7 863.3,220.4 877.9,220.4 877.9,366.8 863.3,366.8 863.3,346.3 848.6,346.3 848.6,382.6 834.0,382.6 834.0,402.2 819.3,402.2 819.3,360.9 804.7,360.9 804.7,356.4 790.0,356.4 790.0,397.9 775.4,397.9 775.4,420.4 760.7,420.4 760.7,391.7 746.1,391.7 746.1,396.2 731.4,396.2 731.4,425.0 716.8,425.0 716.8,426.4 702.2,426.4 702.2,333.7 687.5,333.7 687.5,316.3 672.9,316.3 672.9,320.8 658.2,320.8 658.2,310.0 643.6,310.0 643.6,393.4 628.9,393.4 628.9,309.5 614.3,309.5 614.3,220.7 599.6,220.7 599.6,265.7 585.0,265.7 585.0,137.0 570.3,137.0 570.3,136.6 555.7,136.6 555.7,228.8 541.0,228.8 541.0,269.6 526.4,269.6 526.4,130.5 511.8,130.5 511.8,102.1 497.1,102.1 497.1,211.0 482.5,211.0 482.5,241.5 467.8,241.5 467.8,113.4 453.2,113.4 453.2,88.3 438.5,88.3 438.5,217.5 423.9,217.5 423.9,265.7 409.2,265.7 409.2,137.3 394.6,137.3 394.6,140.6 379.9,140.6 379.9,257.5 365.3,257.5 365.3,304.1 350.6,304.1 350.6,206.2 336.0,206.2 336.0,218.4 321.4,218.4 321.4,308.1 306.7,308.1 306.7,342.5 292.1,342.5 292.1,259.6 277.4,259.6 277.4,259.2 262.8,259.2 262.8,321.3 248.1,321.3 248.1,349.3 233.5,349.3 233.5,262.6 218.8,262.6 218.8,277.1 204.2,277.1 204.2,308.3 189.5,308.3 189.5,336.3 174.9,336.3 174.9,230.9 160.2,230.9 160.2,225.8 145.6,225.8" stroke="none" stroke-width="0.9000"  fill="#91AC6E" clip-path="url(#axis_clip)"/>
    <text class="pl" transform="translate(937.2,293.6)" dy="7.6" font-size="25.20" fill="#91AC6E" stroke="none">Non-plugin hybrid</text>
  </g>
  <g class="pg_3">
    <polygon class="pl" points="145.6,225.8 160.2,225.8 160.2,230.9 174.9,230.9 174.9,336.3 189.5,336.3 189.5,308.3 204.2,308.3 204.2,277.1 218.8,277.1 218.8,262.6 233.5,262.6 233.5,349.3 248.1,349.3 248.1,321.3 262.8,321.3 262.8,259.2 277.4,259.2 277.4,259.6 292.1,259.6 292.1,342.5 306.7,342.5 306.7,308.1 321.4,308.1 321.4,218.4 336.0,218.4 336.0,206.2 350.6,206.2 350.6,304.1 365.3,304.1 365.3,257.5 379.9,257.5 379.9,140.6 394.6,140.6 394.6,137.3 409.2,137.3 409.2,265.7 423.9,265.7 423.9,217.5 438.5,217.5 438.5,88.3 453.2,88.3 453.2,113.4 467.8,113.4 467.8,241.5 482.5,241.5 482.5,211.0 497.1,211.0 497.1,102.1 511.8,102.1 511.8,130.5 526.4,130.5 526.4,269.6 541.0,269.6 541.0,228.8 555.7,228.8 555.7,136.6 570.3,136.6 570.3,137.0 585.0,137.0 585.0,265.7 599.6,265.7 599.6,220.7 614.3,220.7 614.3,309.5 628.9,309.5 628.9,393.4 643.6,393.4 643.6,310.0 658.2,310.0 658.2,320.8 672.9,320.8 672.9,316.3 687.5,316.3 687.5,333.7 702.2,333.7 702.2,426.4 716.8,426.4 716.8,425.0 731.4,425.0 731.4,396.2 746.1,396.2 746.1,391.7 760.7,391.7 760.7,420.4 775.4,420.4 775.4,397.9 790.0,397.9 790.0,356.4 804.7,356.4 804.7,360.9 819.3,360.9 819.3,402.2 834.0,402.2 834.0,382.6 848.6,382.6 848.6,346.3 863.3,346.3 863.3,366.8 877.9,366.8 877.9,398.0 863.3,398.0 863.3,382.0 848.6,382.0 848.6,414.5 834.0,414.5 834.0,428.3 819.3,428.3 819.3,390.6 804.7,390.6 804.7,389.8 790.0,389.8 790.0,426.7 775.4,426.7 775.4,441.4 760.7,441.4 760.7,416.4 746.1,416.4 746.1,422.0 731.4,422.0 731.4,446.0 716.8,446.0 716.8,448.1 702.2,448.1 702.2,359.8 687.5,359.8 687.5,338.3 672.9,338.3 672.9,346.1 658.2,346.1 658.2,332.6 643.6,332.6 643.6,407.1 628.9,407.1 628.9,327.2 614.3,327.2 614.3,246.0 599.6,246.0 599.6,294.5 585.0,294.5 585.0,168.2 570.3,168.2 570.3,166.5 555.7,166.5 555.7,253.1 541.0,253.1 541.0,292.7 526.4,292.7 526.4,159.7 511.8,159.7 511.8,130.9 497.1,130.9 497.1,236.4 482.5,236.4 482.5,264.5 467.8,264.5 467.8,143.1 453.2,143.1 453.2,119.5 438.5,119.5 438.5,238.0 423.9,238.0 423.9,283.0 409.2,283.0 409.2,161.7 394.6,161.7 394.6,164.6 379.9,164.6 379.9,278.2 365.3,278.2 365.3,324.7 350.6,324.7 350.6,236.9 336.0,236.9 336.0,248.2 321.4,248.2 321.4,336.2 306.7,336.2 306.7,365.9 292.1,365.9 292.1,287.3 277.4,287.3 277.4,284.6 262.8,284.6 262.8,343.0 248.1,343.0 248.1,370.1 233.5,370.1 233.5,290.3 218.8,290.3 218.8,304.5 204.2,304.5 204.2,340.0 189.5,340.0 189.5,361.8 174.9,361.8 174.9,264.9 160.2,264.9 160.2,243.8 145.6,243.8" stroke="none" stroke-width="0.9000"  fill="#85578F" clip-path="url(#axis_clip)"/>
    <text class="pl" transform="translate(937.2,382.4)" dy="7.6" font-size="25.20" fill="#85578F" stroke="none">LPG</text>
  </g>
  <g class="pg_2">
    <polygon class="pl" points="145.6,243.8 160.2,243.8 160.2,264.9 174.9,264.9 174.9,361.8 189.5,361.8 189.5,340.0 204.2,340.0 204.2,304.5 218.8,304.5 218.8,290.3 233.5,290.3 233.5,370.1 248.1,370.1 248.1,343.0 262.8,343.0 262.8,284.6 277.4,284.6 277.4,287.3 292.1,287.3 292.1,365.9 306.7,365.9 306.7,336.2 321.4,336.2 321.4,248.2 336.0,248.2 336.0,236.9 350.6,236.9 350.6,324.7 365.3,324.7 365.3,278.2 379.9,278.2 379.9,164.6 394.6,164.6 394.6,161.7 409.2,161.7 409.2,283.0 423.9,283.0 423.9,238.0 438.5,238.0 438.5,119.5 453.2,119.5 453.2,143.1 467.8,143.1 467.8,264.5 482.5,264.5 482.5,236.4 497.1,236.4 497.1,130.9 511.8,130.9 511.8,159.7 526.4,159.7 526.4,292.7 541.0,292.7 541.0,253.1 555.7,253.1 555.7,166.5 570.3,166.5 570.3,168.2 585.0,168.2 585.0,294.5 599.6,294.5 599.6,246.0 614.3,246.0 614.3,327.2 628.9,327.2 628.9,407.1 643.6,407.1 643.6,332.6 658.2,332.6 658.2,346.1 672.9,346.1 672.9,338.3 687.5,338.3 687.5,359.8 702.2,359.8 702.2,448.1 716.8,448.1 716.8,446.0 731.4,446.0 731.4,422.0 746.1,422.0 746.1,416.4 760.7,416.4 760.7,441.4 775.4,441.4 775.4,426.7 790.0,426.7 790.0,389.8 804.7,389.8 804.7,390.6 819.3,390.6 819.3,428.3 834.0,428.3 834.0,414.5 848.6,414.5 848.6,382.0 863.3,382.0 863.3,398.0 877.9,398.0 877.9,508.9 863.3,508.9 863.3,501.4 848.6,501.4 848.6,509.6 834.0,509.6 834.0,512.1 819.3,512.1 819.3,492.2 804.7,492.2 804.7,488.7 790.0,488.7 790.0,504.5 775.4,504.5 775.4,511.4 760.7,511.4 760.7,500.0 746.1,500.0 746.1,500.0 731.4,500.0 731.4,512.1 716.8,512.1 716.8,509.9 702.2,509.9 702.2,475.2 687.5,475.2 687.5,463.9 672.9,463.9 672.9,458.6 658.2,458.6 658.2,448.0 643.6,448.0 643.6,488.1 628.9,488.1 628.9,459.1 614.3,459.1 614.3,423.9 599.6,423.9 599.6,439.3 585.0,439.3 585.0,369.8 570.3,369.8 570.3,361.0 555.7,361.0 555.7,399.9 541.0,399.9 541.0,399.4 526.4,399.4 526.4,318.0 511.8,318.0 511.8,290.9 497.1,290.9 497.1,350.1 482.5,350.1 482.5,367.7 467.8,367.7 467.8,290.6 453.2,290.6 453.2,284.6 438.5,284.6 438.5,347.5 423.9,347.5 423.9,380.6 409.2,380.6 409.2,311.0 394.6,311.0 394.6,312.5 379.9,312.5 379.9,378.6 365.3,378.6 365.3,412.3 350.6,412.3 350.6,353.0 336.0,353.0 336.0,357.7 321.4,357.7 321.4,411.6 306.7,411.6 306.7,431.7 292.1,431.7 292.1,381.0 277.4,381.0 277.4,381.2 262.8,381.2 262.8,418.2 248.1,418.2 248.1,437.3 233.5,437.3 233.5,391.8 218.8,391.8 218.8,398.5 204.2,398.5 204.2,422.2 189.5,422.2 189.5,434.9 174.9,434.9 174.9,380.7 160.2,380.7 160.2,367.4 145.6,367.4" stroke="none" stroke-width="0.9000"  fill="#7B553E" clip-path="url(#axis_clip)"/>
    <text class="pl" transform="translate(937.2,453.4)" dy="7.6" font-size="25.20" fill="#7B553E" stroke="none">Petrol</text>
  </g>
  <g class="pg_1">
    <polygon class="pl" points="145.6,367.4 160.2,367.4 160.2,380.7 174.9,380.7 174.9,434.9 189.5,434.9 189.5,422.2 204.2,422.2 204.2,398.5 218.8,398.5 218.8,391.8 233.5,391.8 233.5,437.3 248.1,437.3 248.1,418.2 262.8,418.2 262.8,381.2 277.4,381.2 277.4,381.0 292.1,381.0 292.1,431.7 306.7,431.7 306.7,411.6 321.4,411.6 321.4,357.7 336.0,357.7 336.0,353.0 350.6,353.0 350.6,412.3 365.3,412.3 365.3,378.6 379.9,378.6 379.9,312.5 394.6,312.5 394.6,311.0 409.2,311.0 409.2,380.6 423.9,380.6 423.9,347.5 438.5,347.5 438.5,284.6 453.2,284.6 453.2,290.6 467.8,290.6 467.8,367.7 482.5,367.7 482.5,350.1 497.1,350.1 497.1,290.9 511.8,290.9 511.8,318.0 526.4,318.0 526.4,399.4 541.0,399.4 541.0,399.9 555.7,399.9 555.7,361.0 570.3,361.0 570.3,369.8 585.0,369.8 585.0,439.3 599.6,439.3 599.6,423.9 614.3,423.9 614.3,459.1 628.9,459.1 628.9,488.1 643.6,488.1 643.6,448.0 658.2,448.0 658.2,458.6 672.9,458.6 672.9,463.9 687.5,463.9 687.5,475.2 702.2,475.2 702.2,509.9 716.8,509.9 716.8,512.1 731.4,512.1 731.4,500.0 746.1,500.0 746.1,500.0 760.7,500.0 760.7,511.4 775.4,511.4 775.4,504.5 790.0,504.5 790.0,488.7 804.7,488.7 804.7,492.2 819.3,492.2 819.3,512.1 834.0,512.1 834.0,509.6 848.6,509.6 848.6,501.4 863.3,501.4 863.3,508.9 877.9,508.9 877.9,560.2 145.6,560.2" stroke="none" stroke-width="0.9000"  fill="#7B6E57" clip-path="url(#axis_clip)"/>
    <text class="pl" transform="translate(937.2,534.5)" dy="7.6" font-size="25.20" fill="#7B6E57" stroke="none">Diesel</text>
  </g>
</g>
<g id="lines">
  <g class="pl_1">
    <use xlink:href="#line_1" class="thick" stroke="#000" stroke-width="3" opacity="0"/>
    <use xlink:href="#line_1" class="pl pll" stroke="#000" stroke-width="0.90"/>
  </g>
  <g class="pl_2">
    <use xlink:href="#line_2" class="thick" stroke="#000" stroke-width="3" opacity="0"/>
    <use xlink:href="#line_2" class="pl pll" stroke="#000" stroke-width="0.90"/>
  </g>
  <g class="pl_3">
    <use xlink:href="#line_3" class="thick" stroke="#000" stroke-width="3" opacity="0"/>
    <use xlink:href="#line_3" class="pl pll" stroke="#000" stroke-width="0.90"/>
  </g>
  <g class="pl_4">
    <use xlink:href="#line_4" class="thick" stroke="#000" stroke-width="3" opacity="0"/>
    <use xlink:href="#line_4" class="pl pll" stroke="#000" stroke-width="0.90"/>
  </g>
  <g class="pl_5">
    <use xlink:href="#line_5" class="thick" stroke="#000" stroke-width="3" opacity="0"/>
    <use xlink:href="#line_5" class="pl pll" stroke="#000" stroke-width="0.90"/>
  </g>
  <g class="pl_6">
    <use xlink:href="#line_6" class="thick" stroke="#000" stroke-width="3" opacity="0"/>
    <use xlink:href="#line_6" class="pl pll" stroke="#000" stroke-width="0.90"/>
  </g>
  <g class="pl_7">
    <use xlink:href="#line_7" class="thick" stroke="#000" stroke-width="3" opacity="0"/>
    <use xlink:href="#line_7" class="pl pll" stroke="#000" stroke-width="0.90"/>
  </g>
  <g class="pl_8">
    <use xlink:href="#line_8" class="thick" stroke="#000" stroke-width="3" opacity="0"/>
    <use xlink:href="#line_8" class="pl pll" stroke="#000" stroke-width="0.90"/>
  </g>
  <g class="pl_9">
    <use xlink:href="#line_9" class="thick" stroke="#000" stroke-width="3" opacity="0"/>
    <use xlink:href="#line_9" class="pl pll" stroke="#000" stroke-width="0.90"/>
  </g>
  <g class="pl_10">
    <use xlink:href="#line_10" class="thick" stroke="#000" stroke-width="3" opacity="0"/>
    <use xlink:href="#line_10" class="pl pll" stroke="#000" stroke-width="0.90"/>
  </g>
  <g class="pl_11">
    <use xlink:href="#line_11" class="thick" stroke="#000" stroke-width="3" opacity="0"/>
    <use xlink:href="#line_11" class="pl pll" stroke="#000" stroke-width="0.90"/>
  </g>
  <g class="pl_12">
    <use xlink:href="#line_12" class="thick" stroke="#000" stroke-width="3" opacity="0"/>
    <use xlink:href="#line_12" class="pl pll" stroke="#000" stroke-width="0.90"/>
  </g>
  <g class="pl_13">
    <use xlink:href="#line_13" class="thick" stroke="#000" stroke-width="3" opacity="0"/>
    <use xlink:href="#line_13" class="pl pll" stroke="#000" stroke-width="0.90"/>
  </g>
  <g class="pl_14">
    <use xlink:href="#line_14" class="thick" stroke="#000" stroke-width="3" opacity="0"/>
    <use xlink:href="#line_14" class="pl pll" stroke="#000" stroke-width="0.90"/>
  </g>
  <g class="pl_15">
    <use xlink:href="#line_15" class="thick" stroke="#000" stroke-width="3" opacity="0"/>
    <use xlink:href="#line_15" class="pl pll" stroke="#000" stroke-width="0.90"/>
  </g>
  <g class="pl_16">
    <use xlink:href="#line_16" class="thick" stroke="#000" stroke-width="3" opacity="0"/>
    <use xlink:href="#line_16" class="pl pll" stroke="#000" stroke-width="0.90"/>
  </g>
  <g class="pl_17">
    <use xlink:href="#line_17" class="thick" stroke="#000" stroke-width="3" opacity="0"/>
    <use xlink:href="#line_17" class="pl pll" stroke="#000" stroke-width="0.90"/>
  </g>
  <g class="pl_18">
    <use xlink:href="#line_18" class="thick" stroke="#000" stroke-width="3" opacity="0"/>
    <use xlink:href="#line_18" class="pl pll" stroke="#000" stroke-width="0.90"/>
  </g>
  <g class="pl_19">
    <use xlink:href="#line_19" class="thick" stroke="#000" stroke-width="3" opacity="0"/>
    <use xlink:href="#line_19" class="pl pll" stroke="#000" stroke-width="0.90"/>
  </g>
  <g class="pl_20">
    <use xlink:href="#line_20" class="thick" stroke="#000" stroke-width="3" opacity="0"/>
    <use xlink:href="#line_20" class="pl pll" stroke="#000" stroke-width="0.90"/>
  </g>
  <g class="pl_21">
    <use xlink:href="#line_21" class="thick" stroke="#000" stroke-width="3" opacity="0"/>
    <use xlink:href="#line_21" class="pl pll" stroke="#000" stroke-width="0.90"/>
  </g>
  <g class="pl_22">
    <use xlink:href="#line_22" class="thick" stroke="#000" stroke-width="3" opacity="0"/>
    <use xlink:href="#line_22" class="pl pll" stroke="#000" stroke-width="0.90"/>
  </g>
  <g class="pl_23">
    <use xlink:href="#line_23" class="thick" stroke="#000" stroke-width="3" opacity="0"/>
    <use xlink:href="#line_23" class="pl pll" stroke="#000" stroke-width="0.90"/>
  </g>
  <g class="pl_24">
    <use xlink:href="#line_24" class="thick" stroke="#000" stroke-width="3" opacity="0"/>
    <use xlink:href="#line_24" class="pl pll" stroke="#000" stroke-width="0.90"/>
  </g>
  <g class="pl_25">
    <use xlink:href="#line_25" class="thick" stroke="#000" stroke-width="3" opacity="0"/>
    <use xlink:href="#line_25" class="pl pll" stroke="#000" stroke-width="0.90"/>
  </g>
  <g class="pl_26">
    <use xlink:href="#line_26" class="thick" stroke="#000" stroke-width="3" opacity="0"/>
    <use xlink:href="#line_26" class="pl pll" stroke="#000" stroke-width="0.90"/>
  </g>
  <g class="pl_27">
    <use xlink:href="#line_27" class="thick" stroke="#000" stroke-width="3" opacity="0"/>
    <use xlink:href="#line_27" class="pl pll" stroke="#000" stroke-width="0.90"/>
  </g>
  <g class="pl_28">
    <use xlink:href="#line_28" class="thick" stroke="#000" stroke-width="3" opacity="0"/>
    <use xlink:href="#line_28" class="pl pll" stroke="#000" stroke-width="0.90"/>
  </g>
</g>
    <text class="pl" transform="translate(174.9,573.0) rotate(-90)" dy="8.1" font-size="27.00" fill="#808080" stroke="none" text-anchor="end">2012</text>
    <text class="pl" transform="translate(233.5,573.0) rotate(-90)" dy="8.1" font-size="27.00" fill="#808080" stroke="none" text-anchor="end">2013</text>
    <text class="pl" transform="translate(292.1,573.0) rotate(-90)" dy="8.1" font-size="27.00" fill="#808080" stroke="none" text-anchor="end">2014</text>
    <text class="pl" transform="translate(350.6,573.0) rotate(-90)" dy="8.1" font-size="27.00" fill="#808080" stroke="none" text-anchor="end">2015</text>
    <text class="pl" transform="translate(409.2,573.0) rotate(-90)" dy="8.1" font-size="27.00" fill="#808080" stroke="none" text-anchor="end">2016</text>
    <text class="pl" transform="translate(467.8,573.0) rotate(-90)" dy="8.1" font-size="27.00" fill="#808080" stroke="none" text-anchor="end">2017</text>
    <text class="pl" transform="translate(526.4,573.0) rotate(-90)" dy="8.1" font-size="27.00" fill="#808080" stroke="none" text-anchor="end">2018</text>
    <text class="pl" transform="translate(585.0,573.0) rotate(-90)" dy="8.1" font-size="27.00" fill="#808080" stroke="none" text-anchor="end">2019</text>
    <text class="pl" transform="translate(643.6,573.0) rotate(-90)" dy="8.1" font-size="27.00" fill="#808080" stroke="none" text-anchor="end">2020</text>
    <text class="pl" transform="translate(702.2,573.0) rotate(-90)" dy="8.1" font-size="27.00" fill="#808080" stroke="none" text-anchor="end">2021</text>
    <text class="pl" transform="translate(760.7,573.0) rotate(-90)" dy="8.1" font-size="27.00" fill="#808080" stroke="none" text-anchor="end">2022</text>
    <text class="pl" transform="translate(819.3,573.0) rotate(-90)" dy="8.1" font-size="27.00" fill="#808080" stroke="none" text-anchor="end">2023</text>
    <text class="pl" transform="translate(877.9,573.0) rotate(-90)" dy="8.1" font-size="27.00" fill="#808080" stroke="none" text-anchor="end">2024</text>
<text transform="translate(157.6,666.1)" font-size="19.80" font-family="Helvetica" fill="#BFBFBF" stroke="none" xml:space="preserve"><a href="https://twitter.com/robbie_andrew" style="fill:#BFBFBF" target="_blank">@robbie_andrew</a>   &#9679;   Data: UNRAE / Lorenzo Grande (Teraton)   &#9679;   Through August 2024</text>
<text class="twitlink" transform="translate(157.6,666.1)" opacity="0" font-size="19.80" fill="#BFBFBF" stroke="none" xml:space="preserve"><a href="https://twitter.com/robbie_andrew" style="fill:#BFBFBF" target="_blank">@robbie_andrew</a></text>
  <g class="dl_el" transform="translate(154.6,578.4)">
    <g class="dl_el_balloon">
      <foreignObject x="0" y="0" width="120" height="500">
      <div xmlns="http://www.w3.org/1999/xhtml" class="dl_fe" style="height:60px">
      <p class="dl_fe_p">Find me on Twitter</p>
      </div>
	    </foreignObject>
      <path stroke="#000" fill="#FDFFDF" d="M0,60H60l5,5l5,-5H120"/>
    </g>
  </g>
<use xlink:href="#line_y" transform="translate(145.6,0)"/>
<use xlink:href="#line_y" transform="translate(204.2,0)"/>
<use xlink:href="#line_y" transform="translate(262.8,0)"/>
<use xlink:href="#line_y" transform="translate(321.4,0)"/>
<use xlink:href="#line_y" transform="translate(379.9,0)"/>
<use xlink:href="#line_y" transform="translate(438.5,0)"/>
<use xlink:href="#line_y" transform="translate(497.1,0)"/>
<use xlink:href="#line_y" transform="translate(555.7,0)"/>
<use xlink:href="#line_y" transform="translate(614.3,0)"/>
<use xlink:href="#line_y" transform="translate(672.9,0)"/>
<use xlink:href="#line_y" transform="translate(731.4,0)"/>
<use xlink:href="#line_y" transform="translate(790.0,0)"/>
<use xlink:href="#line_y" transform="translate(848.6,0)"/>
<use xlink:href="#line_y" transform="translate(907.2,0)"/>
<use xlink:href="#line_x" transform="translate(0,560.2)"/>
<use xlink:href="#line_x" transform="translate(0,475.8)"/>
<use xlink:href="#line_x" transform="translate(0,391.5)"/>
<use xlink:href="#line_x" transform="translate(0,307.1)"/>
<use xlink:href="#line_x" transform="translate(0,222.7)"/>
<use xlink:href="#line_x" transform="translate(0,138.4)"/>
<use xlink:href="#line_x" transform="translate(0,54.0)"/>
<use xlink:href="#tick_x" transform="translate(145.6,0)"/>
<use xlink:href="#tick_x" transform="translate(204.2,0)"/>
<use xlink:href="#tick_x" transform="translate(262.8,0)"/>
<use xlink:href="#tick_x" transform="translate(321.4,0)"/>
<use xlink:href="#tick_x" transform="translate(379.9,0)"/>
<use xlink:href="#tick_x" transform="translate(438.5,0)"/>
<use xlink:href="#tick_x" transform="translate(497.1,0)"/>
<use xlink:href="#tick_x" transform="translate(555.7,0)"/>
<use xlink:href="#tick_x" transform="translate(614.3,0)"/>
<use xlink:href="#tick_x" transform="translate(672.9,0)"/>
<use xlink:href="#tick_x" transform="translate(731.4,0)"/>
<use xlink:href="#tick_x" transform="translate(790.0,0)"/>
<use xlink:href="#tick_x" transform="translate(848.6,0)"/>
<use xlink:href="#tick_x" transform="translate(907.2,0)"/>
<use xlink:href="#tick_y" transform="translate(0,560.2)"/>
<use xlink:href="#tick_y" transform="translate(0,475.8)"/>
<use xlink:href="#tick_y" transform="translate(0,391.5)"/>
<use xlink:href="#tick_y" transform="translate(0,307.1)"/>
<use xlink:href="#tick_y" transform="translate(0,222.7)"/>
<use xlink:href="#tick_y" transform="translate(0,138.4)"/>
<use xlink:href="#tick_y" transform="translate(0,54.0)"/>
<polyline points="145.6,53.993 145.6,560.180 907.2,560.180" stroke="#808080" stroke-width="0.90" fill="none"/>
<g>
<a href="https://creativecommons.org/licenses/by/4.0/">
  <rect x="123.0" y="651.4" width="34" height="17" fill="#FFF" stroke="none"/>
  <g transform="translate(124.0,652.4) scale(0.24)">
  <g><circle fill="#FFF" cx="37.79" cy="28.5" r="28.84"/>
     <circle fill="none" cx="37.79" cy="28.5" r="28.84" stroke="#BFBFBF" stroke-width="5.5"/>
     <path fill="#BFBFBF" d="M37.16,23.19 l-4.29,2.23c-0.458-0.951-1.02-1.62-1.69-2c-0.667-0.38-1.29-0.571-1.86-0.571c-2.86,0-4.29,1.89-4.29,5.66 c0,1.71,0.36,3.08,1.09,4.11c0.724,1.03,1.79,1.54,3.2,1.54c1.87,0,3.18-0.915,3.94-2.74l3.94,2 c-0.838,1.56-2,2.79-3.49,3.69c-1.48,0.896-3.12,1.34-4.91,1.34c-2.86,0-5.16-0.875-6.92-2.63 c-1.75-1.75-2.63-4.19-2.63-7.31c0-3.05,0.886-5.47,2.66-7.26c1.77-1.79,4.01-2.69,6.72-2.69 C32.6,18.56,35.44,20.1,37.16,23.19z
              M55.61,23.19l-4.23,2.23c-0.457-0.951-1.02-1.62-1.69-2 c-0.668-0.38-1.31-0.571-1.91-0.571c-2.86,0-4.29,1.89-4.29,5.66c0,1.71,0.363,3.08,1.09,4.11 c0.723,1.03,1.79,1.54,3.2,1.54c1.87,0,3.18-0.915,3.94-2.74l4,2c-0.875,1.56-2.06,2.79-3.54,3.69 c-1.49,0.9-3.11,1.34-4.86,1.34c-2.9,0-5.21-0.875-6.94-2.63c-1.74-1.75-2.6-4.19-2.6-7.31 c0-3.05,0.885-5.47,2.66-7.26c1.77-1.79,4.01-2.69,6.71-2.69C51.12,18.56,53.944,20.1,55.61,23.19z"/>
  </g></g>
  <g transform="translate(140.2,652.4) scale(0.24)">
  <g><circle fill="#FFF" cx="37.79" cy="28.5" r="28.84"/>
     <circle fill="none" cx="37.79" cy="28.5" r="28.84" stroke="#BFBFBF" stroke-width="5.5"/>
     <path fill="#BFBFBF" d="M46.129,20.557v13.085h-3.656v15.542h-9.944V33.643h-3.656V20.557 c0-0.572,0.2-1.057,0.599-1.457c0.401-0.399,0.887-0.6,1.457-0.6h13.144c0.533,0,1.01,0.2,1.428,0.6 C45.918,19.5,46.129,19.986,46.129,20.557z
              M33.042,12.329c0-3.008,1.485-4.514,4.458-4.514s4.457,1.504,4.457,4.514 c0,2.971-1.486,4.457-4.457,4.457S33.042,15.3,33.042,12.329z"/>
  </g></g>
  </a>
</g>
  <g class="dl_el" transform="translate(69.1,548.4)">
    <g class="dl_el_balloon">
      <foreignObject x="0" y="0" width="250" height="500">
      <div xmlns="http://www.w3.org/1999/xhtml" class="dl_fe" style="height:90px">
      <p class="dl_fe_p">CC-BY: Material may be freely re-used as long as you credit the author</p>
      </div>
	    </foreignObject>
      <path stroke="#000" fill="#FDFFDF" d="M0,90H70l5,5l5,-5H250"/>
    </g>
  </g>
</g>
</svg>
