<svg version="1.1" xmlns="http://www.w3.org/2000/svg" xmlns:xlink="http://www.w3.org/1999/xlink" width="100%" height="100%" viewBox="0 0 1200.000 674.916">
<title>Italian new passenger car sales by type: Monthly</title>
<desc>Created by Robbie Andrew (@robbie_andrew), CICERO Center for International Climate Research. CC-BY: Material may be freely re-used as long as you credit the author</desc>
<style type="text/css">
  #main {font-family:Helvetica,Arial,sans-serif; font-size:27.00px;
         fill-opacity:1; fill:#000000; stroke:none; stroke-linejoin:round; stroke-linecap:round; stroke-width:1.00;}
  a:hover {text-decoration: underline;}
  .marker {stroke-opacity:0;fill-opacity:0;}
  .marker:hover {stroke-opacity:0.5; fill-opacity:1;}
  .ticklabel {font-size:27.00px;fill:#808080;stroke:none;font-family:Helvetica}
  .ytl {text-anchor:end;}
  .dp1 {pointer-events:none;font-size:70%;text-anchor:middle;fill:#000000;}
  .dp2 {pointer-events:none;font-size:70%;text-anchor:middle;fill:#FFFFFF;}
  .numtip {pointer-events:none;}
  .cc {opacity:0.25;}
.dl_fe {background-color:#FDFFDF;display:flex;margin:auto;align-items:center}
.dl_fe_p {font-size:20px;text-align:center;margin:3px}
.dl_el {display:none;pointer-events:none;}
.cc:hover + .dl_el {display:block;}
text:hover + .dl_el {display:block;}
  #areas .pl {transition: all 0.2s ease;}
  #areas:hover .pl {opacity:0.5;}
  #areas:hover .thick {stroke-width:1;}
  #areas:hover .pg_1:hover .pl {opacity:1;}
  #areas:hover .pg_1:hover .pll {stroke-width:3;}
  #areas:hover .pg_1:hover .pldlm {stroke-width:2;}
  #areas:hover .pg_1:hover .thick {stroke-width:12;}
  #areas:hover .pg_2:hover .pl {opacity:1;}
  #areas:hover .pg_2:hover .pll {stroke-width:3;}
  #areas:hover .pg_2:hover .pldlm {stroke-width:2;}
  #areas:hover .pg_2:hover .thick {stroke-width:12;}
  #areas:hover .pg_3:hover .pl {opacity:1;}
  #areas:hover .pg_3:hover .pll {stroke-width:3;}
  #areas:hover .pg_3:hover .pldlm {stroke-width:2;}
  #areas:hover .pg_3:hover .thick {stroke-width:12;}
  #areas:hover .pg_4:hover .pl {opacity:1;}
  #areas:hover .pg_4:hover .pll {stroke-width:3;}
  #areas:hover .pg_4:hover .pldlm {stroke-width:2;}
  #areas:hover .pg_4:hover .thick {stroke-width:12;}
  #areas:hover .pg_5:hover .pl {opacity:1;}
  #areas:hover .pg_5:hover .pll {stroke-width:3;}
  #areas:hover .pg_5:hover .pldlm {stroke-width:2;}
  #areas:hover .pg_5:hover .thick {stroke-width:12;}
  #areas:hover .pg_6:hover .pl {opacity:1;}
  #areas:hover .pg_6:hover .pll {stroke-width:3;}
  #areas:hover .pg_6:hover .pldlm {stroke-width:2;}
  #areas:hover .pg_6:hover .thick {stroke-width:12;}
  #areas:hover .pg_7:hover .pl {opacity:1;}
  #areas:hover .pg_7:hover .pll {stroke-width:3;}
  #areas:hover .pg_7:hover .pldlm {stroke-width:2;}
  #areas:hover .pg_7:hover .thick {stroke-width:12;}
  #lines .pl {transition: all 0.2s ease;}
  #lines:hover .pl {opacity:0.3;}
  #lines:hover .thick {stroke-width:1;}
  #lines:hover .pl_1:hover .pl {opacity:1;}
  #lines:hover .pl_1:hover .pll {stroke-width:3;}
  #lines:hover .pl_1:hover .pldlm {stroke-width:2;}
  #lines:hover .pl_1:hover .thick {stroke-width:12;}
  #lines:hover .pl_2:hover .pl {opacity:1;}
  #lines:hover .pl_2:hover .pll {stroke-width:3;}
  #lines:hover .pl_2:hover .pldlm {stroke-width:2;}
  #lines:hover .pl_2:hover .thick {stroke-width:12;}
  #lines:hover .pl_3:hover .pl {opacity:1;}
  #lines:hover .pl_3:hover .pll {stroke-width:3;}
  #lines:hover .pl_3:hover .pldlm {stroke-width:2;}
  #lines:hover .pl_3:hover .thick {stroke-width:12;}
  #lines:hover .pl_4:hover .pl {opacity:1;}
  #lines:hover .pl_4:hover .pll {stroke-width:3;}
  #lines:hover .pl_4:hover .pldlm {stroke-width:2;}
  #lines:hover .pl_4:hover .thick {stroke-width:12;}
  #lines:hover .pl_5:hover .pl {opacity:1;}
  #lines:hover .pl_5:hover .pll {stroke-width:3;}
  #lines:hover .pl_5:hover .pldlm {stroke-width:2;}
  #lines:hover .pl_5:hover .thick {stroke-width:12;}
  #lines:hover .pl_6:hover .pl {opacity:1;}
  #lines:hover .pl_6:hover .pll {stroke-width:3;}
  #lines:hover .pl_6:hover .pldlm {stroke-width:2;}
  #lines:hover .pl_6:hover .thick {stroke-width:12;}
  #lines:hover .pl_7:hover .pl {opacity:1;}
  #lines:hover .pl_7:hover .pll {stroke-width:3;}
  #lines:hover .pl_7:hover .pldlm {stroke-width:2;}
  #lines:hover .pl_7:hover .thick {stroke-width:12;}
  #lines:hover .pl_8:hover .pl {opacity:1;}
  #lines:hover .pl_8:hover .pll {stroke-width:3;}
  #lines:hover .pl_8:hover .pldlm {stroke-width:2;}
  #lines:hover .pl_8:hover .thick {stroke-width:12;}
  #lines:hover .pl_9:hover .pl {opacity:1;}
  #lines:hover .pl_9:hover .pll {stroke-width:3;}
  #lines:hover .pl_9:hover .pldlm {stroke-width:2;}
  #lines:hover .pl_9:hover .thick {stroke-width:12;}
  #lines:hover .pl_10:hover .pl {opacity:1;}
  #lines:hover .pl_10:hover .pll {stroke-width:3;}
  #lines:hover .pl_10:hover .pldlm {stroke-width:2;}
  #lines:hover .pl_10:hover .thick {stroke-width:12;}
  #lines:hover .pl_11:hover .pl {opacity:1;}
  #lines:hover .pl_11:hover .pll {stroke-width:3;}
  #lines:hover .pl_11:hover .pldlm {stroke-width:2;}
  #lines:hover .pl_11:hover .thick {stroke-width:12;}
  #lines:hover .pl_12:hover .pl {opacity:1;}
  #lines:hover .pl_12:hover .pll {stroke-width:3;}
  #lines:hover .pl_12:hover .pldlm {stroke-width:2;}
  #lines:hover .pl_12:hover .thick {stroke-width:12;}
  #lines:hover .pl_13:hover .pl {opacity:1;}
  #lines:hover .pl_13:hover .pll {stroke-width:3;}
  #lines:hover .pl_13:hover .pldlm {stroke-width:2;}
  #lines:hover .pl_13:hover .thick {stroke-width:12;}
  #lines:hover .pl_14:hover .pl {opacity:1;}
  #lines:hover .pl_14:hover .pll {stroke-width:3;}
  #lines:hover .pl_14:hover .pldlm {stroke-width:2;}
  #lines:hover .pl_14:hover .thick {stroke-width:12;}
  #lines:hover .pl_15:hover .pl {opacity:1;}
  #lines:hover .pl_15:hover .pll {stroke-width:3;}
  #lines:hover .pl_15:hover .pldlm {stroke-width:2;}
  #lines:hover .pl_15:hover .thick {stroke-width:12;}
  #lines:hover .pl_16:hover .pl {opacity:1;}
  #lines:hover .pl_16:hover .pll {stroke-width:3;}
  #lines:hover .pl_16:hover .pldlm {stroke-width:2;}
  #lines:hover .pl_16:hover .thick {stroke-width:12;}
  #lines:hover .pl_17:hover .pl {opacity:1;}
  #lines:hover .pl_17:hover .pll {stroke-width:3;}
  #lines:hover .pl_17:hover .pldlm {stroke-width:2;}
  #lines:hover .pl_17:hover .thick {stroke-width:12;}
  #lines:hover .pl_18:hover .pl {opacity:1;}
  #lines:hover .pl_18:hover .pll {stroke-width:3;}
  #lines:hover .pl_18:hover .pldlm {stroke-width:2;}
  #lines:hover .pl_18:hover .thick {stroke-width:12;}
  #lines:hover .pl_19:hover .pl {opacity:1;}
  #lines:hover .pl_19:hover .pll {stroke-width:3;}
  #lines:hover .pl_19:hover .pldlm {stroke-width:2;}
  #lines:hover .pl_19:hover .thick {stroke-width:12;}
  #lines:hover .pl_20:hover .pl {opacity:1;}
  #lines:hover .pl_20:hover .pll {stroke-width:3;}
  #lines:hover .pl_20:hover .pldlm {stroke-width:2;}
  #lines:hover .pl_20:hover .thick {stroke-width:12;}
  #lines:hover .pl_21:hover .pl {opacity:1;}
  #lines:hover .pl_21:hover .pll {stroke-width:3;}
  #lines:hover .pl_21:hover .pldlm {stroke-width:2;}
  #lines:hover .pl_21:hover .thick {stroke-width:12;}
</style>
<defs>
  <clipPath id="axis_clip"><rect x="145.8" y="54.2" width="761.2" height="505.8" /></clipPath>
  <path id="line_y" d="M 0,53.993 v 506.187" stroke="#FFF" stroke-opacity="0.15" stroke-width="1.00"/>
  <path id="line_x" d="M 145.600,0 h 761.600" stroke="#FFF" stroke-opacity="0.15" stroke-width="1.00"/>
  <path id="tick_y" d="M 145.600,0 h -6.000" stroke="#808080" stroke-width="0.90"/>
  <path id="tick_x" d="M 0,560.180 v 6.000" stroke="#808080" stroke-width="0.90"/>
  <symbol id="line_1" viewBox="0 0 1200.000 674.916">
<polyline class="pl" points="143.0,70.1 147.9,69.4 152.7,68.1 157.5,71.2 162.4,77.0 167.3,74.0 172.2,72.4 177.1,71.9 182.0,75.5 186.9,75.0 191.8,75.8 196.7,76.5 201.5,76.0 206.5,78.3 211.2,73.6 216.0,83.3 220.9,82.7 225.8,78.4 230.7,79.1 235.6,81.0 240.5,86.8 245.4,81.6 250.3,78.3 255.2,82.1 260.1,83.5 265.1,78.9 269.8,72.3 274.6,75.2 279.5,75.4 284.4,79.6 289.3,78.5 294.1,83.6 299.1,85.6 304.0,88.5 308.9,86.6 313.8,84.1 318.7,86.4 323.7,78.6 328.4,74.9 333.2,73.4 338.0,73.1 342.9,72.5 347.8,74.1 352.7,75.1 357.7,77.3 362.6,76.3 367.5,74.1 372.4,70.6 377.3,71.5 382.3,69.2 387.1,67.9 391.9,66.7 396.7,67.2 401.6,65.3 406.5,66.0 411.4,64.3 416.4,64.9 421.2,64.3 426.1,64.7 431.0,65.1 435.9,65.2 440.9,63.0 445.6,61.2 450.3,61.8 455.2,60.2 460.1,60.5 465.0,61.2 469.9,60.8 474.9,63.5 479.8,63.8 484.7,64.1 489.6,64.5 494.5,65.5 499.4,63.1 504.2,65.8 508.9,64.6 513.8,66.1 518.7,67.9 523.6,68.3 528.5,65.0 533.5,63.1 538.4,58.9 543.3,58.1 548.1,60.6 553.0,59.7 558.0,59.3 562.8,59.6 567.5,61.1 572.4,62.8 577.3,63.7 582.2,64.3 587.1,66.9 592.0,66.7 596.9,66.4 601.8,68.7 606.7,67.5 611.6,66.3 616.6,67.3 621.4,65.1 626.2,67.1 631.1,63.0 636.0,63.8 640.8,66.0 645.7,67.3 650.7,68.3 655.6,65.3 660.5,62.1 665.3,64.1 670.2,66.6 675.2,64.3 679.9,65.9 684.7,66.9 689.6,65.3 694.4,65.3 699.3,66.1 704.2,64.0 709.2,65.7 714.1,64.3 719.0,61.0 723.9,63.2 728.8,63.2 733.8,60.6 738.5,60.3 743.2,59.5 748.1,58.4 753.0,59.2 757.9,59.3 762.8,57.1 767.8,56.7 772.7,56.8 777.6,56.0 782.5,55.7 787.4,56.5 792.4,55.1 797.1,55.0 801.8,54.5 806.7,54.4 811.6,54.3 816.5,54.4 821.4,54.5 826.4,54.4 831.3,54.4 836.2,54.4 841.1,54.8 846.0,55.0 850.9,54.8 855.7,55.2 860.5,54.8 865.4,54.8 870.3,54.3 875.2,54.2 880.1,54.0 885.0,54.0" stroke="#000" stroke-width="0.90" stroke-opacity="1.00" fill="none" clip-path="url(#axis_clip)"/>
  </symbol>
  <symbol id="line_2" viewBox="0 0 1200.000 674.916">
<polyline class="pl" points="143.0,70.2 147.9,69.6 152.7,68.2 157.5,71.3 162.4,77.2 167.3,74.1 172.2,72.8 177.1,72.0 182.0,75.6 186.9,75.1 191.8,76.1 196.7,76.6 201.5,76.3 206.5,78.4 211.2,73.7 216.0,83.4 220.9,83.0 225.8,78.9 230.7,79.7 235.6,81.3 240.5,87.2 245.4,81.9 250.3,78.6 255.2,82.7 260.1,83.9 265.1,79.1 269.8,72.6 274.6,75.7 279.5,75.6 284.4,80.1 289.3,79.1 294.1,84.0 299.1,85.9 304.0,88.8 308.9,87.3 313.8,84.6 318.7,86.9 323.7,79.1 328.4,75.3 333.2,74.4 338.0,73.4 342.9,72.8 347.8,74.6 352.7,75.5 357.7,77.7 362.6,76.6 367.5,74.4 372.4,71.0 377.3,72.0 382.3,69.6 387.1,68.1 391.9,67.2 396.7,67.5 401.6,65.6 406.5,66.3 411.4,64.6 416.4,65.3 421.2,64.8 426.1,65.2 431.0,65.4 435.9,65.9 440.9,63.6 445.6,61.5 450.3,62.3 455.2,60.5 460.1,60.9 465.0,61.7 469.9,61.3 474.9,64.1 479.8,64.3 484.7,64.8 489.6,64.9 494.5,66.1 499.4,63.8 504.2,66.5 508.9,65.6 513.8,66.8 518.7,69.4 523.6,69.5 528.5,67.1 533.5,64.1 538.4,60.9 543.3,60.1 548.1,62.2 553.0,61.3 558.0,60.2 562.8,60.3 567.5,62.7 572.4,66.2 577.3,66.7 582.2,68.6 587.1,70.0 592.0,69.7 596.9,70.9 601.8,71.7 606.7,71.0 611.6,69.3 616.6,73.6 621.4,72.9 626.2,83.4 631.1,121.5 636.0,73.0 640.8,74.5 645.7,73.2 650.7,78.9 655.6,78.4 660.5,71.3 665.3,81.5 670.2,96.9 675.2,73.7 679.9,78.0 684.7,88.7 689.6,82.0 694.4,83.4 699.3,89.8 704.2,87.2 709.2,90.9 714.1,104.8 719.0,96.2 723.9,96.2 728.8,98.5 733.8,77.6 738.5,74.5 743.2,78.3 748.1,74.0 753.0,77.7 757.9,83.7 762.8,73.6 767.8,72.9 772.7,79.7 777.6,71.9 782.5,77.2 787.4,78.3 792.4,68.2 797.1,73.8 801.8,78.9 806.7,70.3 811.6,75.1 816.5,76.6 821.4,71.8 826.4,79.9 831.3,72.6 836.2,75.2 841.1,83.2 846.0,85.6 850.9,65.3 855.7,72.3 860.5,71.3 865.4,66.7 870.3,72.5 875.2,96.3 880.1,71.2 885.0,73.0" stroke="#000" stroke-width="0.90" stroke-opacity="1.00" fill="none" clip-path="url(#axis_clip)"/>
  </symbol>
  <symbol id="line_3" viewBox="0 0 1200.000 674.916">
<polyline class="pl" points="143.0,70.2 147.9,69.6 152.7,68.2 157.5,71.3 162.4,77.2 167.3,74.1 172.2,72.8 177.1,72.0 182.0,75.6 186.9,75.1 191.8,76.1 196.7,76.6 201.5,76.3 206.5,78.4 211.2,73.7 216.0,83.4 220.9,83.0 225.8,78.9 230.7,79.7 235.6,81.3 240.5,87.2 245.4,81.9 250.3,78.6 255.2,82.7 260.1,83.9 265.1,79.1 269.8,72.6 274.6,75.7 279.5,75.6 284.4,80.1 289.3,79.1 294.1,84.0 299.1,85.9 304.0,88.8 308.9,87.3 313.8,84.6 318.7,86.9 323.7,79.1 328.4,75.3 333.2,74.4 338.0,73.4 342.9,72.8 347.8,74.6 352.7,75.5 357.7,77.7 362.6,76.6 367.5,74.4 372.4,71.0 377.3,72.0 382.3,69.6 387.1,68.1 391.9,67.2 396.7,67.5 401.6,65.6 406.5,66.3 411.4,64.6 416.4,65.3 421.2,64.8 426.1,65.2 431.0,65.4 435.9,65.9 440.9,63.6 445.6,61.5 450.3,62.3 455.2,60.5 460.1,60.9 465.0,61.7 469.9,61.3 474.9,64.1 479.8,64.3 484.7,64.8 489.6,64.9 494.5,66.1 499.4,63.8 504.2,67.2 508.9,66.4 513.8,67.4 518.7,70.2 523.6,71.5 528.5,69.2 533.5,66.2 538.4,62.2 543.3,62.0 548.1,63.5 553.0,61.9 558.0,61.0 562.8,61.1 567.5,63.9 572.4,67.6 577.3,67.8 582.2,69.6 587.1,71.1 592.0,71.4 596.9,76.0 601.8,74.4 606.7,74.3 611.6,71.8 616.6,78.0 621.4,76.6 626.2,90.3 631.1,124.6 636.0,78.9 640.8,80.7 645.7,81.0 650.7,88.0 655.6,87.7 660.5,83.0 665.3,99.4 670.2,123.5 675.2,87.8 679.9,95.3 684.7,111.6 689.6,105.1 694.4,110.6 699.3,113.7 704.2,115.7 709.2,115.8 714.1,131.0 719.0,121.4 723.9,122.6 728.8,130.7 733.8,102.9 738.5,99.2 743.2,103.7 748.1,102.5 753.0,108.5 757.9,111.5 762.8,96.9 767.8,92.0 772.7,99.7 777.6,98.3 782.5,105.1 787.4,104.2 792.4,92.1 797.1,95.2 801.8,100.8 806.7,94.4 811.6,98.7 816.5,103.7 821.4,94.2 826.4,100.9 831.3,92.8 836.2,96.1 841.1,103.9 846.0,105.7 850.9,79.7 855.7,88.3 860.5,88.9 865.4,83.2 870.3,89.0 875.2,113.9 880.1,90.8 885.0,90.6" stroke="#000" stroke-width="0.90" stroke-opacity="1.00" fill="none" clip-path="url(#axis_clip)"/>
  </symbol>
  <symbol id="line_4" viewBox="0 0 1200.000 674.916">
<polyline class="pl" points="143.0,71.8 147.9,71.1 152.7,69.3 157.5,73.0 162.4,78.5 167.3,76.3 172.2,75.4 177.1,74.6 182.0,77.8 186.9,78.2 191.8,80.0 196.7,80.8 201.5,80.6 206.5,82.7 211.2,77.8 216.0,87.6 220.9,87.5 225.8,84.3 230.7,84.5 235.6,87.4 240.5,91.5 245.4,89.2 250.3,85.4 255.2,89.6 260.1,92.1 265.1,85.7 269.8,79.2 274.6,82.1 279.5,81.6 284.4,90.5 289.3,86.7 294.1,90.2 299.1,92.0 304.0,97.2 308.9,95.9 313.8,93.1 318.7,96.1 323.7,87.4 328.4,82.4 333.2,82.0 338.0,80.2 342.9,80.2 347.8,82.5 352.7,81.8 357.7,84.8 362.6,86.7 367.5,83.6 372.4,80.1 377.3,82.7 382.3,80.1 387.1,78.4 391.9,75.8 396.7,76.4 401.6,75.1 406.5,75.6 411.4,74.3 416.4,75.9 421.2,77.5 426.1,76.7 431.0,77.2 435.9,79.8 440.9,77.3 445.6,76.1 450.3,75.2 455.2,75.2 460.1,77.8 465.0,78.5 469.9,79.6 474.9,81.9 479.8,82.2 484.7,85.8 489.6,86.6 494.5,86.0 499.4,84.0 504.2,84.5 508.9,83.3 513.8,88.0 518.7,89.0 523.6,92.4 528.5,93.2 533.5,86.7 538.4,91.9 543.3,90.0 548.1,89.7 553.0,84.1 558.0,86.2 562.8,87.0 567.5,89.4 572.4,93.5 577.3,93.8 582.2,96.4 587.1,98.7 592.0,94.5 596.9,109.7 601.8,111.8 606.7,109.0 611.6,104.3 616.6,124.3 621.4,128.6 626.2,153.6 631.1,154.4 636.0,136.5 640.8,141.7 645.7,145.4 650.7,164.1 655.6,191.8 660.5,208.0 665.3,216.3 670.2,231.8 675.2,211.0 679.9,241.3 684.7,248.4 689.6,250.5 694.4,252.4 699.3,252.5 704.2,264.6 709.2,275.8 714.1,289.4 719.0,299.4 723.9,281.4 728.8,283.3 733.8,279.5 738.5,272.5 743.2,268.2 748.1,279.6 753.0,278.1 757.9,258.7 762.8,264.6 767.8,289.3 772.7,280.6 777.6,282.0 782.5,275.4 787.4,279.4 792.4,277.8 797.1,280.0 801.8,275.3 806.7,270.4 811.6,274.3 816.5,279.8 821.4,274.8 826.4,274.1 831.3,292.9 836.2,293.7 841.1,295.9 846.0,283.7 850.9,272.0 855.7,279.5 860.5,286.1 865.4,284.5 870.3,292.0 875.2,309.8 880.1,293.5 885.0,296.2" stroke="#000" stroke-width="0.90" stroke-opacity="1.00" fill="none" clip-path="url(#axis_clip)"/>
  </symbol>
  <symbol id="line_5" viewBox="0 0 1200.000 674.916">
<polyline class="pl" points="143.0,98.3 147.9,92.9 152.7,95.0 157.5,104.3 162.4,131.5 167.3,125.0 172.2,123.6 177.1,124.6 182.0,134.9 186.9,137.2 191.8,143.4 196.7,142.1 201.5,135.7 206.5,132.4 211.2,121.2 216.0,133.1 220.9,131.6 225.8,126.6 230.7,130.5 235.6,132.4 240.5,142.5 245.4,134.8 250.3,127.4 255.2,132.6 260.1,135.8 265.1,127.1 269.8,121.0 274.6,120.3 279.5,119.2 284.4,137.8 289.3,132.3 294.1,140.7 299.1,142.3 304.0,146.9 308.9,147.0 313.8,145.8 318.7,148.0 323.7,133.2 328.4,124.1 333.2,120.0 338.0,123.1 342.9,120.3 347.8,124.1 352.7,123.3 357.7,123.3 362.6,121.3 367.5,116.7 372.4,113.9 377.3,113.7 382.3,108.3 387.1,105.8 391.9,102.9 396.7,104.9 401.6,102.2 406.5,104.2 411.4,103.4 416.4,106.4 421.2,104.4 426.1,104.9 431.0,105.7 435.9,109.7 440.9,110.7 445.6,108.0 450.3,106.0 455.2,105.8 460.1,109.4 465.0,112.6 469.9,119.2 474.9,118.3 479.8,111.4 484.7,120.3 489.6,122.5 494.5,118.9 499.4,115.7 504.2,113.4 508.9,112.7 513.8,119.4 518.7,120.3 523.6,125.8 528.5,134.3 533.5,128.5 538.4,121.6 543.3,126.2 548.1,125.8 553.0,115.3 558.0,123.4 562.8,116.5 567.5,122.9 572.4,128.5 577.3,127.1 582.2,131.4 587.1,145.1 592.0,145.6 596.9,149.0 601.8,146.3 606.7,141.4 611.6,138.4 616.6,155.4 621.4,156.9 626.2,193.3 631.1,175.0 636.0,168.8 640.8,178.3 645.7,178.0 650.7,198.4 655.6,230.3 660.5,245.0 665.3,256.5 670.2,262.3 675.2,241.7 679.9,267.6 684.7,279.5 689.6,283.2 694.4,284.8 699.3,293.7 704.2,307.0 709.2,324.9 714.1,336.9 719.0,338.6 723.9,328.2 728.8,324.2 733.8,326.2 738.5,314.1 743.2,315.2 748.1,316.9 753.0,317.7 757.9,307.6 762.8,304.5 767.8,333.4 772.7,324.6 777.6,326.6 782.5,332.1 787.4,327.3 792.4,329.8 797.1,330.9 801.8,313.7 806.7,312.4 811.6,317.0 816.5,322.6 821.4,324.3 826.4,323.6 831.3,333.5 836.2,343.8 841.1,345.1 846.0,328.6 850.9,326.8 855.7,327.6 860.5,324.7 865.4,327.5 870.3,324.3 875.2,361.0 880.1,351.1 885.0,349.9" stroke="#000" stroke-width="0.90" stroke-opacity="1.00" fill="none" clip-path="url(#axis_clip)"/>
  </symbol>
  <symbol id="line_6" viewBox="0 0 1200.000 674.916">
<polyline class="pl" points="143.0,296.5 147.9,281.2 152.7,277.7 157.5,275.5 162.4,297.0 167.3,300.8 172.2,291.7 177.1,287.9 182.0,285.1 186.9,293.7 191.8,299.6 196.7,296.6 201.5,295.7 206.5,294.9 211.2,285.3 216.0,283.5 220.9,295.3 225.8,291.7 230.7,287.7 235.6,284.7 240.5,290.2 245.4,284.2 250.3,282.6 255.2,276.6 260.1,280.8 265.1,279.1 269.8,279.7 274.6,270.3 279.5,270.8 284.4,281.8 289.3,279.9 294.1,278.7 299.1,281.1 304.0,292.2 308.9,286.4 313.8,279.8 318.7,293.0 323.7,282.3 328.4,274.9 333.2,276.8 338.0,280.7 342.9,279.3 347.8,279.2 352.7,287.6 357.7,276.1 362.6,287.4 367.5,278.8 372.4,268.8 377.3,272.2 382.3,275.8 387.1,276.5 391.9,274.6 396.7,283.9 401.6,270.7 406.5,270.0 411.4,261.5 416.4,261.9 421.2,269.4 426.1,262.7 431.0,258.2 435.9,261.5 440.9,281.9 445.6,276.7 450.3,274.8 455.2,265.0 460.1,277.7 465.0,262.6 469.9,276.6 474.9,268.0 479.8,267.5 484.7,279.3 489.6,274.6 494.5,270.0 499.4,280.5 504.2,275.0 508.9,284.4 513.8,292.9 518.7,298.6 523.6,293.1 528.5,301.9 533.5,276.0 538.4,317.6 543.3,337.3 548.1,331.8 553.0,325.5 558.0,351.9 562.8,331.9 567.5,331.6 572.4,355.3 577.3,348.3 582.2,348.6 587.1,372.0 592.0,367.3 596.9,375.0 601.8,378.8 606.7,373.3 611.6,385.0 616.6,390.7 621.4,384.3 626.2,373.2 631.1,353.1 636.0,377.5 640.8,379.9 645.7,373.1 650.7,381.6 655.6,396.5 660.5,404.3 665.3,414.0 670.2,429.5 675.2,423.8 679.9,433.7 684.7,436.6 689.6,444.5 694.4,441.9 699.3,446.9 704.2,445.5 709.2,451.4 714.1,463.5 719.0,469.1 723.9,464.1 728.8,456.0 733.8,463.9 738.5,447.5 743.2,453.6 748.1,453.7 753.0,461.6 757.9,455.2 762.8,455.6 767.8,468.3 772.7,462.4 777.6,465.4 782.5,468.1 787.4,456.4 792.4,463.5 797.1,463.2 801.8,457.6 806.7,460.4 811.6,461.6 816.5,466.8 821.4,469.1 826.4,474.1 831.3,481.8 836.2,483.2 841.1,485.9 846.0,481.4 850.9,480.2 855.7,485.3 860.5,483.5 865.4,487.3 870.3,487.1 875.2,495.1 880.1,494.9 885.0,492.1" stroke="#000" stroke-width="0.90" stroke-opacity="1.00" fill="none" clip-path="url(#axis_clip)"/>
  </symbol>
  <symbol id="line_7" viewBox="0 0 1200.000 674.916">
<polyline class="pl" points="143.0,70.2 147.9,69.6 152.7,68.2 157.5,71.3 162.4,77.2 167.3,74.1 172.2,72.8 177.1,72.0 182.0,75.6 186.9,75.1 191.8,76.1 196.7,76.6 201.5,76.3 206.5,78.4 211.2,73.7 216.0,83.4 220.9,83.0 225.8,78.9 230.7,79.7 235.6,81.3 240.5,87.2 245.4,81.9 250.3,78.6 255.2,82.7 260.1,83.9 265.1,79.1 269.8,72.6 274.6,75.7 279.5,75.6 284.4,80.1 289.3,79.1 294.1,84.0 299.1,85.9 304.0,88.8 308.9,87.3 313.8,84.6 318.7,86.9 323.7,79.1 328.4,75.3 333.2,74.4 338.0,73.4 342.9,72.8 347.8,74.6 352.7,75.5 357.7,77.7 362.6,76.6 367.5,74.4 372.4,71.0 377.3,72.0 382.3,69.6 387.1,68.1 391.9,67.2 396.7,67.5 401.6,65.6 406.5,66.3 411.4,64.6 416.4,65.3 421.2,64.8 426.1,65.2 431.0,65.4 435.9,65.9 440.9,63.6 445.6,61.5 450.3,62.3 455.2,60.5 460.1,60.9 465.0,61.7 469.9,61.3 474.9,64.1 479.8,64.3 484.7,64.8 489.6,64.9 494.5,66.1 499.4,63.8 504.2,66.5 508.9,65.6 513.8,66.8 518.7,69.4 523.6,69.5 528.5,67.1 533.5,64.1 538.4,60.9 543.3,60.1 548.1,62.2 553.0,61.3 558.0,60.2 562.8,60.3 567.5,62.7 572.4,66.2 577.3,66.7 582.2,68.6 587.1,70.0 592.0,69.7 596.9,70.9 601.8,71.7 606.7,71.0 611.6,69.3 616.6,73.6 621.4,72.9 626.2,83.4 631.1,121.5 636.0,73.0 640.8,74.5 645.7,73.2 650.7,78.9 655.6,78.4 660.5,71.3 665.3,81.5 670.2,96.9 675.2,73.7 679.9,78.0 684.7,88.7 689.6,82.0 694.4,83.4 699.3,89.8 704.2,87.2 709.2,90.9 714.1,104.8 719.0,96.2 723.9,96.2 728.8,98.5 733.8,77.6 738.5,74.5 743.2,78.3 748.1,74.0 753.0,77.7 757.9,83.7 762.8,73.6 767.8,72.9 772.7,79.7 777.6,71.9 782.5,77.2 787.4,78.3 792.4,68.2 797.1,73.8 801.8,78.9 806.7,70.3 811.6,75.1 816.5,76.6 821.4,71.8 826.4,79.9 831.3,72.6 836.2,75.2 841.1,83.2 846.0,85.6 850.9,65.3 855.7,72.3 860.5,71.3 865.4,66.7 870.3,72.5 875.2,96.3 880.1,71.2 885.0,73.0" stroke="#000" stroke-width="0.90" stroke-opacity="1.00" fill="none" clip-path="url(#axis_clip)"/>
  </symbol>
  <symbol id="line_8" viewBox="0 0 1200.000 674.916">
<polyline class="pl" points="143.0,70.2 147.9,69.6 152.7,68.2 157.5,71.3 162.4,77.2 167.3,74.1 172.2,72.8 177.1,72.0 182.0,75.6 186.9,75.1 191.8,76.1 196.7,76.6 201.5,76.3 206.5,78.4 211.2,73.7 216.0,83.4 220.9,83.0 225.8,78.9 230.7,79.7 235.6,81.3 240.5,87.2 245.4,81.9 250.3,78.6 255.2,82.7 260.1,83.9 265.1,79.1 269.8,72.6 274.6,75.7 279.5,75.6 284.4,80.1 289.3,79.1 294.1,84.0 299.1,85.9 304.0,88.8 308.9,87.3 313.8,84.6 318.7,86.9 323.7,79.1 328.4,75.3 333.2,74.4 338.0,73.4 342.9,72.8 347.8,74.6 352.7,75.5 357.7,77.7 362.6,76.6 367.5,74.4 372.4,71.0 377.3,72.0 382.3,69.6 387.1,68.1 391.9,67.2 396.7,67.5 401.6,65.6 406.5,66.3 411.4,64.6 416.4,65.3 421.2,64.8 426.1,65.2 431.0,65.4 435.9,65.9 440.9,63.6 445.6,61.5 450.3,62.3 455.2,60.5 460.1,60.9 465.0,61.7 469.9,61.3 474.9,64.1 479.8,64.3 484.7,64.8 489.6,64.9 494.5,66.1 499.4,63.8 504.2,67.2 508.9,66.4 513.8,67.4 518.7,70.2 523.6,71.5 528.5,69.2 533.5,66.2 538.4,62.2 543.3,62.0 548.1,63.5 553.0,61.9 558.0,61.0 562.8,61.1 567.5,63.9 572.4,67.6 577.3,67.8 582.2,69.6 587.1,71.1 592.0,71.4 596.9,76.0 601.8,74.4 606.7,74.3 611.6,71.8 616.6,78.0 621.4,76.6 626.2,90.3 631.1,124.6 636.0,78.9 640.8,80.7 645.7,81.0 650.7,88.0 655.6,87.7 660.5,83.0 665.3,99.4 670.2,123.5 675.2,87.8 679.9,95.3 684.7,111.6 689.6,105.1 694.4,110.6 699.3,113.7 704.2,115.7 709.2,115.8 714.1,131.0 719.0,121.4 723.9,122.6 728.8,130.7 733.8,102.9 738.5,99.2 743.2,103.7 748.1,102.5 753.0,108.5 757.9,111.5 762.8,96.9 767.8,92.0 772.7,99.7 777.6,98.3 782.5,105.1 787.4,104.2 792.4,92.1 797.1,95.2 801.8,100.8 806.7,94.4 811.6,98.7 816.5,103.7 821.4,94.2 826.4,100.9 831.3,92.8 836.2,96.1 841.1,103.9 846.0,105.7 850.9,79.7 855.7,88.3 860.5,88.9 865.4,83.2 870.3,89.0 875.2,113.9 880.1,90.8 885.0,90.6" stroke="#000" stroke-width="0.90" stroke-opacity="1.00" fill="none" clip-path="url(#axis_clip)"/>
  </symbol>
  <symbol id="line_9" viewBox="0 0 1200.000 674.916">
<polyline class="pl" points="143.0,71.8 147.9,71.1 152.7,69.3 157.5,73.0 162.4,78.5 167.3,76.3 172.2,75.4 177.1,74.6 182.0,77.8 186.9,78.2 191.8,80.0 196.7,80.8 201.5,80.6 206.5,82.7 211.2,77.8 216.0,87.6 220.9,87.5 225.8,84.3 230.7,84.5 235.6,87.4 240.5,91.5 245.4,89.2 250.3,85.4 255.2,89.6 260.1,92.1 265.1,85.7 269.8,79.2 274.6,82.1 279.5,81.6 284.4,90.5 289.3,86.7 294.1,90.2 299.1,92.0 304.0,97.2 308.9,95.9 313.8,93.1 318.7,96.1 323.7,87.4 328.4,82.4 333.2,82.0 338.0,80.2 342.9,80.2 347.8,82.5 352.7,81.8 357.7,84.8 362.6,86.7 367.5,83.6 372.4,80.1 377.3,82.7 382.3,80.1 387.1,78.4 391.9,75.8 396.7,76.4 401.6,75.1 406.5,75.6 411.4,74.3 416.4,75.9 421.2,77.5 426.1,76.7 431.0,77.2 435.9,79.8 440.9,77.3 445.6,76.1 450.3,75.2 455.2,75.2 460.1,77.8 465.0,78.5 469.9,79.6 474.9,81.9 479.8,82.2 484.7,85.8 489.6,86.6 494.5,86.0 499.4,84.0 504.2,84.5 508.9,83.3 513.8,88.0 518.7,89.0 523.6,92.4 528.5,93.2 533.5,86.7 538.4,91.9 543.3,90.0 548.1,89.7 553.0,84.1 558.0,86.2 562.8,87.0 567.5,89.4 572.4,93.5 577.3,93.8 582.2,96.4 587.1,98.7 592.0,94.5 596.9,109.7 601.8,111.8 606.7,109.0 611.6,104.3 616.6,124.3 621.4,128.6 626.2,153.6 631.1,154.4 636.0,136.5 640.8,141.7 645.7,145.4 650.7,164.1 655.6,191.8 660.5,208.0 665.3,216.3 670.2,231.8 675.2,211.0 679.9,241.3 684.7,248.4 689.6,250.5 694.4,252.4 699.3,252.5 704.2,264.6 709.2,275.8 714.1,289.4 719.0,299.4 723.9,281.4 728.8,283.3 733.8,279.5 738.5,272.5 743.2,268.2 748.1,279.6 753.0,278.1 757.9,258.7 762.8,264.6 767.8,289.3 772.7,280.6 777.6,282.0 782.5,275.4 787.4,279.4 792.4,277.8 797.1,280.0 801.8,275.3 806.7,270.4 811.6,274.3 816.5,279.8 821.4,274.8 826.4,274.1 831.3,292.9 836.2,293.7 841.1,295.9 846.0,283.7 850.9,272.0 855.7,279.5 860.5,286.1 865.4,284.5 870.3,292.0 875.2,309.8 880.1,293.5 885.0,296.2" stroke="#000" stroke-width="0.90" stroke-opacity="1.00" fill="none" clip-path="url(#axis_clip)"/>
  </symbol>
  <symbol id="line_10" viewBox="0 0 1200.000 674.916">
<polyline class="pl" points="143.0,98.3 147.9,92.9 152.7,95.0 157.5,104.3 162.4,131.5 167.3,125.0 172.2,123.6 177.1,124.6 182.0,134.9 186.9,137.2 191.8,143.4 196.7,142.1 201.5,135.7 206.5,132.4 211.2,121.2 216.0,133.1 220.9,131.6 225.8,126.6 230.7,130.5 235.6,132.4 240.5,142.5 245.4,134.8 250.3,127.4 255.2,132.6 260.1,135.8 265.1,127.1 269.8,121.0 274.6,120.3 279.5,119.2 284.4,137.8 289.3,132.3 294.1,140.7 299.1,142.3 304.0,146.9 308.9,147.0 313.8,145.8 318.7,148.0 323.7,133.2 328.4,124.1 333.2,120.0 338.0,123.1 342.9,120.3 347.8,124.1 352.7,123.3 357.7,123.3 362.6,121.3 367.5,116.7 372.4,113.9 377.3,113.7 382.3,108.3 387.1,105.8 391.9,102.9 396.7,104.9 401.6,102.2 406.5,104.2 411.4,103.4 416.4,106.4 421.2,104.4 426.1,104.9 431.0,105.7 435.9,109.7 440.9,110.7 445.6,108.0 450.3,106.0 455.2,105.8 460.1,109.4 465.0,112.6 469.9,119.2 474.9,118.3 479.8,111.4 484.7,120.3 489.6,122.5 494.5,118.9 499.4,115.7 504.2,113.4 508.9,112.7 513.8,119.4 518.7,120.3 523.6,125.8 528.5,134.3 533.5,128.5 538.4,121.6 543.3,126.2 548.1,125.8 553.0,115.3 558.0,123.4 562.8,116.5 567.5,122.9 572.4,128.5 577.3,127.1 582.2,131.4 587.1,145.1 592.0,145.6 596.9,149.0 601.8,146.3 606.7,141.4 611.6,138.4 616.6,155.4 621.4,156.9 626.2,193.3 631.1,175.0 636.0,168.8 640.8,178.3 645.7,178.0 650.7,198.4 655.6,230.3 660.5,245.0 665.3,256.5 670.2,262.3 675.2,241.7 679.9,267.6 684.7,279.5 689.6,283.2 694.4,284.8 699.3,293.7 704.2,307.0 709.2,324.9 714.1,336.9 719.0,338.6 723.9,328.2 728.8,324.2 733.8,326.2 738.5,314.1 743.2,315.2 748.1,316.9 753.0,317.7 757.9,307.6 762.8,304.5 767.8,333.4 772.7,324.6 777.6,326.6 782.5,332.1 787.4,327.3 792.4,329.8 797.1,330.9 801.8,313.7 806.7,312.4 811.6,317.0 816.5,322.6 821.4,324.3 826.4,323.6 831.3,333.5 836.2,343.8 841.1,345.1 846.0,328.6 850.9,326.8 855.7,327.6 860.5,324.7 865.4,327.5 870.3,324.3 875.2,361.0 880.1,351.1 885.0,349.9" stroke="#000" stroke-width="0.90" stroke-opacity="1.00" fill="none" clip-path="url(#axis_clip)"/>
  </symbol>
  <symbol id="line_11" viewBox="0 0 1200.000 674.916">
<polyline class="pl" points="143.0,296.5 147.9,281.2 152.7,277.7 157.5,275.5 162.4,297.0 167.3,300.8 172.2,291.7 177.1,287.9 182.0,285.1 186.9,293.7 191.8,299.6 196.7,296.6 201.5,295.7 206.5,294.9 211.2,285.3 216.0,283.5 220.9,295.3 225.8,291.7 230.7,287.7 235.6,284.7 240.5,290.2 245.4,284.2 250.3,282.6 255.2,276.6 260.1,280.8 265.1,279.1 269.8,279.7 274.6,270.3 279.5,270.8 284.4,281.8 289.3,279.9 294.1,278.7 299.1,281.1 304.0,292.2 308.9,286.4 313.8,279.8 318.7,293.0 323.7,282.3 328.4,274.9 333.2,276.8 338.0,280.7 342.9,279.3 347.8,279.2 352.7,287.6 357.7,276.1 362.6,287.4 367.5,278.8 372.4,268.8 377.3,272.2 382.3,275.8 387.1,276.5 391.9,274.6 396.7,283.9 401.6,270.7 406.5,270.0 411.4,261.5 416.4,261.9 421.2,269.4 426.1,262.7 431.0,258.2 435.9,261.5 440.9,281.9 445.6,276.7 450.3,274.8 455.2,265.0 460.1,277.7 465.0,262.6 469.9,276.6 474.9,268.0 479.8,267.5 484.7,279.3 489.6,274.6 494.5,270.0 499.4,280.5 504.2,275.0 508.9,284.4 513.8,292.9 518.7,298.6 523.6,293.1 528.5,301.9 533.5,276.0 538.4,317.6 543.3,337.3 548.1,331.8 553.0,325.5 558.0,351.9 562.8,331.9 567.5,331.6 572.4,355.3 577.3,348.3 582.2,348.6 587.1,372.0 592.0,367.3 596.9,375.0 601.8,378.8 606.7,373.3 611.6,385.0 616.6,390.7 621.4,384.3 626.2,373.2 631.1,353.1 636.0,377.5 640.8,379.9 645.7,373.1 650.7,381.6 655.6,396.5 660.5,404.3 665.3,414.0 670.2,429.5 675.2,423.8 679.9,433.7 684.7,436.6 689.6,444.5 694.4,441.9 699.3,446.9 704.2,445.5 709.2,451.4 714.1,463.5 719.0,469.1 723.9,464.1 728.8,456.0 733.8,463.9 738.5,447.5 743.2,453.6 748.1,453.7 753.0,461.6 757.9,455.2 762.8,455.6 767.8,468.3 772.7,462.4 777.6,465.4 782.5,468.1 787.4,456.4 792.4,463.5 797.1,463.2 801.8,457.6 806.7,460.4 811.6,461.6 816.5,466.8 821.4,469.1 826.4,474.1 831.3,481.8 836.2,483.2 841.1,485.9 846.0,481.4 850.9,480.2 855.7,485.3 860.5,483.5 865.4,487.3 870.3,487.1 875.2,495.1 880.1,494.9 885.0,492.1" stroke="#000" stroke-width="0.90" stroke-opacity="1.00" fill="none" clip-path="url(#axis_clip)"/>
  </symbol>
  <symbol id="line_12" viewBox="0 0 1200.000 674.916">
<polyline class="pl" points="143.0,70.2 147.9,69.6 152.7,68.2 157.5,71.3 162.4,77.2 167.3,74.1 172.2,72.8 177.1,72.0 182.0,75.6 186.9,75.1 191.8,76.1 196.7,76.6 201.5,76.3 206.5,78.4 211.2,73.7 216.0,83.4 220.9,83.0 225.8,78.9 230.7,79.7 235.6,81.3 240.5,87.2 245.4,81.9 250.3,78.6 255.2,82.7 260.1,83.9 265.1,79.1 269.8,72.6 274.6,75.7 279.5,75.6 284.4,80.1 289.3,79.1 294.1,84.0 299.1,85.9 304.0,88.8 308.9,87.3 313.8,84.6 318.7,86.9 323.7,79.1 328.4,75.3 333.2,74.4 338.0,73.4 342.9,72.8 347.8,74.6 352.7,75.5 357.7,77.7 362.6,76.6 367.5,74.4 372.4,71.0 377.3,72.0 382.3,69.6 387.1,68.1 391.9,67.2 396.7,67.5 401.6,65.6 406.5,66.3 411.4,64.6 416.4,65.3 421.2,64.8 426.1,65.2 431.0,65.4 435.9,65.9 440.9,63.6 445.6,61.5 450.3,62.3 455.2,60.5 460.1,60.9 465.0,61.7 469.9,61.3 474.9,64.1 479.8,64.3 484.7,64.8 489.6,64.9 494.5,66.1 499.4,63.8 504.2,67.2 508.9,66.4 513.8,67.4 518.7,70.2 523.6,71.5 528.5,69.2 533.5,66.2 538.4,62.2 543.3,62.0 548.1,63.5 553.0,61.9 558.0,61.0 562.8,61.1 567.5,63.9 572.4,67.6 577.3,67.8 582.2,69.6 587.1,71.1 592.0,71.4 596.9,76.0 601.8,74.4 606.7,74.3 611.6,71.8 616.6,78.0 621.4,76.6 626.2,90.3 631.1,124.6 636.0,78.9 640.8,80.7 645.7,81.0 650.7,88.0 655.6,87.7 660.5,83.0 665.3,99.4 670.2,123.5 675.2,87.8 679.9,95.3 684.7,111.6 689.6,105.1 694.4,110.6 699.3,113.7 704.2,115.7 709.2,115.8 714.1,131.0 719.0,121.4 723.9,122.6 728.8,130.7 733.8,102.9 738.5,99.2 743.2,103.7 748.1,102.5 753.0,108.5 757.9,111.5 762.8,96.9 767.8,92.0 772.7,99.7 777.6,98.3 782.5,105.1 787.4,104.2 792.4,92.1 797.1,95.2 801.8,100.8 806.7,94.4 811.6,98.7 816.5,103.7 821.4,94.2 826.4,100.9 831.3,92.8 836.2,96.1 841.1,103.9 846.0,105.7 850.9,79.7 855.7,88.3 860.5,88.9 865.4,83.2 870.3,89.0 875.2,113.9 880.1,90.8 885.0,90.6" stroke="#000" stroke-width="0.90" stroke-opacity="1.00" fill="none" clip-path="url(#axis_clip)"/>
  </symbol>
  <symbol id="line_13" viewBox="0 0 1200.000 674.916">
<polyline class="pl" points="143.0,71.8 147.9,71.1 152.7,69.3 157.5,73.0 162.4,78.5 167.3,76.3 172.2,75.4 177.1,74.6 182.0,77.8 186.9,78.2 191.8,80.0 196.7,80.8 201.5,80.6 206.5,82.7 211.2,77.8 216.0,87.6 220.9,87.5 225.8,84.3 230.7,84.5 235.6,87.4 240.5,91.5 245.4,89.2 250.3,85.4 255.2,89.6 260.1,92.1 265.1,85.7 269.8,79.2 274.6,82.1 279.5,81.6 284.4,90.5 289.3,86.7 294.1,90.2 299.1,92.0 304.0,97.2 308.9,95.9 313.8,93.1 318.7,96.1 323.7,87.4 328.4,82.4 333.2,82.0 338.0,80.2 342.9,80.2 347.8,82.5 352.7,81.8 357.7,84.8 362.6,86.7 367.5,83.6 372.4,80.1 377.3,82.7 382.3,80.1 387.1,78.4 391.9,75.8 396.7,76.4 401.6,75.1 406.5,75.6 411.4,74.3 416.4,75.9 421.2,77.5 426.1,76.7 431.0,77.2 435.9,79.8 440.9,77.3 445.6,76.1 450.3,75.2 455.2,75.2 460.1,77.8 465.0,78.5 469.9,79.6 474.9,81.9 479.8,82.2 484.7,85.8 489.6,86.6 494.5,86.0 499.4,84.0 504.2,84.5 508.9,83.3 513.8,88.0 518.7,89.0 523.6,92.4 528.5,93.2 533.5,86.7 538.4,91.9 543.3,90.0 548.1,89.7 553.0,84.1 558.0,86.2 562.8,87.0 567.5,89.4 572.4,93.5 577.3,93.8 582.2,96.4 587.1,98.7 592.0,94.5 596.9,109.7 601.8,111.8 606.7,109.0 611.6,104.3 616.6,124.3 621.4,128.6 626.2,153.6 631.1,154.4 636.0,136.5 640.8,141.7 645.7,145.4 650.7,164.1 655.6,191.8 660.5,208.0 665.3,216.3 670.2,231.8 675.2,211.0 679.9,241.3 684.7,248.4 689.6,250.5 694.4,252.4 699.3,252.5 704.2,264.6 709.2,275.8 714.1,289.4 719.0,299.4 723.9,281.4 728.8,283.3 733.8,279.5 738.5,272.5 743.2,268.2 748.1,279.6 753.0,278.1 757.9,258.7 762.8,264.6 767.8,289.3 772.7,280.6 777.6,282.0 782.5,275.4 787.4,279.4 792.4,277.8 797.1,280.0 801.8,275.3 806.7,270.4 811.6,274.3 816.5,279.8 821.4,274.8 826.4,274.1 831.3,292.9 836.2,293.7 841.1,295.9 846.0,283.7 850.9,272.0 855.7,279.5 860.5,286.1 865.4,284.5 870.3,292.0 875.2,309.8 880.1,293.5 885.0,296.2" stroke="#000" stroke-width="0.90" stroke-opacity="1.00" fill="none" clip-path="url(#axis_clip)"/>
  </symbol>
  <symbol id="line_14" viewBox="0 0 1200.000 674.916">
<polyline class="pl" points="143.0,98.3 147.9,92.9 152.7,95.0 157.5,104.3 162.4,131.5 167.3,125.0 172.2,123.6 177.1,124.6 182.0,134.9 186.9,137.2 191.8,143.4 196.7,142.1 201.5,135.7 206.5,132.4 211.2,121.2 216.0,133.1 220.9,131.6 225.8,126.6 230.7,130.5 235.6,132.4 240.5,142.5 245.4,134.8 250.3,127.4 255.2,132.6 260.1,135.8 265.1,127.1 269.8,121.0 274.6,120.3 279.5,119.2 284.4,137.8 289.3,132.3 294.1,140.7 299.1,142.3 304.0,146.9 308.9,147.0 313.8,145.8 318.7,148.0 323.7,133.2 328.4,124.1 333.2,120.0 338.0,123.1 342.9,120.3 347.8,124.1 352.7,123.3 357.7,123.3 362.6,121.3 367.5,116.7 372.4,113.9 377.3,113.7 382.3,108.3 387.1,105.8 391.9,102.9 396.7,104.9 401.6,102.2 406.5,104.2 411.4,103.4 416.4,106.4 421.2,104.4 426.1,104.9 431.0,105.7 435.9,109.7 440.9,110.7 445.6,108.0 450.3,106.0 455.2,105.8 460.1,109.4 465.0,112.6 469.9,119.2 474.9,118.3 479.8,111.4 484.7,120.3 489.6,122.5 494.5,118.9 499.4,115.7 504.2,113.4 508.9,112.7 513.8,119.4 518.7,120.3 523.6,125.8 528.5,134.3 533.5,128.5 538.4,121.6 543.3,126.2 548.1,125.8 553.0,115.3 558.0,123.4 562.8,116.5 567.5,122.9 572.4,128.5 577.3,127.1 582.2,131.4 587.1,145.1 592.0,145.6 596.9,149.0 601.8,146.3 606.7,141.4 611.6,138.4 616.6,155.4 621.4,156.9 626.2,193.3 631.1,175.0 636.0,168.8 640.8,178.3 645.7,178.0 650.7,198.4 655.6,230.3 660.5,245.0 665.3,256.5 670.2,262.3 675.2,241.7 679.9,267.6 684.7,279.5 689.6,283.2 694.4,284.8 699.3,293.7 704.2,307.0 709.2,324.9 714.1,336.9 719.0,338.6 723.9,328.2 728.8,324.2 733.8,326.2 738.5,314.1 743.2,315.2 748.1,316.9 753.0,317.7 757.9,307.6 762.8,304.5 767.8,333.4 772.7,324.6 777.6,326.6 782.5,332.1 787.4,327.3 792.4,329.8 797.1,330.9 801.8,313.7 806.7,312.4 811.6,317.0 816.5,322.6 821.4,324.3 826.4,323.6 831.3,333.5 836.2,343.8 841.1,345.1 846.0,328.6 850.9,326.8 855.7,327.6 860.5,324.7 865.4,327.5 870.3,324.3 875.2,361.0 880.1,351.1 885.0,349.9" stroke="#000" stroke-width="0.90" stroke-opacity="1.00" fill="none" clip-path="url(#axis_clip)"/>
  </symbol>
  <symbol id="line_15" viewBox="0 0 1200.000 674.916">
<polyline class="pl" points="143.0,296.5 147.9,281.2 152.7,277.7 157.5,275.5 162.4,297.0 167.3,300.8 172.2,291.7 177.1,287.9 182.0,285.1 186.9,293.7 191.8,299.6 196.7,296.6 201.5,295.7 206.5,294.9 211.2,285.3 216.0,283.5 220.9,295.3 225.8,291.7 230.7,287.7 235.6,284.7 240.5,290.2 245.4,284.2 250.3,282.6 255.2,276.6 260.1,280.8 265.1,279.1 269.8,279.7 274.6,270.3 279.5,270.8 284.4,281.8 289.3,279.9 294.1,278.7 299.1,281.1 304.0,292.2 308.9,286.4 313.8,279.8 318.7,293.0 323.7,282.3 328.4,274.9 333.2,276.8 338.0,280.7 342.9,279.3 347.8,279.2 352.7,287.6 357.7,276.1 362.6,287.4 367.5,278.8 372.4,268.8 377.3,272.2 382.3,275.8 387.1,276.5 391.9,274.6 396.7,283.9 401.6,270.7 406.5,270.0 411.4,261.5 416.4,261.9 421.2,269.4 426.1,262.7 431.0,258.2 435.9,261.5 440.9,281.9 445.6,276.7 450.3,274.8 455.2,265.0 460.1,277.7 465.0,262.6 469.9,276.6 474.9,268.0 479.8,267.5 484.7,279.3 489.6,274.6 494.5,270.0 499.4,280.5 504.2,275.0 508.9,284.4 513.8,292.9 518.7,298.6 523.6,293.1 528.5,301.9 533.5,276.0 538.4,317.6 543.3,337.3 548.1,331.8 553.0,325.5 558.0,351.9 562.8,331.9 567.5,331.6 572.4,355.3 577.3,348.3 582.2,348.6 587.1,372.0 592.0,367.3 596.9,375.0 601.8,378.8 606.7,373.3 611.6,385.0 616.6,390.7 621.4,384.3 626.2,373.2 631.1,353.1 636.0,377.5 640.8,379.9 645.7,373.1 650.7,381.6 655.6,396.5 660.5,404.3 665.3,414.0 670.2,429.5 675.2,423.8 679.9,433.7 684.7,436.6 689.6,444.5 694.4,441.9 699.3,446.9 704.2,445.5 709.2,451.4 714.1,463.5 719.0,469.1 723.9,464.1 728.8,456.0 733.8,463.9 738.5,447.5 743.2,453.6 748.1,453.7 753.0,461.6 757.9,455.2 762.8,455.6 767.8,468.3 772.7,462.4 777.6,465.4 782.5,468.1 787.4,456.4 792.4,463.5 797.1,463.2 801.8,457.6 806.7,460.4 811.6,461.6 816.5,466.8 821.4,469.1 826.4,474.1 831.3,481.8 836.2,483.2 841.1,485.9 846.0,481.4 850.9,480.2 855.7,485.3 860.5,483.5 865.4,487.3 870.3,487.1 875.2,495.1 880.1,494.9 885.0,492.1" stroke="#000" stroke-width="0.90" stroke-opacity="1.00" fill="none" clip-path="url(#axis_clip)"/>
  </symbol>
  <symbol id="line_16" viewBox="0 0 1200.000 674.916">
<polyline class="pl" points="143.0,71.8 147.9,71.1 152.7,69.3 157.5,73.0 162.4,78.5 167.3,76.3 172.2,75.4 177.1,74.6 182.0,77.8 186.9,78.2 191.8,80.0 196.7,80.8 201.5,80.6 206.5,82.7 211.2,77.8 216.0,87.6 220.9,87.5 225.8,84.3 230.7,84.5 235.6,87.4 240.5,91.5 245.4,89.2 250.3,85.4 255.2,89.6 260.1,92.1 265.1,85.7 269.8,79.2 274.6,82.1 279.5,81.6 284.4,90.5 289.3,86.7 294.1,90.2 299.1,92.0 304.0,97.2 308.9,95.9 313.8,93.1 318.7,96.1 323.7,87.4 328.4,82.4 333.2,82.0 338.0,80.2 342.9,80.2 347.8,82.5 352.7,81.8 357.7,84.8 362.6,86.7 367.5,83.6 372.4,80.1 377.3,82.7 382.3,80.1 387.1,78.4 391.9,75.8 396.7,76.4 401.6,75.1 406.5,75.6 411.4,74.3 416.4,75.9 421.2,77.5 426.1,76.7 431.0,77.2 435.9,79.8 440.9,77.3 445.6,76.1 450.3,75.2 455.2,75.2 460.1,77.8 465.0,78.5 469.9,79.6 474.9,81.9 479.8,82.2 484.7,85.8 489.6,86.6 494.5,86.0 499.4,84.0 504.2,84.5 508.9,83.3 513.8,88.0 518.7,89.0 523.6,92.4 528.5,93.2 533.5,86.7 538.4,91.9 543.3,90.0 548.1,89.7 553.0,84.1 558.0,86.2 562.8,87.0 567.5,89.4 572.4,93.5 577.3,93.8 582.2,96.4 587.1,98.7 592.0,94.5 596.9,109.7 601.8,111.8 606.7,109.0 611.6,104.3 616.6,124.3 621.4,128.6 626.2,153.6 631.1,154.4 636.0,136.5 640.8,141.7 645.7,145.4 650.7,164.1 655.6,191.8 660.5,208.0 665.3,216.3 670.2,231.8 675.2,211.0 679.9,241.3 684.7,248.4 689.6,250.5 694.4,252.4 699.3,252.5 704.2,264.6 709.2,275.8 714.1,289.4 719.0,299.4 723.9,281.4 728.8,283.3 733.8,279.5 738.5,272.5 743.2,268.2 748.1,279.6 753.0,278.1 757.9,258.7 762.8,264.6 767.8,289.3 772.7,280.6 777.6,282.0 782.5,275.4 787.4,279.4 792.4,277.8 797.1,280.0 801.8,275.3 806.7,270.4 811.6,274.3 816.5,279.8 821.4,274.8 826.4,274.1 831.3,292.9 836.2,293.7 841.1,295.9 846.0,283.7 850.9,272.0 855.7,279.5 860.5,286.1 865.4,284.5 870.3,292.0 875.2,309.8 880.1,293.5 885.0,296.2" stroke="#000" stroke-width="0.90" stroke-opacity="1.00" fill="none" clip-path="url(#axis_clip)"/>
  </symbol>
  <symbol id="line_17" viewBox="0 0 1200.000 674.916">
<polyline class="pl" points="143.0,98.3 147.9,92.9 152.7,95.0 157.5,104.3 162.4,131.5 167.3,125.0 172.2,123.6 177.1,124.6 182.0,134.9 186.9,137.2 191.8,143.4 196.7,142.1 201.5,135.7 206.5,132.4 211.2,121.2 216.0,133.1 220.9,131.6 225.8,126.6 230.7,130.5 235.6,132.4 240.5,142.5 245.4,134.8 250.3,127.4 255.2,132.6 260.1,135.8 265.1,127.1 269.8,121.0 274.6,120.3 279.5,119.2 284.4,137.8 289.3,132.3 294.1,140.7 299.1,142.3 304.0,146.9 308.9,147.0 313.8,145.8 318.7,148.0 323.7,133.2 328.4,124.1 333.2,120.0 338.0,123.1 342.9,120.3 347.8,124.1 352.7,123.3 357.7,123.3 362.6,121.3 367.5,116.7 372.4,113.9 377.3,113.7 382.3,108.3 387.1,105.8 391.9,102.9 396.7,104.9 401.6,102.2 406.5,104.2 411.4,103.4 416.4,106.4 421.2,104.4 426.1,104.9 431.0,105.7 435.9,109.7 440.9,110.7 445.6,108.0 450.3,106.0 455.2,105.8 460.1,109.4 465.0,112.6 469.9,119.2 474.9,118.3 479.8,111.4 484.7,120.3 489.6,122.5 494.5,118.9 499.4,115.7 504.2,113.4 508.9,112.7 513.8,119.4 518.7,120.3 523.6,125.8 528.5,134.3 533.5,128.5 538.4,121.6 543.3,126.2 548.1,125.8 553.0,115.3 558.0,123.4 562.8,116.5 567.5,122.9 572.4,128.5 577.3,127.1 582.2,131.4 587.1,145.1 592.0,145.6 596.9,149.0 601.8,146.3 606.7,141.4 611.6,138.4 616.6,155.4 621.4,156.9 626.2,193.3 631.1,175.0 636.0,168.8 640.8,178.3 645.7,178.0 650.7,198.4 655.6,230.3 660.5,245.0 665.3,256.5 670.2,262.3 675.2,241.7 679.9,267.6 684.7,279.5 689.6,283.2 694.4,284.8 699.3,293.7 704.2,307.0 709.2,324.9 714.1,336.9 719.0,338.6 723.9,328.2 728.8,324.2 733.8,326.2 738.5,314.1 743.2,315.2 748.1,316.9 753.0,317.7 757.9,307.6 762.8,304.5 767.8,333.4 772.7,324.6 777.6,326.6 782.5,332.1 787.4,327.3 792.4,329.8 797.1,330.9 801.8,313.7 806.7,312.4 811.6,317.0 816.5,322.6 821.4,324.3 826.4,323.6 831.3,333.5 836.2,343.8 841.1,345.1 846.0,328.6 850.9,326.8 855.7,327.6 860.5,324.7 865.4,327.5 870.3,324.3 875.2,361.0 880.1,351.1 885.0,349.9" stroke="#000" stroke-width="0.90" stroke-opacity="1.00" fill="none" clip-path="url(#axis_clip)"/>
  </symbol>
  <symbol id="line_18" viewBox="0 0 1200.000 674.916">
<polyline class="pl" points="143.0,296.5 147.9,281.2 152.7,277.7 157.5,275.5 162.4,297.0 167.3,300.8 172.2,291.7 177.1,287.9 182.0,285.1 186.9,293.7 191.8,299.6 196.7,296.6 201.5,295.7 206.5,294.9 211.2,285.3 216.0,283.5 220.9,295.3 225.8,291.7 230.7,287.7 235.6,284.7 240.5,290.2 245.4,284.2 250.3,282.6 255.2,276.6 260.1,280.8 265.1,279.1 269.8,279.7 274.6,270.3 279.5,270.8 284.4,281.8 289.3,279.9 294.1,278.7 299.1,281.1 304.0,292.2 308.9,286.4 313.8,279.8 318.7,293.0 323.7,282.3 328.4,274.9 333.2,276.8 338.0,280.7 342.9,279.3 347.8,279.2 352.7,287.6 357.7,276.1 362.6,287.4 367.5,278.8 372.4,268.8 377.3,272.2 382.3,275.8 387.1,276.5 391.9,274.6 396.7,283.9 401.6,270.7 406.5,270.0 411.4,261.5 416.4,261.9 421.2,269.4 426.1,262.7 431.0,258.2 435.9,261.5 440.9,281.9 445.6,276.7 450.3,274.8 455.2,265.0 460.1,277.7 465.0,262.6 469.9,276.6 474.9,268.0 479.8,267.5 484.7,279.3 489.6,274.6 494.5,270.0 499.4,280.5 504.2,275.0 508.9,284.4 513.8,292.9 518.7,298.6 523.6,293.1 528.5,301.9 533.5,276.0 538.4,317.6 543.3,337.3 548.1,331.8 553.0,325.5 558.0,351.9 562.8,331.9 567.5,331.6 572.4,355.3 577.3,348.3 582.2,348.6 587.1,372.0 592.0,367.3 596.9,375.0 601.8,378.8 606.7,373.3 611.6,385.0 616.6,390.7 621.4,384.3 626.2,373.2 631.1,353.1 636.0,377.5 640.8,379.9 645.7,373.1 650.7,381.6 655.6,396.5 660.5,404.3 665.3,414.0 670.2,429.5 675.2,423.8 679.9,433.7 684.7,436.6 689.6,444.5 694.4,441.9 699.3,446.9 704.2,445.5 709.2,451.4 714.1,463.5 719.0,469.1 723.9,464.1 728.8,456.0 733.8,463.9 738.5,447.5 743.2,453.6 748.1,453.7 753.0,461.6 757.9,455.2 762.8,455.6 767.8,468.3 772.7,462.4 777.6,465.4 782.5,468.1 787.4,456.4 792.4,463.5 797.1,463.2 801.8,457.6 806.7,460.4 811.6,461.6 816.5,466.8 821.4,469.1 826.4,474.1 831.3,481.8 836.2,483.2 841.1,485.9 846.0,481.4 850.9,480.2 855.7,485.3 860.5,483.5 865.4,487.3 870.3,487.1 875.2,495.1 880.1,494.9 885.0,492.1" stroke="#000" stroke-width="0.90" stroke-opacity="1.00" fill="none" clip-path="url(#axis_clip)"/>
  </symbol>
  <symbol id="line_19" viewBox="0 0 1200.000 674.916">
<polyline class="pl" points="143.0,98.3 147.9,92.9 152.7,95.0 157.5,104.3 162.4,131.5 167.3,125.0 172.2,123.6 177.1,124.6 182.0,134.9 186.9,137.2 191.8,143.4 196.7,142.1 201.5,135.7 206.5,132.4 211.2,121.2 216.0,133.1 220.9,131.6 225.8,126.6 230.7,130.5 235.6,132.4 240.5,142.5 245.4,134.8 250.3,127.4 255.2,132.6 260.1,135.8 265.1,127.1 269.8,121.0 274.6,120.3 279.5,119.2 284.4,137.8 289.3,132.3 294.1,140.7 299.1,142.3 304.0,146.9 308.9,147.0 313.8,145.8 318.7,148.0 323.7,133.2 328.4,124.1 333.2,120.0 338.0,123.1 342.9,120.3 347.8,124.1 352.7,123.3 357.7,123.3 362.6,121.3 367.5,116.7 372.4,113.9 377.3,113.7 382.3,108.3 387.1,105.8 391.9,102.9 396.7,104.9 401.6,102.2 406.5,104.2 411.4,103.4 416.4,106.4 421.2,104.4 426.1,104.9 431.0,105.7 435.9,109.7 440.9,110.7 445.6,108.0 450.3,106.0 455.2,105.8 460.1,109.4 465.0,112.6 469.9,119.2 474.9,118.3 479.8,111.4 484.7,120.3 489.6,122.5 494.5,118.9 499.4,115.7 504.2,113.4 508.9,112.7 513.8,119.4 518.7,120.3 523.6,125.8 528.5,134.3 533.5,128.5 538.4,121.6 543.3,126.2 548.1,125.8 553.0,115.3 558.0,123.4 562.8,116.5 567.5,122.9 572.4,128.5 577.3,127.1 582.2,131.4 587.1,145.1 592.0,145.6 596.9,149.0 601.8,146.3 606.7,141.4 611.6,138.4 616.6,155.4 621.4,156.9 626.2,193.3 631.1,175.0 636.0,168.8 640.8,178.3 645.7,178.0 650.7,198.4 655.6,230.3 660.5,245.0 665.3,256.5 670.2,262.3 675.2,241.7 679.9,267.6 684.7,279.5 689.6,283.2 694.4,284.8 699.3,293.7 704.2,307.0 709.2,324.9 714.1,336.9 719.0,338.6 723.9,328.2 728.8,324.2 733.8,326.2 738.5,314.1 743.2,315.2 748.1,316.9 753.0,317.7 757.9,307.6 762.8,304.5 767.8,333.4 772.7,324.6 777.6,326.6 782.5,332.1 787.4,327.3 792.4,329.8 797.1,330.9 801.8,313.7 806.7,312.4 811.6,317.0 816.5,322.6 821.4,324.3 826.4,323.6 831.3,333.5 836.2,343.8 841.1,345.1 846.0,328.6 850.9,326.8 855.7,327.6 860.5,324.7 865.4,327.5 870.3,324.3 875.2,361.0 880.1,351.1 885.0,349.9" stroke="#000" stroke-width="0.90" stroke-opacity="1.00" fill="none" clip-path="url(#axis_clip)"/>
  </symbol>
  <symbol id="line_20" viewBox="0 0 1200.000 674.916">
<polyline class="pl" points="143.0,296.5 147.9,281.2 152.7,277.7 157.5,275.5 162.4,297.0 167.3,300.8 172.2,291.7 177.1,287.9 182.0,285.1 186.9,293.7 191.8,299.6 196.7,296.6 201.5,295.7 206.5,294.9 211.2,285.3 216.0,283.5 220.9,295.3 225.8,291.7 230.7,287.7 235.6,284.7 240.5,290.2 245.4,284.2 250.3,282.6 255.2,276.6 260.1,280.8 265.1,279.1 269.8,279.7 274.6,270.3 279.5,270.8 284.4,281.8 289.3,279.9 294.1,278.7 299.1,281.1 304.0,292.2 308.9,286.4 313.8,279.8 318.7,293.0 323.7,282.3 328.4,274.9 333.2,276.8 338.0,280.7 342.9,279.3 347.8,279.2 352.7,287.6 357.7,276.1 362.6,287.4 367.5,278.8 372.4,268.8 377.3,272.2 382.3,275.8 387.1,276.5 391.9,274.6 396.7,283.9 401.6,270.7 406.5,270.0 411.4,261.5 416.4,261.9 421.2,269.4 426.1,262.7 431.0,258.2 435.9,261.5 440.9,281.9 445.6,276.7 450.3,274.8 455.2,265.0 460.1,277.7 465.0,262.6 469.9,276.6 474.9,268.0 479.8,267.5 484.7,279.3 489.6,274.6 494.5,270.0 499.4,280.5 504.2,275.0 508.9,284.4 513.8,292.9 518.7,298.6 523.6,293.1 528.5,301.9 533.5,276.0 538.4,317.6 543.3,337.3 548.1,331.8 553.0,325.5 558.0,351.9 562.8,331.9 567.5,331.6 572.4,355.3 577.3,348.3 582.2,348.6 587.1,372.0 592.0,367.3 596.9,375.0 601.8,378.8 606.7,373.3 611.6,385.0 616.6,390.7 621.4,384.3 626.2,373.2 631.1,353.1 636.0,377.5 640.8,379.9 645.7,373.1 650.7,381.6 655.6,396.5 660.5,404.3 665.3,414.0 670.2,429.5 675.2,423.8 679.9,433.7 684.7,436.6 689.6,444.5 694.4,441.9 699.3,446.9 704.2,445.5 709.2,451.4 714.1,463.5 719.0,469.1 723.9,464.1 728.8,456.0 733.8,463.9 738.5,447.5 743.2,453.6 748.1,453.7 753.0,461.6 757.9,455.2 762.8,455.6 767.8,468.3 772.7,462.4 777.6,465.4 782.5,468.1 787.4,456.4 792.4,463.5 797.1,463.2 801.8,457.6 806.7,460.4 811.6,461.6 816.5,466.8 821.4,469.1 826.4,474.1 831.3,481.8 836.2,483.2 841.1,485.9 846.0,481.4 850.9,480.2 855.7,485.3 860.5,483.5 865.4,487.3 870.3,487.1 875.2,495.1 880.1,494.9 885.0,492.1" stroke="#000" stroke-width="0.90" stroke-opacity="1.00" fill="none" clip-path="url(#axis_clip)"/>
  </symbol>
  <symbol id="line_21" viewBox="0 0 1200.000 674.916">
<polyline class="pl" points="143.0,296.5 147.9,281.2 152.7,277.7 157.5,275.5 162.4,297.0 167.3,300.8 172.2,291.7 177.1,287.9 182.0,285.1 186.9,293.7 191.8,299.6 196.7,296.6 201.5,295.7 206.5,294.9 211.2,285.3 216.0,283.5 220.9,295.3 225.8,291.7 230.7,287.7 235.6,284.7 240.5,290.2 245.4,284.2 250.3,282.6 255.2,276.6 260.1,280.8 265.1,279.1 269.8,279.7 274.6,270.3 279.5,270.8 284.4,281.8 289.3,279.9 294.1,278.7 299.1,281.1 304.0,292.2 308.9,286.4 313.8,279.8 318.7,293.0 323.7,282.3 328.4,274.9 333.2,276.8 338.0,280.7 342.9,279.3 347.8,279.2 352.7,287.6 357.7,276.1 362.6,287.4 367.5,278.8 372.4,268.8 377.3,272.2 382.3,275.8 387.1,276.5 391.9,274.6 396.7,283.9 401.6,270.7 406.5,270.0 411.4,261.5 416.4,261.9 421.2,269.4 426.1,262.7 431.0,258.2 435.9,261.5 440.9,281.9 445.6,276.7 450.3,274.8 455.2,265.0 460.1,277.7 465.0,262.6 469.9,276.6 474.9,268.0 479.8,267.5 484.7,279.3 489.6,274.6 494.5,270.0 499.4,280.5 504.2,275.0 508.9,284.4 513.8,292.9 518.7,298.6 523.6,293.1 528.5,301.9 533.5,276.0 538.4,317.6 543.3,337.3 548.1,331.8 553.0,325.5 558.0,351.9 562.8,331.9 567.5,331.6 572.4,355.3 577.3,348.3 582.2,348.6 587.1,372.0 592.0,367.3 596.9,375.0 601.8,378.8 606.7,373.3 611.6,385.0 616.6,390.7 621.4,384.3 626.2,373.2 631.1,353.1 636.0,377.5 640.8,379.9 645.7,373.1 650.7,381.6 655.6,396.5 660.5,404.3 665.3,414.0 670.2,429.5 675.2,423.8 679.9,433.7 684.7,436.6 689.6,444.5 694.4,441.9 699.3,446.9 704.2,445.5 709.2,451.4 714.1,463.5 719.0,469.1 723.9,464.1 728.8,456.0 733.8,463.9 738.5,447.5 743.2,453.6 748.1,453.7 753.0,461.6 757.9,455.2 762.8,455.6 767.8,468.3 772.7,462.4 777.6,465.4 782.5,468.1 787.4,456.4 792.4,463.5 797.1,463.2 801.8,457.6 806.7,460.4 811.6,461.6 816.5,466.8 821.4,469.1 826.4,474.1 831.3,481.8 836.2,483.2 841.1,485.9 846.0,481.4 850.9,480.2 855.7,485.3 860.5,483.5 865.4,487.3 870.3,487.1 875.2,495.1 880.1,494.9 885.0,492.1" stroke="#000" stroke-width="0.90" stroke-opacity="1.00" fill="none" clip-path="url(#axis_clip)"/>
  </symbol>
</defs>
<g id="main">
<text class="ticklabel ytl" transform="translate(128.8,568.3)">0 %</text>
<text class="ticklabel ytl" transform="translate(128.8,467.0)">20 %</text>
<text class="ticklabel ytl" transform="translate(128.8,365.8)">40 %</text>
<text class="ticklabel ytl" transform="translate(128.8,264.6)">60 %</text>
<text class="ticklabel ytl" transform="translate(128.8,163.3)">80 %</text>
<text class="ticklabel ytl" transform="translate(128.8,62.1)">100 %</text>
<g id="areas">
  <g class="pg_7">
    <polygon class="pl" points="143.0,54.0 147.9,54.0 152.7,54.0 157.5,54.0 162.4,54.0 167.3,54.0 172.2,54.0 177.1,54.0 182.0,54.0 186.9,54.0 191.8,54.0 196.7,54.0 201.5,54.0 206.5,54.0 211.2,54.0 216.0,54.0 220.9,54.0 225.8,54.0 230.7,54.0 235.6,54.0 240.5,54.0 245.4,54.0 250.3,54.0 255.2,54.0 260.1,54.0 265.1,54.0 269.8,54.0 274.6,54.0 279.5,54.0 284.4,54.0 289.3,54.0 294.1,54.0 299.1,54.0 304.0,54.0 308.9,54.0 313.8,54.0 318.7,54.0 323.7,54.0 328.4,54.0 333.2,54.0 338.0,54.0 342.9,54.0 347.8,54.0 352.7,54.0 357.7,54.0 362.6,54.0 367.5,54.0 372.4,54.0 377.3,54.0 382.3,54.0 387.1,54.0 391.9,54.0 396.7,54.0 401.6,54.0 406.5,54.0 411.4,54.0 416.4,54.0 421.2,54.0 426.1,54.0 431.0,54.0 435.9,54.0 440.9,54.0 445.6,54.0 450.3,54.0 455.2,54.0 460.1,54.0 465.0,54.0 469.9,54.0 474.9,54.0 479.8,54.0 484.7,54.0 489.6,54.0 494.5,54.0 499.4,54.0 504.2,54.0 508.9,54.0 513.8,54.0 518.7,54.0 523.6,54.0 528.5,54.0 533.5,54.0 538.4,54.0 543.3,54.0 548.1,54.0 553.0,54.0 558.0,54.0 562.8,54.0 567.5,54.0 572.4,54.0 577.3,54.0 582.2,54.0 587.1,54.0 592.0,54.0 596.9,54.0 601.8,54.0 606.7,54.0 611.6,54.0 616.6,54.0 621.4,54.0 626.2,54.0 631.1,54.0 636.0,54.0 640.8,54.0 645.7,54.0 650.7,54.0 655.6,54.0 660.5,54.0 665.3,54.0 670.2,54.0 675.2,54.0 679.9,54.0 684.7,54.0 689.6,54.0 694.4,54.0 699.3,54.0 704.2,54.0 709.2,54.0 714.1,54.0 719.0,54.0 723.9,54.0 728.8,54.0 733.8,54.0 738.5,54.0 743.2,54.0 748.1,54.0 753.0,54.0 757.9,54.0 762.8,54.0 767.8,54.0 772.7,54.0 777.6,54.0 782.5,54.0 787.4,54.0 792.4,54.0 797.1,54.0 801.8,54.0 806.7,54.0 811.6,54.0 816.5,54.0 821.4,54.0 826.4,54.0 831.3,54.0 836.2,54.0 841.1,54.0 846.0,54.0 850.9,54.0 855.7,54.0 860.5,54.0 865.4,54.0 870.3,54.0 875.2,54.0 880.1,54.0 885.0,54.0 885.0,54.0 880.1,54.0 875.2,54.2 870.3,54.3 865.4,54.8 860.5,54.8 855.7,55.2 850.9,54.8 846.0,55.0 841.1,54.8 836.2,54.4 831.3,54.4 826.4,54.4 821.4,54.5 816.5,54.4 811.6,54.3 806.7,54.4 801.8,54.5 797.1,55.0 792.4,55.1 787.4,56.5 782.5,55.7 777.6,56.0 772.7,56.8 767.8,56.7 762.8,57.1 757.9,59.3 753.0,59.2 748.1,58.4 743.2,59.5 738.5,60.3 733.8,60.6 728.8,63.2 723.9,63.2 719.0,61.0 714.1,64.3 709.2,65.7 704.2,64.0 699.3,66.1 694.4,65.3 689.6,65.3 684.7,66.9 679.9,65.9 675.2,64.3 670.2,66.6 665.3,64.1 660.5,62.1 655.6,65.3 650.7,68.3 645.7,67.3 640.8,66.0 636.0,63.8 631.1,63.0 626.2,67.1 621.4,65.1 616.6,67.3 611.6,66.3 606.7,67.5 601.8,68.7 596.9,66.4 592.0,66.7 587.1,66.9 582.2,64.3 577.3,63.7 572.4,62.8 567.5,61.1 562.8,59.6 558.0,59.3 553.0,59.7 548.1,60.6 543.3,58.1 538.4,58.9 533.5,63.1 528.5,65.0 523.6,68.3 518.7,67.9 513.8,66.1 508.9,64.6 504.2,65.8 499.4,63.1 494.5,65.5 489.6,64.5 484.7,64.1 479.8,63.8 474.9,63.5 469.9,60.8 465.0,61.2 460.1,60.5 455.2,60.2 450.3,61.8 445.6,61.2 440.9,63.0 435.9,65.2 431.0,65.1 426.1,64.7 421.2,64.3 416.4,64.9 411.4,64.3 406.5,66.0 401.6,65.3 396.7,67.2 391.9,66.7 387.1,67.9 382.3,69.2 377.3,71.5 372.4,70.6 367.5,74.1 362.6,76.3 357.7,77.3 352.7,75.1 347.8,74.1 342.9,72.5 338.0,73.1 333.2,73.4 328.4,74.9 323.7,78.6 318.7,86.4 313.8,84.1 308.9,86.6 304.0,88.5 299.1,85.6 294.1,83.6 289.3,78.5 284.4,79.6 279.5,75.4 274.6,75.2 269.8,72.3 265.1,78.9 260.1,83.5 255.2,82.1 250.3,78.3 245.4,81.6 240.5,86.8 235.6,81.0 230.7,79.1 225.8,78.4 220.9,82.7 216.0,83.3 211.2,73.6 206.5,78.3 201.5,76.0 196.7,76.5 191.8,75.8 186.9,75.0 182.0,75.5 177.1,71.9 172.2,72.4 167.3,74.0 162.4,77.0 157.5,71.2 152.7,68.1 147.9,69.4 143.0,70.1" stroke="none" stroke-width="0.9000"  fill="#808080" clip-path="url(#axis_clip)"/>
    <text class="pl" transform="translate(937.2,54.0)" dy="7.6" font-size="25.20" fill="#808080" stroke="none">Others</text>
<polyline class="pl" points="910.8,54.0 911.9,54.0 913.0,54.0 914.0,54.0 914.9,54.0 915.8,54.0 916.6,54.0 917.4,54.0 918.1,54.0 918.8,54.0 919.5,54.0 920.1,54.0 920.7,54.0 921.3,54.0 921.9,54.0 922.5,54.0 923.1,54.0 923.7,54.0 924.3,54.0 924.9,54.0 925.6,54.0 926.3,54.0 927.0,54.0 927.8,54.0 928.6,54.0 929.5,54.0 930.4,54.0 931.4,54.0 932.5,54.0 933.6,54.0" stroke="#808080" stroke-width="0.90" stroke-opacity="1.00" fill="none" />
    <text class="pl" transform="translate(145.6,47.2)" dy="0.0" font-size="27.00" fill="#808080" stroke="none">Italian new passenger car sales by type: Monthly</text>
  </g>
  <g class="pg_6">
    <polygon class="pl" points="143.0,70.1 147.9,69.4 152.7,68.1 157.5,71.2 162.4,77.0 167.3,74.0 172.2,72.4 177.1,71.9 182.0,75.5 186.9,75.0 191.8,75.8 196.7,76.5 201.5,76.0 206.5,78.3 211.2,73.6 216.0,83.3 220.9,82.7 225.8,78.4 230.7,79.1 235.6,81.0 240.5,86.8 245.4,81.6 250.3,78.3 255.2,82.1 260.1,83.5 265.1,78.9 269.8,72.3 274.6,75.2 279.5,75.4 284.4,79.6 289.3,78.5 294.1,83.6 299.1,85.6 304.0,88.5 308.9,86.6 313.8,84.1 318.7,86.4 323.7,78.6 328.4,74.9 333.2,73.4 338.0,73.1 342.9,72.5 347.8,74.1 352.7,75.1 357.7,77.3 362.6,76.3 367.5,74.1 372.4,70.6 377.3,71.5 382.3,69.2 387.1,67.9 391.9,66.7 396.7,67.2 401.6,65.3 406.5,66.0 411.4,64.3 416.4,64.9 421.2,64.3 426.1,64.7 431.0,65.1 435.9,65.2 440.9,63.0 445.6,61.2 450.3,61.8 455.2,60.2 460.1,60.5 465.0,61.2 469.9,60.8 474.9,63.5 479.8,63.8 484.7,64.1 489.6,64.5 494.5,65.5 499.4,63.1 504.2,65.8 508.9,64.6 513.8,66.1 518.7,67.9 523.6,68.3 528.5,65.0 533.5,63.1 538.4,58.9 543.3,58.1 548.1,60.6 553.0,59.7 558.0,59.3 562.8,59.6 567.5,61.1 572.4,62.8 577.3,63.7 582.2,64.3 587.1,66.9 592.0,66.7 596.9,66.4 601.8,68.7 606.7,67.5 611.6,66.3 616.6,67.3 621.4,65.1 626.2,67.1 631.1,63.0 636.0,63.8 640.8,66.0 645.7,67.3 650.7,68.3 655.6,65.3 660.5,62.1 665.3,64.1 670.2,66.6 675.2,64.3 679.9,65.9 684.7,66.9 689.6,65.3 694.4,65.3 699.3,66.1 704.2,64.0 709.2,65.7 714.1,64.3 719.0,61.0 723.9,63.2 728.8,63.2 733.8,60.6 738.5,60.3 743.2,59.5 748.1,58.4 753.0,59.2 757.9,59.3 762.8,57.1 767.8,56.7 772.7,56.8 777.6,56.0 782.5,55.7 787.4,56.5 792.4,55.1 797.1,55.0 801.8,54.5 806.7,54.4 811.6,54.3 816.5,54.4 821.4,54.5 826.4,54.4 831.3,54.4 836.2,54.4 841.1,54.8 846.0,55.0 850.9,54.8 855.7,55.2 860.5,54.8 865.4,54.8 870.3,54.3 875.2,54.2 880.1,54.0 885.0,54.0 885.0,73.0 880.1,71.2 875.2,96.3 870.3,72.5 865.4,66.7 860.5,71.3 855.7,72.3 850.9,65.3 846.0,85.6 841.1,83.2 836.2,75.2 831.3,72.6 826.4,79.9 821.4,71.8 816.5,76.6 811.6,75.1 806.7,70.3 801.8,78.9 797.1,73.8 792.4,68.2 787.4,78.3 782.5,77.2 777.6,71.9 772.7,79.7 767.8,72.9 762.8,73.6 757.9,83.7 753.0,77.7 748.1,74.0 743.2,78.3 738.5,74.5 733.8,77.6 728.8,98.5 723.9,96.2 719.0,96.2 714.1,104.8 709.2,90.9 704.2,87.2 699.3,89.8 694.4,83.4 689.6,82.0 684.7,88.7 679.9,78.0 675.2,73.7 670.2,96.9 665.3,81.5 660.5,71.3 655.6,78.4 650.7,78.9 645.7,73.2 640.8,74.5 636.0,73.0 631.1,121.5 626.2,83.4 621.4,72.9 616.6,73.6 611.6,69.3 606.7,71.0 601.8,71.7 596.9,70.9 592.0,69.7 587.1,70.0 582.2,68.6 577.3,66.7 572.4,66.2 567.5,62.7 562.8,60.3 558.0,60.2 553.0,61.3 548.1,62.2 543.3,60.1 538.4,60.9 533.5,64.1 528.5,67.1 523.6,69.5 518.7,69.4 513.8,66.8 508.9,65.6 504.2,66.5 499.4,63.8 494.5,66.1 489.6,64.9 484.7,64.8 479.8,64.3 474.9,64.1 469.9,61.3 465.0,61.7 460.1,60.9 455.2,60.5 450.3,62.3 445.6,61.5 440.9,63.6 435.9,65.9 431.0,65.4 426.1,65.2 421.2,64.8 416.4,65.3 411.4,64.6 406.5,66.3 401.6,65.6 396.7,67.5 391.9,67.2 387.1,68.1 382.3,69.6 377.3,72.0 372.4,71.0 367.5,74.4 362.6,76.6 357.7,77.7 352.7,75.5 347.8,74.6 342.9,72.8 338.0,73.4 333.2,74.4 328.4,75.3 323.7,79.1 318.7,86.9 313.8,84.6 308.9,87.3 304.0,88.8 299.1,85.9 294.1,84.0 289.3,79.1 284.4,80.1 279.5,75.6 274.6,75.7 269.8,72.6 265.1,79.1 260.1,83.9 255.2,82.7 250.3,78.6 245.4,81.9 240.5,87.2 235.6,81.3 230.7,79.7 225.8,78.9 220.9,83.0 216.0,83.4 211.2,73.7 206.5,78.4 201.5,76.3 196.7,76.6 191.8,76.1 186.9,75.1 182.0,75.6 177.1,72.0 172.2,72.8 167.3,74.1 162.4,77.2 157.5,71.3 152.7,68.2 147.9,69.6 143.0,70.2" stroke="none" stroke-width="0.9000"  fill="#6298C6" clip-path="url(#axis_clip)"/>
    <text class="pl" transform="translate(937.2,79.0)" dy="7.6" font-size="25.20" fill="#6298C6" stroke="none">Battery electric</text>
<polyline class="pl" points="910.8,63.5 911.9,63.5 913.0,63.7 914.0,64.0 914.9,64.3 915.8,64.7 916.6,65.2 917.4,65.8 918.1,66.4 918.8,67.0 919.5,67.8 920.1,68.5 920.7,69.3 921.3,70.1 921.9,70.9 922.5,71.7 923.1,72.5 923.7,73.3 924.3,74.0 924.9,74.8 925.6,75.5 926.3,76.1 927.0,76.8 927.8,77.3 928.6,77.8 929.5,78.2 930.4,78.6 931.4,78.8 932.5,79.0 933.6,79.0" stroke="#6298C6" stroke-width="0.90" stroke-opacity="1.00" fill="none" />
  </g>
  <g class="pg_5">
    <polygon class="pl" points="143.0,70.2 147.9,69.6 152.7,68.2 157.5,71.3 162.4,77.2 167.3,74.1 172.2,72.8 177.1,72.0 182.0,75.6 186.9,75.1 191.8,76.1 196.7,76.6 201.5,76.3 206.5,78.4 211.2,73.7 216.0,83.4 220.9,83.0 225.8,78.9 230.7,79.7 235.6,81.3 240.5,87.2 245.4,81.9 250.3,78.6 255.2,82.7 260.1,83.9 265.1,79.1 269.8,72.6 274.6,75.7 279.5,75.6 284.4,80.1 289.3,79.1 294.1,84.0 299.1,85.9 304.0,88.8 308.9,87.3 313.8,84.6 318.7,86.9 323.7,79.1 328.4,75.3 333.2,74.4 338.0,73.4 342.9,72.8 347.8,74.6 352.7,75.5 357.7,77.7 362.6,76.6 367.5,74.4 372.4,71.0 377.3,72.0 382.3,69.6 387.1,68.1 391.9,67.2 396.7,67.5 401.6,65.6 406.5,66.3 411.4,64.6 416.4,65.3 421.2,64.8 426.1,65.2 431.0,65.4 435.9,65.9 440.9,63.6 445.6,61.5 450.3,62.3 455.2,60.5 460.1,60.9 465.0,61.7 469.9,61.3 474.9,64.1 479.8,64.3 484.7,64.8 489.6,64.9 494.5,66.1 499.4,63.8 504.2,66.5 508.9,65.6 513.8,66.8 518.7,69.4 523.6,69.5 528.5,67.1 533.5,64.1 538.4,60.9 543.3,60.1 548.1,62.2 553.0,61.3 558.0,60.2 562.8,60.3 567.5,62.7 572.4,66.2 577.3,66.7 582.2,68.6 587.1,70.0 592.0,69.7 596.9,70.9 601.8,71.7 606.7,71.0 611.6,69.3 616.6,73.6 621.4,72.9 626.2,83.4 631.1,121.5 636.0,73.0 640.8,74.5 645.7,73.2 650.7,78.9 655.6,78.4 660.5,71.3 665.3,81.5 670.2,96.9 675.2,73.7 679.9,78.0 684.7,88.7 689.6,82.0 694.4,83.4 699.3,89.8 704.2,87.2 709.2,90.9 714.1,104.8 719.0,96.2 723.9,96.2 728.8,98.5 733.8,77.6 738.5,74.5 743.2,78.3 748.1,74.0 753.0,77.7 757.9,83.7 762.8,73.6 767.8,72.9 772.7,79.7 777.6,71.9 782.5,77.2 787.4,78.3 792.4,68.2 797.1,73.8 801.8,78.9 806.7,70.3 811.6,75.1 816.5,76.6 821.4,71.8 826.4,79.9 831.3,72.6 836.2,75.2 841.1,83.2 846.0,85.6 850.9,65.3 855.7,72.3 860.5,71.3 865.4,66.7 870.3,72.5 875.2,96.3 880.1,71.2 885.0,73.0 885.0,90.6 880.1,90.8 875.2,113.9 870.3,89.0 865.4,83.2 860.5,88.9 855.7,88.3 850.9,79.7 846.0,105.7 841.1,103.9 836.2,96.1 831.3,92.8 826.4,100.9 821.4,94.2 816.5,103.7 811.6,98.7 806.7,94.4 801.8,100.8 797.1,95.2 792.4,92.1 787.4,104.2 782.5,105.1 777.6,98.3 772.7,99.7 767.8,92.0 762.8,96.9 757.9,111.5 753.0,108.5 748.1,102.5 743.2,103.7 738.5,99.2 733.8,102.9 728.8,130.7 723.9,122.6 719.0,121.4 714.1,131.0 709.2,115.8 704.2,115.7 699.3,113.7 694.4,110.6 689.6,105.1 684.7,111.6 679.9,95.3 675.2,87.8 670.2,123.5 665.3,99.4 660.5,83.0 655.6,87.7 650.7,88.0 645.7,81.0 640.8,80.7 636.0,78.9 631.1,124.6 626.2,90.3 621.4,76.6 616.6,78.0 611.6,71.8 606.7,74.3 601.8,74.4 596.9,76.0 592.0,71.4 587.1,71.1 582.2,69.6 577.3,67.8 572.4,67.6 567.5,63.9 562.8,61.1 558.0,61.0 553.0,61.9 548.1,63.5 543.3,62.0 538.4,62.2 533.5,66.2 528.5,69.2 523.6,71.5 518.7,70.2 513.8,67.4 508.9,66.4 504.2,67.2 499.4,63.8 494.5,66.1 489.6,64.9 484.7,64.8 479.8,64.3 474.9,64.1 469.9,61.3 465.0,61.7 460.1,60.9 455.2,60.5 450.3,62.3 445.6,61.5 440.9,63.6 435.9,65.9 431.0,65.4 426.1,65.2 421.2,64.8 416.4,65.3 411.4,64.6 406.5,66.3 401.6,65.6 396.7,67.5 391.9,67.2 387.1,68.1 382.3,69.6 377.3,72.0 372.4,71.0 367.5,74.4 362.6,76.6 357.7,77.7 352.7,75.5 347.8,74.6 342.9,72.8 338.0,73.4 333.2,74.4 328.4,75.3 323.7,79.1 318.7,86.9 313.8,84.6 308.9,87.3 304.0,88.8 299.1,85.9 294.1,84.0 289.3,79.1 284.4,80.1 279.5,75.6 274.6,75.7 269.8,72.6 265.1,79.1 260.1,83.9 255.2,82.7 250.3,78.6 245.4,81.9 240.5,87.2 235.6,81.3 230.7,79.7 225.8,78.9 220.9,83.0 216.0,83.4 211.2,73.7 206.5,78.4 201.5,76.3 196.7,76.6 191.8,76.1 186.9,75.1 182.0,75.6 177.1,72.0 172.2,72.8 167.3,74.1 162.4,77.2 157.5,71.3 152.7,68.2 147.9,69.6 143.0,70.2" stroke="none" stroke-width="0.9000"  fill="#77AC30" clip-path="url(#axis_clip)"/>
    <text class="pl" transform="translate(937.2,104.1)" dy="7.6" font-size="25.20" fill="#77AC30" stroke="none">Plugin hybrid</text>
<polyline class="pl" points="910.8,81.8 911.9,81.9 913.0,82.1 914.0,82.4 914.9,82.9 915.8,83.5 916.6,84.2 917.4,85.0 918.1,85.9 918.8,86.9 919.5,87.9 920.1,89.0 920.7,90.1 921.3,91.2 921.9,92.3 922.5,93.5 923.1,94.6 923.7,95.8 924.3,96.9 924.9,97.9 925.6,99.0 926.3,99.9 927.0,100.8 927.8,101.6 928.6,102.3 929.5,102.9 930.4,103.4 931.4,103.8 932.5,104.0 933.6,104.1" stroke="#77AC30" stroke-width="0.90" stroke-opacity="1.00" fill="none" />
  </g>
  <g class="pg_4">
    <polygon class="pl" points="143.0,70.2 147.9,69.6 152.7,68.2 157.5,71.3 162.4,77.2 167.3,74.1 172.2,72.8 177.1,72.0 182.0,75.6 186.9,75.1 191.8,76.1 196.7,76.6 201.5,76.3 206.5,78.4 211.2,73.7 216.0,83.4 220.9,83.0 225.8,78.9 230.7,79.7 235.6,81.3 240.5,87.2 245.4,81.9 250.3,78.6 255.2,82.7 260.1,83.9 265.1,79.1 269.8,72.6 274.6,75.7 279.5,75.6 284.4,80.1 289.3,79.1 294.1,84.0 299.1,85.9 304.0,88.8 308.9,87.3 313.8,84.6 318.7,86.9 323.7,79.1 328.4,75.3 333.2,74.4 338.0,73.4 342.9,72.8 347.8,74.6 352.7,75.5 357.7,77.7 362.6,76.6 367.5,74.4 372.4,71.0 377.3,72.0 382.3,69.6 387.1,68.1 391.9,67.2 396.7,67.5 401.6,65.6 406.5,66.3 411.4,64.6 416.4,65.3 421.2,64.8 426.1,65.2 431.0,65.4 435.9,65.9 440.9,63.6 445.6,61.5 450.3,62.3 455.2,60.5 460.1,60.9 465.0,61.7 469.9,61.3 474.9,64.1 479.8,64.3 484.7,64.8 489.6,64.9 494.5,66.1 499.4,63.8 504.2,67.2 508.9,66.4 513.8,67.4 518.7,70.2 523.6,71.5 528.5,69.2 533.5,66.2 538.4,62.2 543.3,62.0 548.1,63.5 553.0,61.9 558.0,61.0 562.8,61.1 567.5,63.9 572.4,67.6 577.3,67.8 582.2,69.6 587.1,71.1 592.0,71.4 596.9,76.0 601.8,74.4 606.7,74.3 611.6,71.8 616.6,78.0 621.4,76.6 626.2,90.3 631.1,124.6 636.0,78.9 640.8,80.7 645.7,81.0 650.7,88.0 655.6,87.7 660.5,83.0 665.3,99.4 670.2,123.5 675.2,87.8 679.9,95.3 684.7,111.6 689.6,105.1 694.4,110.6 699.3,113.7 704.2,115.7 709.2,115.8 714.1,131.0 719.0,121.4 723.9,122.6 728.8,130.7 733.8,102.9 738.5,99.2 743.2,103.7 748.1,102.5 753.0,108.5 757.9,111.5 762.8,96.9 767.8,92.0 772.7,99.7 777.6,98.3 782.5,105.1 787.4,104.2 792.4,92.1 797.1,95.2 801.8,100.8 806.7,94.4 811.6,98.7 816.5,103.7 821.4,94.2 826.4,100.9 831.3,92.8 836.2,96.1 841.1,103.9 846.0,105.7 850.9,79.7 855.7,88.3 860.5,88.9 865.4,83.2 870.3,89.0 875.2,113.9 880.1,90.8 885.0,90.6 885.0,296.2 880.1,293.5 875.2,309.8 870.3,292.0 865.4,284.5 860.5,286.1 855.7,279.5 850.9,272.0 846.0,283.7 841.1,295.9 836.2,293.7 831.3,292.9 826.4,274.1 821.4,274.8 816.5,279.8 811.6,274.3 806.7,270.4 801.8,275.3 797.1,280.0 792.4,277.8 787.4,279.4 782.5,275.4 777.6,282.0 772.7,280.6 767.8,289.3 762.8,264.6 757.9,258.7 753.0,278.1 748.1,279.6 743.2,268.2 738.5,272.5 733.8,279.5 728.8,283.3 723.9,281.4 719.0,299.4 714.1,289.4 709.2,275.8 704.2,264.6 699.3,252.5 694.4,252.4 689.6,250.5 684.7,248.4 679.9,241.3 675.2,211.0 670.2,231.8 665.3,216.3 660.5,208.0 655.6,191.8 650.7,164.1 645.7,145.4 640.8,141.7 636.0,136.5 631.1,154.4 626.2,153.6 621.4,128.6 616.6,124.3 611.6,104.3 606.7,109.0 601.8,111.8 596.9,109.7 592.0,94.5 587.1,98.7 582.2,96.4 577.3,93.8 572.4,93.5 567.5,89.4 562.8,87.0 558.0,86.2 553.0,84.1 548.1,89.7 543.3,90.0 538.4,91.9 533.5,86.7 528.5,93.2 523.6,92.4 518.7,89.0 513.8,88.0 508.9,83.3 504.2,84.5 499.4,84.0 494.5,86.0 489.6,86.6 484.7,85.8 479.8,82.2 474.9,81.9 469.9,79.6 465.0,78.5 460.1,77.8 455.2,75.2 450.3,75.2 445.6,76.1 440.9,77.3 435.9,79.8 431.0,77.2 426.1,76.7 421.2,77.5 416.4,75.9 411.4,74.3 406.5,75.6 401.6,75.1 396.7,76.4 391.9,75.8 387.1,78.4 382.3,80.1 377.3,82.7 372.4,80.1 367.5,83.6 362.6,86.7 357.7,84.8 352.7,81.8 347.8,82.5 342.9,80.2 338.0,80.2 333.2,82.0 328.4,82.4 323.7,87.4 318.7,96.1 313.8,93.1 308.9,95.9 304.0,97.2 299.1,92.0 294.1,90.2 289.3,86.7 284.4,90.5 279.5,81.6 274.6,82.1 269.8,79.2 265.1,85.7 260.1,92.1 255.2,89.6 250.3,85.4 245.4,89.2 240.5,91.5 235.6,87.4 230.7,84.5 225.8,84.3 220.9,87.5 216.0,87.6 211.2,77.8 206.5,82.7 201.5,80.6 196.7,80.8 191.8,80.0 186.9,78.2 182.0,77.8 177.1,74.6 172.2,75.4 167.3,76.3 162.4,78.5 157.5,73.0 152.7,69.3 147.9,71.1 143.0,71.8" stroke="none" stroke-width="0.9000"  fill="#91AC6E" clip-path="url(#axis_clip)"/>
    <text class="pl" transform="translate(937.2,193.4)" dy="7.6" font-size="25.20" fill="#91AC6E" stroke="none">Non-plugin hybrid</text>
  </g>
  <g class="pg_3">
    <polygon class="pl" points="143.0,71.8 147.9,71.1 152.7,69.3 157.5,73.0 162.4,78.5 167.3,76.3 172.2,75.4 177.1,74.6 182.0,77.8 186.9,78.2 191.8,80.0 196.7,80.8 201.5,80.6 206.5,82.7 211.2,77.8 216.0,87.6 220.9,87.5 225.8,84.3 230.7,84.5 235.6,87.4 240.5,91.5 245.4,89.2 250.3,85.4 255.2,89.6 260.1,92.1 265.1,85.7 269.8,79.2 274.6,82.1 279.5,81.6 284.4,90.5 289.3,86.7 294.1,90.2 299.1,92.0 304.0,97.2 308.9,95.9 313.8,93.1 318.7,96.1 323.7,87.4 328.4,82.4 333.2,82.0 338.0,80.2 342.9,80.2 347.8,82.5 352.7,81.8 357.7,84.8 362.6,86.7 367.5,83.6 372.4,80.1 377.3,82.7 382.3,80.1 387.1,78.4 391.9,75.8 396.7,76.4 401.6,75.1 406.5,75.6 411.4,74.3 416.4,75.9 421.2,77.5 426.1,76.7 431.0,77.2 435.9,79.8 440.9,77.3 445.6,76.1 450.3,75.2 455.2,75.2 460.1,77.8 465.0,78.5 469.9,79.6 474.9,81.9 479.8,82.2 484.7,85.8 489.6,86.6 494.5,86.0 499.4,84.0 504.2,84.5 508.9,83.3 513.8,88.0 518.7,89.0 523.6,92.4 528.5,93.2 533.5,86.7 538.4,91.9 543.3,90.0 548.1,89.7 553.0,84.1 558.0,86.2 562.8,87.0 567.5,89.4 572.4,93.5 577.3,93.8 582.2,96.4 587.1,98.7 592.0,94.5 596.9,109.7 601.8,111.8 606.7,109.0 611.6,104.3 616.6,124.3 621.4,128.6 626.2,153.6 631.1,154.4 636.0,136.5 640.8,141.7 645.7,145.4 650.7,164.1 655.6,191.8 660.5,208.0 665.3,216.3 670.2,231.8 675.2,211.0 679.9,241.3 684.7,248.4 689.6,250.5 694.4,252.4 699.3,252.5 704.2,264.6 709.2,275.8 714.1,289.4 719.0,299.4 723.9,281.4 728.8,283.3 733.8,279.5 738.5,272.5 743.2,268.2 748.1,279.6 753.0,278.1 757.9,258.7 762.8,264.6 767.8,289.3 772.7,280.6 777.6,282.0 782.5,275.4 787.4,279.4 792.4,277.8 797.1,280.0 801.8,275.3 806.7,270.4 811.6,274.3 816.5,279.8 821.4,274.8 826.4,274.1 831.3,292.9 836.2,293.7 841.1,295.9 846.0,283.7 850.9,272.0 855.7,279.5 860.5,286.1 865.4,284.5 870.3,292.0 875.2,309.8 880.1,293.5 885.0,296.2 885.0,349.9 880.1,351.1 875.2,361.0 870.3,324.3 865.4,327.5 860.5,324.7 855.7,327.6 850.9,326.8 846.0,328.6 841.1,345.1 836.2,343.8 831.3,333.5 826.4,323.6 821.4,324.3 816.5,322.6 811.6,317.0 806.7,312.4 801.8,313.7 797.1,330.9 792.4,329.8 787.4,327.3 782.5,332.1 777.6,326.6 772.7,324.6 767.8,333.4 762.8,304.5 757.9,307.6 753.0,317.7 748.1,316.9 743.2,315.2 738.5,314.1 733.8,326.2 728.8,324.2 723.9,328.2 719.0,338.6 714.1,336.9 709.2,324.9 704.2,307.0 699.3,293.7 694.4,284.8 689.6,283.2 684.7,279.5 679.9,267.6 675.2,241.7 670.2,262.3 665.3,256.5 660.5,245.0 655.6,230.3 650.7,198.4 645.7,178.0 640.8,178.3 636.0,168.8 631.1,175.0 626.2,193.3 621.4,156.9 616.6,155.4 611.6,138.4 606.7,141.4 601.8,146.3 596.9,149.0 592.0,145.6 587.1,145.1 582.2,131.4 577.3,127.1 572.4,128.5 567.5,122.9 562.8,116.5 558.0,123.4 553.0,115.3 548.1,125.8 543.3,126.2 538.4,121.6 533.5,128.5 528.5,134.3 523.6,125.8 518.7,120.3 513.8,119.4 508.9,112.7 504.2,113.4 499.4,115.7 494.5,118.9 489.6,122.5 484.7,120.3 479.8,111.4 474.9,118.3 469.9,119.2 465.0,112.6 460.1,109.4 455.2,105.8 450.3,106.0 445.6,108.0 440.9,110.7 435.9,109.7 431.0,105.7 426.1,104.9 421.2,104.4 416.4,106.4 411.4,103.4 406.5,104.2 401.6,102.2 396.7,104.9 391.9,102.9 387.1,105.8 382.3,108.3 377.3,113.7 372.4,113.9 367.5,116.7 362.6,121.3 357.7,123.3 352.7,123.3 347.8,124.1 342.9,120.3 338.0,123.1 333.2,120.0 328.4,124.1 323.7,133.2 318.7,148.0 313.8,145.8 308.9,147.0 304.0,146.9 299.1,142.3 294.1,140.7 289.3,132.3 284.4,137.8 279.5,119.2 274.6,120.3 269.8,121.0 265.1,127.1 260.1,135.8 255.2,132.6 250.3,127.4 245.4,134.8 240.5,142.5 235.6,132.4 230.7,130.5 225.8,126.6 220.9,131.6 216.0,133.1 211.2,121.2 206.5,132.4 201.5,135.7 196.7,142.1 191.8,143.4 186.9,137.2 182.0,134.9 177.1,124.6 172.2,123.6 167.3,125.0 162.4,131.5 157.5,104.3 152.7,95.0 147.9,92.9 143.0,98.3" stroke="none" stroke-width="0.9000"  fill="#85578F" clip-path="url(#axis_clip)"/>
    <text class="pl" transform="translate(937.2,323.0)" dy="7.6" font-size="25.20" fill="#85578F" stroke="none">LPG</text>
  </g>
  <g class="pg_2">
    <polygon class="pl" points="143.0,98.3 147.9,92.9 152.7,95.0 157.5,104.3 162.4,131.5 167.3,125.0 172.2,123.6 177.1,124.6 182.0,134.9 186.9,137.2 191.8,143.4 196.7,142.1 201.5,135.7 206.5,132.4 211.2,121.2 216.0,133.1 220.9,131.6 225.8,126.6 230.7,130.5 235.6,132.4 240.5,142.5 245.4,134.8 250.3,127.4 255.2,132.6 260.1,135.8 265.1,127.1 269.8,121.0 274.6,120.3 279.5,119.2 284.4,137.8 289.3,132.3 294.1,140.7 299.1,142.3 304.0,146.9 308.9,147.0 313.8,145.8 318.7,148.0 323.7,133.2 328.4,124.1 333.2,120.0 338.0,123.1 342.9,120.3 347.8,124.1 352.7,123.3 357.7,123.3 362.6,121.3 367.5,116.7 372.4,113.9 377.3,113.7 382.3,108.3 387.1,105.8 391.9,102.9 396.7,104.9 401.6,102.2 406.5,104.2 411.4,103.4 416.4,106.4 421.2,104.4 426.1,104.9 431.0,105.7 435.9,109.7 440.9,110.7 445.6,108.0 450.3,106.0 455.2,105.8 460.1,109.4 465.0,112.6 469.9,119.2 474.9,118.3 479.8,111.4 484.7,120.3 489.6,122.5 494.5,118.9 499.4,115.7 504.2,113.4 508.9,112.7 513.8,119.4 518.7,120.3 523.6,125.8 528.5,134.3 533.5,128.5 538.4,121.6 543.3,126.2 548.1,125.8 553.0,115.3 558.0,123.4 562.8,116.5 567.5,122.9 572.4,128.5 577.3,127.1 582.2,131.4 587.1,145.1 592.0,145.6 596.9,149.0 601.8,146.3 606.7,141.4 611.6,138.4 616.6,155.4 621.4,156.9 626.2,193.3 631.1,175.0 636.0,168.8 640.8,178.3 645.7,178.0 650.7,198.4 655.6,230.3 660.5,245.0 665.3,256.5 670.2,262.3 675.2,241.7 679.9,267.6 684.7,279.5 689.6,283.2 694.4,284.8 699.3,293.7 704.2,307.0 709.2,324.9 714.1,336.9 719.0,338.6 723.9,328.2 728.8,324.2 733.8,326.2 738.5,314.1 743.2,315.2 748.1,316.9 753.0,317.7 757.9,307.6 762.8,304.5 767.8,333.4 772.7,324.6 777.6,326.6 782.5,332.1 787.4,327.3 792.4,329.8 797.1,330.9 801.8,313.7 806.7,312.4 811.6,317.0 816.5,322.6 821.4,324.3 826.4,323.6 831.3,333.5 836.2,343.8 841.1,345.1 846.0,328.6 850.9,326.8 855.7,327.6 860.5,324.7 865.4,327.5 870.3,324.3 875.2,361.0 880.1,351.1 885.0,349.9 885.0,492.1 880.1,494.9 875.2,495.1 870.3,487.1 865.4,487.3 860.5,483.5 855.7,485.3 850.9,480.2 846.0,481.4 841.1,485.9 836.2,483.2 831.3,481.8 826.4,474.1 821.4,469.1 816.5,466.8 811.6,461.6 806.7,460.4 801.8,457.6 797.1,463.2 792.4,463.5 787.4,456.4 782.5,468.1 777.6,465.4 772.7,462.4 767.8,468.3 762.8,455.6 757.9,455.2 753.0,461.6 748.1,453.7 743.2,453.6 738.5,447.5 733.8,463.9 728.8,456.0 723.9,464.1 719.0,469.1 714.1,463.5 709.2,451.4 704.2,445.5 699.3,446.9 694.4,441.9 689.6,444.5 684.7,436.6 679.9,433.7 675.2,423.8 670.2,429.5 665.3,414.0 660.5,404.3 655.6,396.5 650.7,381.6 645.7,373.1 640.8,379.9 636.0,377.5 631.1,353.1 626.2,373.2 621.4,384.3 616.6,390.7 611.6,385.0 606.7,373.3 601.8,378.8 596.9,375.0 592.0,367.3 587.1,372.0 582.2,348.6 577.3,348.3 572.4,355.3 567.5,331.6 562.8,331.9 558.0,351.9 553.0,325.5 548.1,331.8 543.3,337.3 538.4,317.6 533.5,276.0 528.5,301.9 523.6,293.1 518.7,298.6 513.8,292.9 508.9,284.4 504.2,275.0 499.4,280.5 494.5,270.0 489.6,274.6 484.7,279.3 479.8,267.5 474.9,268.0 469.9,276.6 465.0,262.6 460.1,277.7 455.2,265.0 450.3,274.8 445.6,276.7 440.9,281.9 435.9,261.5 431.0,258.2 426.1,262.7 421.2,269.4 416.4,261.9 411.4,261.5 406.5,270.0 401.6,270.7 396.7,283.9 391.9,274.6 387.1,276.5 382.3,275.8 377.3,272.2 372.4,268.8 367.5,278.8 362.6,287.4 357.7,276.1 352.7,287.6 347.8,279.2 342.9,279.3 338.0,280.7 333.2,276.8 328.4,274.9 323.7,282.3 318.7,293.0 313.8,279.8 308.9,286.4 304.0,292.2 299.1,281.1 294.1,278.7 289.3,279.9 284.4,281.8 279.5,270.8 274.6,270.3 269.8,279.7 265.1,279.1 260.1,280.8 255.2,276.6 250.3,282.6 245.4,284.2 240.5,290.2 235.6,284.7 230.7,287.7 225.8,291.7 220.9,295.3 216.0,283.5 211.2,285.3 206.5,294.9 201.5,295.7 196.7,296.6 191.8,299.6 186.9,293.7 182.0,285.1 177.1,287.9 172.2,291.7 167.3,300.8 162.4,297.0 157.5,275.5 152.7,277.7 147.9,281.2 143.0,296.5" stroke="none" stroke-width="0.9000"  fill="#7B553E" clip-path="url(#axis_clip)"/>
    <text class="pl" transform="translate(937.2,421.0)" dy="7.6" font-size="25.20" fill="#7B553E" stroke="none">Petrol</text>
  </g>
  <g class="pg_1">
    <polygon class="pl" points="143.0,296.5 147.9,281.2 152.7,277.7 157.5,275.5 162.4,297.0 167.3,300.8 172.2,291.7 177.1,287.9 182.0,285.1 186.9,293.7 191.8,299.6 196.7,296.6 201.5,295.7 206.5,294.9 211.2,285.3 216.0,283.5 220.9,295.3 225.8,291.7 230.7,287.7 235.6,284.7 240.5,290.2 245.4,284.2 250.3,282.6 255.2,276.6 260.1,280.8 265.1,279.1 269.8,279.7 274.6,270.3 279.5,270.8 284.4,281.8 289.3,279.9 294.1,278.7 299.1,281.1 304.0,292.2 308.9,286.4 313.8,279.8 318.7,293.0 323.7,282.3 328.4,274.9 333.2,276.8 338.0,280.7 342.9,279.3 347.8,279.2 352.7,287.6 357.7,276.1 362.6,287.4 367.5,278.8 372.4,268.8 377.3,272.2 382.3,275.8 387.1,276.5 391.9,274.6 396.7,283.9 401.6,270.7 406.5,270.0 411.4,261.5 416.4,261.9 421.2,269.4 426.1,262.7 431.0,258.2 435.9,261.5 440.9,281.9 445.6,276.7 450.3,274.8 455.2,265.0 460.1,277.7 465.0,262.6 469.9,276.6 474.9,268.0 479.8,267.5 484.7,279.3 489.6,274.6 494.5,270.0 499.4,280.5 504.2,275.0 508.9,284.4 513.8,292.9 518.7,298.6 523.6,293.1 528.5,301.9 533.5,276.0 538.4,317.6 543.3,337.3 548.1,331.8 553.0,325.5 558.0,351.9 562.8,331.9 567.5,331.6 572.4,355.3 577.3,348.3 582.2,348.6 587.1,372.0 592.0,367.3 596.9,375.0 601.8,378.8 606.7,373.3 611.6,385.0 616.6,390.7 621.4,384.3 626.2,373.2 631.1,353.1 636.0,377.5 640.8,379.9 645.7,373.1 650.7,381.6 655.6,396.5 660.5,404.3 665.3,414.0 670.2,429.5 675.2,423.8 679.9,433.7 684.7,436.6 689.6,444.5 694.4,441.9 699.3,446.9 704.2,445.5 709.2,451.4 714.1,463.5 719.0,469.1 723.9,464.1 728.8,456.0 733.8,463.9 738.5,447.5 743.2,453.6 748.1,453.7 753.0,461.6 757.9,455.2 762.8,455.6 767.8,468.3 772.7,462.4 777.6,465.4 782.5,468.1 787.4,456.4 792.4,463.5 797.1,463.2 801.8,457.6 806.7,460.4 811.6,461.6 816.5,466.8 821.4,469.1 826.4,474.1 831.3,481.8 836.2,483.2 841.1,485.9 846.0,481.4 850.9,480.2 855.7,485.3 860.5,483.5 865.4,487.3 870.3,487.1 875.2,495.1 880.1,494.9 885.0,492.1 885.0,560.2 143.0,560.2" stroke="none" stroke-width="0.9000"  fill="#7B6E57" clip-path="url(#axis_clip)"/>
    <text class="pl" transform="translate(937.2,526.2)" dy="7.6" font-size="25.20" fill="#7B6E57" stroke="none">Diesel</text>
  </g>
</g>
<g id="lines">
  <g class="pl_1">
    <use xlink:href="#line_1" class="thick" stroke="#000" stroke-width="3" opacity="0"/>
    <use xlink:href="#line_1" class="pl pll" stroke="#000" stroke-width="0.90"/>
  </g>
  <g class="pl_2">
    <use xlink:href="#line_2" class="thick" stroke="#000" stroke-width="3" opacity="0"/>
    <use xlink:href="#line_2" class="pl pll" stroke="#000" stroke-width="0.90"/>
  </g>
  <g class="pl_3">
    <use xlink:href="#line_3" class="thick" stroke="#000" stroke-width="3" opacity="0"/>
    <use xlink:href="#line_3" class="pl pll" stroke="#000" stroke-width="0.90"/>
  </g>
  <g class="pl_4">
    <use xlink:href="#line_4" class="thick" stroke="#000" stroke-width="3" opacity="0"/>
    <use xlink:href="#line_4" class="pl pll" stroke="#000" stroke-width="0.90"/>
  </g>
  <g class="pl_5">
    <use xlink:href="#line_5" class="thick" stroke="#000" stroke-width="3" opacity="0"/>
    <use xlink:href="#line_5" class="pl pll" stroke="#000" stroke-width="0.90"/>
  </g>
  <g class="pl_6">
    <use xlink:href="#line_6" class="thick" stroke="#000" stroke-width="3" opacity="0"/>
    <use xlink:href="#line_6" class="pl pll" stroke="#000" stroke-width="0.90"/>
  </g>
  <g class="pl_7">
    <use xlink:href="#line_7" class="thick" stroke="#000" stroke-width="3" opacity="0"/>
    <use xlink:href="#line_7" class="pl pll" stroke="#000" stroke-width="0.90"/>
  </g>
  <g class="pl_8">
    <use xlink:href="#line_8" class="thick" stroke="#000" stroke-width="3" opacity="0"/>
    <use xlink:href="#line_8" class="pl pll" stroke="#000" stroke-width="0.90"/>
  </g>
  <g class="pl_9">
    <use xlink:href="#line_9" class="thick" stroke="#000" stroke-width="3" opacity="0"/>
    <use xlink:href="#line_9" class="pl pll" stroke="#000" stroke-width="0.90"/>
  </g>
  <g class="pl_10">
    <use xlink:href="#line_10" class="thick" stroke="#000" stroke-width="3" opacity="0"/>
    <use xlink:href="#line_10" class="pl pll" stroke="#000" stroke-width="0.90"/>
  </g>
  <g class="pl_11">
    <use xlink:href="#line_11" class="thick" stroke="#000" stroke-width="3" opacity="0"/>
    <use xlink:href="#line_11" class="pl pll" stroke="#000" stroke-width="0.90"/>
  </g>
  <g class="pl_12">
    <use xlink:href="#line_12" class="thick" stroke="#000" stroke-width="3" opacity="0"/>
    <use xlink:href="#line_12" class="pl pll" stroke="#000" stroke-width="0.90"/>
  </g>
  <g class="pl_13">
    <use xlink:href="#line_13" class="thick" stroke="#000" stroke-width="3" opacity="0"/>
    <use xlink:href="#line_13" class="pl pll" stroke="#000" stroke-width="0.90"/>
  </g>
  <g class="pl_14">
    <use xlink:href="#line_14" class="thick" stroke="#000" stroke-width="3" opacity="0"/>
    <use xlink:href="#line_14" class="pl pll" stroke="#000" stroke-width="0.90"/>
  </g>
  <g class="pl_15">
    <use xlink:href="#line_15" class="thick" stroke="#000" stroke-width="3" opacity="0"/>
    <use xlink:href="#line_15" class="pl pll" stroke="#000" stroke-width="0.90"/>
  </g>
  <g class="pl_16">
    <use xlink:href="#line_16" class="thick" stroke="#000" stroke-width="3" opacity="0"/>
    <use xlink:href="#line_16" class="pl pll" stroke="#000" stroke-width="0.90"/>
  </g>
  <g class="pl_17">
    <use xlink:href="#line_17" class="thick" stroke="#000" stroke-width="3" opacity="0"/>
    <use xlink:href="#line_17" class="pl pll" stroke="#000" stroke-width="0.90"/>
  </g>
  <g class="pl_18">
    <use xlink:href="#line_18" class="thick" stroke="#000" stroke-width="3" opacity="0"/>
    <use xlink:href="#line_18" class="pl pll" stroke="#000" stroke-width="0.90"/>
  </g>
  <g class="pl_19">
    <use xlink:href="#line_19" class="thick" stroke="#000" stroke-width="3" opacity="0"/>
    <use xlink:href="#line_19" class="pl pll" stroke="#000" stroke-width="0.90"/>
  </g>
  <g class="pl_20">
    <use xlink:href="#line_20" class="thick" stroke="#000" stroke-width="3" opacity="0"/>
    <use xlink:href="#line_20" class="pl pll" stroke="#000" stroke-width="0.90"/>
  </g>
  <g class="pl_21">
    <use xlink:href="#line_21" class="thick" stroke="#000" stroke-width="3" opacity="0"/>
    <use xlink:href="#line_21" class="pl pll" stroke="#000" stroke-width="0.90"/>
  </g>
</g>
    <text class="pl" transform="translate(174.9,573.0) rotate(-90)" dy="8.1" font-size="27.00" fill="#808080" stroke="none" text-anchor="end">2012</text>
    <text class="pl" transform="translate(233.5,573.0) rotate(-90)" dy="8.1" font-size="27.00" fill="#808080" stroke="none" text-anchor="end">2013</text>
    <text class="pl" transform="translate(292.1,573.0) rotate(-90)" dy="8.1" font-size="27.00" fill="#808080" stroke="none" text-anchor="end">2014</text>
    <text class="pl" transform="translate(350.6,573.0) rotate(-90)" dy="8.1" font-size="27.00" fill="#808080" stroke="none" text-anchor="end">2015</text>
    <text class="pl" transform="translate(409.2,573.0) rotate(-90)" dy="8.1" font-size="27.00" fill="#808080" stroke="none" text-anchor="end">2016</text>
    <text class="pl" transform="translate(467.8,573.0) rotate(-90)" dy="8.1" font-size="27.00" fill="#808080" stroke="none" text-anchor="end">2017</text>
    <text class="pl" transform="translate(526.4,573.0) rotate(-90)" dy="8.1" font-size="27.00" fill="#808080" stroke="none" text-anchor="end">2018</text>
    <text class="pl" transform="translate(585.0,573.0) rotate(-90)" dy="8.1" font-size="27.00" fill="#808080" stroke="none" text-anchor="end">2019</text>
    <text class="pl" transform="translate(643.6,573.0) rotate(-90)" dy="8.1" font-size="27.00" fill="#808080" stroke="none" text-anchor="end">2020</text>
    <text class="pl" transform="translate(702.2,573.0) rotate(-90)" dy="8.1" font-size="27.00" fill="#808080" stroke="none" text-anchor="end">2021</text>
    <text class="pl" transform="translate(760.7,573.0) rotate(-90)" dy="8.1" font-size="27.00" fill="#808080" stroke="none" text-anchor="end">2022</text>
    <text class="pl" transform="translate(819.3,573.0) rotate(-90)" dy="8.1" font-size="27.00" fill="#808080" stroke="none" text-anchor="end">2023</text>
    <text class="pl" transform="translate(877.9,573.0) rotate(-90)" dy="8.1" font-size="27.00" fill="#808080" stroke="none" text-anchor="end">2024</text>
<text transform="translate(157.6,666.1)" font-size="19.80" font-family="Helvetica" fill="#BFBFBF" stroke="none" xml:space="preserve"><a href="https://twitter.com/robbie_andrew" style="fill:#BFBFBF" target="_blank">@robbie_andrew</a>   &#9679;   Data: UNRAE / Lorenzo Grande (Teraton)   &#9679;   Through August 2024</text>
<text class="twitlink" transform="translate(157.6,666.1)" opacity="0" font-size="19.80" fill="#BFBFBF" stroke="none" xml:space="preserve"><a href="https://twitter.com/robbie_andrew" style="fill:#BFBFBF" target="_blank">@robbie_andrew</a></text>
  <g class="dl_el" transform="translate(154.6,578.4)">
    <g class="dl_el_balloon">
      <foreignObject x="0" y="0" width="120" height="500">
      <div xmlns="http://www.w3.org/1999/xhtml" class="dl_fe" style="height:60px">
      <p class="dl_fe_p">Find me on Twitter</p>
      </div>
	    </foreignObject>
      <path stroke="#000" fill="#FDFFDF" d="M0,60H60l5,5l5,-5H120"/>
    </g>
  </g>
<use xlink:href="#line_y" transform="translate(145.6,0)"/>
<use xlink:href="#line_y" transform="translate(204.2,0)"/>
<use xlink:href="#line_y" transform="translate(262.8,0)"/>
<use xlink:href="#line_y" transform="translate(321.4,0)"/>
<use xlink:href="#line_y" transform="translate(379.9,0)"/>
<use xlink:href="#line_y" transform="translate(438.5,0)"/>
<use xlink:href="#line_y" transform="translate(497.1,0)"/>
<use xlink:href="#line_y" transform="translate(555.7,0)"/>
<use xlink:href="#line_y" transform="translate(614.3,0)"/>
<use xlink:href="#line_y" transform="translate(672.9,0)"/>
<use xlink:href="#line_y" transform="translate(731.4,0)"/>
<use xlink:href="#line_y" transform="translate(790.0,0)"/>
<use xlink:href="#line_y" transform="translate(848.6,0)"/>
<use xlink:href="#line_y" transform="translate(907.2,0)"/>
<use xlink:href="#line_x" transform="translate(0,560.2)"/>
<use xlink:href="#line_x" transform="translate(0,458.9)"/>
<use xlink:href="#line_x" transform="translate(0,357.7)"/>
<use xlink:href="#line_x" transform="translate(0,256.5)"/>
<use xlink:href="#line_x" transform="translate(0,155.2)"/>
<use xlink:href="#line_x" transform="translate(0,54.0)"/>
<use xlink:href="#tick_x" transform="translate(145.6,0)"/>
<use xlink:href="#tick_x" transform="translate(204.2,0)"/>
<use xlink:href="#tick_x" transform="translate(262.8,0)"/>
<use xlink:href="#tick_x" transform="translate(321.4,0)"/>
<use xlink:href="#tick_x" transform="translate(379.9,0)"/>
<use xlink:href="#tick_x" transform="translate(438.5,0)"/>
<use xlink:href="#tick_x" transform="translate(497.1,0)"/>
<use xlink:href="#tick_x" transform="translate(555.7,0)"/>
<use xlink:href="#tick_x" transform="translate(614.3,0)"/>
<use xlink:href="#tick_x" transform="translate(672.9,0)"/>
<use xlink:href="#tick_x" transform="translate(731.4,0)"/>
<use xlink:href="#tick_x" transform="translate(790.0,0)"/>
<use xlink:href="#tick_x" transform="translate(848.6,0)"/>
<use xlink:href="#tick_x" transform="translate(907.2,0)"/>
<use xlink:href="#tick_y" transform="translate(0,560.2)"/>
<use xlink:href="#tick_y" transform="translate(0,458.9)"/>
<use xlink:href="#tick_y" transform="translate(0,357.7)"/>
<use xlink:href="#tick_y" transform="translate(0,256.5)"/>
<use xlink:href="#tick_y" transform="translate(0,155.2)"/>
<use xlink:href="#tick_y" transform="translate(0,54.0)"/>
<polyline points="145.6,53.993 145.6,560.180 907.2,560.180" stroke="#808080" stroke-width="0.90" fill="none"/>
<g>
<a href="https://creativecommons.org/licenses/by/4.0/">
  <rect x="123.0" y="651.4" width="34" height="17" fill="#FFF" stroke="none"/>
  <g transform="translate(124.0,652.4) scale(0.24)">
  <g><circle fill="#FFF" cx="37.79" cy="28.5" r="28.84"/>
     <circle fill="none" cx="37.79" cy="28.5" r="28.84" stroke="#BFBFBF" stroke-width="5.5"/>
     <path fill="#BFBFBF" d="M37.16,23.19 l-4.29,2.23c-0.458-0.951-1.02-1.62-1.69-2c-0.667-0.38-1.29-0.571-1.86-0.571c-2.86,0-4.29,1.89-4.29,5.66 c0,1.71,0.36,3.08,1.09,4.11c0.724,1.03,1.79,1.54,3.2,1.54c1.87,0,3.18-0.915,3.94-2.74l3.94,2 c-0.838,1.56-2,2.79-3.49,3.69c-1.48,0.896-3.12,1.34-4.91,1.34c-2.86,0-5.16-0.875-6.92-2.63 c-1.75-1.75-2.63-4.19-2.63-7.31c0-3.05,0.886-5.47,2.66-7.26c1.77-1.79,4.01-2.69,6.72-2.69 C32.6,18.56,35.44,20.1,37.16,23.19z
              M55.61,23.19l-4.23,2.23c-0.457-0.951-1.02-1.62-1.69-2 c-0.668-0.38-1.31-0.571-1.91-0.571c-2.86,0-4.29,1.89-4.29,5.66c0,1.71,0.363,3.08,1.09,4.11 c0.723,1.03,1.79,1.54,3.2,1.54c1.87,0,3.18-0.915,3.94-2.74l4,2c-0.875,1.56-2.06,2.79-3.54,3.69 c-1.49,0.9-3.11,1.34-4.86,1.34c-2.9,0-5.21-0.875-6.94-2.63c-1.74-1.75-2.6-4.19-2.6-7.31 c0-3.05,0.885-5.47,2.66-7.26c1.77-1.79,4.01-2.69,6.71-2.69C51.12,18.56,53.944,20.1,55.61,23.19z"/>
  </g></g>
  <g transform="translate(140.2,652.4) scale(0.24)">
  <g><circle fill="#FFF" cx="37.79" cy="28.5" r="28.84"/>
     <circle fill="none" cx="37.79" cy="28.5" r="28.84" stroke="#BFBFBF" stroke-width="5.5"/>
     <path fill="#BFBFBF" d="M46.129,20.557v13.085h-3.656v15.542h-9.944V33.643h-3.656V20.557 c0-0.572,0.2-1.057,0.599-1.457c0.401-0.399,0.887-0.6,1.457-0.6h13.144c0.533,0,1.01,0.2,1.428,0.6 C45.918,19.5,46.129,19.986,46.129,20.557z
              M33.042,12.329c0-3.008,1.485-4.514,4.458-4.514s4.457,1.504,4.457,4.514 c0,2.971-1.486,4.457-4.457,4.457S33.042,15.3,33.042,12.329z"/>
  </g></g>
  </a>
</g>
  <g class="dl_el" transform="translate(69.1,548.4)">
    <g class="dl_el_balloon">
      <foreignObject x="0" y="0" width="250" height="500">
      <div xmlns="http://www.w3.org/1999/xhtml" class="dl_fe" style="height:90px">
      <p class="dl_fe_p">CC-BY: Material may be freely re-used as long as you credit the author</p>
      </div>
	    </foreignObject>
      <path stroke="#000" fill="#FDFFDF" d="M0,90H70l5,5l5,-5H250"/>
    </g>
  </g>
</g>
</svg>
