<svg version="1.1" xmlns="http://www.w3.org/2000/svg" xmlns:xlink="http://www.w3.org/1999/xlink" width="100%" height="100%" viewBox="0 0 1200.000 674.916">
<title>Italian new passenger car sales by type: Annual</title>
<desc>Created by Robbie Andrew (@robbie_andrew), CICERO Center for International Climate Research. CC-BY: Material may be freely re-used as long as you credit the author</desc>
<style type="text/css">
  #main {font-family:Helvetica,Arial,sans-serif; font-size:27.00px;
         fill-opacity:1; fill:#000000; stroke:none; stroke-linejoin:round; stroke-linecap:round; stroke-width:1.00;}
  a:hover {text-decoration: underline;}
  .marker {stroke-opacity:0;fill-opacity:0;}
  .marker:hover {stroke-opacity:0.5; fill-opacity:1;}
  .ticklabel {font-size:27.00px;fill:#808080;stroke:none;font-family:Helvetica}
  .ytl {text-anchor:end;}
  .dp1 {pointer-events:none;font-size:70%;text-anchor:middle;fill:#000000;}
  .dp2 {pointer-events:none;font-size:70%;text-anchor:middle;fill:#FFFFFF;}
  .numtip {pointer-events:none;}
  .cc {opacity:0.25;}
.dl_fe {background-color:#FDFFDF;display:flex;margin:auto;align-items:center}
.dl_fe_p {font-size:20px;text-align:center;margin:3px}
.dl_el {display:none;pointer-events:none;}
.cc:hover + .dl_el {display:block;}
text:hover + .dl_el {display:block;}
  #areas .pl {transition: all 0.2s ease;}
  #areas:hover .pl {opacity:0.5;}
  #areas:hover .thick {stroke-width:1;}
  #areas:hover .pg_1:hover .pl {opacity:1;}
  #areas:hover .pg_1:hover .pll {stroke-width:3;}
  #areas:hover .pg_1:hover .pldlm {stroke-width:2;}
  #areas:hover .pg_1:hover .thick {stroke-width:12;}
  #areas:hover .pg_2:hover .pl {opacity:1;}
  #areas:hover .pg_2:hover .pll {stroke-width:3;}
  #areas:hover .pg_2:hover .pldlm {stroke-width:2;}
  #areas:hover .pg_2:hover .thick {stroke-width:12;}
  #areas:hover .pg_3:hover .pl {opacity:1;}
  #areas:hover .pg_3:hover .pll {stroke-width:3;}
  #areas:hover .pg_3:hover .pldlm {stroke-width:2;}
  #areas:hover .pg_3:hover .thick {stroke-width:12;}
  #areas:hover .pg_4:hover .pl {opacity:1;}
  #areas:hover .pg_4:hover .pll {stroke-width:3;}
  #areas:hover .pg_4:hover .pldlm {stroke-width:2;}
  #areas:hover .pg_4:hover .thick {stroke-width:12;}
  #areas:hover .pg_5:hover .pl {opacity:1;}
  #areas:hover .pg_5:hover .pll {stroke-width:3;}
  #areas:hover .pg_5:hover .pldlm {stroke-width:2;}
  #areas:hover .pg_5:hover .thick {stroke-width:12;}
  #areas:hover .pg_6:hover .pl {opacity:1;}
  #areas:hover .pg_6:hover .pll {stroke-width:3;}
  #areas:hover .pg_6:hover .pldlm {stroke-width:2;}
  #areas:hover .pg_6:hover .thick {stroke-width:12;}
  #areas:hover .pg_7:hover .pl {opacity:1;}
  #areas:hover .pg_7:hover .pll {stroke-width:3;}
  #areas:hover .pg_7:hover .pldlm {stroke-width:2;}
  #areas:hover .pg_7:hover .thick {stroke-width:12;}
  #lines .pl {transition: all 0.2s ease;}
  #lines:hover .pl {opacity:0.3;}
  #lines:hover .thick {stroke-width:1;}
  #lines:hover .pl_1:hover .pl {opacity:1;}
  #lines:hover .pl_1:hover .pll {stroke-width:3;}
  #lines:hover .pl_1:hover .pldlm {stroke-width:2;}
  #lines:hover .pl_1:hover .thick {stroke-width:12;}
  #lines:hover .pl_2:hover .pl {opacity:1;}
  #lines:hover .pl_2:hover .pll {stroke-width:3;}
  #lines:hover .pl_2:hover .pldlm {stroke-width:2;}
  #lines:hover .pl_2:hover .thick {stroke-width:12;}
  #lines:hover .pl_3:hover .pl {opacity:1;}
  #lines:hover .pl_3:hover .pll {stroke-width:3;}
  #lines:hover .pl_3:hover .pldlm {stroke-width:2;}
  #lines:hover .pl_3:hover .thick {stroke-width:12;}
  #lines:hover .pl_4:hover .pl {opacity:1;}
  #lines:hover .pl_4:hover .pll {stroke-width:3;}
  #lines:hover .pl_4:hover .pldlm {stroke-width:2;}
  #lines:hover .pl_4:hover .thick {stroke-width:12;}
  #lines:hover .pl_5:hover .pl {opacity:1;}
  #lines:hover .pl_5:hover .pll {stroke-width:3;}
  #lines:hover .pl_5:hover .pldlm {stroke-width:2;}
  #lines:hover .pl_5:hover .thick {stroke-width:12;}
  #lines:hover .pl_6:hover .pl {opacity:1;}
  #lines:hover .pl_6:hover .pll {stroke-width:3;}
  #lines:hover .pl_6:hover .pldlm {stroke-width:2;}
  #lines:hover .pl_6:hover .thick {stroke-width:12;}
  #lines:hover .pl_7:hover .pl {opacity:1;}
  #lines:hover .pl_7:hover .pll {stroke-width:3;}
  #lines:hover .pl_7:hover .pldlm {stroke-width:2;}
  #lines:hover .pl_7:hover .thick {stroke-width:12;}
  #lines:hover .pl_8:hover .pl {opacity:1;}
  #lines:hover .pl_8:hover .pll {stroke-width:3;}
  #lines:hover .pl_8:hover .pldlm {stroke-width:2;}
  #lines:hover .pl_8:hover .thick {stroke-width:12;}
  #lines:hover .pl_9:hover .pl {opacity:1;}
  #lines:hover .pl_9:hover .pll {stroke-width:3;}
  #lines:hover .pl_9:hover .pldlm {stroke-width:2;}
  #lines:hover .pl_9:hover .thick {stroke-width:12;}
  #lines:hover .pl_10:hover .pl {opacity:1;}
  #lines:hover .pl_10:hover .pll {stroke-width:3;}
  #lines:hover .pl_10:hover .pldlm {stroke-width:2;}
  #lines:hover .pl_10:hover .thick {stroke-width:12;}
  #lines:hover .pl_11:hover .pl {opacity:1;}
  #lines:hover .pl_11:hover .pll {stroke-width:3;}
  #lines:hover .pl_11:hover .pldlm {stroke-width:2;}
  #lines:hover .pl_11:hover .thick {stroke-width:12;}
  #lines:hover .pl_12:hover .pl {opacity:1;}
  #lines:hover .pl_12:hover .pll {stroke-width:3;}
  #lines:hover .pl_12:hover .pldlm {stroke-width:2;}
  #lines:hover .pl_12:hover .thick {stroke-width:12;}
  #lines:hover .pl_13:hover .pl {opacity:1;}
  #lines:hover .pl_13:hover .pll {stroke-width:3;}
  #lines:hover .pl_13:hover .pldlm {stroke-width:2;}
  #lines:hover .pl_13:hover .thick {stroke-width:12;}
  #lines:hover .pl_14:hover .pl {opacity:1;}
  #lines:hover .pl_14:hover .pll {stroke-width:3;}
  #lines:hover .pl_14:hover .pldlm {stroke-width:2;}
  #lines:hover .pl_14:hover .thick {stroke-width:12;}
  #lines:hover .pl_15:hover .pl {opacity:1;}
  #lines:hover .pl_15:hover .pll {stroke-width:3;}
  #lines:hover .pl_15:hover .pldlm {stroke-width:2;}
  #lines:hover .pl_15:hover .thick {stroke-width:12;}
  #lines:hover .pl_16:hover .pl {opacity:1;}
  #lines:hover .pl_16:hover .pll {stroke-width:3;}
  #lines:hover .pl_16:hover .pldlm {stroke-width:2;}
  #lines:hover .pl_16:hover .thick {stroke-width:12;}
  #lines:hover .pl_17:hover .pl {opacity:1;}
  #lines:hover .pl_17:hover .pll {stroke-width:3;}
  #lines:hover .pl_17:hover .pldlm {stroke-width:2;}
  #lines:hover .pl_17:hover .thick {stroke-width:12;}
  #lines:hover .pl_18:hover .pl {opacity:1;}
  #lines:hover .pl_18:hover .pll {stroke-width:3;}
  #lines:hover .pl_18:hover .pldlm {stroke-width:2;}
  #lines:hover .pl_18:hover .thick {stroke-width:12;}
  #lines:hover .pl_19:hover .pl {opacity:1;}
  #lines:hover .pl_19:hover .pll {stroke-width:3;}
  #lines:hover .pl_19:hover .pldlm {stroke-width:2;}
  #lines:hover .pl_19:hover .thick {stroke-width:12;}
  #lines:hover .pl_20:hover .pl {opacity:1;}
  #lines:hover .pl_20:hover .pll {stroke-width:3;}
  #lines:hover .pl_20:hover .pldlm {stroke-width:2;}
  #lines:hover .pl_20:hover .thick {stroke-width:12;}
  #lines:hover .pl_21:hover .pl {opacity:1;}
  #lines:hover .pl_21:hover .pll {stroke-width:3;}
  #lines:hover .pl_21:hover .pldlm {stroke-width:2;}
  #lines:hover .pl_21:hover .thick {stroke-width:12;}
</style>
<defs>
  <clipPath id="axis_clip"><rect x="145.8" y="54.2" width="761.2" height="505.8" /></clipPath>
  <path id="line_y" d="M 0,53.993 v 506.187" stroke="#FFF" stroke-opacity="0.15" stroke-width="1.00"/>
  <path id="line_x" d="M 145.600,0 h 761.600" stroke="#FFF" stroke-opacity="0.15" stroke-width="1.00"/>
  <path id="tick_y" d="M 145.600,0 h -6.000" stroke="#808080" stroke-width="0.90"/>
  <path id="tick_x" d="M 0,560.180 v 6.000" stroke="#808080" stroke-width="0.90"/>
  <symbol id="line_1" viewBox="0 0 1200.000 674.916">
<polyline class="pl" points="87.0,70.1 145.6,70.1 145.6,73.3 204.2,73.3 204.2,80.4 262.8,80.4 262.8,80.7 321.4,80.7 321.4,74.1 379.9,74.1 379.9,66.0 438.5,66.0 438.5,62.3 497.1,62.3 497.1,63.8 555.7,63.8 555.7,64.2 614.3,64.2 614.3,65.5 672.9,65.5 672.9,64.8 731.4,64.8 731.4,58.1 790.0,58.1 790.0,54.6 848.6,54.6 848.6,54.6 907.2,54.6" stroke="#000" stroke-width="0.90" stroke-opacity="1.00" fill="none" clip-path="url(#axis_clip)"/>
  </symbol>
  <symbol id="line_2" viewBox="0 0 1200.000 674.916">
<polyline class="pl" points="87.0,70.2 145.6,70.2 145.6,73.5 204.2,73.5 204.2,80.7 262.8,80.7 262.8,81.1 321.4,81.1 321.4,74.6 379.9,74.6 379.9,66.4 438.5,66.4 438.5,62.8 497.1,62.8 497.1,65.1 555.7,65.1 555.7,66.9 614.3,66.9 614.3,77.3 672.9,77.3 672.9,88.0 731.4,88.0 731.4,76.8 790.0,76.8 790.0,75.8 848.6,75.8 848.6,74.0 907.2,74.0" stroke="#000" stroke-width="0.90" stroke-opacity="1.00" fill="none" clip-path="url(#axis_clip)"/>
  </symbol>
  <symbol id="line_3" viewBox="0 0 1200.000 674.916">
<polyline class="pl" points="87.0,70.2 145.6,70.2 145.6,73.5 204.2,73.5 204.2,80.7 262.8,80.7 262.8,81.1 321.4,81.1 321.4,74.6 379.9,74.6 379.9,66.4 438.5,66.4 438.5,62.8 497.1,62.8 497.1,66.3 555.7,66.3 555.7,68.7 614.3,68.7 614.3,87.3 672.9,87.3 672.9,111.8 731.4,111.8 731.4,102.5 790.0,102.5 790.0,98.2 848.6,98.2 848.6,90.9 907.2,90.9" stroke="#000" stroke-width="0.90" stroke-opacity="1.00" fill="none" clip-path="url(#axis_clip)"/>
  </symbol>
  <symbol id="line_4" viewBox="0 0 1200.000 674.916">
<polyline class="pl" points="87.0,71.8 145.6,71.8 145.6,75.9 204.2,75.9 204.2,86.3 262.8,86.3 262.8,88.7 321.4,88.7 321.4,82.7 379.9,82.7 379.9,76.9 438.5,76.9 438.5,79.7 497.1,79.7 497.1,87.9 555.7,87.9 555.7,97.4 614.3,97.4 614.3,168.5 672.9,168.5 672.9,258.8 731.4,258.8 731.4,275.0 790.0,275.0 790.0,281.3 848.6,281.3 848.6,288.9 907.2,288.9" stroke="#000" stroke-width="0.90" stroke-opacity="1.00" fill="none" clip-path="url(#axis_clip)"/>
  </symbol>
  <symbol id="line_5" viewBox="0 0 1200.000 674.916">
<polyline class="pl" points="87.0,98.3 145.6,98.3 145.6,122.3 204.2,122.3 204.2,131.1 262.8,131.1 262.8,134.8 321.4,134.8 321.4,121.4 379.9,121.4 379.9,105.0 438.5,105.0 438.5,112.8 497.1,112.8 497.1,120.9 555.7,120.9 555.7,133.4 614.3,133.4 614.3,202.8 672.9,202.8 672.9,295.8 731.4,295.8 731.4,320.0 790.0,320.0 790.0,327.0 848.6,327.0 848.6,335.7 907.2,335.7" stroke="#000" stroke-width="0.90" stroke-opacity="1.00" fill="none" clip-path="url(#axis_clip)"/>
  </symbol>
  <symbol id="line_6" viewBox="0 0 1200.000 674.916">
<polyline class="pl" points="87.0,296.5 145.6,296.5 145.6,290.1 204.2,290.1 204.2,286.6 262.8,286.6 262.8,280.6 321.4,280.6 321.4,278.9 379.9,278.9 379.9,269.8 438.5,269.8 438.5,273.2 497.1,273.2 497.1,299.8 555.7,299.8 555.7,358.0 614.3,358.0 614.3,393.1 672.9,393.1 672.9,446.2 731.4,446.2 731.4,459.1 790.0,459.1 790.0,470.3 848.6,470.3 848.6,487.8 907.2,487.8" stroke="#000" stroke-width="0.90" stroke-opacity="1.00" fill="none" clip-path="url(#axis_clip)"/>
  </symbol>
  <symbol id="line_7" viewBox="0 0 1200.000 674.916">
<polyline class="pl" points="87.0,70.2 145.6,70.2 145.6,73.5 204.2,73.5 204.2,80.7 262.8,80.7 262.8,81.1 321.4,81.1 321.4,74.6 379.9,74.6 379.9,66.4 438.5,66.4 438.5,62.8 497.1,62.8 497.1,65.1 555.7,65.1 555.7,66.9 614.3,66.9 614.3,77.3 672.9,77.3 672.9,88.0 731.4,88.0 731.4,76.8 790.0,76.8 790.0,75.8 848.6,75.8 848.6,74.0 907.2,74.0" stroke="#000" stroke-width="0.90" stroke-opacity="1.00" fill="none" clip-path="url(#axis_clip)"/>
  </symbol>
  <symbol id="line_8" viewBox="0 0 1200.000 674.916">
<polyline class="pl" points="87.0,70.2 145.6,70.2 145.6,73.5 204.2,73.5 204.2,80.7 262.8,80.7 262.8,81.1 321.4,81.1 321.4,74.6 379.9,74.6 379.9,66.4 438.5,66.4 438.5,62.8 497.1,62.8 497.1,66.3 555.7,66.3 555.7,68.7 614.3,68.7 614.3,87.3 672.9,87.3 672.9,111.8 731.4,111.8 731.4,102.5 790.0,102.5 790.0,98.2 848.6,98.2 848.6,90.9 907.2,90.9" stroke="#000" stroke-width="0.90" stroke-opacity="1.00" fill="none" clip-path="url(#axis_clip)"/>
  </symbol>
  <symbol id="line_9" viewBox="0 0 1200.000 674.916">
<polyline class="pl" points="87.0,71.8 145.6,71.8 145.6,75.9 204.2,75.9 204.2,86.3 262.8,86.3 262.8,88.7 321.4,88.7 321.4,82.7 379.9,82.7 379.9,76.9 438.5,76.9 438.5,79.7 497.1,79.7 497.1,87.9 555.7,87.9 555.7,97.4 614.3,97.4 614.3,168.5 672.9,168.5 672.9,258.8 731.4,258.8 731.4,275.0 790.0,275.0 790.0,281.3 848.6,281.3 848.6,288.9 907.2,288.9" stroke="#000" stroke-width="0.90" stroke-opacity="1.00" fill="none" clip-path="url(#axis_clip)"/>
  </symbol>
  <symbol id="line_10" viewBox="0 0 1200.000 674.916">
<polyline class="pl" points="87.0,98.3 145.6,98.3 145.6,122.3 204.2,122.3 204.2,131.1 262.8,131.1 262.8,134.8 321.4,134.8 321.4,121.4 379.9,121.4 379.9,105.0 438.5,105.0 438.5,112.8 497.1,112.8 497.1,120.9 555.7,120.9 555.7,133.4 614.3,133.4 614.3,202.8 672.9,202.8 672.9,295.8 731.4,295.8 731.4,320.0 790.0,320.0 790.0,327.0 848.6,327.0 848.6,335.7 907.2,335.7" stroke="#000" stroke-width="0.90" stroke-opacity="1.00" fill="none" clip-path="url(#axis_clip)"/>
  </symbol>
  <symbol id="line_11" viewBox="0 0 1200.000 674.916">
<polyline class="pl" points="87.0,296.5 145.6,296.5 145.6,290.1 204.2,290.1 204.2,286.6 262.8,286.6 262.8,280.6 321.4,280.6 321.4,278.9 379.9,278.9 379.9,269.8 438.5,269.8 438.5,273.2 497.1,273.2 497.1,299.8 555.7,299.8 555.7,358.0 614.3,358.0 614.3,393.1 672.9,393.1 672.9,446.2 731.4,446.2 731.4,459.1 790.0,459.1 790.0,470.3 848.6,470.3 848.6,487.8 907.2,487.8" stroke="#000" stroke-width="0.90" stroke-opacity="1.00" fill="none" clip-path="url(#axis_clip)"/>
  </symbol>
  <symbol id="line_12" viewBox="0 0 1200.000 674.916">
<polyline class="pl" points="87.0,70.2 145.6,70.2 145.6,73.5 204.2,73.5 204.2,80.7 262.8,80.7 262.8,81.1 321.4,81.1 321.4,74.6 379.9,74.6 379.9,66.4 438.5,66.4 438.5,62.8 497.1,62.8 497.1,66.3 555.7,66.3 555.7,68.7 614.3,68.7 614.3,87.3 672.9,87.3 672.9,111.8 731.4,111.8 731.4,102.5 790.0,102.5 790.0,98.2 848.6,98.2 848.6,90.9 907.2,90.9" stroke="#000" stroke-width="0.90" stroke-opacity="1.00" fill="none" clip-path="url(#axis_clip)"/>
  </symbol>
  <symbol id="line_13" viewBox="0 0 1200.000 674.916">
<polyline class="pl" points="87.0,71.8 145.6,71.8 145.6,75.9 204.2,75.9 204.2,86.3 262.8,86.3 262.8,88.7 321.4,88.7 321.4,82.7 379.9,82.7 379.9,76.9 438.5,76.9 438.5,79.7 497.1,79.7 497.1,87.9 555.7,87.9 555.7,97.4 614.3,97.4 614.3,168.5 672.9,168.5 672.9,258.8 731.4,258.8 731.4,275.0 790.0,275.0 790.0,281.3 848.6,281.3 848.6,288.9 907.2,288.9" stroke="#000" stroke-width="0.90" stroke-opacity="1.00" fill="none" clip-path="url(#axis_clip)"/>
  </symbol>
  <symbol id="line_14" viewBox="0 0 1200.000 674.916">
<polyline class="pl" points="87.0,98.3 145.6,98.3 145.6,122.3 204.2,122.3 204.2,131.1 262.8,131.1 262.8,134.8 321.4,134.8 321.4,121.4 379.9,121.4 379.9,105.0 438.5,105.0 438.5,112.8 497.1,112.8 497.1,120.9 555.7,120.9 555.7,133.4 614.3,133.4 614.3,202.8 672.9,202.8 672.9,295.8 731.4,295.8 731.4,320.0 790.0,320.0 790.0,327.0 848.6,327.0 848.6,335.7 907.2,335.7" stroke="#000" stroke-width="0.90" stroke-opacity="1.00" fill="none" clip-path="url(#axis_clip)"/>
  </symbol>
  <symbol id="line_15" viewBox="0 0 1200.000 674.916">
<polyline class="pl" points="87.0,296.5 145.6,296.5 145.6,290.1 204.2,290.1 204.2,286.6 262.8,286.6 262.8,280.6 321.4,280.6 321.4,278.9 379.9,278.9 379.9,269.8 438.5,269.8 438.5,273.2 497.1,273.2 497.1,299.8 555.7,299.8 555.7,358.0 614.3,358.0 614.3,393.1 672.9,393.1 672.9,446.2 731.4,446.2 731.4,459.1 790.0,459.1 790.0,470.3 848.6,470.3 848.6,487.8 907.2,487.8" stroke="#000" stroke-width="0.90" stroke-opacity="1.00" fill="none" clip-path="url(#axis_clip)"/>
  </symbol>
  <symbol id="line_16" viewBox="0 0 1200.000 674.916">
<polyline class="pl" points="87.0,71.8 145.6,71.8 145.6,75.9 204.2,75.9 204.2,86.3 262.8,86.3 262.8,88.7 321.4,88.7 321.4,82.7 379.9,82.7 379.9,76.9 438.5,76.9 438.5,79.7 497.1,79.7 497.1,87.9 555.7,87.9 555.7,97.4 614.3,97.4 614.3,168.5 672.9,168.5 672.9,258.8 731.4,258.8 731.4,275.0 790.0,275.0 790.0,281.3 848.6,281.3 848.6,288.9 907.2,288.9" stroke="#000" stroke-width="0.90" stroke-opacity="1.00" fill="none" clip-path="url(#axis_clip)"/>
  </symbol>
  <symbol id="line_17" viewBox="0 0 1200.000 674.916">
<polyline class="pl" points="87.0,98.3 145.6,98.3 145.6,122.3 204.2,122.3 204.2,131.1 262.8,131.1 262.8,134.8 321.4,134.8 321.4,121.4 379.9,121.4 379.9,105.0 438.5,105.0 438.5,112.8 497.1,112.8 497.1,120.9 555.7,120.9 555.7,133.4 614.3,133.4 614.3,202.8 672.9,202.8 672.9,295.8 731.4,295.8 731.4,320.0 790.0,320.0 790.0,327.0 848.6,327.0 848.6,335.7 907.2,335.7" stroke="#000" stroke-width="0.90" stroke-opacity="1.00" fill="none" clip-path="url(#axis_clip)"/>
  </symbol>
  <symbol id="line_18" viewBox="0 0 1200.000 674.916">
<polyline class="pl" points="87.0,296.5 145.6,296.5 145.6,290.1 204.2,290.1 204.2,286.6 262.8,286.6 262.8,280.6 321.4,280.6 321.4,278.9 379.9,278.9 379.9,269.8 438.5,269.8 438.5,273.2 497.1,273.2 497.1,299.8 555.7,299.8 555.7,358.0 614.3,358.0 614.3,393.1 672.9,393.1 672.9,446.2 731.4,446.2 731.4,459.1 790.0,459.1 790.0,470.3 848.6,470.3 848.6,487.8 907.2,487.8" stroke="#000" stroke-width="0.90" stroke-opacity="1.00" fill="none" clip-path="url(#axis_clip)"/>
  </symbol>
  <symbol id="line_19" viewBox="0 0 1200.000 674.916">
<polyline class="pl" points="87.0,98.3 145.6,98.3 145.6,122.3 204.2,122.3 204.2,131.1 262.8,131.1 262.8,134.8 321.4,134.8 321.4,121.4 379.9,121.4 379.9,105.0 438.5,105.0 438.5,112.8 497.1,112.8 497.1,120.9 555.7,120.9 555.7,133.4 614.3,133.4 614.3,202.8 672.9,202.8 672.9,295.8 731.4,295.8 731.4,320.0 790.0,320.0 790.0,327.0 848.6,327.0 848.6,335.7 907.2,335.7" stroke="#000" stroke-width="0.90" stroke-opacity="1.00" fill="none" clip-path="url(#axis_clip)"/>
  </symbol>
  <symbol id="line_20" viewBox="0 0 1200.000 674.916">
<polyline class="pl" points="87.0,296.5 145.6,296.5 145.6,290.1 204.2,290.1 204.2,286.6 262.8,286.6 262.8,280.6 321.4,280.6 321.4,278.9 379.9,278.9 379.9,269.8 438.5,269.8 438.5,273.2 497.1,273.2 497.1,299.8 555.7,299.8 555.7,358.0 614.3,358.0 614.3,393.1 672.9,393.1 672.9,446.2 731.4,446.2 731.4,459.1 790.0,459.1 790.0,470.3 848.6,470.3 848.6,487.8 907.2,487.8" stroke="#000" stroke-width="0.90" stroke-opacity="1.00" fill="none" clip-path="url(#axis_clip)"/>
  </symbol>
  <symbol id="line_21" viewBox="0 0 1200.000 674.916">
<polyline class="pl" points="87.0,296.5 145.6,296.5 145.6,290.1 204.2,290.1 204.2,286.6 262.8,286.6 262.8,280.6 321.4,280.6 321.4,278.9 379.9,278.9 379.9,269.8 438.5,269.8 438.5,273.2 497.1,273.2 497.1,299.8 555.7,299.8 555.7,358.0 614.3,358.0 614.3,393.1 672.9,393.1 672.9,446.2 731.4,446.2 731.4,459.1 790.0,459.1 790.0,470.3 848.6,470.3 848.6,487.8 907.2,487.8" stroke="#000" stroke-width="0.90" stroke-opacity="1.00" fill="none" clip-path="url(#axis_clip)"/>
  </symbol>
</defs>
<g id="main">
<text class="ticklabel ytl" transform="translate(128.8,568.3)">0 %</text>
<text class="ticklabel ytl" transform="translate(128.8,467.0)">20 %</text>
<text class="ticklabel ytl" transform="translate(128.8,365.8)">40 %</text>
<text class="ticklabel ytl" transform="translate(128.8,264.6)">60 %</text>
<text class="ticklabel ytl" transform="translate(128.8,163.3)">80 %</text>
<text class="ticklabel ytl" transform="translate(128.8,62.1)">100 %</text>
<g id="areas">
  <g class="pg_7">
    <polygon class="pl" points="87.0,54.0 145.6,54.0 145.6,54.0 204.2,54.0 204.2,54.0 262.8,54.0 262.8,54.0 321.4,54.0 321.4,54.0 379.9,54.0 379.9,54.0 438.5,54.0 438.5,54.0 497.1,54.0 497.1,54.0 555.7,54.0 555.7,54.0 614.3,54.0 614.3,54.0 672.9,54.0 672.9,54.0 731.4,54.0 731.4,54.0 790.0,54.0 790.0,54.0 848.6,54.0 848.6,54.0 907.2,54.0 907.2,54.6 848.6,54.6 848.6,54.6 790.0,54.6 790.0,58.1 731.4,58.1 731.4,64.8 672.9,64.8 672.9,65.5 614.3,65.5 614.3,64.2 555.7,64.2 555.7,63.8 497.1,63.8 497.1,62.3 438.5,62.3 438.5,66.0 379.9,66.0 379.9,74.1 321.4,74.1 321.4,80.7 262.8,80.7 262.8,80.4 204.2,80.4 204.2,73.3 145.6,73.3 145.6,70.1 87.0,70.1" stroke="none" stroke-width="0.9000"  fill="#808080" clip-path="url(#axis_clip)"/>
    <text class="pl" transform="translate(925.2,54.0)" dy="7.6" font-size="25.20" fill="#808080" stroke="none">Others &#60;1%</text>
    <text class="pl" transform="translate(145.6,47.2)" dy="0.0" font-size="27.00" fill="#808080" stroke="none">Italian new passenger car sales by type: Annual</text>
  </g>
  <g class="pg_6">
    <polygon class="pl" points="87.0,70.1 145.6,70.1 145.6,73.3 204.2,73.3 204.2,80.4 262.8,80.4 262.8,80.7 321.4,80.7 321.4,74.1 379.9,74.1 379.9,66.0 438.5,66.0 438.5,62.3 497.1,62.3 497.1,63.8 555.7,63.8 555.7,64.2 614.3,64.2 614.3,65.5 672.9,65.5 672.9,64.8 731.4,64.8 731.4,58.1 790.0,58.1 790.0,54.6 848.6,54.6 848.6,54.6 907.2,54.6 907.2,74.0 848.6,74.0 848.6,75.8 790.0,75.8 790.0,76.8 731.4,76.8 731.4,88.0 672.9,88.0 672.9,77.3 614.3,77.3 614.3,66.9 555.7,66.9 555.7,65.1 497.1,65.1 497.1,62.8 438.5,62.8 438.5,66.4 379.9,66.4 379.9,74.6 321.4,74.6 321.4,81.1 262.8,81.1 262.8,80.7 204.2,80.7 204.2,73.5 145.6,73.5 145.6,70.2 87.0,70.2" stroke="none" stroke-width="0.9000"  fill="#6298C6" clip-path="url(#axis_clip)"/>
    <text class="pl" transform="translate(925.2,79.0)" dy="7.6" font-size="25.20" fill="#6298C6" stroke="none">Battery electric 4%</text>
  </g>
  <g class="pg_5">
    <polygon class="pl" points="87.0,70.2 145.6,70.2 145.6,73.5 204.2,73.5 204.2,80.7 262.8,80.7 262.8,81.1 321.4,81.1 321.4,74.6 379.9,74.6 379.9,66.4 438.5,66.4 438.5,62.8 497.1,62.8 497.1,65.1 555.7,65.1 555.7,66.9 614.3,66.9 614.3,77.3 672.9,77.3 672.9,88.0 731.4,88.0 731.4,76.8 790.0,76.8 790.0,75.8 848.6,75.8 848.6,74.0 907.2,74.0 907.2,90.9 848.6,90.9 848.6,98.2 790.0,98.2 790.0,102.5 731.4,102.5 731.4,111.8 672.9,111.8 672.9,87.3 614.3,87.3 614.3,68.7 555.7,68.7 555.7,66.3 497.1,66.3 497.1,62.8 438.5,62.8 438.5,66.4 379.9,66.4 379.9,74.6 321.4,74.6 321.4,81.1 262.8,81.1 262.8,80.7 204.2,80.7 204.2,73.5 145.6,73.5 145.6,70.2 87.0,70.2" stroke="none" stroke-width="0.9000"  fill="#77AC30" clip-path="url(#axis_clip)"/>
    <text class="pl" transform="translate(925.2,104.1)" dy="7.6" font-size="25.20" fill="#77AC30" stroke="none">Plugin hybrid 3%</text>
  </g>
  <g class="pg_4">
    <polygon class="pl" points="87.0,70.2 145.6,70.2 145.6,73.5 204.2,73.5 204.2,80.7 262.8,80.7 262.8,81.1 321.4,81.1 321.4,74.6 379.9,74.6 379.9,66.4 438.5,66.4 438.5,62.8 497.1,62.8 497.1,66.3 555.7,66.3 555.7,68.7 614.3,68.7 614.3,87.3 672.9,87.3 672.9,111.8 731.4,111.8 731.4,102.5 790.0,102.5 790.0,98.2 848.6,98.2 848.6,90.9 907.2,90.9 907.2,288.9 848.6,288.9 848.6,281.3 790.0,281.3 790.0,275.0 731.4,275.0 731.4,258.8 672.9,258.8 672.9,168.5 614.3,168.5 614.3,97.4 555.7,97.4 555.7,87.9 497.1,87.9 497.1,79.7 438.5,79.7 438.5,76.9 379.9,76.9 379.9,82.7 321.4,82.7 321.4,88.7 262.8,88.7 262.8,86.3 204.2,86.3 204.2,75.9 145.6,75.9 145.6,71.8 87.0,71.8" stroke="none" stroke-width="0.9000"  fill="#91AC6E" clip-path="url(#axis_clip)"/>
    <text class="pl" transform="translate(925.2,189.9)" dy="7.6" font-size="25.20" fill="#91AC6E" stroke="none">Non-plugin hybrid 39%</text>
  </g>
  <g class="pg_3">
    <polygon class="pl" points="87.0,71.8 145.6,71.8 145.6,75.9 204.2,75.9 204.2,86.3 262.8,86.3 262.8,88.7 321.4,88.7 321.4,82.7 379.9,82.7 379.9,76.9 438.5,76.9 438.5,79.7 497.1,79.7 497.1,87.9 555.7,87.9 555.7,97.4 614.3,97.4 614.3,168.5 672.9,168.5 672.9,258.8 731.4,258.8 731.4,275.0 790.0,275.0 790.0,281.3 848.6,281.3 848.6,288.9 907.2,288.9 907.2,335.7 848.6,335.7 848.6,327.0 790.0,327.0 790.0,320.0 731.4,320.0 731.4,295.8 672.9,295.8 672.9,202.8 614.3,202.8 614.3,133.4 555.7,133.4 555.7,120.9 497.1,120.9 497.1,112.8 438.5,112.8 438.5,105.0 379.9,105.0 379.9,121.4 321.4,121.4 321.4,134.8 262.8,134.8 262.8,131.1 204.2,131.1 204.2,122.3 145.6,122.3 145.6,98.3 87.0,98.3" stroke="none" stroke-width="0.9000"  fill="#85578F" clip-path="url(#axis_clip)"/>
    <text class="pl" transform="translate(925.2,312.3)" dy="7.6" font-size="25.20" fill="#85578F" stroke="none">LPG 9%</text>
  </g>
  <g class="pg_2">
    <polygon class="pl" points="87.0,98.3 145.6,98.3 145.6,122.3 204.2,122.3 204.2,131.1 262.8,131.1 262.8,134.8 321.4,134.8 321.4,121.4 379.9,121.4 379.9,105.0 438.5,105.0 438.5,112.8 497.1,112.8 497.1,120.9 555.7,120.9 555.7,133.4 614.3,133.4 614.3,202.8 672.9,202.8 672.9,295.8 731.4,295.8 731.4,320.0 790.0,320.0 790.0,327.0 848.6,327.0 848.6,335.7 907.2,335.7 907.2,487.8 848.6,487.8 848.6,470.3 790.0,470.3 790.0,459.1 731.4,459.1 731.4,446.2 672.9,446.2 672.9,393.1 614.3,393.1 614.3,358.0 555.7,358.0 555.7,299.8 497.1,299.8 497.1,273.2 438.5,273.2 438.5,269.8 379.9,269.8 379.9,278.9 321.4,278.9 321.4,280.6 262.8,280.6 262.8,286.6 204.2,286.6 204.2,290.1 145.6,290.1 145.6,296.5 87.0,296.5" stroke="none" stroke-width="0.9000"  fill="#7B553E" clip-path="url(#axis_clip)"/>
    <text class="pl" transform="translate(925.2,411.8)" dy="7.6" font-size="25.20" fill="#7B553E" stroke="none">Petrol 30%</text>
  </g>
  <g class="pg_1">
    <polygon class="pl" points="87.0,296.5 145.6,296.5 145.6,290.1 204.2,290.1 204.2,286.6 262.8,286.6 262.8,280.6 321.4,280.6 321.4,278.9 379.9,278.9 379.9,269.8 438.5,269.8 438.5,273.2 497.1,273.2 497.1,299.8 555.7,299.8 555.7,358.0 614.3,358.0 614.3,393.1 672.9,393.1 672.9,446.2 731.4,446.2 731.4,459.1 790.0,459.1 790.0,470.3 848.6,470.3 848.6,487.8 907.2,487.8 907.2,560.2 87.0,560.2" stroke="none" stroke-width="0.9000"  fill="#7B6E57" clip-path="url(#axis_clip)"/>
    <text class="pl" transform="translate(925.2,524.0)" dy="7.6" font-size="25.20" fill="#7B6E57" stroke="none">Diesel 14%</text>
  </g>
</g>
<g id="lines">
  <g class="pl_1">
    <use xlink:href="#line_1" class="thick" stroke="#000" stroke-width="3" opacity="0"/>
    <use xlink:href="#line_1" class="pl pll" stroke="#000" stroke-width="0.90"/>
  </g>
  <g class="pl_2">
    <use xlink:href="#line_2" class="thick" stroke="#000" stroke-width="3" opacity="0"/>
    <use xlink:href="#line_2" class="pl pll" stroke="#000" stroke-width="0.90"/>
  </g>
  <g class="pl_3">
    <use xlink:href="#line_3" class="thick" stroke="#000" stroke-width="3" opacity="0"/>
    <use xlink:href="#line_3" class="pl pll" stroke="#000" stroke-width="0.90"/>
  </g>
  <g class="pl_4">
    <use xlink:href="#line_4" class="thick" stroke="#000" stroke-width="3" opacity="0"/>
    <use xlink:href="#line_4" class="pl pll" stroke="#000" stroke-width="0.90"/>
  </g>
  <g class="pl_5">
    <use xlink:href="#line_5" class="thick" stroke="#000" stroke-width="3" opacity="0"/>
    <use xlink:href="#line_5" class="pl pll" stroke="#000" stroke-width="0.90"/>
  </g>
  <g class="pl_6">
    <use xlink:href="#line_6" class="thick" stroke="#000" stroke-width="3" opacity="0"/>
    <use xlink:href="#line_6" class="pl pll" stroke="#000" stroke-width="0.90"/>
  </g>
  <g class="pl_7">
    <use xlink:href="#line_7" class="thick" stroke="#000" stroke-width="3" opacity="0"/>
    <use xlink:href="#line_7" class="pl pll" stroke="#000" stroke-width="0.90"/>
  </g>
  <g class="pl_8">
    <use xlink:href="#line_8" class="thick" stroke="#000" stroke-width="3" opacity="0"/>
    <use xlink:href="#line_8" class="pl pll" stroke="#000" stroke-width="0.90"/>
  </g>
  <g class="pl_9">
    <use xlink:href="#line_9" class="thick" stroke="#000" stroke-width="3" opacity="0"/>
    <use xlink:href="#line_9" class="pl pll" stroke="#000" stroke-width="0.90"/>
  </g>
  <g class="pl_10">
    <use xlink:href="#line_10" class="thick" stroke="#000" stroke-width="3" opacity="0"/>
    <use xlink:href="#line_10" class="pl pll" stroke="#000" stroke-width="0.90"/>
  </g>
  <g class="pl_11">
    <use xlink:href="#line_11" class="thick" stroke="#000" stroke-width="3" opacity="0"/>
    <use xlink:href="#line_11" class="pl pll" stroke="#000" stroke-width="0.90"/>
  </g>
  <g class="pl_12">
    <use xlink:href="#line_12" class="thick" stroke="#000" stroke-width="3" opacity="0"/>
    <use xlink:href="#line_12" class="pl pll" stroke="#000" stroke-width="0.90"/>
  </g>
  <g class="pl_13">
    <use xlink:href="#line_13" class="thick" stroke="#000" stroke-width="3" opacity="0"/>
    <use xlink:href="#line_13" class="pl pll" stroke="#000" stroke-width="0.90"/>
  </g>
  <g class="pl_14">
    <use xlink:href="#line_14" class="thick" stroke="#000" stroke-width="3" opacity="0"/>
    <use xlink:href="#line_14" class="pl pll" stroke="#000" stroke-width="0.90"/>
  </g>
  <g class="pl_15">
    <use xlink:href="#line_15" class="thick" stroke="#000" stroke-width="3" opacity="0"/>
    <use xlink:href="#line_15" class="pl pll" stroke="#000" stroke-width="0.90"/>
  </g>
  <g class="pl_16">
    <use xlink:href="#line_16" class="thick" stroke="#000" stroke-width="3" opacity="0"/>
    <use xlink:href="#line_16" class="pl pll" stroke="#000" stroke-width="0.90"/>
  </g>
  <g class="pl_17">
    <use xlink:href="#line_17" class="thick" stroke="#000" stroke-width="3" opacity="0"/>
    <use xlink:href="#line_17" class="pl pll" stroke="#000" stroke-width="0.90"/>
  </g>
  <g class="pl_18">
    <use xlink:href="#line_18" class="thick" stroke="#000" stroke-width="3" opacity="0"/>
    <use xlink:href="#line_18" class="pl pll" stroke="#000" stroke-width="0.90"/>
  </g>
  <g class="pl_19">
    <use xlink:href="#line_19" class="thick" stroke="#000" stroke-width="3" opacity="0"/>
    <use xlink:href="#line_19" class="pl pll" stroke="#000" stroke-width="0.90"/>
  </g>
  <g class="pl_20">
    <use xlink:href="#line_20" class="thick" stroke="#000" stroke-width="3" opacity="0"/>
    <use xlink:href="#line_20" class="pl pll" stroke="#000" stroke-width="0.90"/>
  </g>
  <g class="pl_21">
    <use xlink:href="#line_21" class="thick" stroke="#000" stroke-width="3" opacity="0"/>
    <use xlink:href="#line_21" class="pl pll" stroke="#000" stroke-width="0.90"/>
  </g>
</g>
    <text class="pl" transform="translate(174.9,573.0) rotate(-90)" dy="8.1" font-size="27.00" fill="#808080" stroke="none" text-anchor="end">2012</text>
    <text class="pl" transform="translate(233.5,573.0) rotate(-90)" dy="8.1" font-size="27.00" fill="#808080" stroke="none" text-anchor="end">2013</text>
    <text class="pl" transform="translate(292.1,573.0) rotate(-90)" dy="8.1" font-size="27.00" fill="#808080" stroke="none" text-anchor="end">2014</text>
    <text class="pl" transform="translate(350.6,573.0) rotate(-90)" dy="8.1" font-size="27.00" fill="#808080" stroke="none" text-anchor="end">2015</text>
    <text class="pl" transform="translate(409.2,573.0) rotate(-90)" dy="8.1" font-size="27.00" fill="#808080" stroke="none" text-anchor="end">2016</text>
    <text class="pl" transform="translate(467.8,573.0) rotate(-90)" dy="8.1" font-size="27.00" fill="#808080" stroke="none" text-anchor="end">2017</text>
    <text class="pl" transform="translate(526.4,573.0) rotate(-90)" dy="8.1" font-size="27.00" fill="#808080" stroke="none" text-anchor="end">2018</text>
    <text class="pl" transform="translate(585.0,573.0) rotate(-90)" dy="8.1" font-size="27.00" fill="#808080" stroke="none" text-anchor="end">2019</text>
    <text class="pl" transform="translate(643.6,573.0) rotate(-90)" dy="8.1" font-size="27.00" fill="#808080" stroke="none" text-anchor="end">2020</text>
    <text class="pl" transform="translate(702.2,573.0) rotate(-90)" dy="8.1" font-size="27.00" fill="#808080" stroke="none" text-anchor="end">2021</text>
    <text class="pl" transform="translate(760.7,573.0) rotate(-90)" dy="8.1" font-size="27.00" fill="#808080" stroke="none" text-anchor="end">2022</text>
    <text class="pl" transform="translate(819.3,573.0) rotate(-90)" dy="8.1" font-size="27.00" fill="#808080" stroke="none" text-anchor="end">2023</text>
    <text class="pl" transform="translate(877.9,573.0) rotate(-90)" dy="8.1" font-size="27.00" fill="#808080" stroke="none" text-anchor="end">2024</text>
<text transform="translate(157.6,666.1)" font-size="19.80" font-family="Helvetica" fill="#BFBFBF" stroke="none" xml:space="preserve"><a href="https://twitter.com/robbie_andrew" style="fill:#BFBFBF" target="_blank">@robbie_andrew</a>   &#9679;   Data: UNRAE / Lorenzo Grande (Teraton)</text>
<text class="twitlink" transform="translate(157.6,666.1)" opacity="0" font-size="19.80" fill="#BFBFBF" stroke="none" xml:space="preserve"><a href="https://twitter.com/robbie_andrew" style="fill:#BFBFBF" target="_blank">@robbie_andrew</a></text>
  <g class="dl_el" transform="translate(154.6,578.4)">
    <g class="dl_el_balloon">
      <foreignObject x="0" y="0" width="120" height="500">
      <div xmlns="http://www.w3.org/1999/xhtml" class="dl_fe" style="height:60px">
      <p class="dl_fe_p">Find me on Twitter</p>
      </div>
	    </foreignObject>
      <path stroke="#000" fill="#FDFFDF" d="M0,60H60l5,5l5,-5H120"/>
    </g>
  </g>
<use xlink:href="#line_y" transform="translate(145.6,0)"/>
<use xlink:href="#line_y" transform="translate(204.2,0)"/>
<use xlink:href="#line_y" transform="translate(262.8,0)"/>
<use xlink:href="#line_y" transform="translate(321.4,0)"/>
<use xlink:href="#line_y" transform="translate(379.9,0)"/>
<use xlink:href="#line_y" transform="translate(438.5,0)"/>
<use xlink:href="#line_y" transform="translate(497.1,0)"/>
<use xlink:href="#line_y" transform="translate(555.7,0)"/>
<use xlink:href="#line_y" transform="translate(614.3,0)"/>
<use xlink:href="#line_y" transform="translate(672.9,0)"/>
<use xlink:href="#line_y" transform="translate(731.4,0)"/>
<use xlink:href="#line_y" transform="translate(790.0,0)"/>
<use xlink:href="#line_y" transform="translate(848.6,0)"/>
<use xlink:href="#line_y" transform="translate(907.2,0)"/>
<use xlink:href="#line_x" transform="translate(0,560.2)"/>
<use xlink:href="#line_x" transform="translate(0,458.9)"/>
<use xlink:href="#line_x" transform="translate(0,357.7)"/>
<use xlink:href="#line_x" transform="translate(0,256.5)"/>
<use xlink:href="#line_x" transform="translate(0,155.2)"/>
<use xlink:href="#line_x" transform="translate(0,54.0)"/>
<use xlink:href="#tick_x" transform="translate(145.6,0)"/>
<use xlink:href="#tick_x" transform="translate(204.2,0)"/>
<use xlink:href="#tick_x" transform="translate(262.8,0)"/>
<use xlink:href="#tick_x" transform="translate(321.4,0)"/>
<use xlink:href="#tick_x" transform="translate(379.9,0)"/>
<use xlink:href="#tick_x" transform="translate(438.5,0)"/>
<use xlink:href="#tick_x" transform="translate(497.1,0)"/>
<use xlink:href="#tick_x" transform="translate(555.7,0)"/>
<use xlink:href="#tick_x" transform="translate(614.3,0)"/>
<use xlink:href="#tick_x" transform="translate(672.9,0)"/>
<use xlink:href="#tick_x" transform="translate(731.4,0)"/>
<use xlink:href="#tick_x" transform="translate(790.0,0)"/>
<use xlink:href="#tick_x" transform="translate(848.6,0)"/>
<use xlink:href="#tick_x" transform="translate(907.2,0)"/>
<use xlink:href="#tick_y" transform="translate(0,560.2)"/>
<use xlink:href="#tick_y" transform="translate(0,458.9)"/>
<use xlink:href="#tick_y" transform="translate(0,357.7)"/>
<use xlink:href="#tick_y" transform="translate(0,256.5)"/>
<use xlink:href="#tick_y" transform="translate(0,155.2)"/>
<use xlink:href="#tick_y" transform="translate(0,54.0)"/>
<polyline points="145.6,53.993 145.6,560.180 907.2,560.180" stroke="#808080" stroke-width="0.90" fill="none"/>
<g>
<a href="https://creativecommons.org/licenses/by/4.0/">
  <rect x="123.0" y="651.4" width="34" height="17" fill="#FFF" stroke="none"/>
  <g transform="translate(124.0,652.4) scale(0.24)">
  <g><circle fill="#FFF" cx="37.79" cy="28.5" r="28.84"/>
     <circle fill="none" cx="37.79" cy="28.5" r="28.84" stroke="#BFBFBF" stroke-width="5.5"/>
     <path fill="#BFBFBF" d="M37.16,23.19 l-4.29,2.23c-0.458-0.951-1.02-1.62-1.69-2c-0.667-0.38-1.29-0.571-1.86-0.571c-2.86,0-4.29,1.89-4.29,5.66 c0,1.71,0.36,3.08,1.09,4.11c0.724,1.03,1.79,1.54,3.2,1.54c1.87,0,3.18-0.915,3.94-2.74l3.94,2 c-0.838,1.56-2,2.79-3.49,3.69c-1.48,0.896-3.12,1.34-4.91,1.34c-2.86,0-5.16-0.875-6.92-2.63 c-1.75-1.75-2.63-4.19-2.63-7.31c0-3.05,0.886-5.47,2.66-7.26c1.77-1.79,4.01-2.69,6.72-2.69 C32.6,18.56,35.44,20.1,37.16,23.19z
              M55.61,23.19l-4.23,2.23c-0.457-0.951-1.02-1.62-1.69-2 c-0.668-0.38-1.31-0.571-1.91-0.571c-2.86,0-4.29,1.89-4.29,5.66c0,1.71,0.363,3.08,1.09,4.11 c0.723,1.03,1.79,1.54,3.2,1.54c1.87,0,3.18-0.915,3.94-2.74l4,2c-0.875,1.56-2.06,2.79-3.54,3.69 c-1.49,0.9-3.11,1.34-4.86,1.34c-2.9,0-5.21-0.875-6.94-2.63c-1.74-1.75-2.6-4.19-2.6-7.31 c0-3.05,0.885-5.47,2.66-7.26c1.77-1.79,4.01-2.69,6.71-2.69C51.12,18.56,53.944,20.1,55.61,23.19z"/>
  </g></g>
  <g transform="translate(140.2,652.4) scale(0.24)">
  <g><circle fill="#FFF" cx="37.79" cy="28.5" r="28.84"/>
     <circle fill="none" cx="37.79" cy="28.5" r="28.84" stroke="#BFBFBF" stroke-width="5.5"/>
     <path fill="#BFBFBF" d="M46.129,20.557v13.085h-3.656v15.542h-9.944V33.643h-3.656V20.557 c0-0.572,0.2-1.057,0.599-1.457c0.401-0.399,0.887-0.6,1.457-0.6h13.144c0.533,0,1.01,0.2,1.428,0.6 C45.918,19.5,46.129,19.986,46.129,20.557z
              M33.042,12.329c0-3.008,1.485-4.514,4.458-4.514s4.457,1.504,4.457,4.514 c0,2.971-1.486,4.457-4.457,4.457S33.042,15.3,33.042,12.329z"/>
  </g></g>
  </a>
</g>
  <g class="dl_el" transform="translate(69.1,548.4)">
    <g class="dl_el_balloon">
      <foreignObject x="0" y="0" width="250" height="500">
      <div xmlns="http://www.w3.org/1999/xhtml" class="dl_fe" style="height:90px">
      <p class="dl_fe_p">CC-BY: Material may be freely re-used as long as you credit the author</p>
      </div>
	    </foreignObject>
      <path stroke="#000" fill="#FDFFDF" d="M0,90H70l5,5l5,-5H250"/>
    </g>
  </g>
</g>
</svg>
