<svg version="1.1" xmlns="http://www.w3.org/2000/svg" xmlns:xlink="http://www.w3.org/1999/xlink" width="100%" height="100%" viewBox="0 0 1200.000 674.916">
<title>New Zealand new passenger car sales by type: Quarterly</title>
<desc>Created by Robbie Andrew (@robbie_andrew), CICERO Center for International Climate Research. CC-BY: Material may be freely re-used as long as you credit the author</desc>
<style type="text/css">
  #main {font-family:Helvetica,Arial,sans-serif; font-size:27.00px;
         fill-opacity:1; fill:#000000; stroke:none; stroke-linejoin:round; stroke-linecap:round; stroke-width:1.00;}
  a:hover {text-decoration: underline;}
  .marker {stroke-opacity:0;fill-opacity:0;}
  .marker:hover {stroke-opacity:0.5; fill-opacity:1;}
  .ticklabel {font-size:27.00px;fill:#808080;stroke:none;font-family:Helvetica}
  .ytl {text-anchor:end;}
  .dp1 {pointer-events:none;font-size:70%;text-anchor:middle;fill:#000000;}
  .dp2 {pointer-events:none;font-size:70%;text-anchor:middle;fill:#FFFFFF;}
  .numtip {pointer-events:none;}
  .cc {opacity:0.25;}
.dl_fe {background-color:#FDFFDF;display:flex;margin:auto;align-items:center}
.dl_fe_p {font-size:20px;text-align:center;margin:3px}
.dl_el {display:none;pointer-events:none;}
.cc:hover + .dl_el {display:block;}
text:hover + .dl_el {display:block;}
  #areas .pl {transition: all 0.2s ease;}
  #areas:hover .pl {opacity:0.5;}
  #areas:hover .thick {stroke-width:1;}
  #areas:hover .pg_1:hover .pl {opacity:1;}
  #areas:hover .pg_1:hover .pll {stroke-width:3;}
  #areas:hover .pg_1:hover .pldlm {stroke-width:2;}
  #areas:hover .pg_1:hover .thick {stroke-width:12;}
  #areas:hover .pg_2:hover .pl {opacity:1;}
  #areas:hover .pg_2:hover .pll {stroke-width:3;}
  #areas:hover .pg_2:hover .pldlm {stroke-width:2;}
  #areas:hover .pg_2:hover .thick {stroke-width:12;}
  #areas:hover .pg_3:hover .pl {opacity:1;}
  #areas:hover .pg_3:hover .pll {stroke-width:3;}
  #areas:hover .pg_3:hover .pldlm {stroke-width:2;}
  #areas:hover .pg_3:hover .thick {stroke-width:12;}
  #areas:hover .pg_4:hover .pl {opacity:1;}
  #areas:hover .pg_4:hover .pll {stroke-width:3;}
  #areas:hover .pg_4:hover .pldlm {stroke-width:2;}
  #areas:hover .pg_4:hover .thick {stroke-width:12;}
  #areas:hover .pg_5:hover .pl {opacity:1;}
  #areas:hover .pg_5:hover .pll {stroke-width:3;}
  #areas:hover .pg_5:hover .pldlm {stroke-width:2;}
  #areas:hover .pg_5:hover .thick {stroke-width:12;}
  #areas:hover .pg_6:hover .pl {opacity:1;}
  #areas:hover .pg_6:hover .pll {stroke-width:3;}
  #areas:hover .pg_6:hover .pldlm {stroke-width:2;}
  #areas:hover .pg_6:hover .thick {stroke-width:12;}
  #lines .pl {transition: all 0.2s ease;}
  #lines:hover .pl {opacity:0.3;}
  #lines:hover .thick {stroke-width:1;}
  #lines:hover .pl_1:hover .pl {opacity:1;}
  #lines:hover .pl_1:hover .pll {stroke-width:3;}
  #lines:hover .pl_1:hover .pldlm {stroke-width:2;}
  #lines:hover .pl_1:hover .thick {stroke-width:12;}
  #lines:hover .pl_2:hover .pl {opacity:1;}
  #lines:hover .pl_2:hover .pll {stroke-width:3;}
  #lines:hover .pl_2:hover .pldlm {stroke-width:2;}
  #lines:hover .pl_2:hover .thick {stroke-width:12;}
  #lines:hover .pl_3:hover .pl {opacity:1;}
  #lines:hover .pl_3:hover .pll {stroke-width:3;}
  #lines:hover .pl_3:hover .pldlm {stroke-width:2;}
  #lines:hover .pl_3:hover .thick {stroke-width:12;}
  #lines:hover .pl_4:hover .pl {opacity:1;}
  #lines:hover .pl_4:hover .pll {stroke-width:3;}
  #lines:hover .pl_4:hover .pldlm {stroke-width:2;}
  #lines:hover .pl_4:hover .thick {stroke-width:12;}
  #lines:hover .pl_5:hover .pl {opacity:1;}
  #lines:hover .pl_5:hover .pll {stroke-width:3;}
  #lines:hover .pl_5:hover .pldlm {stroke-width:2;}
  #lines:hover .pl_5:hover .thick {stroke-width:12;}
  #lines:hover .pl_6:hover .pl {opacity:1;}
  #lines:hover .pl_6:hover .pll {stroke-width:3;}
  #lines:hover .pl_6:hover .pldlm {stroke-width:2;}
  #lines:hover .pl_6:hover .thick {stroke-width:12;}
  #lines:hover .pl_7:hover .pl {opacity:1;}
  #lines:hover .pl_7:hover .pll {stroke-width:3;}
  #lines:hover .pl_7:hover .pldlm {stroke-width:2;}
  #lines:hover .pl_7:hover .thick {stroke-width:12;}
  #lines:hover .pl_8:hover .pl {opacity:1;}
  #lines:hover .pl_8:hover .pll {stroke-width:3;}
  #lines:hover .pl_8:hover .pldlm {stroke-width:2;}
  #lines:hover .pl_8:hover .thick {stroke-width:12;}
  #lines:hover .pl_9:hover .pl {opacity:1;}
  #lines:hover .pl_9:hover .pll {stroke-width:3;}
  #lines:hover .pl_9:hover .pldlm {stroke-width:2;}
  #lines:hover .pl_9:hover .thick {stroke-width:12;}
  #lines:hover .pl_10:hover .pl {opacity:1;}
  #lines:hover .pl_10:hover .pll {stroke-width:3;}
  #lines:hover .pl_10:hover .pldlm {stroke-width:2;}
  #lines:hover .pl_10:hover .thick {stroke-width:12;}
  #lines:hover .pl_11:hover .pl {opacity:1;}
  #lines:hover .pl_11:hover .pll {stroke-width:3;}
  #lines:hover .pl_11:hover .pldlm {stroke-width:2;}
  #lines:hover .pl_11:hover .thick {stroke-width:12;}
  #lines:hover .pl_12:hover .pl {opacity:1;}
  #lines:hover .pl_12:hover .pll {stroke-width:3;}
  #lines:hover .pl_12:hover .pldlm {stroke-width:2;}
  #lines:hover .pl_12:hover .thick {stroke-width:12;}
  #lines:hover .pl_13:hover .pl {opacity:1;}
  #lines:hover .pl_13:hover .pll {stroke-width:3;}
  #lines:hover .pl_13:hover .pldlm {stroke-width:2;}
  #lines:hover .pl_13:hover .thick {stroke-width:12;}
  #lines:hover .pl_14:hover .pl {opacity:1;}
  #lines:hover .pl_14:hover .pll {stroke-width:3;}
  #lines:hover .pl_14:hover .pldlm {stroke-width:2;}
  #lines:hover .pl_14:hover .thick {stroke-width:12;}
  #lines:hover .pl_15:hover .pl {opacity:1;}
  #lines:hover .pl_15:hover .pll {stroke-width:3;}
  #lines:hover .pl_15:hover .pldlm {stroke-width:2;}
  #lines:hover .pl_15:hover .thick {stroke-width:12;}
</style>
<defs>
  <clipPath id="axis_clip"><rect x="145.8" y="54.2" width="761.2" height="505.8" /></clipPath>
  <path id="line_y" d="M 0,53.993 v 506.187" stroke="#FFF" stroke-opacity="0.15" stroke-width="1.00"/>
  <path id="line_x" d="M 145.600,0 h 761.600" stroke="#FFF" stroke-opacity="0.15" stroke-width="1.00"/>
  <path id="tick_y" d="M 145.600,0 h -6.000" stroke="#808080" stroke-width="0.90"/>
  <path id="tick_x" d="M 0,560.180 v 6.000" stroke="#808080" stroke-width="0.90"/>
  <symbol id="line_1" viewBox="0 0 1200.000 674.916">
<polyline class="pl" points="145.6,54.4 162.9,54.4 162.9,54.1 180.2,54.1 180.2,54.3 197.5,54.3 197.5,54.1 214.8,54.1 214.8,54.2 232.1,54.2 232.1,54.2 249.5,54.2 249.5,54.1 266.8,54.1 266.8,54.0 284.1,54.0 284.1,54.0 301.4,54.0 301.4,54.0 318.7,54.0 318.7,54.0 336.0,54.0 336.0,54.0 353.3,54.0 353.3,54.0 370.6,54.0 370.6,54.0 387.9,54.0 387.9,54.0 405.2,54.0 405.2,54.0 422.5,54.0 422.5,54.0 439.9,54.0 439.9,54.0 457.2,54.0 457.2,54.0 474.5,54.0 474.5,54.0 491.8,54.0 491.8,54.0 509.1,54.0 509.1,54.0 526.4,54.0 526.4,54.0 543.7,54.0 543.7,54.0 561.0,54.0 561.0,54.0 578.3,54.0 578.3,54.0 595.6,54.0 595.6,54.0 612.9,54.0 612.9,54.0 630.3,54.0 630.3,54.0 647.6,54.0 647.6,54.0 664.9,54.0 664.9,54.0 682.2,54.0 682.2,54.0 699.5,54.0 699.5,54.1 716.8,54.1 716.8,54.0 734.1,54.0 734.1,54.0 751.4,54.0 751.4,54.0 768.7,54.0 768.7,54.0 786.0,54.0 786.0,54.0 803.3,54.0 803.3,54.0 820.7,54.0 820.7,54.0 838.0,54.0 838.0,54.0 855.3,54.0 855.3,54.0 872.6,54.0 872.6,54.0 889.9,54.0" stroke="#000" stroke-width="0.90" stroke-opacity="1.00" fill="none" clip-path="url(#axis_clip)"/>
  </symbol>
  <symbol id="line_2" viewBox="0 0 1200.000 674.916">
<polyline class="pl" points="145.6,54.5 162.9,54.5 162.9,54.3 180.2,54.3 180.2,54.6 197.5,54.6 197.5,54.4 214.8,54.4 214.8,54.6 232.1,54.6 232.1,54.7 249.5,54.7 249.5,54.6 266.8,54.6 266.8,54.8 284.1,54.8 284.1,54.9 301.4,54.9 301.4,55.3 318.7,55.3 318.7,55.6 336.0,55.6 336.0,55.9 353.3,55.9 353.3,57.0 370.6,57.0 370.6,58.3 387.9,58.3 387.9,59.3 405.2,59.3 405.2,61.0 422.5,61.0 422.5,59.8 439.9,59.8 439.9,63.1 457.2,63.1 457.2,63.2 474.5,63.2 474.5,63.6 491.8,63.6 491.8,62.9 509.1,62.9 509.1,65.4 526.4,65.4 526.4,67.5 543.7,67.5 543.7,63.9 561.0,63.9 561.0,64.9 578.3,64.9 578.3,62.2 595.6,62.2 595.6,64.3 612.9,64.3 612.9,64.8 630.3,64.8 630.3,67.2 647.6,67.2 647.6,64.7 664.9,64.7 664.9,85.8 682.2,85.8 682.2,81.3 699.5,81.3 699.5,81.4 716.8,81.4 716.8,82.4 734.1,82.4 734.1,114.7 751.4,114.7 751.4,116.6 768.7,116.6 768.7,106.7 786.0,106.7 786.0,96.0 803.3,96.0 803.3,110.2 820.7,110.2 820.7,135.5 838.0,135.5 838.0,67.9 855.3,67.9 855.3,70.5 872.6,70.5 872.6,75.4 889.9,75.4" stroke="#000" stroke-width="0.90" stroke-opacity="1.00" fill="none" clip-path="url(#axis_clip)"/>
  </symbol>
  <symbol id="line_3" viewBox="0 0 1200.000 674.916">
<polyline class="pl" points="145.6,54.9 162.9,54.9 162.9,55.1 180.2,55.1 180.2,55.0 197.5,55.0 197.5,54.9 214.8,54.9 214.8,55.3 232.1,55.3 232.1,55.1 249.5,55.1 249.5,55.1 266.8,55.1 266.8,55.2 284.1,55.2 284.1,55.4 301.4,55.4 301.4,56.3 318.7,56.3 318.7,56.6 336.0,56.6 336.0,56.9 353.3,56.9 353.3,58.1 370.6,58.1 370.6,59.6 387.9,59.6 387.9,60.8 405.2,60.8 405.2,62.7 422.5,62.7 422.5,61.9 439.9,61.9 439.9,65.7 457.2,65.7 457.2,66.3 474.5,66.3 474.5,66.1 491.8,66.1 491.8,66.3 509.1,66.3 509.1,69.0 526.4,69.0 526.4,71.5 543.7,71.5 543.7,67.4 561.0,67.4 561.0,69.3 578.3,69.3 578.3,65.5 595.6,65.5 595.6,68.4 612.9,68.4 612.9,68.8 630.3,68.8 630.3,71.8 647.6,71.8 647.6,68.8 664.9,68.8 664.9,99.1 682.2,99.1 682.2,91.1 699.5,91.1 699.5,91.3 716.8,91.3 716.8,114.0 734.1,114.0 734.1,137.0 751.4,137.0 751.4,139.9 768.7,139.9 768.7,125.1 786.0,125.1 786.0,120.3 803.3,120.3 803.3,139.8 820.7,139.8 820.7,170.0 838.0,170.0 838.0,77.6 855.3,77.6 855.3,80.8 872.6,80.8 872.6,86.2 889.9,86.2" stroke="#000" stroke-width="0.90" stroke-opacity="1.00" fill="none" clip-path="url(#axis_clip)"/>
  </symbol>
  <symbol id="line_4" viewBox="0 0 1200.000 674.916">
<polyline class="pl" points="145.6,59.8 162.9,59.8 162.9,59.7 180.2,59.7 180.2,59.1 197.5,59.1 197.5,59.0 214.8,59.0 214.8,60.4 232.1,60.4 232.1,60.6 249.5,60.6 249.5,61.1 266.8,61.1 266.8,61.7 284.1,61.7 284.1,62.7 301.4,62.7 301.4,64.6 318.7,64.6 318.7,66.3 336.0,66.3 336.0,65.9 353.3,65.9 353.3,70.5 370.6,70.5 370.6,71.4 387.9,71.4 387.9,70.3 405.2,70.3 405.2,75.6 422.5,75.6 422.5,76.1 439.9,76.1 439.9,84.7 457.2,84.7 457.2,87.3 474.5,87.3 474.5,90.5 491.8,90.5 491.8,93.5 509.1,93.5 509.1,107.8 526.4,107.8 526.4,112.6 543.7,112.6 543.7,115.7 561.0,115.7 561.0,124.5 578.3,124.5 578.3,122.2 595.6,122.2 595.6,138.1 612.9,138.1 612.9,146.0 630.3,146.0 630.3,147.7 647.6,147.7 647.6,151.1 664.9,151.1 664.9,183.3 682.2,183.3 682.2,184.3 699.5,184.3 699.5,151.9 716.8,151.9 716.8,261.1 734.1,261.1 734.1,280.3 751.4,280.3 751.4,279.2 768.7,279.2 768.7,293.9 786.0,293.9 786.0,298.5 803.3,298.5 803.3,366.9 820.7,366.9 820.7,399.4 838.0,399.4 838.0,279.5 855.3,279.5 855.3,290.5 872.6,290.5 872.6,287.8 889.9,287.8" stroke="#000" stroke-width="0.90" stroke-opacity="1.00" fill="none" clip-path="url(#axis_clip)"/>
  </symbol>
  <symbol id="line_5" viewBox="0 0 1200.000 674.916">
<polyline class="pl" points="145.6,514.9 162.9,514.9 162.9,516.8 180.2,516.8 180.2,524.1 197.5,524.1 197.5,528.4 214.8,528.4 214.8,524.6 232.1,524.6 232.1,521.5 249.5,521.5 249.5,524.3 266.8,524.3 266.8,524.1 284.1,524.1 284.1,521.9 301.4,521.9 301.4,519.2 318.7,519.2 318.7,519.7 336.0,519.7 336.0,519.0 353.3,519.0 353.3,520.0 370.6,520.0 370.6,517.1 387.9,517.1 387.9,522.8 405.2,522.8 405.2,524.3 422.5,524.3 422.5,523.0 439.9,523.0 439.9,519.8 457.2,519.8 457.2,524.5 474.5,524.5 474.5,523.1 491.8,523.1 491.8,521.2 509.1,521.2 509.1,522.8 526.4,522.8 526.4,527.4 543.7,527.4 543.7,524.2 561.0,524.2 561.0,527.2 578.3,527.2 578.3,529.8 595.6,529.8 595.6,526.1 612.9,526.1 612.9,525.7 630.3,525.7 630.3,524.3 647.6,524.3 647.6,526.0 664.9,526.0 664.9,527.3 682.2,527.3 682.2,525.8 699.5,525.8 699.5,522.9 716.8,522.9 716.8,528.8 734.1,528.8 734.1,535.2 751.4,535.2 751.4,526.5 768.7,526.5 768.7,532.9 786.0,532.9 786.0,534.7 803.3,534.7 803.3,538.5 820.7,538.5 820.7,544.6 838.0,544.6 838.0,534.7 855.3,534.7 855.3,538.4 872.6,538.4 872.6,539.8 889.9,539.8" stroke="#000" stroke-width="0.90" stroke-opacity="1.00" fill="none" clip-path="url(#axis_clip)"/>
  </symbol>
  <symbol id="line_6" viewBox="0 0 1200.000 674.916">
<polyline class="pl" points="145.6,54.5 162.9,54.5 162.9,54.3 180.2,54.3 180.2,54.6 197.5,54.6 197.5,54.4 214.8,54.4 214.8,54.6 232.1,54.6 232.1,54.7 249.5,54.7 249.5,54.6 266.8,54.6 266.8,54.8 284.1,54.8 284.1,54.9 301.4,54.9 301.4,55.3 318.7,55.3 318.7,55.6 336.0,55.6 336.0,55.9 353.3,55.9 353.3,57.0 370.6,57.0 370.6,58.3 387.9,58.3 387.9,59.3 405.2,59.3 405.2,61.0 422.5,61.0 422.5,59.8 439.9,59.8 439.9,63.1 457.2,63.1 457.2,63.2 474.5,63.2 474.5,63.6 491.8,63.6 491.8,62.9 509.1,62.9 509.1,65.4 526.4,65.4 526.4,67.5 543.7,67.5 543.7,63.9 561.0,63.9 561.0,64.9 578.3,64.9 578.3,62.2 595.6,62.2 595.6,64.3 612.9,64.3 612.9,64.8 630.3,64.8 630.3,67.2 647.6,67.2 647.6,64.7 664.9,64.7 664.9,85.8 682.2,85.8 682.2,81.3 699.5,81.3 699.5,81.4 716.8,81.4 716.8,82.4 734.1,82.4 734.1,114.7 751.4,114.7 751.4,116.6 768.7,116.6 768.7,106.7 786.0,106.7 786.0,96.0 803.3,96.0 803.3,110.2 820.7,110.2 820.7,135.5 838.0,135.5 838.0,67.9 855.3,67.9 855.3,70.5 872.6,70.5 872.6,75.4 889.9,75.4" stroke="#000" stroke-width="0.90" stroke-opacity="1.00" fill="none" clip-path="url(#axis_clip)"/>
  </symbol>
  <symbol id="line_7" viewBox="0 0 1200.000 674.916">
<polyline class="pl" points="145.6,54.9 162.9,54.9 162.9,55.1 180.2,55.1 180.2,55.0 197.5,55.0 197.5,54.9 214.8,54.9 214.8,55.3 232.1,55.3 232.1,55.1 249.5,55.1 249.5,55.1 266.8,55.1 266.8,55.2 284.1,55.2 284.1,55.4 301.4,55.4 301.4,56.3 318.7,56.3 318.7,56.6 336.0,56.6 336.0,56.9 353.3,56.9 353.3,58.1 370.6,58.1 370.6,59.6 387.9,59.6 387.9,60.8 405.2,60.8 405.2,62.7 422.5,62.7 422.5,61.9 439.9,61.9 439.9,65.7 457.2,65.7 457.2,66.3 474.5,66.3 474.5,66.1 491.8,66.1 491.8,66.3 509.1,66.3 509.1,69.0 526.4,69.0 526.4,71.5 543.7,71.5 543.7,67.4 561.0,67.4 561.0,69.3 578.3,69.3 578.3,65.5 595.6,65.5 595.6,68.4 612.9,68.4 612.9,68.8 630.3,68.8 630.3,71.8 647.6,71.8 647.6,68.8 664.9,68.8 664.9,99.1 682.2,99.1 682.2,91.1 699.5,91.1 699.5,91.3 716.8,91.3 716.8,114.0 734.1,114.0 734.1,137.0 751.4,137.0 751.4,139.9 768.7,139.9 768.7,125.1 786.0,125.1 786.0,120.3 803.3,120.3 803.3,139.8 820.7,139.8 820.7,170.0 838.0,170.0 838.0,77.6 855.3,77.6 855.3,80.8 872.6,80.8 872.6,86.2 889.9,86.2" stroke="#000" stroke-width="0.90" stroke-opacity="1.00" fill="none" clip-path="url(#axis_clip)"/>
  </symbol>
  <symbol id="line_8" viewBox="0 0 1200.000 674.916">
<polyline class="pl" points="145.6,59.8 162.9,59.8 162.9,59.7 180.2,59.7 180.2,59.1 197.5,59.1 197.5,59.0 214.8,59.0 214.8,60.4 232.1,60.4 232.1,60.6 249.5,60.6 249.5,61.1 266.8,61.1 266.8,61.7 284.1,61.7 284.1,62.7 301.4,62.7 301.4,64.6 318.7,64.6 318.7,66.3 336.0,66.3 336.0,65.9 353.3,65.9 353.3,70.5 370.6,70.5 370.6,71.4 387.9,71.4 387.9,70.3 405.2,70.3 405.2,75.6 422.5,75.6 422.5,76.1 439.9,76.1 439.9,84.7 457.2,84.7 457.2,87.3 474.5,87.3 474.5,90.5 491.8,90.5 491.8,93.5 509.1,93.5 509.1,107.8 526.4,107.8 526.4,112.6 543.7,112.6 543.7,115.7 561.0,115.7 561.0,124.5 578.3,124.5 578.3,122.2 595.6,122.2 595.6,138.1 612.9,138.1 612.9,146.0 630.3,146.0 630.3,147.7 647.6,147.7 647.6,151.1 664.9,151.1 664.9,183.3 682.2,183.3 682.2,184.3 699.5,184.3 699.5,151.9 716.8,151.9 716.8,261.1 734.1,261.1 734.1,280.3 751.4,280.3 751.4,279.2 768.7,279.2 768.7,293.9 786.0,293.9 786.0,298.5 803.3,298.5 803.3,366.9 820.7,366.9 820.7,399.4 838.0,399.4 838.0,279.5 855.3,279.5 855.3,290.5 872.6,290.5 872.6,287.8 889.9,287.8" stroke="#000" stroke-width="0.90" stroke-opacity="1.00" fill="none" clip-path="url(#axis_clip)"/>
  </symbol>
  <symbol id="line_9" viewBox="0 0 1200.000 674.916">
<polyline class="pl" points="145.6,514.9 162.9,514.9 162.9,516.8 180.2,516.8 180.2,524.1 197.5,524.1 197.5,528.4 214.8,528.4 214.8,524.6 232.1,524.6 232.1,521.5 249.5,521.5 249.5,524.3 266.8,524.3 266.8,524.1 284.1,524.1 284.1,521.9 301.4,521.9 301.4,519.2 318.7,519.2 318.7,519.7 336.0,519.7 336.0,519.0 353.3,519.0 353.3,520.0 370.6,520.0 370.6,517.1 387.9,517.1 387.9,522.8 405.2,522.8 405.2,524.3 422.5,524.3 422.5,523.0 439.9,523.0 439.9,519.8 457.2,519.8 457.2,524.5 474.5,524.5 474.5,523.1 491.8,523.1 491.8,521.2 509.1,521.2 509.1,522.8 526.4,522.8 526.4,527.4 543.7,527.4 543.7,524.2 561.0,524.2 561.0,527.2 578.3,527.2 578.3,529.8 595.6,529.8 595.6,526.1 612.9,526.1 612.9,525.7 630.3,525.7 630.3,524.3 647.6,524.3 647.6,526.0 664.9,526.0 664.9,527.3 682.2,527.3 682.2,525.8 699.5,525.8 699.5,522.9 716.8,522.9 716.8,528.8 734.1,528.8 734.1,535.2 751.4,535.2 751.4,526.5 768.7,526.5 768.7,532.9 786.0,532.9 786.0,534.7 803.3,534.7 803.3,538.5 820.7,538.5 820.7,544.6 838.0,544.6 838.0,534.7 855.3,534.7 855.3,538.4 872.6,538.4 872.6,539.8 889.9,539.8" stroke="#000" stroke-width="0.90" stroke-opacity="1.00" fill="none" clip-path="url(#axis_clip)"/>
  </symbol>
  <symbol id="line_10" viewBox="0 0 1200.000 674.916">
<polyline class="pl" points="145.6,54.9 162.9,54.9 162.9,55.1 180.2,55.1 180.2,55.0 197.5,55.0 197.5,54.9 214.8,54.9 214.8,55.3 232.1,55.3 232.1,55.1 249.5,55.1 249.5,55.1 266.8,55.1 266.8,55.2 284.1,55.2 284.1,55.4 301.4,55.4 301.4,56.3 318.7,56.3 318.7,56.6 336.0,56.6 336.0,56.9 353.3,56.9 353.3,58.1 370.6,58.1 370.6,59.6 387.9,59.6 387.9,60.8 405.2,60.8 405.2,62.7 422.5,62.7 422.5,61.9 439.9,61.9 439.9,65.7 457.2,65.7 457.2,66.3 474.5,66.3 474.5,66.1 491.8,66.1 491.8,66.3 509.1,66.3 509.1,69.0 526.4,69.0 526.4,71.5 543.7,71.5 543.7,67.4 561.0,67.4 561.0,69.3 578.3,69.3 578.3,65.5 595.6,65.5 595.6,68.4 612.9,68.4 612.9,68.8 630.3,68.8 630.3,71.8 647.6,71.8 647.6,68.8 664.9,68.8 664.9,99.1 682.2,99.1 682.2,91.1 699.5,91.1 699.5,91.3 716.8,91.3 716.8,114.0 734.1,114.0 734.1,137.0 751.4,137.0 751.4,139.9 768.7,139.9 768.7,125.1 786.0,125.1 786.0,120.3 803.3,120.3 803.3,139.8 820.7,139.8 820.7,170.0 838.0,170.0 838.0,77.6 855.3,77.6 855.3,80.8 872.6,80.8 872.6,86.2 889.9,86.2" stroke="#000" stroke-width="0.90" stroke-opacity="1.00" fill="none" clip-path="url(#axis_clip)"/>
  </symbol>
  <symbol id="line_11" viewBox="0 0 1200.000 674.916">
<polyline class="pl" points="145.6,59.8 162.9,59.8 162.9,59.7 180.2,59.7 180.2,59.1 197.5,59.1 197.5,59.0 214.8,59.0 214.8,60.4 232.1,60.4 232.1,60.6 249.5,60.6 249.5,61.1 266.8,61.1 266.8,61.7 284.1,61.7 284.1,62.7 301.4,62.7 301.4,64.6 318.7,64.6 318.7,66.3 336.0,66.3 336.0,65.9 353.3,65.9 353.3,70.5 370.6,70.5 370.6,71.4 387.9,71.4 387.9,70.3 405.2,70.3 405.2,75.6 422.5,75.6 422.5,76.1 439.9,76.1 439.9,84.7 457.2,84.7 457.2,87.3 474.5,87.3 474.5,90.5 491.8,90.5 491.8,93.5 509.1,93.5 509.1,107.8 526.4,107.8 526.4,112.6 543.7,112.6 543.7,115.7 561.0,115.7 561.0,124.5 578.3,124.5 578.3,122.2 595.6,122.2 595.6,138.1 612.9,138.1 612.9,146.0 630.3,146.0 630.3,147.7 647.6,147.7 647.6,151.1 664.9,151.1 664.9,183.3 682.2,183.3 682.2,184.3 699.5,184.3 699.5,151.9 716.8,151.9 716.8,261.1 734.1,261.1 734.1,280.3 751.4,280.3 751.4,279.2 768.7,279.2 768.7,293.9 786.0,293.9 786.0,298.5 803.3,298.5 803.3,366.9 820.7,366.9 820.7,399.4 838.0,399.4 838.0,279.5 855.3,279.5 855.3,290.5 872.6,290.5 872.6,287.8 889.9,287.8" stroke="#000" stroke-width="0.90" stroke-opacity="1.00" fill="none" clip-path="url(#axis_clip)"/>
  </symbol>
  <symbol id="line_12" viewBox="0 0 1200.000 674.916">
<polyline class="pl" points="145.6,514.9 162.9,514.9 162.9,516.8 180.2,516.8 180.2,524.1 197.5,524.1 197.5,528.4 214.8,528.4 214.8,524.6 232.1,524.6 232.1,521.5 249.5,521.5 249.5,524.3 266.8,524.3 266.8,524.1 284.1,524.1 284.1,521.9 301.4,521.9 301.4,519.2 318.7,519.2 318.7,519.7 336.0,519.7 336.0,519.0 353.3,519.0 353.3,520.0 370.6,520.0 370.6,517.1 387.9,517.1 387.9,522.8 405.2,522.8 405.2,524.3 422.5,524.3 422.5,523.0 439.9,523.0 439.9,519.8 457.2,519.8 457.2,524.5 474.5,524.5 474.5,523.1 491.8,523.1 491.8,521.2 509.1,521.2 509.1,522.8 526.4,522.8 526.4,527.4 543.7,527.4 543.7,524.2 561.0,524.2 561.0,527.2 578.3,527.2 578.3,529.8 595.6,529.8 595.6,526.1 612.9,526.1 612.9,525.7 630.3,525.7 630.3,524.3 647.6,524.3 647.6,526.0 664.9,526.0 664.9,527.3 682.2,527.3 682.2,525.8 699.5,525.8 699.5,522.9 716.8,522.9 716.8,528.8 734.1,528.8 734.1,535.2 751.4,535.2 751.4,526.5 768.7,526.5 768.7,532.9 786.0,532.9 786.0,534.7 803.3,534.7 803.3,538.5 820.7,538.5 820.7,544.6 838.0,544.6 838.0,534.7 855.3,534.7 855.3,538.4 872.6,538.4 872.6,539.8 889.9,539.8" stroke="#000" stroke-width="0.90" stroke-opacity="1.00" fill="none" clip-path="url(#axis_clip)"/>
  </symbol>
  <symbol id="line_13" viewBox="0 0 1200.000 674.916">
<polyline class="pl" points="145.6,59.8 162.9,59.8 162.9,59.7 180.2,59.7 180.2,59.1 197.5,59.1 197.5,59.0 214.8,59.0 214.8,60.4 232.1,60.4 232.1,60.6 249.5,60.6 249.5,61.1 266.8,61.1 266.8,61.7 284.1,61.7 284.1,62.7 301.4,62.7 301.4,64.6 318.7,64.6 318.7,66.3 336.0,66.3 336.0,65.9 353.3,65.9 353.3,70.5 370.6,70.5 370.6,71.4 387.9,71.4 387.9,70.3 405.2,70.3 405.2,75.6 422.5,75.6 422.5,76.1 439.9,76.1 439.9,84.7 457.2,84.7 457.2,87.3 474.5,87.3 474.5,90.5 491.8,90.5 491.8,93.5 509.1,93.5 509.1,107.8 526.4,107.8 526.4,112.6 543.7,112.6 543.7,115.7 561.0,115.7 561.0,124.5 578.3,124.5 578.3,122.2 595.6,122.2 595.6,138.1 612.9,138.1 612.9,146.0 630.3,146.0 630.3,147.7 647.6,147.7 647.6,151.1 664.9,151.1 664.9,183.3 682.2,183.3 682.2,184.3 699.5,184.3 699.5,151.9 716.8,151.9 716.8,261.1 734.1,261.1 734.1,280.3 751.4,280.3 751.4,279.2 768.7,279.2 768.7,293.9 786.0,293.9 786.0,298.5 803.3,298.5 803.3,366.9 820.7,366.9 820.7,399.4 838.0,399.4 838.0,279.5 855.3,279.5 855.3,290.5 872.6,290.5 872.6,287.8 889.9,287.8" stroke="#000" stroke-width="0.90" stroke-opacity="1.00" fill="none" clip-path="url(#axis_clip)"/>
  </symbol>
  <symbol id="line_14" viewBox="0 0 1200.000 674.916">
<polyline class="pl" points="145.6,514.9 162.9,514.9 162.9,516.8 180.2,516.8 180.2,524.1 197.5,524.1 197.5,528.4 214.8,528.4 214.8,524.6 232.1,524.6 232.1,521.5 249.5,521.5 249.5,524.3 266.8,524.3 266.8,524.1 284.1,524.1 284.1,521.9 301.4,521.9 301.4,519.2 318.7,519.2 318.7,519.7 336.0,519.7 336.0,519.0 353.3,519.0 353.3,520.0 370.6,520.0 370.6,517.1 387.9,517.1 387.9,522.8 405.2,522.8 405.2,524.3 422.5,524.3 422.5,523.0 439.9,523.0 439.9,519.8 457.2,519.8 457.2,524.5 474.5,524.5 474.5,523.1 491.8,523.1 491.8,521.2 509.1,521.2 509.1,522.8 526.4,522.8 526.4,527.4 543.7,527.4 543.7,524.2 561.0,524.2 561.0,527.2 578.3,527.2 578.3,529.8 595.6,529.8 595.6,526.1 612.9,526.1 612.9,525.7 630.3,525.7 630.3,524.3 647.6,524.3 647.6,526.0 664.9,526.0 664.9,527.3 682.2,527.3 682.2,525.8 699.5,525.8 699.5,522.9 716.8,522.9 716.8,528.8 734.1,528.8 734.1,535.2 751.4,535.2 751.4,526.5 768.7,526.5 768.7,532.9 786.0,532.9 786.0,534.7 803.3,534.7 803.3,538.5 820.7,538.5 820.7,544.6 838.0,544.6 838.0,534.7 855.3,534.7 855.3,538.4 872.6,538.4 872.6,539.8 889.9,539.8" stroke="#000" stroke-width="0.90" stroke-opacity="1.00" fill="none" clip-path="url(#axis_clip)"/>
  </symbol>
  <symbol id="line_15" viewBox="0 0 1200.000 674.916">
<polyline class="pl" points="145.6,514.9 162.9,514.9 162.9,516.8 180.2,516.8 180.2,524.1 197.5,524.1 197.5,528.4 214.8,528.4 214.8,524.6 232.1,524.6 232.1,521.5 249.5,521.5 249.5,524.3 266.8,524.3 266.8,524.1 284.1,524.1 284.1,521.9 301.4,521.9 301.4,519.2 318.7,519.2 318.7,519.7 336.0,519.7 336.0,519.0 353.3,519.0 353.3,520.0 370.6,520.0 370.6,517.1 387.9,517.1 387.9,522.8 405.2,522.8 405.2,524.3 422.5,524.3 422.5,523.0 439.9,523.0 439.9,519.8 457.2,519.8 457.2,524.5 474.5,524.5 474.5,523.1 491.8,523.1 491.8,521.2 509.1,521.2 509.1,522.8 526.4,522.8 526.4,527.4 543.7,527.4 543.7,524.2 561.0,524.2 561.0,527.2 578.3,527.2 578.3,529.8 595.6,529.8 595.6,526.1 612.9,526.1 612.9,525.7 630.3,525.7 630.3,524.3 647.6,524.3 647.6,526.0 664.9,526.0 664.9,527.3 682.2,527.3 682.2,525.8 699.5,525.8 699.5,522.9 716.8,522.9 716.8,528.8 734.1,528.8 734.1,535.2 751.4,535.2 751.4,526.5 768.7,526.5 768.7,532.9 786.0,532.9 786.0,534.7 803.3,534.7 803.3,538.5 820.7,538.5 820.7,544.6 838.0,544.6 838.0,534.7 855.3,534.7 855.3,538.4 872.6,538.4 872.6,539.8 889.9,539.8" stroke="#000" stroke-width="0.90" stroke-opacity="1.00" fill="none" clip-path="url(#axis_clip)"/>
  </symbol>
</defs>
<g id="main">
<text class="ticklabel ytl" transform="translate(128.8,568.3)">0 %</text>
<text class="ticklabel ytl" transform="translate(128.8,467.0)">20 %</text>
<text class="ticklabel ytl" transform="translate(128.8,365.8)">40 %</text>
<text class="ticklabel ytl" transform="translate(128.8,264.6)">60 %</text>
<text class="ticklabel ytl" transform="translate(128.8,163.3)">80 %</text>
<text class="ticklabel ytl" transform="translate(128.8,62.1)">100 %</text>
<g id="areas">
  <g class="pg_6">
    <polygon class="pl" points="145.6,54.0 162.9,54.0 162.9,54.0 180.2,54.0 180.2,54.0 197.5,54.0 197.5,54.0 214.8,54.0 214.8,54.0 232.1,54.0 232.1,54.0 249.5,54.0 249.5,54.0 266.8,54.0 266.8,54.0 284.1,54.0 284.1,54.0 301.4,54.0 301.4,54.0 318.7,54.0 318.7,54.0 336.0,54.0 336.0,54.0 353.3,54.0 353.3,54.0 370.6,54.0 370.6,54.0 387.9,54.0 387.9,54.0 405.2,54.0 405.2,54.0 422.5,54.0 422.5,54.0 439.9,54.0 439.9,54.0 457.2,54.0 457.2,54.0 474.5,54.0 474.5,54.0 491.8,54.0 491.8,54.0 509.1,54.0 509.1,54.0 526.4,54.0 526.4,54.0 543.7,54.0 543.7,54.0 561.0,54.0 561.0,54.0 578.3,54.0 578.3,54.0 595.6,54.0 595.6,54.0 612.9,54.0 612.9,54.0 630.3,54.0 630.3,54.0 647.6,54.0 647.6,54.0 664.9,54.0 664.9,54.0 682.2,54.0 682.2,54.0 699.5,54.0 699.5,54.0 716.8,54.0 716.8,54.0 734.1,54.0 734.1,54.0 751.4,54.0 751.4,54.0 768.7,54.0 768.7,54.0 786.0,54.0 786.0,54.0 803.3,54.0 803.3,54.0 820.7,54.0 820.7,54.0 838.0,54.0 838.0,54.0 855.3,54.0 855.3,54.0 872.6,54.0 872.6,54.0 889.9,54.0 889.9,54.0 872.6,54.0 872.6,54.0 855.3,54.0 855.3,54.0 838.0,54.0 838.0,54.0 820.7,54.0 820.7,54.0 803.3,54.0 803.3,54.0 786.0,54.0 786.0,54.0 768.7,54.0 768.7,54.0 751.4,54.0 751.4,54.0 734.1,54.0 734.1,54.0 716.8,54.0 716.8,54.1 699.5,54.1 699.5,54.0 682.2,54.0 682.2,54.0 664.9,54.0 664.9,54.0 647.6,54.0 647.6,54.0 630.3,54.0 630.3,54.0 612.9,54.0 612.9,54.0 595.6,54.0 595.6,54.0 578.3,54.0 578.3,54.0 561.0,54.0 561.0,54.0 543.7,54.0 543.7,54.0 526.4,54.0 526.4,54.0 509.1,54.0 509.1,54.0 491.8,54.0 491.8,54.0 474.5,54.0 474.5,54.0 457.2,54.0 457.2,54.0 439.9,54.0 439.9,54.0 422.5,54.0 422.5,54.0 405.2,54.0 405.2,54.0 387.9,54.0 387.9,54.0 370.6,54.0 370.6,54.0 353.3,54.0 353.3,54.0 336.0,54.0 336.0,54.0 318.7,54.0 318.7,54.0 301.4,54.0 301.4,54.0 284.1,54.0 284.1,54.0 266.8,54.0 266.8,54.1 249.5,54.1 249.5,54.2 232.1,54.2 232.1,54.2 214.8,54.2 214.8,54.1 197.5,54.1 197.5,54.3 180.2,54.3 180.2,54.1 162.9,54.1 162.9,54.4 145.6,54.4" stroke="none" stroke-width="0.9000"  fill="#808080" clip-path="url(#axis_clip)"/>
    <text class="pl" transform="translate(937.2,54.0)" dy="7.6" font-size="25.20" fill="#808080" stroke="none">Others</text>
<polyline class="pl" points="910.8,54.0 911.9,54.0 913.0,54.0 914.0,54.0 914.9,54.0 915.8,54.0 916.6,54.0 917.4,54.0 918.1,54.0 918.8,54.0 919.5,54.0 920.1,54.0 920.7,54.0 921.3,54.0 921.9,54.0 922.5,54.0 923.1,54.0 923.7,54.0 924.3,54.0 924.9,54.0 925.6,54.0 926.3,54.0 927.0,54.0 927.8,54.0 928.6,54.0 929.5,54.0 930.4,54.0 931.4,54.0 932.5,54.0 933.6,54.0" stroke="#808080" stroke-width="0.90" stroke-opacity="1.00" fill="none" />
    <text class="pl" transform="translate(145.6,47.2)" dy="0.0" font-size="27.00" fill="#808080" stroke="none">New Zealand new passenger car sales by type: Quarterly</text>
  </g>
  <g class="pg_5">
    <polygon class="pl" points="145.6,54.4 162.9,54.4 162.9,54.1 180.2,54.1 180.2,54.3 197.5,54.3 197.5,54.1 214.8,54.1 214.8,54.2 232.1,54.2 232.1,54.2 249.5,54.2 249.5,54.1 266.8,54.1 266.8,54.0 284.1,54.0 284.1,54.0 301.4,54.0 301.4,54.0 318.7,54.0 318.7,54.0 336.0,54.0 336.0,54.0 353.3,54.0 353.3,54.0 370.6,54.0 370.6,54.0 387.9,54.0 387.9,54.0 405.2,54.0 405.2,54.0 422.5,54.0 422.5,54.0 439.9,54.0 439.9,54.0 457.2,54.0 457.2,54.0 474.5,54.0 474.5,54.0 491.8,54.0 491.8,54.0 509.1,54.0 509.1,54.0 526.4,54.0 526.4,54.0 543.7,54.0 543.7,54.0 561.0,54.0 561.0,54.0 578.3,54.0 578.3,54.0 595.6,54.0 595.6,54.0 612.9,54.0 612.9,54.0 630.3,54.0 630.3,54.0 647.6,54.0 647.6,54.0 664.9,54.0 664.9,54.0 682.2,54.0 682.2,54.0 699.5,54.0 699.5,54.1 716.8,54.1 716.8,54.0 734.1,54.0 734.1,54.0 751.4,54.0 751.4,54.0 768.7,54.0 768.7,54.0 786.0,54.0 786.0,54.0 803.3,54.0 803.3,54.0 820.7,54.0 820.7,54.0 838.0,54.0 838.0,54.0 855.3,54.0 855.3,54.0 872.6,54.0 872.6,54.0 889.9,54.0 889.9,75.4 872.6,75.4 872.6,70.5 855.3,70.5 855.3,67.9 838.0,67.9 838.0,135.5 820.7,135.5 820.7,110.2 803.3,110.2 803.3,96.0 786.0,96.0 786.0,106.7 768.7,106.7 768.7,116.6 751.4,116.6 751.4,114.7 734.1,114.7 734.1,82.4 716.8,82.4 716.8,81.4 699.5,81.4 699.5,81.3 682.2,81.3 682.2,85.8 664.9,85.8 664.9,64.7 647.6,64.7 647.6,67.2 630.3,67.2 630.3,64.8 612.9,64.8 612.9,64.3 595.6,64.3 595.6,62.2 578.3,62.2 578.3,64.9 561.0,64.9 561.0,63.9 543.7,63.9 543.7,67.5 526.4,67.5 526.4,65.4 509.1,65.4 509.1,62.9 491.8,62.9 491.8,63.6 474.5,63.6 474.5,63.2 457.2,63.2 457.2,63.1 439.9,63.1 439.9,59.8 422.5,59.8 422.5,61.0 405.2,61.0 405.2,59.3 387.9,59.3 387.9,58.3 370.6,58.3 370.6,57.0 353.3,57.0 353.3,55.9 336.0,55.9 336.0,55.6 318.7,55.6 318.7,55.3 301.4,55.3 301.4,54.9 284.1,54.9 284.1,54.8 266.8,54.8 266.8,54.6 249.5,54.6 249.5,54.7 232.1,54.7 232.1,54.6 214.8,54.6 214.8,54.4 197.5,54.4 197.5,54.6 180.2,54.6 180.2,54.3 162.9,54.3 162.9,54.5 145.6,54.5" stroke="none" stroke-width="0.9000"  fill="#6298C6" clip-path="url(#axis_clip)"/>
    <text class="pl" transform="translate(937.2,79.0)" dy="7.6" font-size="25.20" fill="#6298C6" stroke="none">Battery electric</text>
<polyline class="pl" points="910.8,64.7 911.9,64.8 913.0,64.9 914.0,65.1 914.9,65.4 915.8,65.8 916.6,66.3 917.4,66.8 918.1,67.4 918.8,68.0 919.5,68.6 920.1,69.3 920.7,70.0 921.3,70.8 921.9,71.5 922.5,72.2 923.1,73.0 923.7,73.7 924.3,74.4 924.9,75.1 925.6,75.7 926.3,76.4 927.0,76.9 927.8,77.4 928.6,77.9 929.5,78.3 930.4,78.6 931.4,78.8 932.5,79.0 933.6,79.0" stroke="#6298C6" stroke-width="0.90" stroke-opacity="1.00" fill="none" />
  </g>
  <g class="pg_4">
    <polygon class="pl" points="145.6,54.5 162.9,54.5 162.9,54.3 180.2,54.3 180.2,54.6 197.5,54.6 197.5,54.4 214.8,54.4 214.8,54.6 232.1,54.6 232.1,54.7 249.5,54.7 249.5,54.6 266.8,54.6 266.8,54.8 284.1,54.8 284.1,54.9 301.4,54.9 301.4,55.3 318.7,55.3 318.7,55.6 336.0,55.6 336.0,55.9 353.3,55.9 353.3,57.0 370.6,57.0 370.6,58.3 387.9,58.3 387.9,59.3 405.2,59.3 405.2,61.0 422.5,61.0 422.5,59.8 439.9,59.8 439.9,63.1 457.2,63.1 457.2,63.2 474.5,63.2 474.5,63.6 491.8,63.6 491.8,62.9 509.1,62.9 509.1,65.4 526.4,65.4 526.4,67.5 543.7,67.5 543.7,63.9 561.0,63.9 561.0,64.9 578.3,64.9 578.3,62.2 595.6,62.2 595.6,64.3 612.9,64.3 612.9,64.8 630.3,64.8 630.3,67.2 647.6,67.2 647.6,64.7 664.9,64.7 664.9,85.8 682.2,85.8 682.2,81.3 699.5,81.3 699.5,81.4 716.8,81.4 716.8,82.4 734.1,82.4 734.1,114.7 751.4,114.7 751.4,116.6 768.7,116.6 768.7,106.7 786.0,106.7 786.0,96.0 803.3,96.0 803.3,110.2 820.7,110.2 820.7,135.5 838.0,135.5 838.0,67.9 855.3,67.9 855.3,70.5 872.6,70.5 872.6,75.4 889.9,75.4 889.9,86.2 872.6,86.2 872.6,80.8 855.3,80.8 855.3,77.6 838.0,77.6 838.0,170.0 820.7,170.0 820.7,139.8 803.3,139.8 803.3,120.3 786.0,120.3 786.0,125.1 768.7,125.1 768.7,139.9 751.4,139.9 751.4,137.0 734.1,137.0 734.1,114.0 716.8,114.0 716.8,91.3 699.5,91.3 699.5,91.1 682.2,91.1 682.2,99.1 664.9,99.1 664.9,68.8 647.6,68.8 647.6,71.8 630.3,71.8 630.3,68.8 612.9,68.8 612.9,68.4 595.6,68.4 595.6,65.5 578.3,65.5 578.3,69.3 561.0,69.3 561.0,67.4 543.7,67.4 543.7,71.5 526.4,71.5 526.4,69.0 509.1,69.0 509.1,66.3 491.8,66.3 491.8,66.1 474.5,66.1 474.5,66.3 457.2,66.3 457.2,65.7 439.9,65.7 439.9,61.9 422.5,61.9 422.5,62.7 405.2,62.7 405.2,60.8 387.9,60.8 387.9,59.6 370.6,59.6 370.6,58.1 353.3,58.1 353.3,56.9 336.0,56.9 336.0,56.6 318.7,56.6 318.7,56.3 301.4,56.3 301.4,55.4 284.1,55.4 284.1,55.2 266.8,55.2 266.8,55.1 249.5,55.1 249.5,55.1 232.1,55.1 232.1,55.3 214.8,55.3 214.8,54.9 197.5,54.9 197.5,55.0 180.2,55.0 180.2,55.1 162.9,55.1 162.9,54.9 145.6,54.9" stroke="none" stroke-width="0.9000"  fill="#77AC30" clip-path="url(#axis_clip)"/>
    <text class="pl" transform="translate(937.2,104.1)" dy="7.6" font-size="25.20" fill="#77AC30" stroke="none">Plugin hybrid</text>
<polyline class="pl" points="910.8,80.8 911.9,80.9 913.0,81.1 914.0,81.5 914.9,82.0 915.8,82.6 916.6,83.4 917.4,84.2 918.1,85.1 918.8,86.1 919.5,87.2 920.1,88.3 920.7,89.5 921.3,90.6 921.9,91.8 922.5,93.0 923.1,94.2 923.7,95.4 924.3,96.6 924.9,97.7 925.6,98.7 926.3,99.7 927.0,100.7 927.8,101.5 928.6,102.2 929.5,102.9 930.4,103.4 931.4,103.8 932.5,104.0 933.6,104.1" stroke="#77AC30" stroke-width="0.90" stroke-opacity="1.00" fill="none" />
  </g>
  <g class="pg_3">
    <polygon class="pl" points="145.6,54.9 162.9,54.9 162.9,55.1 180.2,55.1 180.2,55.0 197.5,55.0 197.5,54.9 214.8,54.9 214.8,55.3 232.1,55.3 232.1,55.1 249.5,55.1 249.5,55.1 266.8,55.1 266.8,55.2 284.1,55.2 284.1,55.4 301.4,55.4 301.4,56.3 318.7,56.3 318.7,56.6 336.0,56.6 336.0,56.9 353.3,56.9 353.3,58.1 370.6,58.1 370.6,59.6 387.9,59.6 387.9,60.8 405.2,60.8 405.2,62.7 422.5,62.7 422.5,61.9 439.9,61.9 439.9,65.7 457.2,65.7 457.2,66.3 474.5,66.3 474.5,66.1 491.8,66.1 491.8,66.3 509.1,66.3 509.1,69.0 526.4,69.0 526.4,71.5 543.7,71.5 543.7,67.4 561.0,67.4 561.0,69.3 578.3,69.3 578.3,65.5 595.6,65.5 595.6,68.4 612.9,68.4 612.9,68.8 630.3,68.8 630.3,71.8 647.6,71.8 647.6,68.8 664.9,68.8 664.9,99.1 682.2,99.1 682.2,91.1 699.5,91.1 699.5,91.3 716.8,91.3 716.8,114.0 734.1,114.0 734.1,137.0 751.4,137.0 751.4,139.9 768.7,139.9 768.7,125.1 786.0,125.1 786.0,120.3 803.3,120.3 803.3,139.8 820.7,139.8 820.7,170.0 838.0,170.0 838.0,77.6 855.3,77.6 855.3,80.8 872.6,80.8 872.6,86.2 889.9,86.2 889.9,287.8 872.6,287.8 872.6,290.5 855.3,290.5 855.3,279.5 838.0,279.5 838.0,399.4 820.7,399.4 820.7,366.9 803.3,366.9 803.3,298.5 786.0,298.5 786.0,293.9 768.7,293.9 768.7,279.2 751.4,279.2 751.4,280.3 734.1,280.3 734.1,261.1 716.8,261.1 716.8,151.9 699.5,151.9 699.5,184.3 682.2,184.3 682.2,183.3 664.9,183.3 664.9,151.1 647.6,151.1 647.6,147.7 630.3,147.7 630.3,146.0 612.9,146.0 612.9,138.1 595.6,138.1 595.6,122.2 578.3,122.2 578.3,124.5 561.0,124.5 561.0,115.7 543.7,115.7 543.7,112.6 526.4,112.6 526.4,107.8 509.1,107.8 509.1,93.5 491.8,93.5 491.8,90.5 474.5,90.5 474.5,87.3 457.2,87.3 457.2,84.7 439.9,84.7 439.9,76.1 422.5,76.1 422.5,75.6 405.2,75.6 405.2,70.3 387.9,70.3 387.9,71.4 370.6,71.4 370.6,70.5 353.3,70.5 353.3,65.9 336.0,65.9 336.0,66.3 318.7,66.3 318.7,64.6 301.4,64.6 301.4,62.7 284.1,62.7 284.1,61.7 266.8,61.7 266.8,61.1 249.5,61.1 249.5,60.6 232.1,60.6 232.1,60.4 214.8,60.4 214.8,59.0 197.5,59.0 197.5,59.1 180.2,59.1 180.2,59.7 162.9,59.7 162.9,59.8 145.6,59.8" stroke="none" stroke-width="0.9000"  fill="#91AC6E" clip-path="url(#axis_clip)"/>
    <text class="pl" transform="translate(937.2,187.0)" dy="7.6" font-size="25.20" fill="#91AC6E" stroke="none">Non-plugin hybrid</text>
  </g>
  <g class="pg_2">
    <polygon class="pl" points="145.6,59.8 162.9,59.8 162.9,59.7 180.2,59.7 180.2,59.1 197.5,59.1 197.5,59.0 214.8,59.0 214.8,60.4 232.1,60.4 232.1,60.6 249.5,60.6 249.5,61.1 266.8,61.1 266.8,61.7 284.1,61.7 284.1,62.7 301.4,62.7 301.4,64.6 318.7,64.6 318.7,66.3 336.0,66.3 336.0,65.9 353.3,65.9 353.3,70.5 370.6,70.5 370.6,71.4 387.9,71.4 387.9,70.3 405.2,70.3 405.2,75.6 422.5,75.6 422.5,76.1 439.9,76.1 439.9,84.7 457.2,84.7 457.2,87.3 474.5,87.3 474.5,90.5 491.8,90.5 491.8,93.5 509.1,93.5 509.1,107.8 526.4,107.8 526.4,112.6 543.7,112.6 543.7,115.7 561.0,115.7 561.0,124.5 578.3,124.5 578.3,122.2 595.6,122.2 595.6,138.1 612.9,138.1 612.9,146.0 630.3,146.0 630.3,147.7 647.6,147.7 647.6,151.1 664.9,151.1 664.9,183.3 682.2,183.3 682.2,184.3 699.5,184.3 699.5,151.9 716.8,151.9 716.8,261.1 734.1,261.1 734.1,280.3 751.4,280.3 751.4,279.2 768.7,279.2 768.7,293.9 786.0,293.9 786.0,298.5 803.3,298.5 803.3,366.9 820.7,366.9 820.7,399.4 838.0,399.4 838.0,279.5 855.3,279.5 855.3,290.5 872.6,290.5 872.6,287.8 889.9,287.8 889.9,539.8 872.6,539.8 872.6,538.4 855.3,538.4 855.3,534.7 838.0,534.7 838.0,544.6 820.7,544.6 820.7,538.5 803.3,538.5 803.3,534.7 786.0,534.7 786.0,532.9 768.7,532.9 768.7,526.5 751.4,526.5 751.4,535.2 734.1,535.2 734.1,528.8 716.8,528.8 716.8,522.9 699.5,522.9 699.5,525.8 682.2,525.8 682.2,527.3 664.9,527.3 664.9,526.0 647.6,526.0 647.6,524.3 630.3,524.3 630.3,525.7 612.9,525.7 612.9,526.1 595.6,526.1 595.6,529.8 578.3,529.8 578.3,527.2 561.0,527.2 561.0,524.2 543.7,524.2 543.7,527.4 526.4,527.4 526.4,522.8 509.1,522.8 509.1,521.2 491.8,521.2 491.8,523.1 474.5,523.1 474.5,524.5 457.2,524.5 457.2,519.8 439.9,519.8 439.9,523.0 422.5,523.0 422.5,524.3 405.2,524.3 405.2,522.8 387.9,522.8 387.9,517.1 370.6,517.1 370.6,520.0 353.3,520.0 353.3,519.0 336.0,519.0 336.0,519.7 318.7,519.7 318.7,519.2 301.4,519.2 301.4,521.9 284.1,521.9 284.1,524.1 266.8,524.1 266.8,524.3 249.5,524.3 249.5,521.5 232.1,521.5 232.1,524.6 214.8,524.6 214.8,528.4 197.5,528.4 197.5,524.1 180.2,524.1 180.2,516.8 162.9,516.8 162.9,514.9 145.6,514.9" stroke="none" stroke-width="0.9000"  fill="#7B553E" clip-path="url(#axis_clip)"/>
    <text class="pl" transform="translate(937.2,413.8)" dy="7.6" font-size="25.20" fill="#7B553E" stroke="none">Petrol</text>
  </g>
  <g class="pg_1">
    <polygon class="pl" points="145.6,514.9 162.9,514.9 162.9,516.8 180.2,516.8 180.2,524.1 197.5,524.1 197.5,528.4 214.8,528.4 214.8,524.6 232.1,524.6 232.1,521.5 249.5,521.5 249.5,524.3 266.8,524.3 266.8,524.1 284.1,524.1 284.1,521.9 301.4,521.9 301.4,519.2 318.7,519.2 318.7,519.7 336.0,519.7 336.0,519.0 353.3,519.0 353.3,520.0 370.6,520.0 370.6,517.1 387.9,517.1 387.9,522.8 405.2,522.8 405.2,524.3 422.5,524.3 422.5,523.0 439.9,523.0 439.9,519.8 457.2,519.8 457.2,524.5 474.5,524.5 474.5,523.1 491.8,523.1 491.8,521.2 509.1,521.2 509.1,522.8 526.4,522.8 526.4,527.4 543.7,527.4 543.7,524.2 561.0,524.2 561.0,527.2 578.3,527.2 578.3,529.8 595.6,529.8 595.6,526.1 612.9,526.1 612.9,525.7 630.3,525.7 630.3,524.3 647.6,524.3 647.6,526.0 664.9,526.0 664.9,527.3 682.2,527.3 682.2,525.8 699.5,525.8 699.5,522.9 716.8,522.9 716.8,528.8 734.1,528.8 734.1,535.2 751.4,535.2 751.4,526.5 768.7,526.5 768.7,532.9 786.0,532.9 786.0,534.7 803.3,534.7 803.3,538.5 820.7,538.5 820.7,544.6 838.0,544.6 838.0,534.7 855.3,534.7 855.3,538.4 872.6,538.4 872.6,539.8 889.9,539.8 889.9,560.2 145.6,560.2" stroke="none" stroke-width="0.9000"  fill="#7B6E57" clip-path="url(#axis_clip)"/>
    <text class="pl" transform="translate(937.2,550.0)" dy="7.6" font-size="25.20" fill="#7B6E57" stroke="none">Diesel</text>
  </g>
</g>
<g id="lines">
  <g class="pl_1">
    <use xlink:href="#line_1" class="thick" stroke="#000" stroke-width="3" opacity="0"/>
    <use xlink:href="#line_1" class="pl pll" stroke="#000" stroke-width="0.90"/>
  </g>
  <g class="pl_2">
    <use xlink:href="#line_2" class="thick" stroke="#000" stroke-width="3" opacity="0"/>
    <use xlink:href="#line_2" class="pl pll" stroke="#000" stroke-width="0.90"/>
  </g>
  <g class="pl_3">
    <use xlink:href="#line_3" class="thick" stroke="#000" stroke-width="3" opacity="0"/>
    <use xlink:href="#line_3" class="pl pll" stroke="#000" stroke-width="0.90"/>
  </g>
  <g class="pl_4">
    <use xlink:href="#line_4" class="thick" stroke="#000" stroke-width="3" opacity="0"/>
    <use xlink:href="#line_4" class="pl pll" stroke="#000" stroke-width="0.90"/>
  </g>
  <g class="pl_5">
    <use xlink:href="#line_5" class="thick" stroke="#000" stroke-width="3" opacity="0"/>
    <use xlink:href="#line_5" class="pl pll" stroke="#000" stroke-width="0.90"/>
  </g>
  <g class="pl_6">
    <use xlink:href="#line_6" class="thick" stroke="#000" stroke-width="3" opacity="0"/>
    <use xlink:href="#line_6" class="pl pll" stroke="#000" stroke-width="0.90"/>
  </g>
  <g class="pl_7">
    <use xlink:href="#line_7" class="thick" stroke="#000" stroke-width="3" opacity="0"/>
    <use xlink:href="#line_7" class="pl pll" stroke="#000" stroke-width="0.90"/>
  </g>
  <g class="pl_8">
    <use xlink:href="#line_8" class="thick" stroke="#000" stroke-width="3" opacity="0"/>
    <use xlink:href="#line_8" class="pl pll" stroke="#000" stroke-width="0.90"/>
  </g>
  <g class="pl_9">
    <use xlink:href="#line_9" class="thick" stroke="#000" stroke-width="3" opacity="0"/>
    <use xlink:href="#line_9" class="pl pll" stroke="#000" stroke-width="0.90"/>
  </g>
  <g class="pl_10">
    <use xlink:href="#line_10" class="thick" stroke="#000" stroke-width="3" opacity="0"/>
    <use xlink:href="#line_10" class="pl pll" stroke="#000" stroke-width="0.90"/>
  </g>
  <g class="pl_11">
    <use xlink:href="#line_11" class="thick" stroke="#000" stroke-width="3" opacity="0"/>
    <use xlink:href="#line_11" class="pl pll" stroke="#000" stroke-width="0.90"/>
  </g>
  <g class="pl_12">
    <use xlink:href="#line_12" class="thick" stroke="#000" stroke-width="3" opacity="0"/>
    <use xlink:href="#line_12" class="pl pll" stroke="#000" stroke-width="0.90"/>
  </g>
  <g class="pl_13">
    <use xlink:href="#line_13" class="thick" stroke="#000" stroke-width="3" opacity="0"/>
    <use xlink:href="#line_13" class="pl pll" stroke="#000" stroke-width="0.90"/>
  </g>
  <g class="pl_14">
    <use xlink:href="#line_14" class="thick" stroke="#000" stroke-width="3" opacity="0"/>
    <use xlink:href="#line_14" class="pl pll" stroke="#000" stroke-width="0.90"/>
  </g>
  <g class="pl_15">
    <use xlink:href="#line_15" class="thick" stroke="#000" stroke-width="3" opacity="0"/>
    <use xlink:href="#line_15" class="pl pll" stroke="#000" stroke-width="0.90"/>
  </g>
</g>
    <text class="pl" transform="translate(180.2,573.0) rotate(-90)" dy="8.1" font-size="27.00" fill="#808080" stroke="none" text-anchor="end">2014</text>
    <text class="pl" transform="translate(249.5,573.0) rotate(-90)" dy="8.1" font-size="27.00" fill="#808080" stroke="none" text-anchor="end">2015</text>
    <text class="pl" transform="translate(318.7,573.0) rotate(-90)" dy="8.1" font-size="27.00" fill="#808080" stroke="none" text-anchor="end">2016</text>
    <text class="pl" transform="translate(387.9,573.0) rotate(-90)" dy="8.1" font-size="27.00" fill="#808080" stroke="none" text-anchor="end">2017</text>
    <text class="pl" transform="translate(457.2,573.0) rotate(-90)" dy="8.1" font-size="27.00" fill="#808080" stroke="none" text-anchor="end">2018</text>
    <text class="pl" transform="translate(526.4,573.0) rotate(-90)" dy="8.1" font-size="27.00" fill="#808080" stroke="none" text-anchor="end">2019</text>
    <text class="pl" transform="translate(595.6,573.0) rotate(-90)" dy="8.1" font-size="27.00" fill="#808080" stroke="none" text-anchor="end">2020</text>
    <text class="pl" transform="translate(664.9,573.0) rotate(-90)" dy="8.1" font-size="27.00" fill="#808080" stroke="none" text-anchor="end">2021</text>
    <text class="pl" transform="translate(734.1,573.0) rotate(-90)" dy="8.1" font-size="27.00" fill="#808080" stroke="none" text-anchor="end">2022</text>
    <text class="pl" transform="translate(803.3,573.0) rotate(-90)" dy="8.1" font-size="27.00" fill="#808080" stroke="none" text-anchor="end">2023</text>
    <text class="pl" transform="translate(872.6,573.0) rotate(-90)" dy="8.1" font-size="27.00" fill="#808080" stroke="none" text-anchor="end">2024</text>
<text transform="translate(157.6,666.1)" font-size="19.80" font-family="Helvetica" fill="#BFBFBF" stroke="none" xml:space="preserve"><a href="https://twitter.com/robbie_andrew" style="fill:#BFBFBF" target="_blank">@robbie_andrew</a>   &#9679;   Data: Ministry of Transport   &#9679;   Through August 2024</text>
<text class="twitlink" transform="translate(157.6,666.1)" opacity="0" font-size="19.80" fill="#BFBFBF" stroke="none" xml:space="preserve"><a href="https://twitter.com/robbie_andrew" style="fill:#BFBFBF" target="_blank">@robbie_andrew</a></text>
  <g class="dl_el" transform="translate(154.6,578.4)">
    <g class="dl_el_balloon">
      <foreignObject x="0" y="0" width="120" height="500">
      <div xmlns="http://www.w3.org/1999/xhtml" class="dl_fe" style="height:60px">
      <p class="dl_fe_p">Find me on Twitter</p>
      </div>
	    </foreignObject>
      <path stroke="#000" fill="#FDFFDF" d="M0,60H60l5,5l5,-5H120"/>
    </g>
  </g>
<use xlink:href="#line_y" transform="translate(145.6,0)"/>
<use xlink:href="#line_y" transform="translate(214.8,0)"/>
<use xlink:href="#line_y" transform="translate(284.1,0)"/>
<use xlink:href="#line_y" transform="translate(353.3,0)"/>
<use xlink:href="#line_y" transform="translate(422.5,0)"/>
<use xlink:href="#line_y" transform="translate(491.8,0)"/>
<use xlink:href="#line_y" transform="translate(561.0,0)"/>
<use xlink:href="#line_y" transform="translate(630.3,0)"/>
<use xlink:href="#line_y" transform="translate(699.5,0)"/>
<use xlink:href="#line_y" transform="translate(768.7,0)"/>
<use xlink:href="#line_y" transform="translate(838.0,0)"/>
<use xlink:href="#line_y" transform="translate(907.2,0)"/>
<use xlink:href="#line_x" transform="translate(0,560.2)"/>
<use xlink:href="#line_x" transform="translate(0,458.9)"/>
<use xlink:href="#line_x" transform="translate(0,357.7)"/>
<use xlink:href="#line_x" transform="translate(0,256.5)"/>
<use xlink:href="#line_x" transform="translate(0,155.2)"/>
<use xlink:href="#line_x" transform="translate(0,54.0)"/>
<use xlink:href="#tick_x" transform="translate(145.6,0)"/>
<use xlink:href="#tick_x" transform="translate(214.8,0)"/>
<use xlink:href="#tick_x" transform="translate(284.1,0)"/>
<use xlink:href="#tick_x" transform="translate(353.3,0)"/>
<use xlink:href="#tick_x" transform="translate(422.5,0)"/>
<use xlink:href="#tick_x" transform="translate(491.8,0)"/>
<use xlink:href="#tick_x" transform="translate(561.0,0)"/>
<use xlink:href="#tick_x" transform="translate(630.3,0)"/>
<use xlink:href="#tick_x" transform="translate(699.5,0)"/>
<use xlink:href="#tick_x" transform="translate(768.7,0)"/>
<use xlink:href="#tick_x" transform="translate(838.0,0)"/>
<use xlink:href="#tick_x" transform="translate(907.2,0)"/>
<use xlink:href="#tick_y" transform="translate(0,560.2)"/>
<use xlink:href="#tick_y" transform="translate(0,458.9)"/>
<use xlink:href="#tick_y" transform="translate(0,357.7)"/>
<use xlink:href="#tick_y" transform="translate(0,256.5)"/>
<use xlink:href="#tick_y" transform="translate(0,155.2)"/>
<use xlink:href="#tick_y" transform="translate(0,54.0)"/>
<polyline points="145.6,53.993 145.6,560.180 907.2,560.180" stroke="#808080" stroke-width="0.90" fill="none"/>
<g>
<a href="https://creativecommons.org/licenses/by/4.0/">
  <rect x="123.0" y="651.4" width="34" height="17" fill="#FFF" stroke="none"/>
  <g transform="translate(124.0,652.4) scale(0.24)">
  <g><circle fill="#FFF" cx="37.79" cy="28.5" r="28.84"/>
     <circle fill="none" cx="37.79" cy="28.5" r="28.84" stroke="#BFBFBF" stroke-width="5.5"/>
     <path fill="#BFBFBF" d="M37.16,23.19 l-4.29,2.23c-0.458-0.951-1.02-1.62-1.69-2c-0.667-0.38-1.29-0.571-1.86-0.571c-2.86,0-4.29,1.89-4.29,5.66 c0,1.71,0.36,3.08,1.09,4.11c0.724,1.03,1.79,1.54,3.2,1.54c1.87,0,3.18-0.915,3.94-2.74l3.94,2 c-0.838,1.56-2,2.79-3.49,3.69c-1.48,0.896-3.12,1.34-4.91,1.34c-2.86,0-5.16-0.875-6.92-2.63 c-1.75-1.75-2.63-4.19-2.63-7.31c0-3.05,0.886-5.47,2.66-7.26c1.77-1.79,4.01-2.69,6.72-2.69 C32.6,18.56,35.44,20.1,37.16,23.19z
              M55.61,23.19l-4.23,2.23c-0.457-0.951-1.02-1.62-1.69-2 c-0.668-0.38-1.31-0.571-1.91-0.571c-2.86,0-4.29,1.89-4.29,5.66c0,1.71,0.363,3.08,1.09,4.11 c0.723,1.03,1.79,1.54,3.2,1.54c1.87,0,3.18-0.915,3.94-2.74l4,2c-0.875,1.56-2.06,2.79-3.54,3.69 c-1.49,0.9-3.11,1.34-4.86,1.34c-2.9,0-5.21-0.875-6.94-2.63c-1.74-1.75-2.6-4.19-2.6-7.31 c0-3.05,0.885-5.47,2.66-7.26c1.77-1.79,4.01-2.69,6.71-2.69C51.12,18.56,53.944,20.1,55.61,23.19z"/>
  </g></g>
  <g transform="translate(140.2,652.4) scale(0.24)">
  <g><circle fill="#FFF" cx="37.79" cy="28.5" r="28.84"/>
     <circle fill="none" cx="37.79" cy="28.5" r="28.84" stroke="#BFBFBF" stroke-width="5.5"/>
     <path fill="#BFBFBF" d="M46.129,20.557v13.085h-3.656v15.542h-9.944V33.643h-3.656V20.557 c0-0.572,0.2-1.057,0.599-1.457c0.401-0.399,0.887-0.6,1.457-0.6h13.144c0.533,0,1.01,0.2,1.428,0.6 C45.918,19.5,46.129,19.986,46.129,20.557z
              M33.042,12.329c0-3.008,1.485-4.514,4.458-4.514s4.457,1.504,4.457,4.514 c0,2.971-1.486,4.457-4.457,4.457S33.042,15.3,33.042,12.329z"/>
  </g></g>
  </a>
</g>
  <g class="dl_el" transform="translate(69.1,548.4)">
    <g class="dl_el_balloon">
      <foreignObject x="0" y="0" width="250" height="500">
      <div xmlns="http://www.w3.org/1999/xhtml" class="dl_fe" style="height:90px">
      <p class="dl_fe_p">CC-BY: Material may be freely re-used as long as you credit the author</p>
      </div>
	    </foreignObject>
      <path stroke="#000" fill="#FDFFDF" d="M0,90H70l5,5l5,-5H250"/>
    </g>
  </g>
</g>
</svg>
