<svg version="1.1" xmlns="http://www.w3.org/2000/svg" xmlns:xlink="http://www.w3.org/1999/xlink" width="100%" height="100%" viewBox="0 0 1200.000 674.916">
<title>Spanish new passenger car sales by type: Monthly</title>
<desc>Created by Robbie Andrew (@robbie_andrew), CICERO Center for International Climate Research. CC-BY: Material may be freely re-used as long as you credit the author</desc>
<style type="text/css">
  #main {font-family:Helvetica,Arial,sans-serif; font-size:27.00px;
         fill-opacity:1; fill:#000000; stroke:none; stroke-linejoin:round; stroke-linecap:round; stroke-width:1.00;}
  a:hover {text-decoration: underline;}
  .marker {stroke-opacity:0;fill-opacity:0;}
  .marker:hover {stroke-opacity:0.5; fill-opacity:1;}
  .ticklabel {font-size:27.00px;fill:#808080;stroke:none;font-family:Helvetica}
  .ytl {text-anchor:end;}
  .dp1 {pointer-events:none;font-size:70%;text-anchor:middle;fill:#000000;}
  .dp2 {pointer-events:none;font-size:70%;text-anchor:middle;fill:#FFFFFF;}
  .numtip {pointer-events:none;}
  .cc {opacity:0.25;}
.dl_fe {background-color:#FDFFDF;display:flex;margin:auto;align-items:center}
.dl_fe_p {font-size:20px;text-align:center;margin:3px}
.dl_el {display:none;pointer-events:none;}
.cc:hover + .dl_el {display:block;}
text:hover + .dl_el {display:block;}
  #areas .pl {transition: all 0.2s ease;}
  #areas:hover .pl {opacity:0.5;}
  #areas:hover .thick {stroke-width:1;}
  #areas:hover .pg_1:hover .pl {opacity:1;}
  #areas:hover .pg_1:hover .pll {stroke-width:3;}
  #areas:hover .pg_1:hover .pldlm {stroke-width:2;}
  #areas:hover .pg_1:hover .thick {stroke-width:12;}
  #areas:hover .pg_2:hover .pl {opacity:1;}
  #areas:hover .pg_2:hover .pll {stroke-width:3;}
  #areas:hover .pg_2:hover .pldlm {stroke-width:2;}
  #areas:hover .pg_2:hover .thick {stroke-width:12;}
  #areas:hover .pg_3:hover .pl {opacity:1;}
  #areas:hover .pg_3:hover .pll {stroke-width:3;}
  #areas:hover .pg_3:hover .pldlm {stroke-width:2;}
  #areas:hover .pg_3:hover .thick {stroke-width:12;}
  #areas:hover .pg_4:hover .pl {opacity:1;}
  #areas:hover .pg_4:hover .pll {stroke-width:3;}
  #areas:hover .pg_4:hover .pldlm {stroke-width:2;}
  #areas:hover .pg_4:hover .thick {stroke-width:12;}
  #areas:hover .pg_5:hover .pl {opacity:1;}
  #areas:hover .pg_5:hover .pll {stroke-width:3;}
  #areas:hover .pg_5:hover .pldlm {stroke-width:2;}
  #areas:hover .pg_5:hover .thick {stroke-width:12;}
  #areas:hover .pg_6:hover .pl {opacity:1;}
  #areas:hover .pg_6:hover .pll {stroke-width:3;}
  #areas:hover .pg_6:hover .pldlm {stroke-width:2;}
  #areas:hover .pg_6:hover .thick {stroke-width:12;}
  #lines .pl {transition: all 0.2s ease;}
  #lines:hover .pl {opacity:0.3;}
  #lines:hover .thick {stroke-width:1;}
  #lines:hover .pl_1:hover .pl {opacity:1;}
  #lines:hover .pl_1:hover .pll {stroke-width:3;}
  #lines:hover .pl_1:hover .pldlm {stroke-width:2;}
  #lines:hover .pl_1:hover .thick {stroke-width:12;}
  #lines:hover .pl_2:hover .pl {opacity:1;}
  #lines:hover .pl_2:hover .pll {stroke-width:3;}
  #lines:hover .pl_2:hover .pldlm {stroke-width:2;}
  #lines:hover .pl_2:hover .thick {stroke-width:12;}
  #lines:hover .pl_3:hover .pl {opacity:1;}
  #lines:hover .pl_3:hover .pll {stroke-width:3;}
  #lines:hover .pl_3:hover .pldlm {stroke-width:2;}
  #lines:hover .pl_3:hover .thick {stroke-width:12;}
  #lines:hover .pl_4:hover .pl {opacity:1;}
  #lines:hover .pl_4:hover .pll {stroke-width:3;}
  #lines:hover .pl_4:hover .pldlm {stroke-width:2;}
  #lines:hover .pl_4:hover .thick {stroke-width:12;}
  #lines:hover .pl_5:hover .pl {opacity:1;}
  #lines:hover .pl_5:hover .pll {stroke-width:3;}
  #lines:hover .pl_5:hover .pldlm {stroke-width:2;}
  #lines:hover .pl_5:hover .thick {stroke-width:12;}
  #lines:hover .pl_6:hover .pl {opacity:1;}
  #lines:hover .pl_6:hover .pll {stroke-width:3;}
  #lines:hover .pl_6:hover .pldlm {stroke-width:2;}
  #lines:hover .pl_6:hover .thick {stroke-width:12;}
  #lines:hover .pl_7:hover .pl {opacity:1;}
  #lines:hover .pl_7:hover .pll {stroke-width:3;}
  #lines:hover .pl_7:hover .pldlm {stroke-width:2;}
  #lines:hover .pl_7:hover .thick {stroke-width:12;}
  #lines:hover .pl_8:hover .pl {opacity:1;}
  #lines:hover .pl_8:hover .pll {stroke-width:3;}
  #lines:hover .pl_8:hover .pldlm {stroke-width:2;}
  #lines:hover .pl_8:hover .thick {stroke-width:12;}
  #lines:hover .pl_9:hover .pl {opacity:1;}
  #lines:hover .pl_9:hover .pll {stroke-width:3;}
  #lines:hover .pl_9:hover .pldlm {stroke-width:2;}
  #lines:hover .pl_9:hover .thick {stroke-width:12;}
  #lines:hover .pl_10:hover .pl {opacity:1;}
  #lines:hover .pl_10:hover .pll {stroke-width:3;}
  #lines:hover .pl_10:hover .pldlm {stroke-width:2;}
  #lines:hover .pl_10:hover .thick {stroke-width:12;}
  #lines:hover .pl_11:hover .pl {opacity:1;}
  #lines:hover .pl_11:hover .pll {stroke-width:3;}
  #lines:hover .pl_11:hover .pldlm {stroke-width:2;}
  #lines:hover .pl_11:hover .thick {stroke-width:12;}
  #lines:hover .pl_12:hover .pl {opacity:1;}
  #lines:hover .pl_12:hover .pll {stroke-width:3;}
  #lines:hover .pl_12:hover .pldlm {stroke-width:2;}
  #lines:hover .pl_12:hover .thick {stroke-width:12;}
  #lines:hover .pl_13:hover .pl {opacity:1;}
  #lines:hover .pl_13:hover .pll {stroke-width:3;}
  #lines:hover .pl_13:hover .pldlm {stroke-width:2;}
  #lines:hover .pl_13:hover .thick {stroke-width:12;}
  #lines:hover .pl_14:hover .pl {opacity:1;}
  #lines:hover .pl_14:hover .pll {stroke-width:3;}
  #lines:hover .pl_14:hover .pldlm {stroke-width:2;}
  #lines:hover .pl_14:hover .thick {stroke-width:12;}
  #lines:hover .pl_15:hover .pl {opacity:1;}
  #lines:hover .pl_15:hover .pll {stroke-width:3;}
  #lines:hover .pl_15:hover .pldlm {stroke-width:2;}
  #lines:hover .pl_15:hover .thick {stroke-width:12;}
</style>
<defs>
  <clipPath id="axis_clip"><rect x="145.8" y="54.2" width="761.2" height="505.8" /></clipPath>
  <path id="line_y" d="M 0,53.993 v 506.187" stroke="#FFF" stroke-opacity="0.15" stroke-width="1.00"/>
  <path id="line_x" d="M 145.600,0 h 761.600" stroke="#FFF" stroke-opacity="0.15" stroke-width="1.00"/>
  <path id="tick_y" d="M 145.600,0 h -6.000" stroke="#808080" stroke-width="0.90"/>
  <path id="tick_x" d="M 0,560.180 v 6.000" stroke="#808080" stroke-width="0.90"/>
  <symbol id="line_1" viewBox="0 0 1200.000 674.916">
<polyline class="pl" points="142.2,55.0 148.6,55.4 154.8,54.9 160.9,55.3 167.3,56.1 173.7,55.7 180.0,55.4 186.4,55.1 192.9,55.9 199.2,55.6 205.6,55.4 212.0,55.2 218.3,55.1 224.8,54.7 231.0,54.9 237.3,55.2 243.6,55.5 250.0,55.0 256.3,55.0 262.6,54.8 269.1,54.6 275.4,54.5 281.8,54.5 288.1,54.5 294.5,55.0 300.9,55.0 307.1,55.2 313.3,55.0 319.6,55.1 326.0,55.4 332.3,55.7 338.7,56.0 345.2,56.5 351.5,57.1 357.9,57.7 364.3,57.3 370.6,58.2 377.1,58.5 383.3,58.4 389.4,58.6 395.8,61.2 402.1,61.3 408.5,62.1 414.9,63.8 421.3,64.9 427.7,61.6 434.1,65.7 440.4,64.9 446.8,63.1 453.3,63.8 459.4,63.2 465.6,63.2 471.9,64.2 478.3,65.4 484.7,65.0 491.0,66.6 497.5,69.5 503.9,66.7 510.2,62.8 516.6,60.8 523.0,58.8 529.4,60.5 535.7,58.7 541.9,60.0 548.2,64.6 554.6,60.9 560.9,60.1 567.3,61.5 573.7,62.0 580.1,63.4 586.4,64.8 592.8,63.0 599.1,61.2 605.6,63.9 611.7,59.7 617.9,59.3 624.3,61.4 630.6,58.2 637.0,59.4 643.4,63.3 649.8,69.7 656.2,64.6 662.5,61.3 668.9,62.6 675.3,64.1 681.7,64.6 687.9,62.2 694.1,61.6 700.4,63.2 706.8,60.5 713.1,65.3 719.5,61.4 726.0,62.0 732.3,62.8 738.7,61.2 745.1,61.1 751.4,65.9 757.9,67.6 764.1,65.3 770.2,62.2 776.6,63.5 782.9,66.2 789.3,66.7 795.7,71.1 802.1,68.9 808.5,67.7 814.9,70.9 821.2,72.5 827.6,71.8 834.1,72.6 840.3,68.1 846.5,65.2 852.9,71.2 859.2,65.3 865.6,66.1 871.9,67.9 878.4,74.7" stroke="#000" stroke-width="0.90" stroke-opacity="1.00" fill="none" clip-path="url(#axis_clip)"/>
  </symbol>
  <symbol id="line_2" viewBox="0 0 1200.000 674.916">
<polyline class="pl" points="142.2,56.0 148.6,55.7 154.8,55.0 160.9,55.8 167.3,56.5 173.7,55.9 180.0,55.7 186.4,55.5 192.9,56.4 199.2,56.1 205.6,57.1 212.0,56.4 218.3,55.4 224.8,55.3 231.0,55.1 237.3,56.2 243.6,56.3 250.0,55.7 256.3,55.3 262.6,55.5 269.1,55.1 275.4,55.2 281.8,55.2 288.1,56.5 294.5,56.7 300.9,55.6 307.1,56.2 313.3,56.1 319.6,55.9 326.0,56.2 332.3,56.8 338.7,57.2 345.2,58.4 351.5,60.0 357.9,61.8 364.3,58.6 370.6,60.3 377.1,60.2 383.3,60.0 389.4,60.4 395.8,63.0 402.1,62.4 408.5,63.4 414.9,65.3 421.3,66.2 427.7,65.0 434.1,68.8 440.4,68.5 446.8,69.6 453.3,67.1 459.4,67.3 465.6,68.2 471.9,66.8 478.3,69.1 484.7,69.2 491.0,69.6 497.5,72.5 503.9,71.2 510.2,66.9 516.6,64.8 523.0,63.2 529.4,69.2 535.7,66.5 541.9,69.0 548.2,73.7 554.6,66.0 560.9,64.5 567.3,67.4 573.7,70.1 580.1,76.3 586.4,75.7 592.8,74.4 599.1,79.8 605.6,69.3 611.7,67.0 617.9,70.1 624.3,70.3 630.6,67.1 637.0,71.7 643.4,71.9 649.8,81.8 656.2,86.3 662.5,79.6 668.9,81.8 675.3,83.1 681.7,82.9 687.9,80.2 694.1,84.3 700.4,76.4 706.8,71.9 713.1,81.6 719.5,74.6 726.0,74.5 732.3,84.9 738.7,80.1 745.1,82.6 751.4,88.5 757.9,91.7 764.1,87.8 770.2,84.3 776.6,86.3 782.9,89.5 789.3,94.0 795.7,91.9 802.1,99.4 808.5,95.4 814.9,102.6 821.2,109.2 827.6,106.3 834.1,96.7 840.3,90.9 846.5,86.7 852.9,91.8 859.2,87.3 865.6,91.9 871.9,90.4 878.4,98.3" stroke="#000" stroke-width="0.90" stroke-opacity="1.00" fill="none" clip-path="url(#axis_clip)"/>
  </symbol>
  <symbol id="line_3" viewBox="0 0 1200.000 674.916">
<polyline class="pl" points="142.2,56.3 148.6,55.8 154.8,55.1 160.9,55.9 167.3,56.7 173.7,56.1 180.0,55.9 186.4,55.9 192.9,56.7 199.2,56.8 205.6,57.6 212.0,56.6 218.3,55.7 224.8,55.7 231.0,55.4 237.3,56.9 243.6,57.2 250.0,56.1 256.3,55.6 262.6,55.8 269.1,55.6 275.4,55.8 281.8,55.5 288.1,56.9 294.5,56.9 300.9,56.1 307.1,56.5 313.3,56.5 319.6,56.4 326.0,56.9 332.3,57.9 338.7,58.3 345.2,60.3 351.5,61.4 357.9,63.2 364.3,60.0 370.6,62.3 377.1,61.7 383.3,61.2 389.4,61.4 395.8,64.0 402.1,63.8 408.5,66.1 414.9,66.6 421.3,67.4 427.7,66.9 434.1,70.6 440.4,70.4 446.8,73.0 453.3,68.9 459.4,68.9 465.6,70.7 471.9,69.0 478.3,71.4 484.7,70.7 491.0,71.3 497.5,74.8 503.9,73.3 510.2,69.3 516.6,67.8 523.0,65.7 529.4,75.9 535.7,71.6 541.9,75.4 548.2,79.2 554.6,74.3 560.9,71.1 567.3,75.3 573.7,77.2 580.1,86.6 586.4,88.8 592.8,89.8 599.1,104.8 605.6,81.5 611.7,81.0 617.9,85.5 624.3,85.2 630.6,85.6 637.0,88.8 643.4,89.9 649.8,102.5 656.2,110.6 662.5,105.8 668.9,106.7 675.3,104.5 681.7,111.1 687.9,102.8 694.1,104.3 700.4,99.4 706.8,92.6 713.1,99.0 719.5,92.1 726.0,94.5 732.3,108.9 738.7,103.0 745.1,108.6 751.4,113.9 757.9,116.2 764.1,112.9 770.2,108.9 776.6,109.7 782.9,116.6 789.3,119.9 795.7,117.6 802.1,123.8 808.5,123.9 814.9,128.1 821.2,138.7 827.6,140.6 834.1,123.4 840.3,119.1 846.5,111.5 852.9,114.7 859.2,108.8 865.6,114.1 871.9,111.7 878.4,123.1" stroke="#000" stroke-width="0.90" stroke-opacity="1.00" fill="none" clip-path="url(#axis_clip)"/>
  </symbol>
  <symbol id="line_4" viewBox="0 0 1200.000 674.916">
<polyline class="pl" points="142.2,59.4 148.6,59.5 154.8,57.4 160.9,58.1 167.3,59.6 173.7,58.6 180.0,58.8 186.4,60.4 192.9,62.0 199.2,61.9 205.6,60.6 212.0,57.2 218.3,63.1 224.8,68.4 231.0,65.0 237.3,65.5 243.6,66.5 250.0,66.8 256.3,65.6 262.6,68.1 269.1,71.6 275.4,69.4 281.8,70.3 288.1,72.2 294.5,71.3 300.9,78.6 307.1,74.5 313.3,72.7 319.6,72.7 326.0,74.7 332.3,77.1 338.7,78.9 345.2,86.4 351.5,83.7 357.9,86.2 364.3,83.4 370.6,82.4 377.1,88.0 383.3,82.8 389.4,80.5 395.8,87.4 402.1,87.1 408.5,91.9 414.9,92.8 421.3,93.3 427.7,101.6 434.1,104.4 440.4,101.1 446.8,100.4 453.3,104.9 459.4,99.9 465.6,99.4 471.9,97.8 478.3,108.2 484.7,102.8 491.0,108.6 497.5,115.1 503.9,117.2 510.2,114.4 516.6,120.9 523.0,111.6 529.4,134.1 535.7,125.5 541.9,139.7 548.2,106.4 554.6,132.5 560.9,130.7 567.3,141.9 573.7,142.2 580.1,158.1 586.4,161.8 592.8,175.0 599.1,196.5 605.6,168.5 611.7,174.3 617.9,177.7 624.3,182.4 630.6,186.9 637.0,206.8 643.4,193.5 649.8,220.4 656.2,223.3 662.5,226.3 668.9,222.1 675.3,228.9 681.7,239.2 687.9,220.5 694.1,217.8 700.4,217.9 706.8,217.8 713.1,220.3 719.5,206.9 726.0,217.0 732.3,240.5 738.7,234.0 745.1,253.9 751.4,242.6 757.9,256.5 764.1,246.7 770.2,237.4 776.6,239.1 782.9,247.2 789.3,254.2 795.7,257.7 802.1,267.9 808.5,272.5 814.9,282.9 821.2,286.5 827.6,291.0 834.1,289.7 840.3,272.6 846.5,271.4 852.9,257.4 859.2,263.5 865.6,273.1 871.9,285.9 878.4,291.5" stroke="#000" stroke-width="0.90" stroke-opacity="1.00" fill="none" clip-path="url(#axis_clip)"/>
  </symbol>
  <symbol id="line_5" viewBox="0 0 1200.000 674.916">
<polyline class="pl" points="142.2,210.9 148.6,212.1 154.8,224.7 160.9,231.3 167.3,231.6 173.7,236.2 180.0,236.3 186.4,235.4 192.9,229.7 199.2,227.4 205.6,243.3 212.0,242.8 218.3,237.8 224.8,240.1 231.0,259.3 237.3,258.2 243.6,261.7 250.0,264.0 256.3,267.5 262.6,263.1 269.1,256.8 275.4,256.2 281.8,259.4 288.1,262.5 294.5,263.7 300.9,276.5 307.1,279.3 313.3,289.6 319.6,288.9 326.0,294.9 332.3,300.8 338.7,299.6 345.2,290.4 351.5,285.8 357.9,304.4 364.3,311.0 370.6,316.5 377.1,327.7 383.3,341.6 389.4,354.5 395.8,350.9 402.1,356.1 408.5,355.2 414.9,355.7 421.3,349.4 427.7,346.9 434.1,366.4 440.4,378.1 446.8,373.5 453.3,386.1 459.4,382.7 465.6,397.2 471.9,391.7 478.3,389.3 484.7,401.9 491.0,398.3 497.5,392.3 503.9,386.8 510.2,377.5 516.6,382.6 523.0,384.7 529.4,384.8 535.7,382.6 541.9,392.7 548.2,363.0 554.6,368.1 560.9,373.4 567.3,389.8 573.7,380.0 580.1,372.7 586.4,370.4 592.8,377.6 599.1,389.2 605.6,379.0 611.7,395.6 617.9,402.6 624.3,410.4 630.6,417.3 637.0,425.9 643.4,416.6 649.8,417.9 656.2,417.7 662.5,418.8 668.9,414.9 675.3,415.3 681.7,422.5 687.9,425.8 694.1,415.2 700.4,430.0 706.8,436.8 713.1,432.2 719.5,427.4 726.0,420.2 732.3,425.9 738.7,427.3 745.1,446.0 751.4,442.0 757.9,456.3 764.1,456.2 770.2,457.6 776.6,452.4 782.9,464.5 789.3,468.6 795.7,465.8 802.1,460.9 808.5,460.0 814.9,466.3 821.2,467.1 827.6,469.4 834.1,464.6 840.3,470.8 846.5,479.7 852.9,467.7 859.2,465.0 865.6,462.9 871.9,460.8 878.4,462.2" stroke="#000" stroke-width="0.90" stroke-opacity="1.00" fill="none" clip-path="url(#axis_clip)"/>
  </symbol>
  <symbol id="line_6" viewBox="0 0 1200.000 674.916">
<polyline class="pl" points="142.2,56.0 148.6,55.7 154.8,55.0 160.9,55.8 167.3,56.5 173.7,55.9 180.0,55.7 186.4,55.5 192.9,56.4 199.2,56.1 205.6,57.1 212.0,56.4 218.3,55.4 224.8,55.3 231.0,55.1 237.3,56.2 243.6,56.3 250.0,55.7 256.3,55.3 262.6,55.5 269.1,55.1 275.4,55.2 281.8,55.2 288.1,56.5 294.5,56.7 300.9,55.6 307.1,56.2 313.3,56.1 319.6,55.9 326.0,56.2 332.3,56.8 338.7,57.2 345.2,58.4 351.5,60.0 357.9,61.8 364.3,58.6 370.6,60.3 377.1,60.2 383.3,60.0 389.4,60.4 395.8,63.0 402.1,62.4 408.5,63.4 414.9,65.3 421.3,66.2 427.7,65.0 434.1,68.8 440.4,68.5 446.8,69.6 453.3,67.1 459.4,67.3 465.6,68.2 471.9,66.8 478.3,69.1 484.7,69.2 491.0,69.6 497.5,72.5 503.9,71.2 510.2,66.9 516.6,64.8 523.0,63.2 529.4,69.2 535.7,66.5 541.9,69.0 548.2,73.7 554.6,66.0 560.9,64.5 567.3,67.4 573.7,70.1 580.1,76.3 586.4,75.7 592.8,74.4 599.1,79.8 605.6,69.3 611.7,67.0 617.9,70.1 624.3,70.3 630.6,67.1 637.0,71.7 643.4,71.9 649.8,81.8 656.2,86.3 662.5,79.6 668.9,81.8 675.3,83.1 681.7,82.9 687.9,80.2 694.1,84.3 700.4,76.4 706.8,71.9 713.1,81.6 719.5,74.6 726.0,74.5 732.3,84.9 738.7,80.1 745.1,82.6 751.4,88.5 757.9,91.7 764.1,87.8 770.2,84.3 776.6,86.3 782.9,89.5 789.3,94.0 795.7,91.9 802.1,99.4 808.5,95.4 814.9,102.6 821.2,109.2 827.6,106.3 834.1,96.7 840.3,90.9 846.5,86.7 852.9,91.8 859.2,87.3 865.6,91.9 871.9,90.4 878.4,98.3" stroke="#000" stroke-width="0.90" stroke-opacity="1.00" fill="none" clip-path="url(#axis_clip)"/>
  </symbol>
  <symbol id="line_7" viewBox="0 0 1200.000 674.916">
<polyline class="pl" points="142.2,56.3 148.6,55.8 154.8,55.1 160.9,55.9 167.3,56.7 173.7,56.1 180.0,55.9 186.4,55.9 192.9,56.7 199.2,56.8 205.6,57.6 212.0,56.6 218.3,55.7 224.8,55.7 231.0,55.4 237.3,56.9 243.6,57.2 250.0,56.1 256.3,55.6 262.6,55.8 269.1,55.6 275.4,55.8 281.8,55.5 288.1,56.9 294.5,56.9 300.9,56.1 307.1,56.5 313.3,56.5 319.6,56.4 326.0,56.9 332.3,57.9 338.7,58.3 345.2,60.3 351.5,61.4 357.9,63.2 364.3,60.0 370.6,62.3 377.1,61.7 383.3,61.2 389.4,61.4 395.8,64.0 402.1,63.8 408.5,66.1 414.9,66.6 421.3,67.4 427.7,66.9 434.1,70.6 440.4,70.4 446.8,73.0 453.3,68.9 459.4,68.9 465.6,70.7 471.9,69.0 478.3,71.4 484.7,70.7 491.0,71.3 497.5,74.8 503.9,73.3 510.2,69.3 516.6,67.8 523.0,65.7 529.4,75.9 535.7,71.6 541.9,75.4 548.2,79.2 554.6,74.3 560.9,71.1 567.3,75.3 573.7,77.2 580.1,86.6 586.4,88.8 592.8,89.8 599.1,104.8 605.6,81.5 611.7,81.0 617.9,85.5 624.3,85.2 630.6,85.6 637.0,88.8 643.4,89.9 649.8,102.5 656.2,110.6 662.5,105.8 668.9,106.7 675.3,104.5 681.7,111.1 687.9,102.8 694.1,104.3 700.4,99.4 706.8,92.6 713.1,99.0 719.5,92.1 726.0,94.5 732.3,108.9 738.7,103.0 745.1,108.6 751.4,113.9 757.9,116.2 764.1,112.9 770.2,108.9 776.6,109.7 782.9,116.6 789.3,119.9 795.7,117.6 802.1,123.8 808.5,123.9 814.9,128.1 821.2,138.7 827.6,140.6 834.1,123.4 840.3,119.1 846.5,111.5 852.9,114.7 859.2,108.8 865.6,114.1 871.9,111.7 878.4,123.1" stroke="#000" stroke-width="0.90" stroke-opacity="1.00" fill="none" clip-path="url(#axis_clip)"/>
  </symbol>
  <symbol id="line_8" viewBox="0 0 1200.000 674.916">
<polyline class="pl" points="142.2,59.4 148.6,59.5 154.8,57.4 160.9,58.1 167.3,59.6 173.7,58.6 180.0,58.8 186.4,60.4 192.9,62.0 199.2,61.9 205.6,60.6 212.0,57.2 218.3,63.1 224.8,68.4 231.0,65.0 237.3,65.5 243.6,66.5 250.0,66.8 256.3,65.6 262.6,68.1 269.1,71.6 275.4,69.4 281.8,70.3 288.1,72.2 294.5,71.3 300.9,78.6 307.1,74.5 313.3,72.7 319.6,72.7 326.0,74.7 332.3,77.1 338.7,78.9 345.2,86.4 351.5,83.7 357.9,86.2 364.3,83.4 370.6,82.4 377.1,88.0 383.3,82.8 389.4,80.5 395.8,87.4 402.1,87.1 408.5,91.9 414.9,92.8 421.3,93.3 427.7,101.6 434.1,104.4 440.4,101.1 446.8,100.4 453.3,104.9 459.4,99.9 465.6,99.4 471.9,97.8 478.3,108.2 484.7,102.8 491.0,108.6 497.5,115.1 503.9,117.2 510.2,114.4 516.6,120.9 523.0,111.6 529.4,134.1 535.7,125.5 541.9,139.7 548.2,106.4 554.6,132.5 560.9,130.7 567.3,141.9 573.7,142.2 580.1,158.1 586.4,161.8 592.8,175.0 599.1,196.5 605.6,168.5 611.7,174.3 617.9,177.7 624.3,182.4 630.6,186.9 637.0,206.8 643.4,193.5 649.8,220.4 656.2,223.3 662.5,226.3 668.9,222.1 675.3,228.9 681.7,239.2 687.9,220.5 694.1,217.8 700.4,217.9 706.8,217.8 713.1,220.3 719.5,206.9 726.0,217.0 732.3,240.5 738.7,234.0 745.1,253.9 751.4,242.6 757.9,256.5 764.1,246.7 770.2,237.4 776.6,239.1 782.9,247.2 789.3,254.2 795.7,257.7 802.1,267.9 808.5,272.5 814.9,282.9 821.2,286.5 827.6,291.0 834.1,289.7 840.3,272.6 846.5,271.4 852.9,257.4 859.2,263.5 865.6,273.1 871.9,285.9 878.4,291.5" stroke="#000" stroke-width="0.90" stroke-opacity="1.00" fill="none" clip-path="url(#axis_clip)"/>
  </symbol>
  <symbol id="line_9" viewBox="0 0 1200.000 674.916">
<polyline class="pl" points="142.2,210.9 148.6,212.1 154.8,224.7 160.9,231.3 167.3,231.6 173.7,236.2 180.0,236.3 186.4,235.4 192.9,229.7 199.2,227.4 205.6,243.3 212.0,242.8 218.3,237.8 224.8,240.1 231.0,259.3 237.3,258.2 243.6,261.7 250.0,264.0 256.3,267.5 262.6,263.1 269.1,256.8 275.4,256.2 281.8,259.4 288.1,262.5 294.5,263.7 300.9,276.5 307.1,279.3 313.3,289.6 319.6,288.9 326.0,294.9 332.3,300.8 338.7,299.6 345.2,290.4 351.5,285.8 357.9,304.4 364.3,311.0 370.6,316.5 377.1,327.7 383.3,341.6 389.4,354.5 395.8,350.9 402.1,356.1 408.5,355.2 414.9,355.7 421.3,349.4 427.7,346.9 434.1,366.4 440.4,378.1 446.8,373.5 453.3,386.1 459.4,382.7 465.6,397.2 471.9,391.7 478.3,389.3 484.7,401.9 491.0,398.3 497.5,392.3 503.9,386.8 510.2,377.5 516.6,382.6 523.0,384.7 529.4,384.8 535.7,382.6 541.9,392.7 548.2,363.0 554.6,368.1 560.9,373.4 567.3,389.8 573.7,380.0 580.1,372.7 586.4,370.4 592.8,377.6 599.1,389.2 605.6,379.0 611.7,395.6 617.9,402.6 624.3,410.4 630.6,417.3 637.0,425.9 643.4,416.6 649.8,417.9 656.2,417.7 662.5,418.8 668.9,414.9 675.3,415.3 681.7,422.5 687.9,425.8 694.1,415.2 700.4,430.0 706.8,436.8 713.1,432.2 719.5,427.4 726.0,420.2 732.3,425.9 738.7,427.3 745.1,446.0 751.4,442.0 757.9,456.3 764.1,456.2 770.2,457.6 776.6,452.4 782.9,464.5 789.3,468.6 795.7,465.8 802.1,460.9 808.5,460.0 814.9,466.3 821.2,467.1 827.6,469.4 834.1,464.6 840.3,470.8 846.5,479.7 852.9,467.7 859.2,465.0 865.6,462.9 871.9,460.8 878.4,462.2" stroke="#000" stroke-width="0.90" stroke-opacity="1.00" fill="none" clip-path="url(#axis_clip)"/>
  </symbol>
  <symbol id="line_10" viewBox="0 0 1200.000 674.916">
<polyline class="pl" points="142.2,56.3 148.6,55.8 154.8,55.1 160.9,55.9 167.3,56.7 173.7,56.1 180.0,55.9 186.4,55.9 192.9,56.7 199.2,56.8 205.6,57.6 212.0,56.6 218.3,55.7 224.8,55.7 231.0,55.4 237.3,56.9 243.6,57.2 250.0,56.1 256.3,55.6 262.6,55.8 269.1,55.6 275.4,55.8 281.8,55.5 288.1,56.9 294.5,56.9 300.9,56.1 307.1,56.5 313.3,56.5 319.6,56.4 326.0,56.9 332.3,57.9 338.7,58.3 345.2,60.3 351.5,61.4 357.9,63.2 364.3,60.0 370.6,62.3 377.1,61.7 383.3,61.2 389.4,61.4 395.8,64.0 402.1,63.8 408.5,66.1 414.9,66.6 421.3,67.4 427.7,66.9 434.1,70.6 440.4,70.4 446.8,73.0 453.3,68.9 459.4,68.9 465.6,70.7 471.9,69.0 478.3,71.4 484.7,70.7 491.0,71.3 497.5,74.8 503.9,73.3 510.2,69.3 516.6,67.8 523.0,65.7 529.4,75.9 535.7,71.6 541.9,75.4 548.2,79.2 554.6,74.3 560.9,71.1 567.3,75.3 573.7,77.2 580.1,86.6 586.4,88.8 592.8,89.8 599.1,104.8 605.6,81.5 611.7,81.0 617.9,85.5 624.3,85.2 630.6,85.6 637.0,88.8 643.4,89.9 649.8,102.5 656.2,110.6 662.5,105.8 668.9,106.7 675.3,104.5 681.7,111.1 687.9,102.8 694.1,104.3 700.4,99.4 706.8,92.6 713.1,99.0 719.5,92.1 726.0,94.5 732.3,108.9 738.7,103.0 745.1,108.6 751.4,113.9 757.9,116.2 764.1,112.9 770.2,108.9 776.6,109.7 782.9,116.6 789.3,119.9 795.7,117.6 802.1,123.8 808.5,123.9 814.9,128.1 821.2,138.7 827.6,140.6 834.1,123.4 840.3,119.1 846.5,111.5 852.9,114.7 859.2,108.8 865.6,114.1 871.9,111.7 878.4,123.1" stroke="#000" stroke-width="0.90" stroke-opacity="1.00" fill="none" clip-path="url(#axis_clip)"/>
  </symbol>
  <symbol id="line_11" viewBox="0 0 1200.000 674.916">
<polyline class="pl" points="142.2,59.4 148.6,59.5 154.8,57.4 160.9,58.1 167.3,59.6 173.7,58.6 180.0,58.8 186.4,60.4 192.9,62.0 199.2,61.9 205.6,60.6 212.0,57.2 218.3,63.1 224.8,68.4 231.0,65.0 237.3,65.5 243.6,66.5 250.0,66.8 256.3,65.6 262.6,68.1 269.1,71.6 275.4,69.4 281.8,70.3 288.1,72.2 294.5,71.3 300.9,78.6 307.1,74.5 313.3,72.7 319.6,72.7 326.0,74.7 332.3,77.1 338.7,78.9 345.2,86.4 351.5,83.7 357.9,86.2 364.3,83.4 370.6,82.4 377.1,88.0 383.3,82.8 389.4,80.5 395.8,87.4 402.1,87.1 408.5,91.9 414.9,92.8 421.3,93.3 427.7,101.6 434.1,104.4 440.4,101.1 446.8,100.4 453.3,104.9 459.4,99.9 465.6,99.4 471.9,97.8 478.3,108.2 484.7,102.8 491.0,108.6 497.5,115.1 503.9,117.2 510.2,114.4 516.6,120.9 523.0,111.6 529.4,134.1 535.7,125.5 541.9,139.7 548.2,106.4 554.6,132.5 560.9,130.7 567.3,141.9 573.7,142.2 580.1,158.1 586.4,161.8 592.8,175.0 599.1,196.5 605.6,168.5 611.7,174.3 617.9,177.7 624.3,182.4 630.6,186.9 637.0,206.8 643.4,193.5 649.8,220.4 656.2,223.3 662.5,226.3 668.9,222.1 675.3,228.9 681.7,239.2 687.9,220.5 694.1,217.8 700.4,217.9 706.8,217.8 713.1,220.3 719.5,206.9 726.0,217.0 732.3,240.5 738.7,234.0 745.1,253.9 751.4,242.6 757.9,256.5 764.1,246.7 770.2,237.4 776.6,239.1 782.9,247.2 789.3,254.2 795.7,257.7 802.1,267.9 808.5,272.5 814.9,282.9 821.2,286.5 827.6,291.0 834.1,289.7 840.3,272.6 846.5,271.4 852.9,257.4 859.2,263.5 865.6,273.1 871.9,285.9 878.4,291.5" stroke="#000" stroke-width="0.90" stroke-opacity="1.00" fill="none" clip-path="url(#axis_clip)"/>
  </symbol>
  <symbol id="line_12" viewBox="0 0 1200.000 674.916">
<polyline class="pl" points="142.2,210.9 148.6,212.1 154.8,224.7 160.9,231.3 167.3,231.6 173.7,236.2 180.0,236.3 186.4,235.4 192.9,229.7 199.2,227.4 205.6,243.3 212.0,242.8 218.3,237.8 224.8,240.1 231.0,259.3 237.3,258.2 243.6,261.7 250.0,264.0 256.3,267.5 262.6,263.1 269.1,256.8 275.4,256.2 281.8,259.4 288.1,262.5 294.5,263.7 300.9,276.5 307.1,279.3 313.3,289.6 319.6,288.9 326.0,294.9 332.3,300.8 338.7,299.6 345.2,290.4 351.5,285.8 357.9,304.4 364.3,311.0 370.6,316.5 377.1,327.7 383.3,341.6 389.4,354.5 395.8,350.9 402.1,356.1 408.5,355.2 414.9,355.7 421.3,349.4 427.7,346.9 434.1,366.4 440.4,378.1 446.8,373.5 453.3,386.1 459.4,382.7 465.6,397.2 471.9,391.7 478.3,389.3 484.7,401.9 491.0,398.3 497.5,392.3 503.9,386.8 510.2,377.5 516.6,382.6 523.0,384.7 529.4,384.8 535.7,382.6 541.9,392.7 548.2,363.0 554.6,368.1 560.9,373.4 567.3,389.8 573.7,380.0 580.1,372.7 586.4,370.4 592.8,377.6 599.1,389.2 605.6,379.0 611.7,395.6 617.9,402.6 624.3,410.4 630.6,417.3 637.0,425.9 643.4,416.6 649.8,417.9 656.2,417.7 662.5,418.8 668.9,414.9 675.3,415.3 681.7,422.5 687.9,425.8 694.1,415.2 700.4,430.0 706.8,436.8 713.1,432.2 719.5,427.4 726.0,420.2 732.3,425.9 738.7,427.3 745.1,446.0 751.4,442.0 757.9,456.3 764.1,456.2 770.2,457.6 776.6,452.4 782.9,464.5 789.3,468.6 795.7,465.8 802.1,460.9 808.5,460.0 814.9,466.3 821.2,467.1 827.6,469.4 834.1,464.6 840.3,470.8 846.5,479.7 852.9,467.7 859.2,465.0 865.6,462.9 871.9,460.8 878.4,462.2" stroke="#000" stroke-width="0.90" stroke-opacity="1.00" fill="none" clip-path="url(#axis_clip)"/>
  </symbol>
  <symbol id="line_13" viewBox="0 0 1200.000 674.916">
<polyline class="pl" points="142.2,59.4 148.6,59.5 154.8,57.4 160.9,58.1 167.3,59.6 173.7,58.6 180.0,58.8 186.4,60.4 192.9,62.0 199.2,61.9 205.6,60.6 212.0,57.2 218.3,63.1 224.8,68.4 231.0,65.0 237.3,65.5 243.6,66.5 250.0,66.8 256.3,65.6 262.6,68.1 269.1,71.6 275.4,69.4 281.8,70.3 288.1,72.2 294.5,71.3 300.9,78.6 307.1,74.5 313.3,72.7 319.6,72.7 326.0,74.7 332.3,77.1 338.7,78.9 345.2,86.4 351.5,83.7 357.9,86.2 364.3,83.4 370.6,82.4 377.1,88.0 383.3,82.8 389.4,80.5 395.8,87.4 402.1,87.1 408.5,91.9 414.9,92.8 421.3,93.3 427.7,101.6 434.1,104.4 440.4,101.1 446.8,100.4 453.3,104.9 459.4,99.9 465.6,99.4 471.9,97.8 478.3,108.2 484.7,102.8 491.0,108.6 497.5,115.1 503.9,117.2 510.2,114.4 516.6,120.9 523.0,111.6 529.4,134.1 535.7,125.5 541.9,139.7 548.2,106.4 554.6,132.5 560.9,130.7 567.3,141.9 573.7,142.2 580.1,158.1 586.4,161.8 592.8,175.0 599.1,196.5 605.6,168.5 611.7,174.3 617.9,177.7 624.3,182.4 630.6,186.9 637.0,206.8 643.4,193.5 649.8,220.4 656.2,223.3 662.5,226.3 668.9,222.1 675.3,228.9 681.7,239.2 687.9,220.5 694.1,217.8 700.4,217.9 706.8,217.8 713.1,220.3 719.5,206.9 726.0,217.0 732.3,240.5 738.7,234.0 745.1,253.9 751.4,242.6 757.9,256.5 764.1,246.7 770.2,237.4 776.6,239.1 782.9,247.2 789.3,254.2 795.7,257.7 802.1,267.9 808.5,272.5 814.9,282.9 821.2,286.5 827.6,291.0 834.1,289.7 840.3,272.6 846.5,271.4 852.9,257.4 859.2,263.5 865.6,273.1 871.9,285.9 878.4,291.5" stroke="#000" stroke-width="0.90" stroke-opacity="1.00" fill="none" clip-path="url(#axis_clip)"/>
  </symbol>
  <symbol id="line_14" viewBox="0 0 1200.000 674.916">
<polyline class="pl" points="142.2,210.9 148.6,212.1 154.8,224.7 160.9,231.3 167.3,231.6 173.7,236.2 180.0,236.3 186.4,235.4 192.9,229.7 199.2,227.4 205.6,243.3 212.0,242.8 218.3,237.8 224.8,240.1 231.0,259.3 237.3,258.2 243.6,261.7 250.0,264.0 256.3,267.5 262.6,263.1 269.1,256.8 275.4,256.2 281.8,259.4 288.1,262.5 294.5,263.7 300.9,276.5 307.1,279.3 313.3,289.6 319.6,288.9 326.0,294.9 332.3,300.8 338.7,299.6 345.2,290.4 351.5,285.8 357.9,304.4 364.3,311.0 370.6,316.5 377.1,327.7 383.3,341.6 389.4,354.5 395.8,350.9 402.1,356.1 408.5,355.2 414.9,355.7 421.3,349.4 427.7,346.9 434.1,366.4 440.4,378.1 446.8,373.5 453.3,386.1 459.4,382.7 465.6,397.2 471.9,391.7 478.3,389.3 484.7,401.9 491.0,398.3 497.5,392.3 503.9,386.8 510.2,377.5 516.6,382.6 523.0,384.7 529.4,384.8 535.7,382.6 541.9,392.7 548.2,363.0 554.6,368.1 560.9,373.4 567.3,389.8 573.7,380.0 580.1,372.7 586.4,370.4 592.8,377.6 599.1,389.2 605.6,379.0 611.7,395.6 617.9,402.6 624.3,410.4 630.6,417.3 637.0,425.9 643.4,416.6 649.8,417.9 656.2,417.7 662.5,418.8 668.9,414.9 675.3,415.3 681.7,422.5 687.9,425.8 694.1,415.2 700.4,430.0 706.8,436.8 713.1,432.2 719.5,427.4 726.0,420.2 732.3,425.9 738.7,427.3 745.1,446.0 751.4,442.0 757.9,456.3 764.1,456.2 770.2,457.6 776.6,452.4 782.9,464.5 789.3,468.6 795.7,465.8 802.1,460.9 808.5,460.0 814.9,466.3 821.2,467.1 827.6,469.4 834.1,464.6 840.3,470.8 846.5,479.7 852.9,467.7 859.2,465.0 865.6,462.9 871.9,460.8 878.4,462.2" stroke="#000" stroke-width="0.90" stroke-opacity="1.00" fill="none" clip-path="url(#axis_clip)"/>
  </symbol>
  <symbol id="line_15" viewBox="0 0 1200.000 674.916">
<polyline class="pl" points="142.2,210.9 148.6,212.1 154.8,224.7 160.9,231.3 167.3,231.6 173.7,236.2 180.0,236.3 186.4,235.4 192.9,229.7 199.2,227.4 205.6,243.3 212.0,242.8 218.3,237.8 224.8,240.1 231.0,259.3 237.3,258.2 243.6,261.7 250.0,264.0 256.3,267.5 262.6,263.1 269.1,256.8 275.4,256.2 281.8,259.4 288.1,262.5 294.5,263.7 300.9,276.5 307.1,279.3 313.3,289.6 319.6,288.9 326.0,294.9 332.3,300.8 338.7,299.6 345.2,290.4 351.5,285.8 357.9,304.4 364.3,311.0 370.6,316.5 377.1,327.7 383.3,341.6 389.4,354.5 395.8,350.9 402.1,356.1 408.5,355.2 414.9,355.7 421.3,349.4 427.7,346.9 434.1,366.4 440.4,378.1 446.8,373.5 453.3,386.1 459.4,382.7 465.6,397.2 471.9,391.7 478.3,389.3 484.7,401.9 491.0,398.3 497.5,392.3 503.9,386.8 510.2,377.5 516.6,382.6 523.0,384.7 529.4,384.8 535.7,382.6 541.9,392.7 548.2,363.0 554.6,368.1 560.9,373.4 567.3,389.8 573.7,380.0 580.1,372.7 586.4,370.4 592.8,377.6 599.1,389.2 605.6,379.0 611.7,395.6 617.9,402.6 624.3,410.4 630.6,417.3 637.0,425.9 643.4,416.6 649.8,417.9 656.2,417.7 662.5,418.8 668.9,414.9 675.3,415.3 681.7,422.5 687.9,425.8 694.1,415.2 700.4,430.0 706.8,436.8 713.1,432.2 719.5,427.4 726.0,420.2 732.3,425.9 738.7,427.3 745.1,446.0 751.4,442.0 757.9,456.3 764.1,456.2 770.2,457.6 776.6,452.4 782.9,464.5 789.3,468.6 795.7,465.8 802.1,460.9 808.5,460.0 814.9,466.3 821.2,467.1 827.6,469.4 834.1,464.6 840.3,470.8 846.5,479.7 852.9,467.7 859.2,465.0 865.6,462.9 871.9,460.8 878.4,462.2" stroke="#000" stroke-width="0.90" stroke-opacity="1.00" fill="none" clip-path="url(#axis_clip)"/>
  </symbol>
</defs>
<g id="main">
<text class="ticklabel ytl" transform="translate(128.8,568.3)">0 %</text>
<text class="ticklabel ytl" transform="translate(128.8,467.0)">20 %</text>
<text class="ticklabel ytl" transform="translate(128.8,365.8)">40 %</text>
<text class="ticklabel ytl" transform="translate(128.8,264.6)">60 %</text>
<text class="ticklabel ytl" transform="translate(128.8,163.3)">80 %</text>
<text class="ticklabel ytl" transform="translate(128.8,62.1)">100 %</text>
<g id="areas">
  <g class="pg_6">
    <polygon class="pl" points="142.2,54.0 148.6,54.0 154.8,54.0 160.9,54.0 167.3,54.0 173.7,54.0 180.0,54.0 186.4,54.0 192.9,54.0 199.2,54.0 205.6,54.0 212.0,54.0 218.3,54.0 224.8,54.0 231.0,54.0 237.3,54.0 243.6,54.0 250.0,54.0 256.3,54.0 262.6,54.0 269.1,54.0 275.4,54.0 281.8,54.0 288.1,54.0 294.5,54.0 300.9,54.0 307.1,54.0 313.3,54.0 319.6,54.0 326.0,54.0 332.3,54.0 338.7,54.0 345.2,54.0 351.5,54.0 357.9,54.0 364.3,54.0 370.6,54.0 377.1,54.0 383.3,54.0 389.4,54.0 395.8,54.0 402.1,54.0 408.5,54.0 414.9,54.0 421.3,54.0 427.7,54.0 434.1,54.0 440.4,54.0 446.8,54.0 453.3,54.0 459.4,54.0 465.6,54.0 471.9,54.0 478.3,54.0 484.7,54.0 491.0,54.0 497.5,54.0 503.9,54.0 510.2,54.0 516.6,54.0 523.0,54.0 529.4,54.0 535.7,54.0 541.9,54.0 548.2,54.0 554.6,54.0 560.9,54.0 567.3,54.0 573.7,54.0 580.1,54.0 586.4,54.0 592.8,54.0 599.1,54.0 605.6,54.0 611.7,54.0 617.9,54.0 624.3,54.0 630.6,54.0 637.0,54.0 643.4,54.0 649.8,54.0 656.2,54.0 662.5,54.0 668.9,54.0 675.3,54.0 681.7,54.0 687.9,54.0 694.1,54.0 700.4,54.0 706.8,54.0 713.1,54.0 719.5,54.0 726.0,54.0 732.3,54.0 738.7,54.0 745.1,54.0 751.4,54.0 757.9,54.0 764.1,54.0 770.2,54.0 776.6,54.0 782.9,54.0 789.3,54.0 795.7,54.0 802.1,54.0 808.5,54.0 814.9,54.0 821.2,54.0 827.6,54.0 834.1,54.0 840.3,54.0 846.5,54.0 852.9,54.0 859.2,54.0 865.6,54.0 871.9,54.0 878.4,54.0 878.4,74.7 871.9,67.9 865.6,66.1 859.2,65.3 852.9,71.2 846.5,65.2 840.3,68.1 834.1,72.6 827.6,71.8 821.2,72.5 814.9,70.9 808.5,67.7 802.1,68.9 795.7,71.1 789.3,66.7 782.9,66.2 776.6,63.5 770.2,62.2 764.1,65.3 757.9,67.6 751.4,65.9 745.1,61.1 738.7,61.2 732.3,62.8 726.0,62.0 719.5,61.4 713.1,65.3 706.8,60.5 700.4,63.2 694.1,61.6 687.9,62.2 681.7,64.6 675.3,64.1 668.9,62.6 662.5,61.3 656.2,64.6 649.8,69.7 643.4,63.3 637.0,59.4 630.6,58.2 624.3,61.4 617.9,59.3 611.7,59.7 605.6,63.9 599.1,61.2 592.8,63.0 586.4,64.8 580.1,63.4 573.7,62.0 567.3,61.5 560.9,60.1 554.6,60.9 548.2,64.6 541.9,60.0 535.7,58.7 529.4,60.5 523.0,58.8 516.6,60.8 510.2,62.8 503.9,66.7 497.5,69.5 491.0,66.6 484.7,65.0 478.3,65.4 471.9,64.2 465.6,63.2 459.4,63.2 453.3,63.8 446.8,63.1 440.4,64.9 434.1,65.7 427.7,61.6 421.3,64.9 414.9,63.8 408.5,62.1 402.1,61.3 395.8,61.2 389.4,58.6 383.3,58.4 377.1,58.5 370.6,58.2 364.3,57.3 357.9,57.7 351.5,57.1 345.2,56.5 338.7,56.0 332.3,55.7 326.0,55.4 319.6,55.1 313.3,55.0 307.1,55.2 300.9,55.0 294.5,55.0 288.1,54.5 281.8,54.5 275.4,54.5 269.1,54.6 262.6,54.8 256.3,55.0 250.0,55.0 243.6,55.5 237.3,55.2 231.0,54.9 224.8,54.7 218.3,55.1 212.0,55.2 205.6,55.4 199.2,55.6 192.9,55.9 186.4,55.1 180.0,55.4 173.7,55.7 167.3,56.1 160.9,55.3 154.8,54.9 148.6,55.4 142.2,55.0" stroke="none" stroke-width="0.9000"  fill="#808080" clip-path="url(#axis_clip)"/>
    <text class="pl" transform="translate(937.2,62.1)" dy="7.6" font-size="25.20" fill="#808080" stroke="none">Others</text>
<polyline class="pl" points="910.8,64.3 911.9,64.3 913.0,64.3 914.0,64.3 914.9,64.2 915.8,64.2 916.6,64.1 917.4,64.0 918.1,63.9 918.8,63.8 919.5,63.7 920.1,63.6 920.7,63.5 921.3,63.4 921.9,63.3 922.5,63.2 923.1,63.1 923.7,63.0 924.3,62.9 924.9,62.8 925.6,62.7 926.3,62.6 927.0,62.5 927.8,62.4 928.6,62.3 929.5,62.3 930.4,62.2 931.4,62.2 932.5,62.2 933.6,62.1" stroke="#808080" stroke-width="0.90" stroke-opacity="1.00" fill="none" />
    <text class="pl" transform="translate(145.6,47.2)" dy="0.0" font-size="27.00" fill="#808080" stroke="none">Spanish new passenger car sales by type: Monthly</text>
  </g>
  <g class="pg_5">
    <polygon class="pl" points="142.2,55.0 148.6,55.4 154.8,54.9 160.9,55.3 167.3,56.1 173.7,55.7 180.0,55.4 186.4,55.1 192.9,55.9 199.2,55.6 205.6,55.4 212.0,55.2 218.3,55.1 224.8,54.7 231.0,54.9 237.3,55.2 243.6,55.5 250.0,55.0 256.3,55.0 262.6,54.8 269.1,54.6 275.4,54.5 281.8,54.5 288.1,54.5 294.5,55.0 300.9,55.0 307.1,55.2 313.3,55.0 319.6,55.1 326.0,55.4 332.3,55.7 338.7,56.0 345.2,56.5 351.5,57.1 357.9,57.7 364.3,57.3 370.6,58.2 377.1,58.5 383.3,58.4 389.4,58.6 395.8,61.2 402.1,61.3 408.5,62.1 414.9,63.8 421.3,64.9 427.7,61.6 434.1,65.7 440.4,64.9 446.8,63.1 453.3,63.8 459.4,63.2 465.6,63.2 471.9,64.2 478.3,65.4 484.7,65.0 491.0,66.6 497.5,69.5 503.9,66.7 510.2,62.8 516.6,60.8 523.0,58.8 529.4,60.5 535.7,58.7 541.9,60.0 548.2,64.6 554.6,60.9 560.9,60.1 567.3,61.5 573.7,62.0 580.1,63.4 586.4,64.8 592.8,63.0 599.1,61.2 605.6,63.9 611.7,59.7 617.9,59.3 624.3,61.4 630.6,58.2 637.0,59.4 643.4,63.3 649.8,69.7 656.2,64.6 662.5,61.3 668.9,62.6 675.3,64.1 681.7,64.6 687.9,62.2 694.1,61.6 700.4,63.2 706.8,60.5 713.1,65.3 719.5,61.4 726.0,62.0 732.3,62.8 738.7,61.2 745.1,61.1 751.4,65.9 757.9,67.6 764.1,65.3 770.2,62.2 776.6,63.5 782.9,66.2 789.3,66.7 795.7,71.1 802.1,68.9 808.5,67.7 814.9,70.9 821.2,72.5 827.6,71.8 834.1,72.6 840.3,68.1 846.5,65.2 852.9,71.2 859.2,65.3 865.6,66.1 871.9,67.9 878.4,74.7 878.4,98.3 871.9,90.4 865.6,91.9 859.2,87.3 852.9,91.8 846.5,86.7 840.3,90.9 834.1,96.7 827.6,106.3 821.2,109.2 814.9,102.6 808.5,95.4 802.1,99.4 795.7,91.9 789.3,94.0 782.9,89.5 776.6,86.3 770.2,84.3 764.1,87.8 757.9,91.7 751.4,88.5 745.1,82.6 738.7,80.1 732.3,84.9 726.0,74.5 719.5,74.6 713.1,81.6 706.8,71.9 700.4,76.4 694.1,84.3 687.9,80.2 681.7,82.9 675.3,83.1 668.9,81.8 662.5,79.6 656.2,86.3 649.8,81.8 643.4,71.9 637.0,71.7 630.6,67.1 624.3,70.3 617.9,70.1 611.7,67.0 605.6,69.3 599.1,79.8 592.8,74.4 586.4,75.7 580.1,76.3 573.7,70.1 567.3,67.4 560.9,64.5 554.6,66.0 548.2,73.7 541.9,69.0 535.7,66.5 529.4,69.2 523.0,63.2 516.6,64.8 510.2,66.9 503.9,71.2 497.5,72.5 491.0,69.6 484.7,69.2 478.3,69.1 471.9,66.8 465.6,68.2 459.4,67.3 453.3,67.1 446.8,69.6 440.4,68.5 434.1,68.8 427.7,65.0 421.3,66.2 414.9,65.3 408.5,63.4 402.1,62.4 395.8,63.0 389.4,60.4 383.3,60.0 377.1,60.2 370.6,60.3 364.3,58.6 357.9,61.8 351.5,60.0 345.2,58.4 338.7,57.2 332.3,56.8 326.0,56.2 319.6,55.9 313.3,56.1 307.1,56.2 300.9,55.6 294.5,56.7 288.1,56.5 281.8,55.2 275.4,55.2 269.1,55.1 262.6,55.5 256.3,55.3 250.0,55.7 243.6,56.3 237.3,56.2 231.0,55.1 224.8,55.3 218.3,55.4 212.0,56.4 205.6,57.1 199.2,56.1 192.9,56.4 186.4,55.5 180.0,55.7 173.7,55.9 167.3,56.5 160.9,55.8 154.8,55.0 148.6,55.7 142.2,56.0" stroke="none" stroke-width="0.9000"  fill="#6298C6" clip-path="url(#axis_clip)"/>
    <text class="pl" transform="translate(937.2,87.2)" dy="7.6" font-size="25.20" fill="#6298C6" stroke="none">Battery electric</text>
<polyline class="pl" points="910.8,86.5 911.9,86.5 913.0,86.5 914.0,86.5 914.9,86.6 915.8,86.6 916.6,86.6 917.4,86.6 918.1,86.6 918.8,86.7 919.5,86.7 920.1,86.7 920.7,86.8 921.3,86.8 921.9,86.8 922.5,86.9 923.1,86.9 923.7,86.9 924.3,87.0 924.9,87.0 925.6,87.0 926.3,87.1 927.0,87.1 927.8,87.1 928.6,87.1 929.5,87.2 930.4,87.2 931.4,87.2 932.5,87.2 933.6,87.2" stroke="#6298C6" stroke-width="0.90" stroke-opacity="1.00" fill="none" />
  </g>
  <g class="pg_4">
    <polygon class="pl" points="142.2,56.0 148.6,55.7 154.8,55.0 160.9,55.8 167.3,56.5 173.7,55.9 180.0,55.7 186.4,55.5 192.9,56.4 199.2,56.1 205.6,57.1 212.0,56.4 218.3,55.4 224.8,55.3 231.0,55.1 237.3,56.2 243.6,56.3 250.0,55.7 256.3,55.3 262.6,55.5 269.1,55.1 275.4,55.2 281.8,55.2 288.1,56.5 294.5,56.7 300.9,55.6 307.1,56.2 313.3,56.1 319.6,55.9 326.0,56.2 332.3,56.8 338.7,57.2 345.2,58.4 351.5,60.0 357.9,61.8 364.3,58.6 370.6,60.3 377.1,60.2 383.3,60.0 389.4,60.4 395.8,63.0 402.1,62.4 408.5,63.4 414.9,65.3 421.3,66.2 427.7,65.0 434.1,68.8 440.4,68.5 446.8,69.6 453.3,67.1 459.4,67.3 465.6,68.2 471.9,66.8 478.3,69.1 484.7,69.2 491.0,69.6 497.5,72.5 503.9,71.2 510.2,66.9 516.6,64.8 523.0,63.2 529.4,69.2 535.7,66.5 541.9,69.0 548.2,73.7 554.6,66.0 560.9,64.5 567.3,67.4 573.7,70.1 580.1,76.3 586.4,75.7 592.8,74.4 599.1,79.8 605.6,69.3 611.7,67.0 617.9,70.1 624.3,70.3 630.6,67.1 637.0,71.7 643.4,71.9 649.8,81.8 656.2,86.3 662.5,79.6 668.9,81.8 675.3,83.1 681.7,82.9 687.9,80.2 694.1,84.3 700.4,76.4 706.8,71.9 713.1,81.6 719.5,74.6 726.0,74.5 732.3,84.9 738.7,80.1 745.1,82.6 751.4,88.5 757.9,91.7 764.1,87.8 770.2,84.3 776.6,86.3 782.9,89.5 789.3,94.0 795.7,91.9 802.1,99.4 808.5,95.4 814.9,102.6 821.2,109.2 827.6,106.3 834.1,96.7 840.3,90.9 846.5,86.7 852.9,91.8 859.2,87.3 865.6,91.9 871.9,90.4 878.4,98.3 878.4,123.1 871.9,111.7 865.6,114.1 859.2,108.8 852.9,114.7 846.5,111.5 840.3,119.1 834.1,123.4 827.6,140.6 821.2,138.7 814.9,128.1 808.5,123.9 802.1,123.8 795.7,117.6 789.3,119.9 782.9,116.6 776.6,109.7 770.2,108.9 764.1,112.9 757.9,116.2 751.4,113.9 745.1,108.6 738.7,103.0 732.3,108.9 726.0,94.5 719.5,92.1 713.1,99.0 706.8,92.6 700.4,99.4 694.1,104.3 687.9,102.8 681.7,111.1 675.3,104.5 668.9,106.7 662.5,105.8 656.2,110.6 649.8,102.5 643.4,89.9 637.0,88.8 630.6,85.6 624.3,85.2 617.9,85.5 611.7,81.0 605.6,81.5 599.1,104.8 592.8,89.8 586.4,88.8 580.1,86.6 573.7,77.2 567.3,75.3 560.9,71.1 554.6,74.3 548.2,79.2 541.9,75.4 535.7,71.6 529.4,75.9 523.0,65.7 516.6,67.8 510.2,69.3 503.9,73.3 497.5,74.8 491.0,71.3 484.7,70.7 478.3,71.4 471.9,69.0 465.6,70.7 459.4,68.9 453.3,68.9 446.8,73.0 440.4,70.4 434.1,70.6 427.7,66.9 421.3,67.4 414.9,66.6 408.5,66.1 402.1,63.8 395.8,64.0 389.4,61.4 383.3,61.2 377.1,61.7 370.6,62.3 364.3,60.0 357.9,63.2 351.5,61.4 345.2,60.3 338.7,58.3 332.3,57.9 326.0,56.9 319.6,56.4 313.3,56.5 307.1,56.5 300.9,56.1 294.5,56.9 288.1,56.9 281.8,55.5 275.4,55.8 269.1,55.6 262.6,55.8 256.3,55.6 250.0,56.1 243.6,57.2 237.3,56.9 231.0,55.4 224.8,55.7 218.3,55.7 212.0,56.6 205.6,57.6 199.2,56.8 192.9,56.7 186.4,55.9 180.0,55.9 173.7,56.1 167.3,56.7 160.9,55.9 154.8,55.1 148.6,55.8 142.2,56.3" stroke="none" stroke-width="0.9000"  fill="#77AC30" clip-path="url(#axis_clip)"/>
    <text class="pl" transform="translate(937.2,112.2)" dy="7.6" font-size="25.20" fill="#77AC30" stroke="none">Plugin hybrid</text>
<polyline class="pl" points="910.8,110.7 911.9,110.7 913.0,110.7 914.0,110.7 914.9,110.8 915.8,110.8 916.6,110.9 917.4,110.9 918.1,111.0 918.8,111.0 919.5,111.1 920.1,111.2 920.7,111.3 921.3,111.3 921.9,111.4 922.5,111.5 923.1,111.6 923.7,111.7 924.3,111.7 924.9,111.8 925.6,111.9 926.3,111.9 927.0,112.0 927.8,112.1 928.6,112.1 929.5,112.1 930.4,112.2 931.4,112.2 932.5,112.2 933.6,112.2" stroke="#77AC30" stroke-width="0.90" stroke-opacity="1.00" fill="none" />
  </g>
  <g class="pg_3">
    <polygon class="pl" points="142.2,56.3 148.6,55.8 154.8,55.1 160.9,55.9 167.3,56.7 173.7,56.1 180.0,55.9 186.4,55.9 192.9,56.7 199.2,56.8 205.6,57.6 212.0,56.6 218.3,55.7 224.8,55.7 231.0,55.4 237.3,56.9 243.6,57.2 250.0,56.1 256.3,55.6 262.6,55.8 269.1,55.6 275.4,55.8 281.8,55.5 288.1,56.9 294.5,56.9 300.9,56.1 307.1,56.5 313.3,56.5 319.6,56.4 326.0,56.9 332.3,57.9 338.7,58.3 345.2,60.3 351.5,61.4 357.9,63.2 364.3,60.0 370.6,62.3 377.1,61.7 383.3,61.2 389.4,61.4 395.8,64.0 402.1,63.8 408.5,66.1 414.9,66.6 421.3,67.4 427.7,66.9 434.1,70.6 440.4,70.4 446.8,73.0 453.3,68.9 459.4,68.9 465.6,70.7 471.9,69.0 478.3,71.4 484.7,70.7 491.0,71.3 497.5,74.8 503.9,73.3 510.2,69.3 516.6,67.8 523.0,65.7 529.4,75.9 535.7,71.6 541.9,75.4 548.2,79.2 554.6,74.3 560.9,71.1 567.3,75.3 573.7,77.2 580.1,86.6 586.4,88.8 592.8,89.8 599.1,104.8 605.6,81.5 611.7,81.0 617.9,85.5 624.3,85.2 630.6,85.6 637.0,88.8 643.4,89.9 649.8,102.5 656.2,110.6 662.5,105.8 668.9,106.7 675.3,104.5 681.7,111.1 687.9,102.8 694.1,104.3 700.4,99.4 706.8,92.6 713.1,99.0 719.5,92.1 726.0,94.5 732.3,108.9 738.7,103.0 745.1,108.6 751.4,113.9 757.9,116.2 764.1,112.9 770.2,108.9 776.6,109.7 782.9,116.6 789.3,119.9 795.7,117.6 802.1,123.8 808.5,123.9 814.9,128.1 821.2,138.7 827.6,140.6 834.1,123.4 840.3,119.1 846.5,111.5 852.9,114.7 859.2,108.8 865.6,114.1 871.9,111.7 878.4,123.1 878.4,291.5 871.9,285.9 865.6,273.1 859.2,263.5 852.9,257.4 846.5,271.4 840.3,272.6 834.1,289.7 827.6,291.0 821.2,286.5 814.9,282.9 808.5,272.5 802.1,267.9 795.7,257.7 789.3,254.2 782.9,247.2 776.6,239.1 770.2,237.4 764.1,246.7 757.9,256.5 751.4,242.6 745.1,253.9 738.7,234.0 732.3,240.5 726.0,217.0 719.5,206.9 713.1,220.3 706.8,217.8 700.4,217.9 694.1,217.8 687.9,220.5 681.7,239.2 675.3,228.9 668.9,222.1 662.5,226.3 656.2,223.3 649.8,220.4 643.4,193.5 637.0,206.8 630.6,186.9 624.3,182.4 617.9,177.7 611.7,174.3 605.6,168.5 599.1,196.5 592.8,175.0 586.4,161.8 580.1,158.1 573.7,142.2 567.3,141.9 560.9,130.7 554.6,132.5 548.2,106.4 541.9,139.7 535.7,125.5 529.4,134.1 523.0,111.6 516.6,120.9 510.2,114.4 503.9,117.2 497.5,115.1 491.0,108.6 484.7,102.8 478.3,108.2 471.9,97.8 465.6,99.4 459.4,99.9 453.3,104.9 446.8,100.4 440.4,101.1 434.1,104.4 427.7,101.6 421.3,93.3 414.9,92.8 408.5,91.9 402.1,87.1 395.8,87.4 389.4,80.5 383.3,82.8 377.1,88.0 370.6,82.4 364.3,83.4 357.9,86.2 351.5,83.7 345.2,86.4 338.7,78.9 332.3,77.1 326.0,74.7 319.6,72.7 313.3,72.7 307.1,74.5 300.9,78.6 294.5,71.3 288.1,72.2 281.8,70.3 275.4,69.4 269.1,71.6 262.6,68.1 256.3,65.6 250.0,66.8 243.6,66.5 237.3,65.5 231.0,65.0 224.8,68.4 218.3,63.1 212.0,57.2 205.6,60.6 199.2,61.9 192.9,62.0 186.4,60.4 180.0,58.8 173.7,58.6 167.3,59.6 160.9,58.1 154.8,57.4 148.6,59.5 142.2,59.4" stroke="none" stroke-width="0.9000"  fill="#91AC6E" clip-path="url(#axis_clip)"/>
    <text class="pl" transform="translate(937.2,207.3)" dy="7.6" font-size="25.20" fill="#91AC6E" stroke="none">Non-plugin hybrid</text>
  </g>
  <g class="pg_2">
    <polygon class="pl" points="142.2,59.4 148.6,59.5 154.8,57.4 160.9,58.1 167.3,59.6 173.7,58.6 180.0,58.8 186.4,60.4 192.9,62.0 199.2,61.9 205.6,60.6 212.0,57.2 218.3,63.1 224.8,68.4 231.0,65.0 237.3,65.5 243.6,66.5 250.0,66.8 256.3,65.6 262.6,68.1 269.1,71.6 275.4,69.4 281.8,70.3 288.1,72.2 294.5,71.3 300.9,78.6 307.1,74.5 313.3,72.7 319.6,72.7 326.0,74.7 332.3,77.1 338.7,78.9 345.2,86.4 351.5,83.7 357.9,86.2 364.3,83.4 370.6,82.4 377.1,88.0 383.3,82.8 389.4,80.5 395.8,87.4 402.1,87.1 408.5,91.9 414.9,92.8 421.3,93.3 427.7,101.6 434.1,104.4 440.4,101.1 446.8,100.4 453.3,104.9 459.4,99.9 465.6,99.4 471.9,97.8 478.3,108.2 484.7,102.8 491.0,108.6 497.5,115.1 503.9,117.2 510.2,114.4 516.6,120.9 523.0,111.6 529.4,134.1 535.7,125.5 541.9,139.7 548.2,106.4 554.6,132.5 560.9,130.7 567.3,141.9 573.7,142.2 580.1,158.1 586.4,161.8 592.8,175.0 599.1,196.5 605.6,168.5 611.7,174.3 617.9,177.7 624.3,182.4 630.6,186.9 637.0,206.8 643.4,193.5 649.8,220.4 656.2,223.3 662.5,226.3 668.9,222.1 675.3,228.9 681.7,239.2 687.9,220.5 694.1,217.8 700.4,217.9 706.8,217.8 713.1,220.3 719.5,206.9 726.0,217.0 732.3,240.5 738.7,234.0 745.1,253.9 751.4,242.6 757.9,256.5 764.1,246.7 770.2,237.4 776.6,239.1 782.9,247.2 789.3,254.2 795.7,257.7 802.1,267.9 808.5,272.5 814.9,282.9 821.2,286.5 827.6,291.0 834.1,289.7 840.3,272.6 846.5,271.4 852.9,257.4 859.2,263.5 865.6,273.1 871.9,285.9 878.4,291.5 878.4,462.2 871.9,460.8 865.6,462.9 859.2,465.0 852.9,467.7 846.5,479.7 840.3,470.8 834.1,464.6 827.6,469.4 821.2,467.1 814.9,466.3 808.5,460.0 802.1,460.9 795.7,465.8 789.3,468.6 782.9,464.5 776.6,452.4 770.2,457.6 764.1,456.2 757.9,456.3 751.4,442.0 745.1,446.0 738.7,427.3 732.3,425.9 726.0,420.2 719.5,427.4 713.1,432.2 706.8,436.8 700.4,430.0 694.1,415.2 687.9,425.8 681.7,422.5 675.3,415.3 668.9,414.9 662.5,418.8 656.2,417.7 649.8,417.9 643.4,416.6 637.0,425.9 630.6,417.3 624.3,410.4 617.9,402.6 611.7,395.6 605.6,379.0 599.1,389.2 592.8,377.6 586.4,370.4 580.1,372.7 573.7,380.0 567.3,389.8 560.9,373.4 554.6,368.1 548.2,363.0 541.9,392.7 535.7,382.6 529.4,384.8 523.0,384.7 516.6,382.6 510.2,377.5 503.9,386.8 497.5,392.3 491.0,398.3 484.7,401.9 478.3,389.3 471.9,391.7 465.6,397.2 459.4,382.7 453.3,386.1 446.8,373.5 440.4,378.1 434.1,366.4 427.7,346.9 421.3,349.4 414.9,355.7 408.5,355.2 402.1,356.1 395.8,350.9 389.4,354.5 383.3,341.6 377.1,327.7 370.6,316.5 364.3,311.0 357.9,304.4 351.5,285.8 345.2,290.4 338.7,299.6 332.3,300.8 326.0,294.9 319.6,288.9 313.3,289.6 307.1,279.3 300.9,276.5 294.5,263.7 288.1,262.5 281.8,259.4 275.4,256.2 269.1,256.8 262.6,263.1 256.3,267.5 250.0,264.0 243.6,261.7 237.3,258.2 231.0,259.3 224.8,240.1 218.3,237.8 212.0,242.8 205.6,243.3 199.2,227.4 192.9,229.7 186.4,235.4 180.0,236.3 173.7,236.2 167.3,231.6 160.9,231.3 154.8,224.7 148.6,212.1 142.2,210.9" stroke="none" stroke-width="0.9000"  fill="#7B553E" clip-path="url(#axis_clip)"/>
    <text class="pl" transform="translate(937.2,376.9)" dy="7.6" font-size="25.20" fill="#7B553E" stroke="none">Petrol</text>
  </g>
  <g class="pg_1">
    <polygon class="pl" points="142.2,210.9 148.6,212.1 154.8,224.7 160.9,231.3 167.3,231.6 173.7,236.2 180.0,236.3 186.4,235.4 192.9,229.7 199.2,227.4 205.6,243.3 212.0,242.8 218.3,237.8 224.8,240.1 231.0,259.3 237.3,258.2 243.6,261.7 250.0,264.0 256.3,267.5 262.6,263.1 269.1,256.8 275.4,256.2 281.8,259.4 288.1,262.5 294.5,263.7 300.9,276.5 307.1,279.3 313.3,289.6 319.6,288.9 326.0,294.9 332.3,300.8 338.7,299.6 345.2,290.4 351.5,285.8 357.9,304.4 364.3,311.0 370.6,316.5 377.1,327.7 383.3,341.6 389.4,354.5 395.8,350.9 402.1,356.1 408.5,355.2 414.9,355.7 421.3,349.4 427.7,346.9 434.1,366.4 440.4,378.1 446.8,373.5 453.3,386.1 459.4,382.7 465.6,397.2 471.9,391.7 478.3,389.3 484.7,401.9 491.0,398.3 497.5,392.3 503.9,386.8 510.2,377.5 516.6,382.6 523.0,384.7 529.4,384.8 535.7,382.6 541.9,392.7 548.2,363.0 554.6,368.1 560.9,373.4 567.3,389.8 573.7,380.0 580.1,372.7 586.4,370.4 592.8,377.6 599.1,389.2 605.6,379.0 611.7,395.6 617.9,402.6 624.3,410.4 630.6,417.3 637.0,425.9 643.4,416.6 649.8,417.9 656.2,417.7 662.5,418.8 668.9,414.9 675.3,415.3 681.7,422.5 687.9,425.8 694.1,415.2 700.4,430.0 706.8,436.8 713.1,432.2 719.5,427.4 726.0,420.2 732.3,425.9 738.7,427.3 745.1,446.0 751.4,442.0 757.9,456.3 764.1,456.2 770.2,457.6 776.6,452.4 782.9,464.5 789.3,468.6 795.7,465.8 802.1,460.9 808.5,460.0 814.9,466.3 821.2,467.1 827.6,469.4 834.1,464.6 840.3,470.8 846.5,479.7 852.9,467.7 859.2,465.0 865.6,462.9 871.9,460.8 878.4,462.2 878.4,560.2 142.2,560.2" stroke="none" stroke-width="0.9000"  fill="#7B6E57" clip-path="url(#axis_clip)"/>
    <text class="pl" transform="translate(937.2,511.2)" dy="7.6" font-size="25.20" fill="#7B6E57" stroke="none">Diesel</text>
  </g>
</g>
<g id="lines">
  <g class="pl_1">
    <use xlink:href="#line_1" class="thick" stroke="#000" stroke-width="3" opacity="0"/>
    <use xlink:href="#line_1" class="pl pll" stroke="#000" stroke-width="0.90"/>
  </g>
  <g class="pl_2">
    <use xlink:href="#line_2" class="thick" stroke="#000" stroke-width="3" opacity="0"/>
    <use xlink:href="#line_2" class="pl pll" stroke="#000" stroke-width="0.90"/>
  </g>
  <g class="pl_3">
    <use xlink:href="#line_3" class="thick" stroke="#000" stroke-width="3" opacity="0"/>
    <use xlink:href="#line_3" class="pl pll" stroke="#000" stroke-width="0.90"/>
  </g>
  <g class="pl_4">
    <use xlink:href="#line_4" class="thick" stroke="#000" stroke-width="3" opacity="0"/>
    <use xlink:href="#line_4" class="pl pll" stroke="#000" stroke-width="0.90"/>
  </g>
  <g class="pl_5">
    <use xlink:href="#line_5" class="thick" stroke="#000" stroke-width="3" opacity="0"/>
    <use xlink:href="#line_5" class="pl pll" stroke="#000" stroke-width="0.90"/>
  </g>
  <g class="pl_6">
    <use xlink:href="#line_6" class="thick" stroke="#000" stroke-width="3" opacity="0"/>
    <use xlink:href="#line_6" class="pl pll" stroke="#000" stroke-width="0.90"/>
  </g>
  <g class="pl_7">
    <use xlink:href="#line_7" class="thick" stroke="#000" stroke-width="3" opacity="0"/>
    <use xlink:href="#line_7" class="pl pll" stroke="#000" stroke-width="0.90"/>
  </g>
  <g class="pl_8">
    <use xlink:href="#line_8" class="thick" stroke="#000" stroke-width="3" opacity="0"/>
    <use xlink:href="#line_8" class="pl pll" stroke="#000" stroke-width="0.90"/>
  </g>
  <g class="pl_9">
    <use xlink:href="#line_9" class="thick" stroke="#000" stroke-width="3" opacity="0"/>
    <use xlink:href="#line_9" class="pl pll" stroke="#000" stroke-width="0.90"/>
  </g>
  <g class="pl_10">
    <use xlink:href="#line_10" class="thick" stroke="#000" stroke-width="3" opacity="0"/>
    <use xlink:href="#line_10" class="pl pll" stroke="#000" stroke-width="0.90"/>
  </g>
  <g class="pl_11">
    <use xlink:href="#line_11" class="thick" stroke="#000" stroke-width="3" opacity="0"/>
    <use xlink:href="#line_11" class="pl pll" stroke="#000" stroke-width="0.90"/>
  </g>
  <g class="pl_12">
    <use xlink:href="#line_12" class="thick" stroke="#000" stroke-width="3" opacity="0"/>
    <use xlink:href="#line_12" class="pl pll" stroke="#000" stroke-width="0.90"/>
  </g>
  <g class="pl_13">
    <use xlink:href="#line_13" class="thick" stroke="#000" stroke-width="3" opacity="0"/>
    <use xlink:href="#line_13" class="pl pll" stroke="#000" stroke-width="0.90"/>
  </g>
  <g class="pl_14">
    <use xlink:href="#line_14" class="thick" stroke="#000" stroke-width="3" opacity="0"/>
    <use xlink:href="#line_14" class="pl pll" stroke="#000" stroke-width="0.90"/>
  </g>
  <g class="pl_15">
    <use xlink:href="#line_15" class="thick" stroke="#000" stroke-width="3" opacity="0"/>
    <use xlink:href="#line_15" class="pl pll" stroke="#000" stroke-width="0.90"/>
  </g>
</g>
    <text class="pl" transform="translate(183.7,573.0) rotate(-90)" dy="8.1" font-size="27.00" fill="#808080" stroke="none" text-anchor="end">2015</text>
    <text class="pl" transform="translate(259.8,573.0) rotate(-90)" dy="8.1" font-size="27.00" fill="#808080" stroke="none" text-anchor="end">2016</text>
    <text class="pl" transform="translate(336.0,573.0) rotate(-90)" dy="8.1" font-size="27.00" fill="#808080" stroke="none" text-anchor="end">2017</text>
    <text class="pl" transform="translate(412.2,573.0) rotate(-90)" dy="8.1" font-size="27.00" fill="#808080" stroke="none" text-anchor="end">2018</text>
    <text class="pl" transform="translate(488.3,573.0) rotate(-90)" dy="8.1" font-size="27.00" fill="#808080" stroke="none" text-anchor="end">2019</text>
    <text class="pl" transform="translate(564.5,573.0) rotate(-90)" dy="8.1" font-size="27.00" fill="#808080" stroke="none" text-anchor="end">2020</text>
    <text class="pl" transform="translate(640.6,573.0) rotate(-90)" dy="8.1" font-size="27.00" fill="#808080" stroke="none" text-anchor="end">2021</text>
    <text class="pl" transform="translate(716.8,573.0) rotate(-90)" dy="8.1" font-size="27.00" fill="#808080" stroke="none" text-anchor="end">2022</text>
    <text class="pl" transform="translate(793.0,573.0) rotate(-90)" dy="8.1" font-size="27.00" fill="#808080" stroke="none" text-anchor="end">2023</text>
    <text class="pl" transform="translate(869.1,573.0) rotate(-90)" dy="8.1" font-size="27.00" fill="#808080" stroke="none" text-anchor="end">2024</text>
<text transform="translate(157.6,666.1)" font-size="19.80" font-family="Helvetica" fill="#BFBFBF" stroke="none" xml:space="preserve"><a href="https://twitter.com/robbie_andrew" style="fill:#BFBFBF" target="_blank">@robbie_andrew</a>   &#9679;   Data: DGT   &#9679;   Through August 2024</text>
<text class="twitlink" transform="translate(157.6,666.1)" opacity="0" font-size="19.80" fill="#BFBFBF" stroke="none" xml:space="preserve"><a href="https://twitter.com/robbie_andrew" style="fill:#BFBFBF" target="_blank">@robbie_andrew</a></text>
  <g class="dl_el" transform="translate(154.6,578.4)">
    <g class="dl_el_balloon">
      <foreignObject x="0" y="0" width="120" height="500">
      <div xmlns="http://www.w3.org/1999/xhtml" class="dl_fe" style="height:60px">
      <p class="dl_fe_p">Find me on Twitter</p>
      </div>
	    </foreignObject>
      <path stroke="#000" fill="#FDFFDF" d="M0,60H60l5,5l5,-5H120"/>
    </g>
  </g>
<use xlink:href="#line_y" transform="translate(145.6,0)"/>
<use xlink:href="#line_y" transform="translate(221.8,0)"/>
<use xlink:href="#line_y" transform="translate(297.9,0)"/>
<use xlink:href="#line_y" transform="translate(374.1,0)"/>
<use xlink:href="#line_y" transform="translate(450.2,0)"/>
<use xlink:href="#line_y" transform="translate(526.4,0)"/>
<use xlink:href="#line_y" transform="translate(602.6,0)"/>
<use xlink:href="#line_y" transform="translate(678.7,0)"/>
<use xlink:href="#line_y" transform="translate(754.9,0)"/>
<use xlink:href="#line_y" transform="translate(831.0,0)"/>
<use xlink:href="#line_y" transform="translate(907.2,0)"/>
<use xlink:href="#line_x" transform="translate(0,560.2)"/>
<use xlink:href="#line_x" transform="translate(0,458.9)"/>
<use xlink:href="#line_x" transform="translate(0,357.7)"/>
<use xlink:href="#line_x" transform="translate(0,256.5)"/>
<use xlink:href="#line_x" transform="translate(0,155.2)"/>
<use xlink:href="#line_x" transform="translate(0,54.0)"/>
<use xlink:href="#tick_x" transform="translate(145.6,0)"/>
<use xlink:href="#tick_x" transform="translate(221.8,0)"/>
<use xlink:href="#tick_x" transform="translate(297.9,0)"/>
<use xlink:href="#tick_x" transform="translate(374.1,0)"/>
<use xlink:href="#tick_x" transform="translate(450.2,0)"/>
<use xlink:href="#tick_x" transform="translate(526.4,0)"/>
<use xlink:href="#tick_x" transform="translate(602.6,0)"/>
<use xlink:href="#tick_x" transform="translate(678.7,0)"/>
<use xlink:href="#tick_x" transform="translate(754.9,0)"/>
<use xlink:href="#tick_x" transform="translate(831.0,0)"/>
<use xlink:href="#tick_x" transform="translate(907.2,0)"/>
<use xlink:href="#tick_y" transform="translate(0,560.2)"/>
<use xlink:href="#tick_y" transform="translate(0,458.9)"/>
<use xlink:href="#tick_y" transform="translate(0,357.7)"/>
<use xlink:href="#tick_y" transform="translate(0,256.5)"/>
<use xlink:href="#tick_y" transform="translate(0,155.2)"/>
<use xlink:href="#tick_y" transform="translate(0,54.0)"/>
<polyline points="145.6,53.993 145.6,560.180 907.2,560.180" stroke="#808080" stroke-width="0.90" fill="none"/>
<g>
<a href="https://creativecommons.org/licenses/by/4.0/">
  <rect x="123.0" y="651.4" width="34" height="17" fill="#FFF" stroke="none"/>
  <g transform="translate(124.0,652.4) scale(0.24)">
  <g><circle fill="#FFF" cx="37.79" cy="28.5" r="28.84"/>
     <circle fill="none" cx="37.79" cy="28.5" r="28.84" stroke="#BFBFBF" stroke-width="5.5"/>
     <path fill="#BFBFBF" d="M37.16,23.19 l-4.29,2.23c-0.458-0.951-1.02-1.62-1.69-2c-0.667-0.38-1.29-0.571-1.86-0.571c-2.86,0-4.29,1.89-4.29,5.66 c0,1.71,0.36,3.08,1.09,4.11c0.724,1.03,1.79,1.54,3.2,1.54c1.87,0,3.18-0.915,3.94-2.74l3.94,2 c-0.838,1.56-2,2.79-3.49,3.69c-1.48,0.896-3.12,1.34-4.91,1.34c-2.86,0-5.16-0.875-6.92-2.63 c-1.75-1.75-2.63-4.19-2.63-7.31c0-3.05,0.886-5.47,2.66-7.26c1.77-1.79,4.01-2.69,6.72-2.69 C32.6,18.56,35.44,20.1,37.16,23.19z
              M55.61,23.19l-4.23,2.23c-0.457-0.951-1.02-1.62-1.69-2 c-0.668-0.38-1.31-0.571-1.91-0.571c-2.86,0-4.29,1.89-4.29,5.66c0,1.71,0.363,3.08,1.09,4.11 c0.723,1.03,1.79,1.54,3.2,1.54c1.87,0,3.18-0.915,3.94-2.74l4,2c-0.875,1.56-2.06,2.79-3.54,3.69 c-1.49,0.9-3.11,1.34-4.86,1.34c-2.9,0-5.21-0.875-6.94-2.63c-1.74-1.75-2.6-4.19-2.6-7.31 c0-3.05,0.885-5.47,2.66-7.26c1.77-1.79,4.01-2.69,6.71-2.69C51.12,18.56,53.944,20.1,55.61,23.19z"/>
  </g></g>
  <g transform="translate(140.2,652.4) scale(0.24)">
  <g><circle fill="#FFF" cx="37.79" cy="28.5" r="28.84"/>
     <circle fill="none" cx="37.79" cy="28.5" r="28.84" stroke="#BFBFBF" stroke-width="5.5"/>
     <path fill="#BFBFBF" d="M46.129,20.557v13.085h-3.656v15.542h-9.944V33.643h-3.656V20.557 c0-0.572,0.2-1.057,0.599-1.457c0.401-0.399,0.887-0.6,1.457-0.6h13.144c0.533,0,1.01,0.2,1.428,0.6 C45.918,19.5,46.129,19.986,46.129,20.557z
              M33.042,12.329c0-3.008,1.485-4.514,4.458-4.514s4.457,1.504,4.457,4.514 c0,2.971-1.486,4.457-4.457,4.457S33.042,15.3,33.042,12.329z"/>
  </g></g>
  </a>
</g>
  <g class="dl_el" transform="translate(69.1,548.4)">
    <g class="dl_el_balloon">
      <foreignObject x="0" y="0" width="250" height="500">
      <div xmlns="http://www.w3.org/1999/xhtml" class="dl_fe" style="height:90px">
      <p class="dl_fe_p">CC-BY: Material may be freely re-used as long as you credit the author</p>
      </div>
	    </foreignObject>
      <path stroke="#000" fill="#FDFFDF" d="M0,90H70l5,5l5,-5H250"/>
    </g>
  </g>
</g>
</svg>
