<svg version="1.1" xmlns="http://www.w3.org/2000/svg" xmlns:xlink="http://www.w3.org/1999/xlink" width="100%" height="100%" viewBox="0 0 1200.000 674.916">
<title>Spanish new passenger car sales by type: Quarterly</title>
<desc>Created by Robbie Andrew (@robbie_andrew), CICERO Center for International Climate Research. CC-BY: Material may be freely re-used as long as you credit the author</desc>
<style type="text/css">
  #main {font-family:Helvetica,Arial,sans-serif; font-size:27.00px;
         fill-opacity:1; fill:#000000; stroke:none; stroke-linejoin:round; stroke-linecap:round; stroke-width:1.00;}
  a:hover {text-decoration: underline;}
  .marker {stroke-opacity:0;fill-opacity:0;}
  .marker:hover {stroke-opacity:0.5; fill-opacity:1;}
  .ticklabel {font-size:27.00px;fill:#808080;stroke:none;font-family:Helvetica}
  .ytl {text-anchor:end;}
  .dp1 {pointer-events:none;font-size:70%;text-anchor:middle;fill:#000000;}
  .dp2 {pointer-events:none;font-size:70%;text-anchor:middle;fill:#FFFFFF;}
  .numtip {pointer-events:none;}
  .cc {opacity:0.25;}
.dl_fe {background-color:#FDFFDF;display:flex;margin:auto;align-items:center}
.dl_fe_p {font-size:20px;text-align:center;margin:3px}
.dl_el {display:none;pointer-events:none;}
.cc:hover + .dl_el {display:block;}
text:hover + .dl_el {display:block;}
  #areas .pl {transition: all 0.2s ease;}
  #areas:hover .pl {opacity:0.5;}
  #areas:hover .thick {stroke-width:1;}
  #areas:hover .pg_1:hover .pl {opacity:1;}
  #areas:hover .pg_1:hover .pll {stroke-width:3;}
  #areas:hover .pg_1:hover .pldlm {stroke-width:2;}
  #areas:hover .pg_1:hover .thick {stroke-width:12;}
  #areas:hover .pg_2:hover .pl {opacity:1;}
  #areas:hover .pg_2:hover .pll {stroke-width:3;}
  #areas:hover .pg_2:hover .pldlm {stroke-width:2;}
  #areas:hover .pg_2:hover .thick {stroke-width:12;}
  #areas:hover .pg_3:hover .pl {opacity:1;}
  #areas:hover .pg_3:hover .pll {stroke-width:3;}
  #areas:hover .pg_3:hover .pldlm {stroke-width:2;}
  #areas:hover .pg_3:hover .thick {stroke-width:12;}
  #areas:hover .pg_4:hover .pl {opacity:1;}
  #areas:hover .pg_4:hover .pll {stroke-width:3;}
  #areas:hover .pg_4:hover .pldlm {stroke-width:2;}
  #areas:hover .pg_4:hover .thick {stroke-width:12;}
  #areas:hover .pg_5:hover .pl {opacity:1;}
  #areas:hover .pg_5:hover .pll {stroke-width:3;}
  #areas:hover .pg_5:hover .pldlm {stroke-width:2;}
  #areas:hover .pg_5:hover .thick {stroke-width:12;}
  #areas:hover .pg_6:hover .pl {opacity:1;}
  #areas:hover .pg_6:hover .pll {stroke-width:3;}
  #areas:hover .pg_6:hover .pldlm {stroke-width:2;}
  #areas:hover .pg_6:hover .thick {stroke-width:12;}
  #lines .pl {transition: all 0.2s ease;}
  #lines:hover .pl {opacity:0.3;}
  #lines:hover .thick {stroke-width:1;}
  #lines:hover .pl_1:hover .pl {opacity:1;}
  #lines:hover .pl_1:hover .pll {stroke-width:3;}
  #lines:hover .pl_1:hover .pldlm {stroke-width:2;}
  #lines:hover .pl_1:hover .thick {stroke-width:12;}
  #lines:hover .pl_2:hover .pl {opacity:1;}
  #lines:hover .pl_2:hover .pll {stroke-width:3;}
  #lines:hover .pl_2:hover .pldlm {stroke-width:2;}
  #lines:hover .pl_2:hover .thick {stroke-width:12;}
  #lines:hover .pl_3:hover .pl {opacity:1;}
  #lines:hover .pl_3:hover .pll {stroke-width:3;}
  #lines:hover .pl_3:hover .pldlm {stroke-width:2;}
  #lines:hover .pl_3:hover .thick {stroke-width:12;}
  #lines:hover .pl_4:hover .pl {opacity:1;}
  #lines:hover .pl_4:hover .pll {stroke-width:3;}
  #lines:hover .pl_4:hover .pldlm {stroke-width:2;}
  #lines:hover .pl_4:hover .thick {stroke-width:12;}
  #lines:hover .pl_5:hover .pl {opacity:1;}
  #lines:hover .pl_5:hover .pll {stroke-width:3;}
  #lines:hover .pl_5:hover .pldlm {stroke-width:2;}
  #lines:hover .pl_5:hover .thick {stroke-width:12;}
  #lines:hover .pl_6:hover .pl {opacity:1;}
  #lines:hover .pl_6:hover .pll {stroke-width:3;}
  #lines:hover .pl_6:hover .pldlm {stroke-width:2;}
  #lines:hover .pl_6:hover .thick {stroke-width:12;}
  #lines:hover .pl_7:hover .pl {opacity:1;}
  #lines:hover .pl_7:hover .pll {stroke-width:3;}
  #lines:hover .pl_7:hover .pldlm {stroke-width:2;}
  #lines:hover .pl_7:hover .thick {stroke-width:12;}
  #lines:hover .pl_8:hover .pl {opacity:1;}
  #lines:hover .pl_8:hover .pll {stroke-width:3;}
  #lines:hover .pl_8:hover .pldlm {stroke-width:2;}
  #lines:hover .pl_8:hover .thick {stroke-width:12;}
  #lines:hover .pl_9:hover .pl {opacity:1;}
  #lines:hover .pl_9:hover .pll {stroke-width:3;}
  #lines:hover .pl_9:hover .pldlm {stroke-width:2;}
  #lines:hover .pl_9:hover .thick {stroke-width:12;}
  #lines:hover .pl_10:hover .pl {opacity:1;}
  #lines:hover .pl_10:hover .pll {stroke-width:3;}
  #lines:hover .pl_10:hover .pldlm {stroke-width:2;}
  #lines:hover .pl_10:hover .thick {stroke-width:12;}
  #lines:hover .pl_11:hover .pl {opacity:1;}
  #lines:hover .pl_11:hover .pll {stroke-width:3;}
  #lines:hover .pl_11:hover .pldlm {stroke-width:2;}
  #lines:hover .pl_11:hover .thick {stroke-width:12;}
  #lines:hover .pl_12:hover .pl {opacity:1;}
  #lines:hover .pl_12:hover .pll {stroke-width:3;}
  #lines:hover .pl_12:hover .pldlm {stroke-width:2;}
  #lines:hover .pl_12:hover .thick {stroke-width:12;}
  #lines:hover .pl_13:hover .pl {opacity:1;}
  #lines:hover .pl_13:hover .pll {stroke-width:3;}
  #lines:hover .pl_13:hover .pldlm {stroke-width:2;}
  #lines:hover .pl_13:hover .thick {stroke-width:12;}
  #lines:hover .pl_14:hover .pl {opacity:1;}
  #lines:hover .pl_14:hover .pll {stroke-width:3;}
  #lines:hover .pl_14:hover .pldlm {stroke-width:2;}
  #lines:hover .pl_14:hover .thick {stroke-width:12;}
  #lines:hover .pl_15:hover .pl {opacity:1;}
  #lines:hover .pl_15:hover .pll {stroke-width:3;}
  #lines:hover .pl_15:hover .pldlm {stroke-width:2;}
  #lines:hover .pl_15:hover .thick {stroke-width:12;}
  #lines:hover .pl_16:hover .pl {opacity:1;}
  #lines:hover .pl_16:hover .pll {stroke-width:3;}
  #lines:hover .pl_16:hover .pldlm {stroke-width:2;}
  #lines:hover .pl_16:hover .thick {stroke-width:12;}
  #lines:hover .pl_17:hover .pl {opacity:1;}
  #lines:hover .pl_17:hover .pll {stroke-width:3;}
  #lines:hover .pl_17:hover .pldlm {stroke-width:2;}
  #lines:hover .pl_17:hover .thick {stroke-width:12;}
  #lines:hover .pl_18:hover .pl {opacity:1;}
  #lines:hover .pl_18:hover .pll {stroke-width:3;}
  #lines:hover .pl_18:hover .pldlm {stroke-width:2;}
  #lines:hover .pl_18:hover .thick {stroke-width:12;}
  #lines:hover .pl_19:hover .pl {opacity:1;}
  #lines:hover .pl_19:hover .pll {stroke-width:3;}
  #lines:hover .pl_19:hover .pldlm {stroke-width:2;}
  #lines:hover .pl_19:hover .thick {stroke-width:12;}
  #lines:hover .pl_20:hover .pl {opacity:1;}
  #lines:hover .pl_20:hover .pll {stroke-width:3;}
  #lines:hover .pl_20:hover .pldlm {stroke-width:2;}
  #lines:hover .pl_20:hover .thick {stroke-width:12;}
  #lines:hover .pl_21:hover .pl {opacity:1;}
  #lines:hover .pl_21:hover .pll {stroke-width:3;}
  #lines:hover .pl_21:hover .pldlm {stroke-width:2;}
  #lines:hover .pl_21:hover .thick {stroke-width:12;}
</style>
<defs>
  <clipPath id="axis_clip"><rect x="145.8" y="54.2" width="761.2" height="505.8" /></clipPath>
  <path id="line_y" d="M 0,53.993 v 506.187" stroke="#4D4D4D" stroke-opacity="0.15" stroke-width="1.00"/>
  <path id="line_x" d="M 145.600,0 h 761.600" stroke="#4D4D4D" stroke-opacity="0.15" stroke-width="1.00"/>
  <path id="tick_y" d="M 145.600,0 h -6.000" stroke="#808080" stroke-width="0.90"/>
  <path id="tick_x" d="M 0,560.180 v 6.000" stroke="#808080" stroke-width="0.90"/>
  <symbol id="line_1" viewBox="0 0 1200.000 674.916">
<polyline class="pl" points="145.6,233.4 164.6,233.4 164.6,206.5 183.7,206.5 183.7,273.3 202.7,273.3 202.7,247.2 221.8,247.2 221.8,206.2 240.8,206.2 240.8,141.1 259.8,141.1 259.8,242.5 278.9,242.5 278.9,213.9 297.9,213.9 297.9,168.0 317.0,168.0 317.0,106.5 336.0,106.5 336.0,216.4 355.0,216.4 355.0,173.2 374.1,173.2 374.1,129.0 393.1,129.0 393.1,64.9 412.2,64.9 412.2,173.0 431.2,173.0 431.2,204.8 450.2,204.8 450.2,158.6 469.3,158.6 469.3,85.3 488.3,85.3 488.3,211.8 507.4,211.8 507.4,183.8 526.4,183.8 526.4,277.6 545.4,277.6 545.4,404.2 564.5,404.2 564.5,228.8 583.5,228.8 583.5,226.9 602.6,226.9 602.6,313.9 621.6,313.9 621.6,214.9 640.6,214.9 640.6,308.5 659.7,308.5 659.7,280.8 678.7,280.8 678.7,339.1 697.8,339.1 697.8,250.9 716.8,250.9 716.8,304.6 735.8,304.6 735.8,285.4 754.9,285.4 754.9,257.7 773.9,257.7 773.9,223.8 793.0,223.8 793.0,301.7 812.0,301.7 812.0,251.5 831.0,251.5 831.0,247.5 850.1,247.5 850.1,185.1 869.1,185.1" stroke="#000" stroke-width="0.90" stroke-opacity="1.00" fill="none" clip-path="url(#axis_clip)"/>
  </symbol>
  <symbol id="line_2" viewBox="0 0 1200.000 674.916">
<polyline class="pl" points="145.6,234.2 164.6,234.2 164.6,207.7 183.7,207.7 183.7,274.1 202.7,274.1 202.7,248.0 221.8,248.0 221.8,206.9 240.8,206.9 240.8,142.0 259.8,142.0 259.8,242.9 278.9,242.9 278.9,214.4 297.9,214.4 297.9,168.9 317.0,168.9 317.0,107.8 336.0,107.8 336.0,218.0 355.0,218.0 355.0,176.1 374.1,176.1 374.1,132.8 393.1,132.8 393.1,72.3 412.2,72.3 412.2,180.5 431.2,180.5 431.2,212.2 450.2,212.2 450.2,166.1 469.3,166.1 469.3,95.5 488.3,95.5 488.3,221.0 507.4,221.0 507.4,188.9 526.4,188.9 526.4,280.8 545.4,280.8 545.4,406.2 564.5,406.2 564.5,234.1 583.5,234.1 583.5,232.7 602.6,232.7 602.6,317.0 621.6,317.0 621.6,218.7 640.6,218.7 640.6,314.1 659.7,314.1 659.7,285.7 678.7,285.7 678.7,342.8 697.8,342.8 697.8,256.4 716.8,256.4 716.8,308.7 735.8,308.7 735.8,290.1 754.9,290.1 754.9,264.1 773.9,264.1 773.9,231.5 793.0,231.5 793.0,309.6 812.0,309.6 812.0,262.3 831.0,262.3 831.0,256.3 850.1,256.3 850.1,195.0 869.1,195.0" stroke="#000" stroke-width="0.90" stroke-opacity="1.00" fill="none" clip-path="url(#axis_clip)"/>
  </symbol>
  <symbol id="line_3" viewBox="0 0 1200.000 674.916">
<polyline class="pl" points="145.6,234.4 164.6,234.4 164.6,207.9 183.7,207.9 183.7,274.4 202.7,274.4 202.7,248.6 221.8,248.6 221.8,207.3 240.8,207.3 240.8,142.5 259.8,142.5 259.8,243.3 278.9,243.3 278.9,215.4 297.9,215.4 297.9,169.6 317.0,169.6 317.0,108.6 336.0,108.6 336.0,219.3 355.0,219.3 355.0,177.9 374.1,177.9 374.1,134.3 393.1,134.3 393.1,73.6 412.2,73.6 412.2,181.9 431.2,181.9 431.2,215.4 450.2,215.4 450.2,169.4 469.3,169.4 469.3,98.8 488.3,98.8 488.3,223.4 507.4,223.4 507.4,192.0 526.4,192.0 526.4,285.4 545.4,285.4 545.4,407.7 564.5,407.7 564.5,239.6 583.5,239.6 583.5,242.0 602.6,242.0 602.6,321.1 621.6,321.1 621.6,225.6 640.6,225.6 640.6,320.9 659.7,320.9 659.7,296.1 678.7,296.1 678.7,351.5 697.8,351.5 697.8,264.8 716.8,264.8 716.8,316.8 735.8,316.8 735.8,301.6 754.9,301.6 754.9,277.7 773.9,277.7 773.9,247.9 793.0,247.9 793.0,322.7 812.0,322.7 812.0,283.2 831.0,283.2 831.0,270.3 850.1,270.3 850.1,212.0 869.1,212.0" stroke="#000" stroke-width="0.90" stroke-opacity="1.00" fill="none" clip-path="url(#axis_clip)"/>
  </symbol>
  <symbol id="line_4" viewBox="0 0 1200.000 674.916">
<polyline class="pl" points="145.6,234.5 164.6,234.5 164.6,208.0 183.7,208.0 183.7,274.6 202.7,274.6 202.7,248.8 221.8,248.8 221.8,207.6 240.8,207.6 240.8,143.0 259.8,143.0 259.8,243.6 278.9,243.6 278.9,215.6 297.9,215.6 297.9,169.9 317.0,169.9 317.0,109.3 336.0,109.3 336.0,220.3 355.0,220.3 355.0,179.2 374.1,179.2 374.1,135.3 393.1,135.3 393.1,75.4 412.2,75.4 412.2,182.9 431.2,182.9 431.2,217.0 450.2,217.0 450.2,171.0 469.3,171.0 469.3,100.7 488.3,100.7 488.3,224.8 507.4,224.8 507.4,193.9 526.4,193.9 526.4,288.7 545.4,288.7 545.4,409.8 564.5,409.8 564.5,245.1 583.5,245.1 583.5,254.2 602.6,254.2 602.6,328.1 621.6,328.1 621.6,237.1 640.6,237.1 640.6,331.2 659.7,331.2 659.7,309.3 678.7,309.3 678.7,361.6 697.8,361.6 697.8,277.1 716.8,277.1 716.8,327.1 735.8,327.1 735.8,315.0 754.9,315.0 754.9,292.5 773.9,292.5 773.9,265.0 793.0,265.0 793.0,336.1 812.0,336.1 812.0,301.3 831.0,301.3 831.0,286.7 850.1,286.7 850.1,228.4 869.1,228.4" stroke="#000" stroke-width="0.90" stroke-opacity="1.00" fill="none" clip-path="url(#axis_clip)"/>
  </symbol>
  <symbol id="line_5" viewBox="0 0 1200.000 674.916">
<polyline class="pl" points="145.6,236.2 164.6,236.2 164.6,210.0 183.7,210.0 183.7,277.4 202.7,277.4 202.7,251.2 221.8,251.2 221.8,214.7 240.8,214.7 240.8,151.2 259.8,151.2 259.8,252.2 278.9,252.2 278.9,225.8 297.9,225.8 297.9,184.2 317.0,184.2 317.0,125.3 336.0,125.3 336.0,235.7 355.0,235.7 355.0,196.1 374.1,196.1 374.1,154.1 393.1,154.1 393.1,99.0 412.2,99.0 412.2,204.4 431.2,204.4 431.2,238.5 450.2,238.5 450.2,196.1 469.3,196.1 469.3,131.3 488.3,131.3 488.3,252.4 507.4,252.4 507.4,229.5 526.4,229.5 526.4,320.8 545.4,320.8 545.4,427.7 564.5,427.7 564.5,289.4 583.5,289.4 583.5,309.7 602.6,309.7 602.6,372.5 621.6,372.5 621.6,309.4 640.6,309.4 640.6,385.9 659.7,385.9 659.7,375.7 678.7,375.7 678.7,413.5 697.8,413.5 697.8,351.6 716.8,351.6 716.8,389.1 735.8,389.1 735.8,388.4 754.9,388.4 754.9,372.1 773.9,372.1 773.9,352.4 793.0,352.4 793.0,409.6 812.0,409.6 812.0,393.4 831.0,393.4 831.0,385.2 850.1,385.2 850.1,341.4 869.1,341.4" stroke="#000" stroke-width="0.90" stroke-opacity="1.00" fill="none" clip-path="url(#axis_clip)"/>
  </symbol>
  <symbol id="line_6" viewBox="0 0 1200.000 674.916">
<polyline class="pl" points="145.6,343.3 164.6,343.3 164.6,332.9 183.7,332.9 183.7,373.9 202.7,373.9 202.7,363.0 221.8,363.0 221.8,345.9 240.8,345.9 240.8,315.5 259.8,315.5 259.8,371.3 278.9,371.3 278.9,356.2 297.9,356.2 297.9,345.2 317.0,345.2 317.0,322.8 336.0,322.8 336.0,378.5 355.0,378.5 355.0,369.5 374.1,369.5 374.1,374.6 393.1,374.6 393.1,358.6 412.2,358.6 412.2,400.6 431.2,400.6 431.2,428.6 450.2,428.6 450.2,424.6 469.3,424.6 469.3,404.7 488.3,404.7 488.3,445.3 507.4,445.3 507.4,427.5 526.4,427.5 526.4,462.5 545.4,462.5 545.4,502.1 564.5,502.1 564.5,443.8 583.5,443.8 583.5,441.6 602.6,441.6 602.6,479.8 621.6,479.8 621.6,463.4 640.6,463.4 640.6,489.1 659.7,489.1 659.7,480.7 678.7,480.7 678.7,499.4 697.8,499.4 697.8,482.6 716.8,482.6 716.8,491.9 735.8,491.9 735.8,494.2 754.9,494.2 754.9,498.4 773.9,498.4 773.9,495.4 793.0,495.4 793.0,510.3 812.0,510.3 812.0,503.7 831.0,503.7 831.0,506.0 850.1,506.0 850.1,489.8 869.1,489.8" stroke="#000" stroke-width="0.90" stroke-opacity="1.00" fill="none" clip-path="url(#axis_clip)"/>
  </symbol>
  <symbol id="line_7" viewBox="0 0 1200.000 674.916">
<polyline class="pl" points="145.6,234.2 164.6,234.2 164.6,207.7 183.7,207.7 183.7,274.1 202.7,274.1 202.7,248.0 221.8,248.0 221.8,206.9 240.8,206.9 240.8,142.0 259.8,142.0 259.8,242.9 278.9,242.9 278.9,214.4 297.9,214.4 297.9,168.9 317.0,168.9 317.0,107.8 336.0,107.8 336.0,218.0 355.0,218.0 355.0,176.1 374.1,176.1 374.1,132.8 393.1,132.8 393.1,72.3 412.2,72.3 412.2,180.5 431.2,180.5 431.2,212.2 450.2,212.2 450.2,166.1 469.3,166.1 469.3,95.5 488.3,95.5 488.3,221.0 507.4,221.0 507.4,188.9 526.4,188.9 526.4,280.8 545.4,280.8 545.4,406.2 564.5,406.2 564.5,234.1 583.5,234.1 583.5,232.7 602.6,232.7 602.6,317.0 621.6,317.0 621.6,218.7 640.6,218.7 640.6,314.1 659.7,314.1 659.7,285.7 678.7,285.7 678.7,342.8 697.8,342.8 697.8,256.4 716.8,256.4 716.8,308.7 735.8,308.7 735.8,290.1 754.9,290.1 754.9,264.1 773.9,264.1 773.9,231.5 793.0,231.5 793.0,309.6 812.0,309.6 812.0,262.3 831.0,262.3 831.0,256.3 850.1,256.3 850.1,195.0 869.1,195.0" stroke="#000" stroke-width="0.90" stroke-opacity="1.00" fill="none" clip-path="url(#axis_clip)"/>
  </symbol>
  <symbol id="line_8" viewBox="0 0 1200.000 674.916">
<polyline class="pl" points="145.6,234.4 164.6,234.4 164.6,207.9 183.7,207.9 183.7,274.4 202.7,274.4 202.7,248.6 221.8,248.6 221.8,207.3 240.8,207.3 240.8,142.5 259.8,142.5 259.8,243.3 278.9,243.3 278.9,215.4 297.9,215.4 297.9,169.6 317.0,169.6 317.0,108.6 336.0,108.6 336.0,219.3 355.0,219.3 355.0,177.9 374.1,177.9 374.1,134.3 393.1,134.3 393.1,73.6 412.2,73.6 412.2,181.9 431.2,181.9 431.2,215.4 450.2,215.4 450.2,169.4 469.3,169.4 469.3,98.8 488.3,98.8 488.3,223.4 507.4,223.4 507.4,192.0 526.4,192.0 526.4,285.4 545.4,285.4 545.4,407.7 564.5,407.7 564.5,239.6 583.5,239.6 583.5,242.0 602.6,242.0 602.6,321.1 621.6,321.1 621.6,225.6 640.6,225.6 640.6,320.9 659.7,320.9 659.7,296.1 678.7,296.1 678.7,351.5 697.8,351.5 697.8,264.8 716.8,264.8 716.8,316.8 735.8,316.8 735.8,301.6 754.9,301.6 754.9,277.7 773.9,277.7 773.9,247.9 793.0,247.9 793.0,322.7 812.0,322.7 812.0,283.2 831.0,283.2 831.0,270.3 850.1,270.3 850.1,212.0 869.1,212.0" stroke="#000" stroke-width="0.90" stroke-opacity="1.00" fill="none" clip-path="url(#axis_clip)"/>
  </symbol>
  <symbol id="line_9" viewBox="0 0 1200.000 674.916">
<polyline class="pl" points="145.6,234.5 164.6,234.5 164.6,208.0 183.7,208.0 183.7,274.6 202.7,274.6 202.7,248.8 221.8,248.8 221.8,207.6 240.8,207.6 240.8,143.0 259.8,143.0 259.8,243.6 278.9,243.6 278.9,215.6 297.9,215.6 297.9,169.9 317.0,169.9 317.0,109.3 336.0,109.3 336.0,220.3 355.0,220.3 355.0,179.2 374.1,179.2 374.1,135.3 393.1,135.3 393.1,75.4 412.2,75.4 412.2,182.9 431.2,182.9 431.2,217.0 450.2,217.0 450.2,171.0 469.3,171.0 469.3,100.7 488.3,100.7 488.3,224.8 507.4,224.8 507.4,193.9 526.4,193.9 526.4,288.7 545.4,288.7 545.4,409.8 564.5,409.8 564.5,245.1 583.5,245.1 583.5,254.2 602.6,254.2 602.6,328.1 621.6,328.1 621.6,237.1 640.6,237.1 640.6,331.2 659.7,331.2 659.7,309.3 678.7,309.3 678.7,361.6 697.8,361.6 697.8,277.1 716.8,277.1 716.8,327.1 735.8,327.1 735.8,315.0 754.9,315.0 754.9,292.5 773.9,292.5 773.9,265.0 793.0,265.0 793.0,336.1 812.0,336.1 812.0,301.3 831.0,301.3 831.0,286.7 850.1,286.7 850.1,228.4 869.1,228.4" stroke="#000" stroke-width="0.90" stroke-opacity="1.00" fill="none" clip-path="url(#axis_clip)"/>
  </symbol>
  <symbol id="line_10" viewBox="0 0 1200.000 674.916">
<polyline class="pl" points="145.6,236.2 164.6,236.2 164.6,210.0 183.7,210.0 183.7,277.4 202.7,277.4 202.7,251.2 221.8,251.2 221.8,214.7 240.8,214.7 240.8,151.2 259.8,151.2 259.8,252.2 278.9,252.2 278.9,225.8 297.9,225.8 297.9,184.2 317.0,184.2 317.0,125.3 336.0,125.3 336.0,235.7 355.0,235.7 355.0,196.1 374.1,196.1 374.1,154.1 393.1,154.1 393.1,99.0 412.2,99.0 412.2,204.4 431.2,204.4 431.2,238.5 450.2,238.5 450.2,196.1 469.3,196.1 469.3,131.3 488.3,131.3 488.3,252.4 507.4,252.4 507.4,229.5 526.4,229.5 526.4,320.8 545.4,320.8 545.4,427.7 564.5,427.7 564.5,289.4 583.5,289.4 583.5,309.7 602.6,309.7 602.6,372.5 621.6,372.5 621.6,309.4 640.6,309.4 640.6,385.9 659.7,385.9 659.7,375.7 678.7,375.7 678.7,413.5 697.8,413.5 697.8,351.6 716.8,351.6 716.8,389.1 735.8,389.1 735.8,388.4 754.9,388.4 754.9,372.1 773.9,372.1 773.9,352.4 793.0,352.4 793.0,409.6 812.0,409.6 812.0,393.4 831.0,393.4 831.0,385.2 850.1,385.2 850.1,341.4 869.1,341.4" stroke="#000" stroke-width="0.90" stroke-opacity="1.00" fill="none" clip-path="url(#axis_clip)"/>
  </symbol>
  <symbol id="line_11" viewBox="0 0 1200.000 674.916">
<polyline class="pl" points="145.6,343.3 164.6,343.3 164.6,332.9 183.7,332.9 183.7,373.9 202.7,373.9 202.7,363.0 221.8,363.0 221.8,345.9 240.8,345.9 240.8,315.5 259.8,315.5 259.8,371.3 278.9,371.3 278.9,356.2 297.9,356.2 297.9,345.2 317.0,345.2 317.0,322.8 336.0,322.8 336.0,378.5 355.0,378.5 355.0,369.5 374.1,369.5 374.1,374.6 393.1,374.6 393.1,358.6 412.2,358.6 412.2,400.6 431.2,400.6 431.2,428.6 450.2,428.6 450.2,424.6 469.3,424.6 469.3,404.7 488.3,404.7 488.3,445.3 507.4,445.3 507.4,427.5 526.4,427.5 526.4,462.5 545.4,462.5 545.4,502.1 564.5,502.1 564.5,443.8 583.5,443.8 583.5,441.6 602.6,441.6 602.6,479.8 621.6,479.8 621.6,463.4 640.6,463.4 640.6,489.1 659.7,489.1 659.7,480.7 678.7,480.7 678.7,499.4 697.8,499.4 697.8,482.6 716.8,482.6 716.8,491.9 735.8,491.9 735.8,494.2 754.9,494.2 754.9,498.4 773.9,498.4 773.9,495.4 793.0,495.4 793.0,510.3 812.0,510.3 812.0,503.7 831.0,503.7 831.0,506.0 850.1,506.0 850.1,489.8 869.1,489.8" stroke="#000" stroke-width="0.90" stroke-opacity="1.00" fill="none" clip-path="url(#axis_clip)"/>
  </symbol>
  <symbol id="line_12" viewBox="0 0 1200.000 674.916">
<polyline class="pl" points="145.6,234.4 164.6,234.4 164.6,207.9 183.7,207.9 183.7,274.4 202.7,274.4 202.7,248.6 221.8,248.6 221.8,207.3 240.8,207.3 240.8,142.5 259.8,142.5 259.8,243.3 278.9,243.3 278.9,215.4 297.9,215.4 297.9,169.6 317.0,169.6 317.0,108.6 336.0,108.6 336.0,219.3 355.0,219.3 355.0,177.9 374.1,177.9 374.1,134.3 393.1,134.3 393.1,73.6 412.2,73.6 412.2,181.9 431.2,181.9 431.2,215.4 450.2,215.4 450.2,169.4 469.3,169.4 469.3,98.8 488.3,98.8 488.3,223.4 507.4,223.4 507.4,192.0 526.4,192.0 526.4,285.4 545.4,285.4 545.4,407.7 564.5,407.7 564.5,239.6 583.5,239.6 583.5,242.0 602.6,242.0 602.6,321.1 621.6,321.1 621.6,225.6 640.6,225.6 640.6,320.9 659.7,320.9 659.7,296.1 678.7,296.1 678.7,351.5 697.8,351.5 697.8,264.8 716.8,264.8 716.8,316.8 735.8,316.8 735.8,301.6 754.9,301.6 754.9,277.7 773.9,277.7 773.9,247.9 793.0,247.9 793.0,322.7 812.0,322.7 812.0,283.2 831.0,283.2 831.0,270.3 850.1,270.3 850.1,212.0 869.1,212.0" stroke="#000" stroke-width="0.90" stroke-opacity="1.00" fill="none" clip-path="url(#axis_clip)"/>
  </symbol>
  <symbol id="line_13" viewBox="0 0 1200.000 674.916">
<polyline class="pl" points="145.6,234.5 164.6,234.5 164.6,208.0 183.7,208.0 183.7,274.6 202.7,274.6 202.7,248.8 221.8,248.8 221.8,207.6 240.8,207.6 240.8,143.0 259.8,143.0 259.8,243.6 278.9,243.6 278.9,215.6 297.9,215.6 297.9,169.9 317.0,169.9 317.0,109.3 336.0,109.3 336.0,220.3 355.0,220.3 355.0,179.2 374.1,179.2 374.1,135.3 393.1,135.3 393.1,75.4 412.2,75.4 412.2,182.9 431.2,182.9 431.2,217.0 450.2,217.0 450.2,171.0 469.3,171.0 469.3,100.7 488.3,100.7 488.3,224.8 507.4,224.8 507.4,193.9 526.4,193.9 526.4,288.7 545.4,288.7 545.4,409.8 564.5,409.8 564.5,245.1 583.5,245.1 583.5,254.2 602.6,254.2 602.6,328.1 621.6,328.1 621.6,237.1 640.6,237.1 640.6,331.2 659.7,331.2 659.7,309.3 678.7,309.3 678.7,361.6 697.8,361.6 697.8,277.1 716.8,277.1 716.8,327.1 735.8,327.1 735.8,315.0 754.9,315.0 754.9,292.5 773.9,292.5 773.9,265.0 793.0,265.0 793.0,336.1 812.0,336.1 812.0,301.3 831.0,301.3 831.0,286.7 850.1,286.7 850.1,228.4 869.1,228.4" stroke="#000" stroke-width="0.90" stroke-opacity="1.00" fill="none" clip-path="url(#axis_clip)"/>
  </symbol>
  <symbol id="line_14" viewBox="0 0 1200.000 674.916">
<polyline class="pl" points="145.6,236.2 164.6,236.2 164.6,210.0 183.7,210.0 183.7,277.4 202.7,277.4 202.7,251.2 221.8,251.2 221.8,214.7 240.8,214.7 240.8,151.2 259.8,151.2 259.8,252.2 278.9,252.2 278.9,225.8 297.9,225.8 297.9,184.2 317.0,184.2 317.0,125.3 336.0,125.3 336.0,235.7 355.0,235.7 355.0,196.1 374.1,196.1 374.1,154.1 393.1,154.1 393.1,99.0 412.2,99.0 412.2,204.4 431.2,204.4 431.2,238.5 450.2,238.5 450.2,196.1 469.3,196.1 469.3,131.3 488.3,131.3 488.3,252.4 507.4,252.4 507.4,229.5 526.4,229.5 526.4,320.8 545.4,320.8 545.4,427.7 564.5,427.7 564.5,289.4 583.5,289.4 583.5,309.7 602.6,309.7 602.6,372.5 621.6,372.5 621.6,309.4 640.6,309.4 640.6,385.9 659.7,385.9 659.7,375.7 678.7,375.7 678.7,413.5 697.8,413.5 697.8,351.6 716.8,351.6 716.8,389.1 735.8,389.1 735.8,388.4 754.9,388.4 754.9,372.1 773.9,372.1 773.9,352.4 793.0,352.4 793.0,409.6 812.0,409.6 812.0,393.4 831.0,393.4 831.0,385.2 850.1,385.2 850.1,341.4 869.1,341.4" stroke="#000" stroke-width="0.90" stroke-opacity="1.00" fill="none" clip-path="url(#axis_clip)"/>
  </symbol>
  <symbol id="line_15" viewBox="0 0 1200.000 674.916">
<polyline class="pl" points="145.6,343.3 164.6,343.3 164.6,332.9 183.7,332.9 183.7,373.9 202.7,373.9 202.7,363.0 221.8,363.0 221.8,345.9 240.8,345.9 240.8,315.5 259.8,315.5 259.8,371.3 278.9,371.3 278.9,356.2 297.9,356.2 297.9,345.2 317.0,345.2 317.0,322.8 336.0,322.8 336.0,378.5 355.0,378.5 355.0,369.5 374.1,369.5 374.1,374.6 393.1,374.6 393.1,358.6 412.2,358.6 412.2,400.6 431.2,400.6 431.2,428.6 450.2,428.6 450.2,424.6 469.3,424.6 469.3,404.7 488.3,404.7 488.3,445.3 507.4,445.3 507.4,427.5 526.4,427.5 526.4,462.5 545.4,462.5 545.4,502.1 564.5,502.1 564.5,443.8 583.5,443.8 583.5,441.6 602.6,441.6 602.6,479.8 621.6,479.8 621.6,463.4 640.6,463.4 640.6,489.1 659.7,489.1 659.7,480.7 678.7,480.7 678.7,499.4 697.8,499.4 697.8,482.6 716.8,482.6 716.8,491.9 735.8,491.9 735.8,494.2 754.9,494.2 754.9,498.4 773.9,498.4 773.9,495.4 793.0,495.4 793.0,510.3 812.0,510.3 812.0,503.7 831.0,503.7 831.0,506.0 850.1,506.0 850.1,489.8 869.1,489.8" stroke="#000" stroke-width="0.90" stroke-opacity="1.00" fill="none" clip-path="url(#axis_clip)"/>
  </symbol>
  <symbol id="line_16" viewBox="0 0 1200.000 674.916">
<polyline class="pl" points="145.6,234.5 164.6,234.5 164.6,208.0 183.7,208.0 183.7,274.6 202.7,274.6 202.7,248.8 221.8,248.8 221.8,207.6 240.8,207.6 240.8,143.0 259.8,143.0 259.8,243.6 278.9,243.6 278.9,215.6 297.9,215.6 297.9,169.9 317.0,169.9 317.0,109.3 336.0,109.3 336.0,220.3 355.0,220.3 355.0,179.2 374.1,179.2 374.1,135.3 393.1,135.3 393.1,75.4 412.2,75.4 412.2,182.9 431.2,182.9 431.2,217.0 450.2,217.0 450.2,171.0 469.3,171.0 469.3,100.7 488.3,100.7 488.3,224.8 507.4,224.8 507.4,193.9 526.4,193.9 526.4,288.7 545.4,288.7 545.4,409.8 564.5,409.8 564.5,245.1 583.5,245.1 583.5,254.2 602.6,254.2 602.6,328.1 621.6,328.1 621.6,237.1 640.6,237.1 640.6,331.2 659.7,331.2 659.7,309.3 678.7,309.3 678.7,361.6 697.8,361.6 697.8,277.1 716.8,277.1 716.8,327.1 735.8,327.1 735.8,315.0 754.9,315.0 754.9,292.5 773.9,292.5 773.9,265.0 793.0,265.0 793.0,336.1 812.0,336.1 812.0,301.3 831.0,301.3 831.0,286.7 850.1,286.7 850.1,228.4 869.1,228.4" stroke="#000" stroke-width="0.90" stroke-opacity="1.00" fill="none" clip-path="url(#axis_clip)"/>
  </symbol>
  <symbol id="line_17" viewBox="0 0 1200.000 674.916">
<polyline class="pl" points="145.6,236.2 164.6,236.2 164.6,210.0 183.7,210.0 183.7,277.4 202.7,277.4 202.7,251.2 221.8,251.2 221.8,214.7 240.8,214.7 240.8,151.2 259.8,151.2 259.8,252.2 278.9,252.2 278.9,225.8 297.9,225.8 297.9,184.2 317.0,184.2 317.0,125.3 336.0,125.3 336.0,235.7 355.0,235.7 355.0,196.1 374.1,196.1 374.1,154.1 393.1,154.1 393.1,99.0 412.2,99.0 412.2,204.4 431.2,204.4 431.2,238.5 450.2,238.5 450.2,196.1 469.3,196.1 469.3,131.3 488.3,131.3 488.3,252.4 507.4,252.4 507.4,229.5 526.4,229.5 526.4,320.8 545.4,320.8 545.4,427.7 564.5,427.7 564.5,289.4 583.5,289.4 583.5,309.7 602.6,309.7 602.6,372.5 621.6,372.5 621.6,309.4 640.6,309.4 640.6,385.9 659.7,385.9 659.7,375.7 678.7,375.7 678.7,413.5 697.8,413.5 697.8,351.6 716.8,351.6 716.8,389.1 735.8,389.1 735.8,388.4 754.9,388.4 754.9,372.1 773.9,372.1 773.9,352.4 793.0,352.4 793.0,409.6 812.0,409.6 812.0,393.4 831.0,393.4 831.0,385.2 850.1,385.2 850.1,341.4 869.1,341.4" stroke="#000" stroke-width="0.90" stroke-opacity="1.00" fill="none" clip-path="url(#axis_clip)"/>
  </symbol>
  <symbol id="line_18" viewBox="0 0 1200.000 674.916">
<polyline class="pl" points="145.6,343.3 164.6,343.3 164.6,332.9 183.7,332.9 183.7,373.9 202.7,373.9 202.7,363.0 221.8,363.0 221.8,345.9 240.8,345.9 240.8,315.5 259.8,315.5 259.8,371.3 278.9,371.3 278.9,356.2 297.9,356.2 297.9,345.2 317.0,345.2 317.0,322.8 336.0,322.8 336.0,378.5 355.0,378.5 355.0,369.5 374.1,369.5 374.1,374.6 393.1,374.6 393.1,358.6 412.2,358.6 412.2,400.6 431.2,400.6 431.2,428.6 450.2,428.6 450.2,424.6 469.3,424.6 469.3,404.7 488.3,404.7 488.3,445.3 507.4,445.3 507.4,427.5 526.4,427.5 526.4,462.5 545.4,462.5 545.4,502.1 564.5,502.1 564.5,443.8 583.5,443.8 583.5,441.6 602.6,441.6 602.6,479.8 621.6,479.8 621.6,463.4 640.6,463.4 640.6,489.1 659.7,489.1 659.7,480.7 678.7,480.7 678.7,499.4 697.8,499.4 697.8,482.6 716.8,482.6 716.8,491.9 735.8,491.9 735.8,494.2 754.9,494.2 754.9,498.4 773.9,498.4 773.9,495.4 793.0,495.4 793.0,510.3 812.0,510.3 812.0,503.7 831.0,503.7 831.0,506.0 850.1,506.0 850.1,489.8 869.1,489.8" stroke="#000" stroke-width="0.90" stroke-opacity="1.00" fill="none" clip-path="url(#axis_clip)"/>
  </symbol>
  <symbol id="line_19" viewBox="0 0 1200.000 674.916">
<polyline class="pl" points="145.6,236.2 164.6,236.2 164.6,210.0 183.7,210.0 183.7,277.4 202.7,277.4 202.7,251.2 221.8,251.2 221.8,214.7 240.8,214.7 240.8,151.2 259.8,151.2 259.8,252.2 278.9,252.2 278.9,225.8 297.9,225.8 297.9,184.2 317.0,184.2 317.0,125.3 336.0,125.3 336.0,235.7 355.0,235.7 355.0,196.1 374.1,196.1 374.1,154.1 393.1,154.1 393.1,99.0 412.2,99.0 412.2,204.4 431.2,204.4 431.2,238.5 450.2,238.5 450.2,196.1 469.3,196.1 469.3,131.3 488.3,131.3 488.3,252.4 507.4,252.4 507.4,229.5 526.4,229.5 526.4,320.8 545.4,320.8 545.4,427.7 564.5,427.7 564.5,289.4 583.5,289.4 583.5,309.7 602.6,309.7 602.6,372.5 621.6,372.5 621.6,309.4 640.6,309.4 640.6,385.9 659.7,385.9 659.7,375.7 678.7,375.7 678.7,413.5 697.8,413.5 697.8,351.6 716.8,351.6 716.8,389.1 735.8,389.1 735.8,388.4 754.9,388.4 754.9,372.1 773.9,372.1 773.9,352.4 793.0,352.4 793.0,409.6 812.0,409.6 812.0,393.4 831.0,393.4 831.0,385.2 850.1,385.2 850.1,341.4 869.1,341.4" stroke="#000" stroke-width="0.90" stroke-opacity="1.00" fill="none" clip-path="url(#axis_clip)"/>
  </symbol>
  <symbol id="line_20" viewBox="0 0 1200.000 674.916">
<polyline class="pl" points="145.6,343.3 164.6,343.3 164.6,332.9 183.7,332.9 183.7,373.9 202.7,373.9 202.7,363.0 221.8,363.0 221.8,345.9 240.8,345.9 240.8,315.5 259.8,315.5 259.8,371.3 278.9,371.3 278.9,356.2 297.9,356.2 297.9,345.2 317.0,345.2 317.0,322.8 336.0,322.8 336.0,378.5 355.0,378.5 355.0,369.5 374.1,369.5 374.1,374.6 393.1,374.6 393.1,358.6 412.2,358.6 412.2,400.6 431.2,400.6 431.2,428.6 450.2,428.6 450.2,424.6 469.3,424.6 469.3,404.7 488.3,404.7 488.3,445.3 507.4,445.3 507.4,427.5 526.4,427.5 526.4,462.5 545.4,462.5 545.4,502.1 564.5,502.1 564.5,443.8 583.5,443.8 583.5,441.6 602.6,441.6 602.6,479.8 621.6,479.8 621.6,463.4 640.6,463.4 640.6,489.1 659.7,489.1 659.7,480.7 678.7,480.7 678.7,499.4 697.8,499.4 697.8,482.6 716.8,482.6 716.8,491.9 735.8,491.9 735.8,494.2 754.9,494.2 754.9,498.4 773.9,498.4 773.9,495.4 793.0,495.4 793.0,510.3 812.0,510.3 812.0,503.7 831.0,503.7 831.0,506.0 850.1,506.0 850.1,489.8 869.1,489.8" stroke="#000" stroke-width="0.90" stroke-opacity="1.00" fill="none" clip-path="url(#axis_clip)"/>
  </symbol>
  <symbol id="line_21" viewBox="0 0 1200.000 674.916">
<polyline class="pl" points="145.6,343.3 164.6,343.3 164.6,332.9 183.7,332.9 183.7,373.9 202.7,373.9 202.7,363.0 221.8,363.0 221.8,345.9 240.8,345.9 240.8,315.5 259.8,315.5 259.8,371.3 278.9,371.3 278.9,356.2 297.9,356.2 297.9,345.2 317.0,345.2 317.0,322.8 336.0,322.8 336.0,378.5 355.0,378.5 355.0,369.5 374.1,369.5 374.1,374.6 393.1,374.6 393.1,358.6 412.2,358.6 412.2,400.6 431.2,400.6 431.2,428.6 450.2,428.6 450.2,424.6 469.3,424.6 469.3,404.7 488.3,404.7 488.3,445.3 507.4,445.3 507.4,427.5 526.4,427.5 526.4,462.5 545.4,462.5 545.4,502.1 564.5,502.1 564.5,443.8 583.5,443.8 583.5,441.6 602.6,441.6 602.6,479.8 621.6,479.8 621.6,463.4 640.6,463.4 640.6,489.1 659.7,489.1 659.7,480.7 678.7,480.7 678.7,499.4 697.8,499.4 697.8,482.6 716.8,482.6 716.8,491.9 735.8,491.9 735.8,494.2 754.9,494.2 754.9,498.4 773.9,498.4 773.9,495.4 793.0,495.4 793.0,510.3 812.0,510.3 812.0,503.7 831.0,503.7 831.0,506.0 850.1,506.0 850.1,489.8 869.1,489.8" stroke="#000" stroke-width="0.90" stroke-opacity="1.00" fill="none" clip-path="url(#axis_clip)"/>
  </symbol>
</defs>
<g id="main">
<text class="ticklabel ytl" transform="translate(128.8,568.3)">0</text>
<text class="ticklabel ytl" transform="translate(128.8,512.0)">50 000</text>
<text class="ticklabel ytl" transform="translate(128.8,455.8)">100 000</text>
<text class="ticklabel ytl" transform="translate(128.8,399.6)">150 000</text>
<text class="ticklabel ytl" transform="translate(128.8,343.3)">200 000</text>
<text class="ticklabel ytl" transform="translate(128.8,287.1)">250 000</text>
<text class="ticklabel ytl" transform="translate(128.8,230.8)">300 000</text>
<text class="ticklabel ytl" transform="translate(128.8,174.6)">350 000</text>
<text class="ticklabel ytl" transform="translate(128.8,118.3)">400 000</text>
<text class="ticklabel ytl" transform="translate(128.8,62.1)">450 000</text>
<g id="areas">
  <g class="pg_6">
    <polygon class="pl" points="145.6,233.4 164.6,233.4 164.6,206.5 183.7,206.5 183.7,273.3 202.7,273.3 202.7,247.2 221.8,247.2 221.8,206.2 240.8,206.2 240.8,141.1 259.8,141.1 259.8,242.5 278.9,242.5 278.9,213.9 297.9,213.9 297.9,168.0 317.0,168.0 317.0,106.5 336.0,106.5 336.0,216.4 355.0,216.4 355.0,173.2 374.1,173.2 374.1,129.0 393.1,129.0 393.1,64.9 412.2,64.9 412.2,173.0 431.2,173.0 431.2,204.8 450.2,204.8 450.2,158.6 469.3,158.6 469.3,85.3 488.3,85.3 488.3,211.8 507.4,211.8 507.4,183.8 526.4,183.8 526.4,277.6 545.4,277.6 545.4,404.2 564.5,404.2 564.5,228.8 583.5,228.8 583.5,226.9 602.6,226.9 602.6,313.9 621.6,313.9 621.6,214.9 640.6,214.9 640.6,308.5 659.7,308.5 659.7,280.8 678.7,280.8 678.7,339.1 697.8,339.1 697.8,250.9 716.8,250.9 716.8,304.6 735.8,304.6 735.8,285.4 754.9,285.4 754.9,257.7 773.9,257.7 773.9,223.8 793.0,223.8 793.0,301.7 812.0,301.7 812.0,251.5 831.0,251.5 831.0,247.5 850.1,247.5 850.1,185.1 869.1,185.1 869.1,195.0 850.1,195.0 850.1,256.3 831.0,256.3 831.0,262.3 812.0,262.3 812.0,309.6 793.0,309.6 793.0,231.5 773.9,231.5 773.9,264.1 754.9,264.1 754.9,290.1 735.8,290.1 735.8,308.7 716.8,308.7 716.8,256.4 697.8,256.4 697.8,342.8 678.7,342.8 678.7,285.7 659.7,285.7 659.7,314.1 640.6,314.1 640.6,218.7 621.6,218.7 621.6,317.0 602.6,317.0 602.6,232.7 583.5,232.7 583.5,234.1 564.5,234.1 564.5,406.2 545.4,406.2 545.4,280.8 526.4,280.8 526.4,188.9 507.4,188.9 507.4,221.0 488.3,221.0 488.3,95.5 469.3,95.5 469.3,166.1 450.2,166.1 450.2,212.2 431.2,212.2 431.2,180.5 412.2,180.5 412.2,72.3 393.1,72.3 393.1,132.8 374.1,132.8 374.1,176.1 355.0,176.1 355.0,218.0 336.0,218.0 336.0,107.8 317.0,107.8 317.0,168.9 297.9,168.9 297.9,214.4 278.9,214.4 278.9,242.9 259.8,242.9 259.8,142.0 240.8,142.0 240.8,206.9 221.8,206.9 221.8,248.0 202.7,248.0 202.7,274.1 183.7,274.1 183.7,207.7 164.6,207.7 164.6,234.2 145.6,234.2" stroke="none" stroke-width="0.9000"  fill="#808080" clip-path="url(#axis_clip)"/>
    <text class="pl" transform="translate(937.2,179.5)" dy="7.6" font-size="25.20" fill="#808080" stroke="none">Others</text>
<polyline class="pl" points="910.8,190.0 911.9,190.0 913.0,189.9 914.0,189.7 914.9,189.5 915.8,189.2 916.6,188.9 917.4,188.5 918.1,188.1 918.8,187.6 919.5,187.2 920.1,186.7 920.7,186.1 921.3,185.6 921.9,185.1 922.5,184.5 923.1,184.0 923.7,183.5 924.3,182.9 924.9,182.4 925.6,182.0 926.3,181.5 927.0,181.1 927.8,180.7 928.6,180.4 929.5,180.1 930.4,179.9 931.4,179.7 932.5,179.6 933.6,179.5" stroke="#808080" stroke-width="0.90" stroke-opacity="1.00" fill="none" />
    <text class="pl" transform="translate(145.6,47.2)" dy="0.0" font-size="27.00" fill="#808080" stroke="none">Spanish new passenger car sales by type: Quarterly</text>
  </g>
  <g class="pg_5">
    <polygon class="pl" points="145.6,234.2 164.6,234.2 164.6,207.7 183.7,207.7 183.7,274.1 202.7,274.1 202.7,248.0 221.8,248.0 221.8,206.9 240.8,206.9 240.8,142.0 259.8,142.0 259.8,242.9 278.9,242.9 278.9,214.4 297.9,214.4 297.9,168.9 317.0,168.9 317.0,107.8 336.0,107.8 336.0,218.0 355.0,218.0 355.0,176.1 374.1,176.1 374.1,132.8 393.1,132.8 393.1,72.3 412.2,72.3 412.2,180.5 431.2,180.5 431.2,212.2 450.2,212.2 450.2,166.1 469.3,166.1 469.3,95.5 488.3,95.5 488.3,221.0 507.4,221.0 507.4,188.9 526.4,188.9 526.4,280.8 545.4,280.8 545.4,406.2 564.5,406.2 564.5,234.1 583.5,234.1 583.5,232.7 602.6,232.7 602.6,317.0 621.6,317.0 621.6,218.7 640.6,218.7 640.6,314.1 659.7,314.1 659.7,285.7 678.7,285.7 678.7,342.8 697.8,342.8 697.8,256.4 716.8,256.4 716.8,308.7 735.8,308.7 735.8,290.1 754.9,290.1 754.9,264.1 773.9,264.1 773.9,231.5 793.0,231.5 793.0,309.6 812.0,309.6 812.0,262.3 831.0,262.3 831.0,256.3 850.1,256.3 850.1,195.0 869.1,195.0 869.1,212.0 850.1,212.0 850.1,270.3 831.0,270.3 831.0,283.2 812.0,283.2 812.0,322.7 793.0,322.7 793.0,247.9 773.9,247.9 773.9,277.7 754.9,277.7 754.9,301.6 735.8,301.6 735.8,316.8 716.8,316.8 716.8,264.8 697.8,264.8 697.8,351.5 678.7,351.5 678.7,296.1 659.7,296.1 659.7,320.9 640.6,320.9 640.6,225.6 621.6,225.6 621.6,321.1 602.6,321.1 602.6,242.0 583.5,242.0 583.5,239.6 564.5,239.6 564.5,407.7 545.4,407.7 545.4,285.4 526.4,285.4 526.4,192.0 507.4,192.0 507.4,223.4 488.3,223.4 488.3,98.8 469.3,98.8 469.3,169.4 450.2,169.4 450.2,215.4 431.2,215.4 431.2,181.9 412.2,181.9 412.2,73.6 393.1,73.6 393.1,134.3 374.1,134.3 374.1,177.9 355.0,177.9 355.0,219.3 336.0,219.3 336.0,108.6 317.0,108.6 317.0,169.6 297.9,169.6 297.9,215.4 278.9,215.4 278.9,243.3 259.8,243.3 259.8,142.5 240.8,142.5 240.8,207.3 221.8,207.3 221.8,248.6 202.7,248.6 202.7,274.4 183.7,274.4 183.7,207.9 164.6,207.9 164.6,234.4 145.6,234.4" stroke="none" stroke-width="0.9000"  fill="#6298C6" clip-path="url(#axis_clip)"/>
    <text class="pl" transform="translate(937.2,204.6)" dy="7.6" font-size="25.20" fill="#6298C6" stroke="none">Battery electric</text>
<polyline class="pl" points="910.8,203.5 911.9,203.5 913.0,203.5 914.0,203.5 914.9,203.6 915.8,203.6 916.6,203.6 917.4,203.7 918.1,203.7 918.8,203.8 919.5,203.8 920.1,203.9 920.7,203.9 921.3,204.0 921.9,204.0 922.5,204.1 923.1,204.1 923.7,204.2 924.3,204.2 924.9,204.3 925.6,204.3 926.3,204.4 927.0,204.4 927.8,204.5 928.6,204.5 929.5,204.5 930.4,204.6 931.4,204.6 932.5,204.6 933.6,204.6" stroke="#6298C6" stroke-width="0.90" stroke-opacity="1.00" fill="none" />
  </g>
  <g class="pg_4">
    <polygon class="pl" points="145.6,234.4 164.6,234.4 164.6,207.9 183.7,207.9 183.7,274.4 202.7,274.4 202.7,248.6 221.8,248.6 221.8,207.3 240.8,207.3 240.8,142.5 259.8,142.5 259.8,243.3 278.9,243.3 278.9,215.4 297.9,215.4 297.9,169.6 317.0,169.6 317.0,108.6 336.0,108.6 336.0,219.3 355.0,219.3 355.0,177.9 374.1,177.9 374.1,134.3 393.1,134.3 393.1,73.6 412.2,73.6 412.2,181.9 431.2,181.9 431.2,215.4 450.2,215.4 450.2,169.4 469.3,169.4 469.3,98.8 488.3,98.8 488.3,223.4 507.4,223.4 507.4,192.0 526.4,192.0 526.4,285.4 545.4,285.4 545.4,407.7 564.5,407.7 564.5,239.6 583.5,239.6 583.5,242.0 602.6,242.0 602.6,321.1 621.6,321.1 621.6,225.6 640.6,225.6 640.6,320.9 659.7,320.9 659.7,296.1 678.7,296.1 678.7,351.5 697.8,351.5 697.8,264.8 716.8,264.8 716.8,316.8 735.8,316.8 735.8,301.6 754.9,301.6 754.9,277.7 773.9,277.7 773.9,247.9 793.0,247.9 793.0,322.7 812.0,322.7 812.0,283.2 831.0,283.2 831.0,270.3 850.1,270.3 850.1,212.0 869.1,212.0 869.1,228.4 850.1,228.4 850.1,286.7 831.0,286.7 831.0,301.3 812.0,301.3 812.0,336.1 793.0,336.1 793.0,265.0 773.9,265.0 773.9,292.5 754.9,292.5 754.9,315.0 735.8,315.0 735.8,327.1 716.8,327.1 716.8,277.1 697.8,277.1 697.8,361.6 678.7,361.6 678.7,309.3 659.7,309.3 659.7,331.2 640.6,331.2 640.6,237.1 621.6,237.1 621.6,328.1 602.6,328.1 602.6,254.2 583.5,254.2 583.5,245.1 564.5,245.1 564.5,409.8 545.4,409.8 545.4,288.7 526.4,288.7 526.4,193.9 507.4,193.9 507.4,224.8 488.3,224.8 488.3,100.7 469.3,100.7 469.3,171.0 450.2,171.0 450.2,217.0 431.2,217.0 431.2,182.9 412.2,182.9 412.2,75.4 393.1,75.4 393.1,135.3 374.1,135.3 374.1,179.2 355.0,179.2 355.0,220.3 336.0,220.3 336.0,109.3 317.0,109.3 317.0,169.9 297.9,169.9 297.9,215.6 278.9,215.6 278.9,243.6 259.8,243.6 259.8,143.0 240.8,143.0 240.8,207.6 221.8,207.6 221.8,248.8 202.7,248.8 202.7,274.6 183.7,274.6 183.7,208.0 164.6,208.0 164.6,234.5 145.6,234.5" stroke="none" stroke-width="0.9000"  fill="#77AC30" clip-path="url(#axis_clip)"/>
    <text class="pl" transform="translate(937.2,229.6)" dy="7.6" font-size="25.20" fill="#77AC30" stroke="none">Plugin hybrid</text>
<polyline class="pl" points="910.8,220.2 911.9,220.2 913.0,220.3 914.0,220.5 914.9,220.7 915.8,221.0 916.6,221.3 917.4,221.6 918.1,222.0 918.8,222.4 919.5,222.8 920.1,223.2 920.7,223.7 921.3,224.2 921.9,224.7 922.5,225.2 923.1,225.6 923.7,226.1 924.3,226.6 924.9,227.0 925.6,227.5 926.3,227.9 927.0,228.2 927.8,228.6 928.6,228.9 929.5,229.1 930.4,229.3 931.4,229.5 932.5,229.6 933.6,229.6" stroke="#77AC30" stroke-width="0.90" stroke-opacity="1.00" fill="none" />
  </g>
  <g class="pg_3">
    <polygon class="pl" points="145.6,234.5 164.6,234.5 164.6,208.0 183.7,208.0 183.7,274.6 202.7,274.6 202.7,248.8 221.8,248.8 221.8,207.6 240.8,207.6 240.8,143.0 259.8,143.0 259.8,243.6 278.9,243.6 278.9,215.6 297.9,215.6 297.9,169.9 317.0,169.9 317.0,109.3 336.0,109.3 336.0,220.3 355.0,220.3 355.0,179.2 374.1,179.2 374.1,135.3 393.1,135.3 393.1,75.4 412.2,75.4 412.2,182.9 431.2,182.9 431.2,217.0 450.2,217.0 450.2,171.0 469.3,171.0 469.3,100.7 488.3,100.7 488.3,224.8 507.4,224.8 507.4,193.9 526.4,193.9 526.4,288.7 545.4,288.7 545.4,409.8 564.5,409.8 564.5,245.1 583.5,245.1 583.5,254.2 602.6,254.2 602.6,328.1 621.6,328.1 621.6,237.1 640.6,237.1 640.6,331.2 659.7,331.2 659.7,309.3 678.7,309.3 678.7,361.6 697.8,361.6 697.8,277.1 716.8,277.1 716.8,327.1 735.8,327.1 735.8,315.0 754.9,315.0 754.9,292.5 773.9,292.5 773.9,265.0 793.0,265.0 793.0,336.1 812.0,336.1 812.0,301.3 831.0,301.3 831.0,286.7 850.1,286.7 850.1,228.4 869.1,228.4 869.1,341.4 850.1,341.4 850.1,385.2 831.0,385.2 831.0,393.4 812.0,393.4 812.0,409.6 793.0,409.6 793.0,352.4 773.9,352.4 773.9,372.1 754.9,372.1 754.9,388.4 735.8,388.4 735.8,389.1 716.8,389.1 716.8,351.6 697.8,351.6 697.8,413.5 678.7,413.5 678.7,375.7 659.7,375.7 659.7,385.9 640.6,385.9 640.6,309.4 621.6,309.4 621.6,372.5 602.6,372.5 602.6,309.7 583.5,309.7 583.5,289.4 564.5,289.4 564.5,427.7 545.4,427.7 545.4,320.8 526.4,320.8 526.4,229.5 507.4,229.5 507.4,252.4 488.3,252.4 488.3,131.3 469.3,131.3 469.3,196.1 450.2,196.1 450.2,238.5 431.2,238.5 431.2,204.4 412.2,204.4 412.2,99.0 393.1,99.0 393.1,154.1 374.1,154.1 374.1,196.1 355.0,196.1 355.0,235.7 336.0,235.7 336.0,125.3 317.0,125.3 317.0,184.2 297.9,184.2 297.9,225.8 278.9,225.8 278.9,252.2 259.8,252.2 259.8,151.2 240.8,151.2 240.8,214.7 221.8,214.7 221.8,251.2 202.7,251.2 202.7,277.4 183.7,277.4 183.7,210.0 164.6,210.0 164.6,236.2 145.6,236.2" stroke="none" stroke-width="0.9000"  fill="#91AC6E" clip-path="url(#axis_clip)"/>
    <text class="pl" transform="translate(937.2,284.9)" dy="7.6" font-size="25.20" fill="#91AC6E" stroke="none">Non-plugin hybrid</text>
  </g>
  <g class="pg_2">
    <polygon class="pl" points="145.6,236.2 164.6,236.2 164.6,210.0 183.7,210.0 183.7,277.4 202.7,277.4 202.7,251.2 221.8,251.2 221.8,214.7 240.8,214.7 240.8,151.2 259.8,151.2 259.8,252.2 278.9,252.2 278.9,225.8 297.9,225.8 297.9,184.2 317.0,184.2 317.0,125.3 336.0,125.3 336.0,235.7 355.0,235.7 355.0,196.1 374.1,196.1 374.1,154.1 393.1,154.1 393.1,99.0 412.2,99.0 412.2,204.4 431.2,204.4 431.2,238.5 450.2,238.5 450.2,196.1 469.3,196.1 469.3,131.3 488.3,131.3 488.3,252.4 507.4,252.4 507.4,229.5 526.4,229.5 526.4,320.8 545.4,320.8 545.4,427.7 564.5,427.7 564.5,289.4 583.5,289.4 583.5,309.7 602.6,309.7 602.6,372.5 621.6,372.5 621.6,309.4 640.6,309.4 640.6,385.9 659.7,385.9 659.7,375.7 678.7,375.7 678.7,413.5 697.8,413.5 697.8,351.6 716.8,351.6 716.8,389.1 735.8,389.1 735.8,388.4 754.9,388.4 754.9,372.1 773.9,372.1 773.9,352.4 793.0,352.4 793.0,409.6 812.0,409.6 812.0,393.4 831.0,393.4 831.0,385.2 850.1,385.2 850.1,341.4 869.1,341.4 869.1,489.8 850.1,489.8 850.1,506.0 831.0,506.0 831.0,503.7 812.0,503.7 812.0,510.3 793.0,510.3 793.0,495.4 773.9,495.4 773.9,498.4 754.9,498.4 754.9,494.2 735.8,494.2 735.8,491.9 716.8,491.9 716.8,482.6 697.8,482.6 697.8,499.4 678.7,499.4 678.7,480.7 659.7,480.7 659.7,489.1 640.6,489.1 640.6,463.4 621.6,463.4 621.6,479.8 602.6,479.8 602.6,441.6 583.5,441.6 583.5,443.8 564.5,443.8 564.5,502.1 545.4,502.1 545.4,462.5 526.4,462.5 526.4,427.5 507.4,427.5 507.4,445.3 488.3,445.3 488.3,404.7 469.3,404.7 469.3,424.6 450.2,424.6 450.2,428.6 431.2,428.6 431.2,400.6 412.2,400.6 412.2,358.6 393.1,358.6 393.1,374.6 374.1,374.6 374.1,369.5 355.0,369.5 355.0,378.5 336.0,378.5 336.0,322.8 317.0,322.8 317.0,345.2 297.9,345.2 297.9,356.2 278.9,356.2 278.9,371.3 259.8,371.3 259.8,315.5 240.8,315.5 240.8,345.9 221.8,345.9 221.8,363.0 202.7,363.0 202.7,373.9 183.7,373.9 183.7,332.9 164.6,332.9 164.6,343.3 145.6,343.3" stroke="none" stroke-width="0.9000"  fill="#7B553E" clip-path="url(#axis_clip)"/>
    <text class="pl" transform="translate(937.2,415.6)" dy="7.6" font-size="25.20" fill="#7B553E" stroke="none">Petrol</text>
  </g>
  <g class="pg_1">
    <polygon class="pl" points="145.6,343.3 164.6,343.3 164.6,332.9 183.7,332.9 183.7,373.9 202.7,373.9 202.7,363.0 221.8,363.0 221.8,345.9 240.8,345.9 240.8,315.5 259.8,315.5 259.8,371.3 278.9,371.3 278.9,356.2 297.9,356.2 297.9,345.2 317.0,345.2 317.0,322.8 336.0,322.8 336.0,378.5 355.0,378.5 355.0,369.5 374.1,369.5 374.1,374.6 393.1,374.6 393.1,358.6 412.2,358.6 412.2,400.6 431.2,400.6 431.2,428.6 450.2,428.6 450.2,424.6 469.3,424.6 469.3,404.7 488.3,404.7 488.3,445.3 507.4,445.3 507.4,427.5 526.4,427.5 526.4,462.5 545.4,462.5 545.4,502.1 564.5,502.1 564.5,443.8 583.5,443.8 583.5,441.6 602.6,441.6 602.6,479.8 621.6,479.8 621.6,463.4 640.6,463.4 640.6,489.1 659.7,489.1 659.7,480.7 678.7,480.7 678.7,499.4 697.8,499.4 697.8,482.6 716.8,482.6 716.8,491.9 735.8,491.9 735.8,494.2 754.9,494.2 754.9,498.4 773.9,498.4 773.9,495.4 793.0,495.4 793.0,510.3 812.0,510.3 812.0,503.7 831.0,503.7 831.0,506.0 850.1,506.0 850.1,489.8 869.1,489.8 869.1,560.2 145.6,560.2" stroke="none" stroke-width="0.9000"  fill="#7B6E57" clip-path="url(#axis_clip)"/>
    <text class="pl" transform="translate(937.2,525.0)" dy="7.6" font-size="25.20" fill="#7B6E57" stroke="none">Diesel</text>
  </g>
</g>
<g id="lines">
  <g class="pl_1">
    <use xlink:href="#line_1" class="thick" stroke="#000" stroke-width="3" opacity="0"/>
    <use xlink:href="#line_1" class="pl pll" stroke="#000" stroke-width="0.90"/>
  </g>
  <g class="pl_2">
    <use xlink:href="#line_2" class="thick" stroke="#000" stroke-width="3" opacity="0"/>
    <use xlink:href="#line_2" class="pl pll" stroke="#000" stroke-width="0.90"/>
  </g>
  <g class="pl_3">
    <use xlink:href="#line_3" class="thick" stroke="#000" stroke-width="3" opacity="0"/>
    <use xlink:href="#line_3" class="pl pll" stroke="#000" stroke-width="0.90"/>
  </g>
  <g class="pl_4">
    <use xlink:href="#line_4" class="thick" stroke="#000" stroke-width="3" opacity="0"/>
    <use xlink:href="#line_4" class="pl pll" stroke="#000" stroke-width="0.90"/>
  </g>
  <g class="pl_5">
    <use xlink:href="#line_5" class="thick" stroke="#000" stroke-width="3" opacity="0"/>
    <use xlink:href="#line_5" class="pl pll" stroke="#000" stroke-width="0.90"/>
  </g>
  <g class="pl_6">
    <use xlink:href="#line_6" class="thick" stroke="#000" stroke-width="3" opacity="0"/>
    <use xlink:href="#line_6" class="pl pll" stroke="#000" stroke-width="0.90"/>
  </g>
  <g class="pl_7">
    <use xlink:href="#line_7" class="thick" stroke="#000" stroke-width="3" opacity="0"/>
    <use xlink:href="#line_7" class="pl pll" stroke="#000" stroke-width="0.90"/>
  </g>
  <g class="pl_8">
    <use xlink:href="#line_8" class="thick" stroke="#000" stroke-width="3" opacity="0"/>
    <use xlink:href="#line_8" class="pl pll" stroke="#000" stroke-width="0.90"/>
  </g>
  <g class="pl_9">
    <use xlink:href="#line_9" class="thick" stroke="#000" stroke-width="3" opacity="0"/>
    <use xlink:href="#line_9" class="pl pll" stroke="#000" stroke-width="0.90"/>
  </g>
  <g class="pl_10">
    <use xlink:href="#line_10" class="thick" stroke="#000" stroke-width="3" opacity="0"/>
    <use xlink:href="#line_10" class="pl pll" stroke="#000" stroke-width="0.90"/>
  </g>
  <g class="pl_11">
    <use xlink:href="#line_11" class="thick" stroke="#000" stroke-width="3" opacity="0"/>
    <use xlink:href="#line_11" class="pl pll" stroke="#000" stroke-width="0.90"/>
  </g>
  <g class="pl_12">
    <use xlink:href="#line_12" class="thick" stroke="#000" stroke-width="3" opacity="0"/>
    <use xlink:href="#line_12" class="pl pll" stroke="#000" stroke-width="0.90"/>
  </g>
  <g class="pl_13">
    <use xlink:href="#line_13" class="thick" stroke="#000" stroke-width="3" opacity="0"/>
    <use xlink:href="#line_13" class="pl pll" stroke="#000" stroke-width="0.90"/>
  </g>
  <g class="pl_14">
    <use xlink:href="#line_14" class="thick" stroke="#000" stroke-width="3" opacity="0"/>
    <use xlink:href="#line_14" class="pl pll" stroke="#000" stroke-width="0.90"/>
  </g>
  <g class="pl_15">
    <use xlink:href="#line_15" class="thick" stroke="#000" stroke-width="3" opacity="0"/>
    <use xlink:href="#line_15" class="pl pll" stroke="#000" stroke-width="0.90"/>
  </g>
  <g class="pl_16">
    <use xlink:href="#line_16" class="thick" stroke="#000" stroke-width="3" opacity="0"/>
    <use xlink:href="#line_16" class="pl pll" stroke="#000" stroke-width="0.90"/>
  </g>
  <g class="pl_17">
    <use xlink:href="#line_17" class="thick" stroke="#000" stroke-width="3" opacity="0"/>
    <use xlink:href="#line_17" class="pl pll" stroke="#000" stroke-width="0.90"/>
  </g>
  <g class="pl_18">
    <use xlink:href="#line_18" class="thick" stroke="#000" stroke-width="3" opacity="0"/>
    <use xlink:href="#line_18" class="pl pll" stroke="#000" stroke-width="0.90"/>
  </g>
  <g class="pl_19">
    <use xlink:href="#line_19" class="thick" stroke="#000" stroke-width="3" opacity="0"/>
    <use xlink:href="#line_19" class="pl pll" stroke="#000" stroke-width="0.90"/>
  </g>
  <g class="pl_20">
    <use xlink:href="#line_20" class="thick" stroke="#000" stroke-width="3" opacity="0"/>
    <use xlink:href="#line_20" class="pl pll" stroke="#000" stroke-width="0.90"/>
  </g>
  <g class="pl_21">
    <use xlink:href="#line_21" class="thick" stroke="#000" stroke-width="3" opacity="0"/>
    <use xlink:href="#line_21" class="pl pll" stroke="#000" stroke-width="0.90"/>
  </g>
</g>
    <text class="pl" transform="translate(183.7,573.0) rotate(-90)" dy="8.1" font-size="27.00" fill="#808080" stroke="none" text-anchor="end">2015</text>
    <text class="pl" transform="translate(259.8,573.0) rotate(-90)" dy="8.1" font-size="27.00" fill="#808080" stroke="none" text-anchor="end">2016</text>
    <text class="pl" transform="translate(336.0,573.0) rotate(-90)" dy="8.1" font-size="27.00" fill="#808080" stroke="none" text-anchor="end">2017</text>
    <text class="pl" transform="translate(412.2,573.0) rotate(-90)" dy="8.1" font-size="27.00" fill="#808080" stroke="none" text-anchor="end">2018</text>
    <text class="pl" transform="translate(488.3,573.0) rotate(-90)" dy="8.1" font-size="27.00" fill="#808080" stroke="none" text-anchor="end">2019</text>
    <text class="pl" transform="translate(564.5,573.0) rotate(-90)" dy="8.1" font-size="27.00" fill="#808080" stroke="none" text-anchor="end">2020</text>
    <text class="pl" transform="translate(640.6,573.0) rotate(-90)" dy="8.1" font-size="27.00" fill="#808080" stroke="none" text-anchor="end">2021</text>
    <text class="pl" transform="translate(716.8,573.0) rotate(-90)" dy="8.1" font-size="27.00" fill="#808080" stroke="none" text-anchor="end">2022</text>
    <text class="pl" transform="translate(793.0,573.0) rotate(-90)" dy="8.1" font-size="27.00" fill="#808080" stroke="none" text-anchor="end">2023</text>
    <text class="pl" transform="translate(869.1,573.0) rotate(-90)" dy="8.1" font-size="27.00" fill="#808080" stroke="none" text-anchor="end">2024</text>
<text transform="translate(157.6,666.1)" font-size="19.80" font-family="Helvetica" fill="#BFBFBF" stroke="none" xml:space="preserve"><a href="https://twitter.com/robbie_andrew" style="fill:#BFBFBF" target="_blank">@robbie_andrew</a>   &#9679;   Data: DGT   &#9679;   Through August 2024</text>
<text class="twitlink" transform="translate(157.6,666.1)" opacity="0" font-size="19.80" fill="#BFBFBF" stroke="none" xml:space="preserve"><a href="https://twitter.com/robbie_andrew" style="fill:#BFBFBF" target="_blank">@robbie_andrew</a></text>
  <g class="dl_el" transform="translate(154.6,578.4)">
    <g class="dl_el_balloon">
      <foreignObject x="0" y="0" width="120" height="500">
      <div xmlns="http://www.w3.org/1999/xhtml" class="dl_fe" style="height:60px">
      <p class="dl_fe_p">Find me on Twitter</p>
      </div>
	    </foreignObject>
      <path stroke="#000" fill="#FDFFDF" d="M0,60H60l5,5l5,-5H120"/>
    </g>
  </g>
<use xlink:href="#line_y" transform="translate(145.6,0)"/>
<use xlink:href="#line_y" transform="translate(221.8,0)"/>
<use xlink:href="#line_y" transform="translate(297.9,0)"/>
<use xlink:href="#line_y" transform="translate(374.1,0)"/>
<use xlink:href="#line_y" transform="translate(450.2,0)"/>
<use xlink:href="#line_y" transform="translate(526.4,0)"/>
<use xlink:href="#line_y" transform="translate(602.6,0)"/>
<use xlink:href="#line_y" transform="translate(678.7,0)"/>
<use xlink:href="#line_y" transform="translate(754.9,0)"/>
<use xlink:href="#line_y" transform="translate(831.0,0)"/>
<use xlink:href="#line_y" transform="translate(907.2,0)"/>
<use xlink:href="#line_x" transform="translate(0,560.2)"/>
<use xlink:href="#line_x" transform="translate(0,503.9)"/>
<use xlink:href="#line_x" transform="translate(0,447.7)"/>
<use xlink:href="#line_x" transform="translate(0,391.5)"/>
<use xlink:href="#line_x" transform="translate(0,335.2)"/>
<use xlink:href="#line_x" transform="translate(0,279.0)"/>
<use xlink:href="#line_x" transform="translate(0,222.7)"/>
<use xlink:href="#line_x" transform="translate(0,166.5)"/>
<use xlink:href="#line_x" transform="translate(0,110.2)"/>
<use xlink:href="#line_x" transform="translate(0,54.0)"/>
<use xlink:href="#tick_x" transform="translate(145.6,0)"/>
<use xlink:href="#tick_x" transform="translate(221.8,0)"/>
<use xlink:href="#tick_x" transform="translate(297.9,0)"/>
<use xlink:href="#tick_x" transform="translate(374.1,0)"/>
<use xlink:href="#tick_x" transform="translate(450.2,0)"/>
<use xlink:href="#tick_x" transform="translate(526.4,0)"/>
<use xlink:href="#tick_x" transform="translate(602.6,0)"/>
<use xlink:href="#tick_x" transform="translate(678.7,0)"/>
<use xlink:href="#tick_x" transform="translate(754.9,0)"/>
<use xlink:href="#tick_x" transform="translate(831.0,0)"/>
<use xlink:href="#tick_x" transform="translate(907.2,0)"/>
<use xlink:href="#tick_y" transform="translate(0,560.2)"/>
<use xlink:href="#tick_y" transform="translate(0,503.9)"/>
<use xlink:href="#tick_y" transform="translate(0,447.7)"/>
<use xlink:href="#tick_y" transform="translate(0,391.5)"/>
<use xlink:href="#tick_y" transform="translate(0,335.2)"/>
<use xlink:href="#tick_y" transform="translate(0,279.0)"/>
<use xlink:href="#tick_y" transform="translate(0,222.7)"/>
<use xlink:href="#tick_y" transform="translate(0,166.5)"/>
<use xlink:href="#tick_y" transform="translate(0,110.2)"/>
<use xlink:href="#tick_y" transform="translate(0,54.0)"/>
<polyline points="145.6,53.993 145.6,560.180 907.2,560.180" stroke="#808080" stroke-width="0.90" fill="none"/>
<g>
<a href="https://creativecommons.org/licenses/by/4.0/">
  <rect x="123.0" y="651.4" width="34" height="17" fill="#FFF" stroke="none"/>
  <g transform="translate(124.0,652.4) scale(0.24)">
  <g><circle fill="#FFF" cx="37.79" cy="28.5" r="28.84"/>
     <circle fill="none" cx="37.79" cy="28.5" r="28.84" stroke="#BFBFBF" stroke-width="5.5"/>
     <path fill="#BFBFBF" d="M37.16,23.19 l-4.29,2.23c-0.458-0.951-1.02-1.62-1.69-2c-0.667-0.38-1.29-0.571-1.86-0.571c-2.86,0-4.29,1.89-4.29,5.66 c0,1.71,0.36,3.08,1.09,4.11c0.724,1.03,1.79,1.54,3.2,1.54c1.87,0,3.18-0.915,3.94-2.74l3.94,2 c-0.838,1.56-2,2.79-3.49,3.69c-1.48,0.896-3.12,1.34-4.91,1.34c-2.86,0-5.16-0.875-6.92-2.63 c-1.75-1.75-2.63-4.19-2.63-7.31c0-3.05,0.886-5.47,2.66-7.26c1.77-1.79,4.01-2.69,6.72-2.69 C32.6,18.56,35.44,20.1,37.16,23.19z
              M55.61,23.19l-4.23,2.23c-0.457-0.951-1.02-1.62-1.69-2 c-0.668-0.38-1.31-0.571-1.91-0.571c-2.86,0-4.29,1.89-4.29,5.66c0,1.71,0.363,3.08,1.09,4.11 c0.723,1.03,1.79,1.54,3.2,1.54c1.87,0,3.18-0.915,3.94-2.74l4,2c-0.875,1.56-2.06,2.79-3.54,3.69 c-1.49,0.9-3.11,1.34-4.86,1.34c-2.9,0-5.21-0.875-6.94-2.63c-1.74-1.75-2.6-4.19-2.6-7.31 c0-3.05,0.885-5.47,2.66-7.26c1.77-1.79,4.01-2.69,6.71-2.69C51.12,18.56,53.944,20.1,55.61,23.19z"/>
  </g></g>
  <g transform="translate(140.2,652.4) scale(0.24)">
  <g><circle fill="#FFF" cx="37.79" cy="28.5" r="28.84"/>
     <circle fill="none" cx="37.79" cy="28.5" r="28.84" stroke="#BFBFBF" stroke-width="5.5"/>
     <path fill="#BFBFBF" d="M46.129,20.557v13.085h-3.656v15.542h-9.944V33.643h-3.656V20.557 c0-0.572,0.2-1.057,0.599-1.457c0.401-0.399,0.887-0.6,1.457-0.6h13.144c0.533,0,1.01,0.2,1.428,0.6 C45.918,19.5,46.129,19.986,46.129,20.557z
              M33.042,12.329c0-3.008,1.485-4.514,4.458-4.514s4.457,1.504,4.457,4.514 c0,2.971-1.486,4.457-4.457,4.457S33.042,15.3,33.042,12.329z"/>
  </g></g>
  </a>
</g>
  <g class="dl_el" transform="translate(69.1,548.4)">
    <g class="dl_el_balloon">
      <foreignObject x="0" y="0" width="250" height="500">
      <div xmlns="http://www.w3.org/1999/xhtml" class="dl_fe" style="height:90px">
      <p class="dl_fe_p">CC-BY: Material may be freely re-used as long as you credit the author</p>
      </div>
	    </foreignObject>
      <path stroke="#000" fill="#FDFFDF" d="M0,90H70l5,5l5,-5H250"/>
    </g>
  </g>
</g>
</svg>
