<svg version="1.1" xmlns="http://www.w3.org/2000/svg" xmlns:xlink="http://www.w3.org/1999/xlink" width="100%" height="100%" viewBox="0 0 1200.000 674.916">
<title>Swiss new passenger car sales by type: Monthly</title>
<desc>Created by Robbie Andrew (@robbie_andrew), CICERO Center for International Climate Research. CC-BY: Material may be freely re-used as long as you credit the author</desc>
<style type="text/css">
  #main {font-family:Helvetica,Arial,sans-serif; font-size:27.00px;
         fill-opacity:1; fill:#000000; stroke:none; stroke-linejoin:round; stroke-linecap:round; stroke-width:1.00;}
  a:hover {text-decoration: underline;}
  .marker {stroke-opacity:0;fill-opacity:0;}
  .marker:hover {stroke-opacity:0.5; fill-opacity:1;}
  .ticklabel {font-size:27.00px;fill:#808080;stroke:none;font-family:Helvetica}
  .ytl {text-anchor:end;}
  .dp1 {pointer-events:none;font-size:70%;text-anchor:middle;fill:#000000;}
  .dp2 {pointer-events:none;font-size:70%;text-anchor:middle;fill:#FFFFFF;}
  .numtip {pointer-events:none;}
  .cc {opacity:0.25;}
.dl_fe {background-color:#FDFFDF;display:flex;margin:auto;align-items:center}
.dl_fe_p {font-size:20px;text-align:center;margin:3px}
.dl_el {display:none;pointer-events:none;}
.cc:hover + .dl_el {display:block;}
text:hover + .dl_el {display:block;}
  #areas .pl {transition: all 0.2s ease;}
  #areas:hover .pl {opacity:0.5;}
  #areas:hover .thick {stroke-width:1;}
  #areas:hover .pg_1:hover .pl {opacity:1;}
  #areas:hover .pg_1:hover .pll {stroke-width:3;}
  #areas:hover .pg_1:hover .pldlm {stroke-width:2;}
  #areas:hover .pg_1:hover .thick {stroke-width:12;}
  #areas:hover .pg_2:hover .pl {opacity:1;}
  #areas:hover .pg_2:hover .pll {stroke-width:3;}
  #areas:hover .pg_2:hover .pldlm {stroke-width:2;}
  #areas:hover .pg_2:hover .thick {stroke-width:12;}
  #areas:hover .pg_3:hover .pl {opacity:1;}
  #areas:hover .pg_3:hover .pll {stroke-width:3;}
  #areas:hover .pg_3:hover .pldlm {stroke-width:2;}
  #areas:hover .pg_3:hover .thick {stroke-width:12;}
  #areas:hover .pg_4:hover .pl {opacity:1;}
  #areas:hover .pg_4:hover .pll {stroke-width:3;}
  #areas:hover .pg_4:hover .pldlm {stroke-width:2;}
  #areas:hover .pg_4:hover .thick {stroke-width:12;}
  #areas:hover .pg_5:hover .pl {opacity:1;}
  #areas:hover .pg_5:hover .pll {stroke-width:3;}
  #areas:hover .pg_5:hover .pldlm {stroke-width:2;}
  #areas:hover .pg_5:hover .thick {stroke-width:12;}
  #areas:hover .pg_6:hover .pl {opacity:1;}
  #areas:hover .pg_6:hover .pll {stroke-width:3;}
  #areas:hover .pg_6:hover .pldlm {stroke-width:2;}
  #areas:hover .pg_6:hover .thick {stroke-width:12;}
  #lines .pl {transition: all 0.2s ease;}
  #lines:hover .pl {opacity:0.3;}
  #lines:hover .thick {stroke-width:1;}
  #lines:hover .pl_1:hover .pl {opacity:1;}
  #lines:hover .pl_1:hover .pll {stroke-width:3;}
  #lines:hover .pl_1:hover .pldlm {stroke-width:2;}
  #lines:hover .pl_1:hover .thick {stroke-width:12;}
  #lines:hover .pl_2:hover .pl {opacity:1;}
  #lines:hover .pl_2:hover .pll {stroke-width:3;}
  #lines:hover .pl_2:hover .pldlm {stroke-width:2;}
  #lines:hover .pl_2:hover .thick {stroke-width:12;}
  #lines:hover .pl_3:hover .pl {opacity:1;}
  #lines:hover .pl_3:hover .pll {stroke-width:3;}
  #lines:hover .pl_3:hover .pldlm {stroke-width:2;}
  #lines:hover .pl_3:hover .thick {stroke-width:12;}
  #lines:hover .pl_4:hover .pl {opacity:1;}
  #lines:hover .pl_4:hover .pll {stroke-width:3;}
  #lines:hover .pl_4:hover .pldlm {stroke-width:2;}
  #lines:hover .pl_4:hover .thick {stroke-width:12;}
  #lines:hover .pl_5:hover .pl {opacity:1;}
  #lines:hover .pl_5:hover .pll {stroke-width:3;}
  #lines:hover .pl_5:hover .pldlm {stroke-width:2;}
  #lines:hover .pl_5:hover .thick {stroke-width:12;}
  #lines:hover .pl_6:hover .pl {opacity:1;}
  #lines:hover .pl_6:hover .pll {stroke-width:3;}
  #lines:hover .pl_6:hover .pldlm {stroke-width:2;}
  #lines:hover .pl_6:hover .thick {stroke-width:12;}
  #lines:hover .pl_7:hover .pl {opacity:1;}
  #lines:hover .pl_7:hover .pll {stroke-width:3;}
  #lines:hover .pl_7:hover .pldlm {stroke-width:2;}
  #lines:hover .pl_7:hover .thick {stroke-width:12;}
  #lines:hover .pl_8:hover .pl {opacity:1;}
  #lines:hover .pl_8:hover .pll {stroke-width:3;}
  #lines:hover .pl_8:hover .pldlm {stroke-width:2;}
  #lines:hover .pl_8:hover .thick {stroke-width:12;}
  #lines:hover .pl_9:hover .pl {opacity:1;}
  #lines:hover .pl_9:hover .pll {stroke-width:3;}
  #lines:hover .pl_9:hover .pldlm {stroke-width:2;}
  #lines:hover .pl_9:hover .thick {stroke-width:12;}
  #lines:hover .pl_10:hover .pl {opacity:1;}
  #lines:hover .pl_10:hover .pll {stroke-width:3;}
  #lines:hover .pl_10:hover .pldlm {stroke-width:2;}
  #lines:hover .pl_10:hover .thick {stroke-width:12;}
  #lines:hover .pl_11:hover .pl {opacity:1;}
  #lines:hover .pl_11:hover .pll {stroke-width:3;}
  #lines:hover .pl_11:hover .pldlm {stroke-width:2;}
  #lines:hover .pl_11:hover .thick {stroke-width:12;}
  #lines:hover .pl_12:hover .pl {opacity:1;}
  #lines:hover .pl_12:hover .pll {stroke-width:3;}
  #lines:hover .pl_12:hover .pldlm {stroke-width:2;}
  #lines:hover .pl_12:hover .thick {stroke-width:12;}
  #lines:hover .pl_13:hover .pl {opacity:1;}
  #lines:hover .pl_13:hover .pll {stroke-width:3;}
  #lines:hover .pl_13:hover .pldlm {stroke-width:2;}
  #lines:hover .pl_13:hover .thick {stroke-width:12;}
  #lines:hover .pl_14:hover .pl {opacity:1;}
  #lines:hover .pl_14:hover .pll {stroke-width:3;}
  #lines:hover .pl_14:hover .pldlm {stroke-width:2;}
  #lines:hover .pl_14:hover .thick {stroke-width:12;}
  #lines:hover .pl_15:hover .pl {opacity:1;}
  #lines:hover .pl_15:hover .pll {stroke-width:3;}
  #lines:hover .pl_15:hover .pldlm {stroke-width:2;}
  #lines:hover .pl_15:hover .thick {stroke-width:12;}
</style>
<defs>
  <clipPath id="axis_clip"><rect x="145.8" y="54.2" width="761.2" height="505.8" /></clipPath>
  <path id="line_y" d="M 0,53.993 v 506.187" stroke="#FFF" stroke-opacity="0.15" stroke-width="1.00"/>
  <path id="line_x" d="M 145.600,0 h 761.600" stroke="#FFF" stroke-opacity="0.15" stroke-width="1.00"/>
  <path id="tick_y" d="M 145.600,0 h -6.000" stroke="#808080" stroke-width="0.90"/>
  <path id="tick_x" d="M 0,560.180 v 6.000" stroke="#808080" stroke-width="0.90"/>
  <symbol id="line_1" viewBox="0 0 1200.000 674.916">
<polyline class="pl" points="147.1,55.1 150.2,55.3 153.3,55.1 156.5,56.8 159.6,56.9 162.8,56.8 166.0,55.3 169.2,54.7 172.4,54.8 175.6,54.8 178.8,55.0 182.0,55.6 185.2,56.6 188.3,56.3 191.3,56.2 194.5,56.4 197.7,55.7 200.9,57.1 204.1,57.8 207.3,56.8 210.5,56.2 213.7,59.0 216.9,57.7 220.0,56.3 223.3,61.3 226.4,58.4 229.4,58.6 232.6,58.5 235.8,59.1 239.0,60.3 242.2,61.0 245.4,65.8 248.6,59.3 251.8,59.2 254.9,58.3 258.1,60.5 261.3,59.1 264.5,58.3 267.6,58.0 270.8,57.2 273.9,57.3 277.1,58.1 280.3,58.2 283.5,58.9 286.7,58.3 289.9,59.0 293.0,57.5 296.2,57.8 299.4,57.5 302.5,56.8 305.6,56.8 308.8,57.1 312.0,56.9 315.1,57.5 318.3,56.9 321.6,57.0 324.7,57.4 327.9,57.2 331.1,56.6 334.3,56.5 337.5,56.8 340.6,56.1 343.7,56.6 346.9,55.4 350.0,55.9 353.2,55.6 356.4,55.6 359.6,55.6 362.8,55.7 366.0,55.0 369.2,55.3 372.4,55.6 375.6,55.8 378.7,55.9 381.7,56.4 384.9,55.5 388.1,56.3 391.3,56.1 394.5,56.0 397.7,56.0 400.9,55.3 404.1,55.1 407.3,55.5 410.4,55.7 413.7,56.0 416.8,55.3 419.9,55.7 423.1,55.5 426.3,55.4 429.4,55.1 432.6,55.0 435.8,55.0 439.0,56.0 442.2,55.2 445.3,55.7 448.5,55.0 451.8,55.5 454.8,55.8 457.9,55.2 461.1,55.3 464.3,55.5 467.5,55.5 470.6,55.3 473.9,55.3 477.1,55.9 480.2,55.3 483.4,56.0 486.6,54.7 489.8,54.7 492.9,54.8 496.0,55.2 499.2,55.1 502.4,55.3 505.5,55.5 508.7,55.7 512.0,56.4 515.1,56.0 518.3,58.3 521.5,56.0 524.7,55.8 527.9,55.5 531.0,55.5 534.1,55.6 537.3,55.9 540.4,55.7 543.6,56.6 546.8,55.5 550.0,55.4 553.2,55.4 556.4,55.8 559.6,55.4 562.8,55.9 566.0,55.0 569.1,55.4 572.2,55.0 575.4,55.2 578.6,55.5 581.8,55.6 584.9,55.2 588.1,55.2 591.3,55.7 594.5,57.5 597.7,55.7 600.8,55.4 604.1,55.2 607.2,55.2 610.2,55.0 613.4,54.9 616.6,55.0 619.8,54.8 623.0,55.8 626.2,55.4 629.4,55.2 632.6,56.1 635.7,55.0 638.9,55.5 642.2,56.5 645.2,56.3 648.3,55.6 651.5,56.8 654.7,55.3 657.9,55.6 661.0,55.6 664.3,55.4 667.5,54.5 670.6,54.2 673.8,54.3 677.0,54.5 680.2,54.3 683.3,54.5 686.4,55.0 689.6,56.0 692.8,57.1 695.9,56.6 699.1,56.1 702.4,57.2 705.5,57.3 708.7,57.2 711.9,56.6 715.1,55.1 718.3,58.2 721.4,55.4 724.6,55.8 727.7,55.3 730.9,54.8 734.1,55.4 737.2,55.4 740.5,55.2 743.6,54.6 746.8,55.0 750.0,54.6 753.2,54.5 756.4,54.6 759.5,54.7 762.5,54.8 765.7,54.8 768.9,54.7 772.1,54.7 775.3,54.5 778.5,54.9 781.7,54.5 784.9,54.9 788.1,54.4 791.2,55.3 794.5,54.7 797.6,54.3 800.6,54.4 803.8,54.5 807.0,54.5 810.2,54.5 813.4,54.6 816.6,54.7 819.8,54.2 823.0,54.4 826.1,54.2 829.3,54.4 832.6,54.3 835.6,54.2 838.7,54.5 841.9,54.2 845.1,54.2 848.3,54.1 851.4,54.1 854.7,54.0 857.9,54.0 861.0,54.0 864.2,54.0 867.4,54.1 870.6,54.2 873.7,54.0 876.9,54.0 880.0,54.0 883.2,54.0 886.4,54.0 889.6,54.0 892.8,54.0" stroke="#000" stroke-width="0.90" stroke-opacity="1.00" fill="none" clip-path="url(#axis_clip)"/>
  </symbol>
  <symbol id="line_2" viewBox="0 0 1200.000 674.916">
<polyline class="pl" points="147.1,55.1 150.2,55.4 153.3,55.1 156.5,56.8 159.6,56.9 162.8,56.8 166.0,55.3 169.2,54.7 172.4,54.8 175.6,54.8 178.8,55.1 182.0,55.7 185.2,56.6 188.3,56.3 191.3,56.2 194.5,56.4 197.7,55.7 200.9,57.1 204.1,57.8 207.3,56.9 210.5,56.3 213.7,59.0 216.9,57.7 220.0,56.3 223.3,61.3 226.4,58.5 229.4,58.7 232.6,58.5 235.8,59.1 239.0,60.3 242.2,61.0 245.4,65.8 248.6,59.3 251.8,59.2 254.9,58.4 258.1,60.7 261.3,59.1 264.5,58.4 267.6,58.1 270.8,57.2 273.9,57.3 277.1,58.1 280.3,58.3 283.5,58.9 286.7,58.3 289.9,59.0 293.0,57.5 296.2,58.0 299.4,57.6 302.5,56.9 305.6,56.8 308.8,57.1 312.0,56.9 315.1,57.6 318.3,57.0 321.6,57.1 324.7,57.4 327.9,57.6 331.1,56.8 334.3,56.6 337.5,57.0 340.6,56.3 343.7,56.8 346.9,55.5 350.0,56.0 353.2,56.6 356.4,55.8 359.6,56.1 362.8,55.9 366.0,55.3 369.2,55.6 372.4,56.1 375.6,56.7 378.7,56.6 381.7,57.5 384.9,56.2 388.1,57.0 391.3,56.8 394.5,56.5 397.7,56.5 400.9,56.2 404.1,55.4 407.3,56.5 410.4,56.2 413.7,57.0 416.8,55.8 419.9,57.0 423.1,57.4 426.3,57.0 429.4,56.0 432.6,56.4 435.8,56.3 439.0,58.6 442.2,57.0 445.3,56.8 448.5,56.6 451.8,57.0 454.8,56.6 457.9,56.5 461.1,56.1 464.3,56.7 467.5,58.6 470.6,57.4 473.9,58.1 477.1,58.9 480.2,57.7 483.4,59.6 486.6,59.4 489.8,57.4 492.9,56.7 496.0,59.7 499.2,58.1 502.4,58.6 505.5,58.8 508.7,58.8 512.0,59.7 515.1,59.1 518.3,60.7 521.5,59.4 524.7,60.4 527.9,59.4 531.0,57.7 534.1,61.4 537.3,62.2 540.4,62.6 543.6,64.2 546.8,61.5 550.0,61.0 553.2,62.0 556.4,61.1 559.6,63.5 562.8,62.0 566.0,60.7 569.1,58.9 572.2,62.4 575.4,59.3 578.6,59.3 581.8,61.8 584.9,58.0 588.1,62.0 591.3,65.0 594.5,62.1 597.7,59.1 600.8,63.6 604.1,63.1 607.2,59.9 610.2,64.6 613.4,59.5 616.6,60.0 619.8,62.7 623.0,61.2 626.2,62.8 629.4,66.8 632.6,63.6 635.7,68.8 638.9,64.5 642.2,62.4 645.2,65.7 648.3,67.8 651.5,62.6 654.7,60.5 657.9,65.1 661.0,60.5 664.3,63.2 667.5,68.0 670.6,64.4 673.8,65.2 677.0,68.6 680.2,65.0 683.3,71.3 686.4,88.1 689.6,74.7 692.8,69.6 695.9,77.1 699.1,69.8 702.4,73.0 705.5,90.3 708.7,70.1 711.9,73.1 715.1,96.5 718.3,79.3 721.4,75.8 724.6,100.9 727.7,83.4 730.9,80.3 734.1,83.9 737.2,78.1 740.5,105.4 743.6,122.8 746.8,91.5 750.0,103.7 753.2,135.5 756.4,89.3 759.5,97.8 762.5,100.9 765.7,100.2 768.9,103.5 772.1,125.8 775.3,102.8 778.5,123.5 781.7,157.3 784.9,127.5 788.1,150.5 791.2,171.4 794.5,121.0 797.6,128.0 800.6,153.3 803.8,123.2 807.0,126.2 810.2,160.6 813.4,117.7 816.6,124.7 819.8,154.8 823.0,125.8 826.1,157.6 829.3,195.8 832.6,139.3 835.6,129.5 838.7,149.6 841.9,147.2 845.1,154.8 848.3,157.6 851.4,151.6 854.7,167.2 857.9,173.6 861.0,166.0 864.2,162.8 867.4,190.5 870.6,132.4 873.7,143.0 876.9,155.1 880.0,133.0 883.2,138.7 886.4,146.9 889.6,148.0 892.8,162.2" stroke="#000" stroke-width="0.90" stroke-opacity="1.00" fill="none" clip-path="url(#axis_clip)"/>
  </symbol>
  <symbol id="line_3" viewBox="0 0 1200.000 674.916">
<polyline class="pl" points="147.1,55.1 150.2,55.4 153.3,55.1 156.5,56.8 159.6,56.9 162.8,56.8 166.0,55.3 169.2,54.7 172.4,54.8 175.6,54.8 178.8,55.1 182.0,55.7 185.2,56.6 188.3,56.3 191.3,56.2 194.5,56.4 197.7,55.7 200.9,57.1 204.1,57.8 207.3,56.9 210.5,56.3 213.7,59.0 216.9,57.7 220.0,56.3 223.3,61.3 226.4,58.5 229.4,58.7 232.6,58.5 235.8,59.1 239.0,60.3 242.2,61.0 245.4,65.8 248.6,59.3 251.8,59.2 254.9,58.4 258.1,60.7 261.3,59.1 264.5,58.4 267.6,58.1 270.8,57.2 273.9,57.4 277.1,58.2 280.3,58.3 283.5,59.0 286.7,58.3 289.9,59.2 293.0,57.6 296.2,58.1 299.4,57.6 302.5,57.0 305.6,56.8 308.8,57.1 312.0,57.0 315.1,57.7 318.3,57.1 321.6,57.2 324.7,57.5 327.9,57.7 331.1,56.8 334.3,56.6 337.5,57.1 340.6,56.3 343.7,56.8 346.9,55.5 350.0,56.1 353.2,56.7 356.4,55.9 359.6,56.1 362.8,56.0 366.0,55.4 369.2,55.6 372.4,56.2 375.6,56.8 378.7,56.8 381.7,57.7 384.9,56.4 388.1,57.2 391.3,56.9 394.5,56.7 397.7,56.6 400.9,56.5 404.1,55.6 407.3,56.7 410.4,56.3 413.7,57.2 416.8,56.2 419.9,57.4 423.1,57.7 426.3,57.2 429.4,56.2 432.6,56.7 435.8,56.8 439.0,59.2 442.2,57.4 445.3,57.2 448.5,56.9 451.8,57.6 454.8,57.5 457.9,57.2 461.1,56.6 464.3,57.2 467.5,59.0 470.6,58.1 473.9,58.9 477.1,60.0 480.2,58.4 483.4,61.1 486.6,60.8 489.8,58.7 492.9,57.5 496.0,60.7 499.2,59.5 502.4,59.4 505.5,60.4 508.7,59.7 512.0,61.3 515.1,61.4 518.3,62.2 521.5,61.3 524.7,61.6 527.9,62.4 531.0,61.9 534.1,64.9 537.3,65.7 540.4,65.6 543.6,67.1 546.8,65.6 550.0,63.7 553.2,64.7 556.4,65.1 559.6,66.5 562.8,70.7 566.0,66.7 569.1,63.7 572.2,66.9 575.4,63.2 578.6,63.2 581.8,65.8 584.9,63.9 588.1,66.7 591.3,70.3 594.5,67.3 597.7,64.0 600.8,67.5 604.1,67.9 607.2,63.5 610.2,68.4 613.4,64.0 616.6,64.9 619.8,67.6 623.0,66.5 626.2,70.2 629.4,73.5 632.6,69.4 635.7,75.7 638.9,72.8 642.2,69.4 645.2,71.3 648.3,74.1 651.5,67.7 654.7,66.3 657.9,72.9 661.0,66.6 664.3,71.3 667.5,74.6 670.6,73.3 673.8,72.4 677.0,78.9 680.2,71.3 683.3,76.0 686.4,93.4 689.6,79.6 692.8,74.1 695.9,80.8 699.1,75.1 702.4,79.1 705.5,97.2 708.7,78.7 711.9,83.1 715.1,110.4 718.3,96.8 721.4,95.9 724.6,125.0 727.7,105.7 730.9,103.5 734.1,105.9 737.2,105.2 740.5,134.3 743.6,156.0 746.8,128.1 750.0,144.9 753.2,186.3 756.4,126.3 759.5,133.0 762.5,140.8 765.7,144.2 768.9,149.3 772.1,169.7 775.3,149.7 778.5,178.5 781.7,204.0 784.9,179.1 788.1,202.7 791.2,222.0 794.5,168.0 797.6,172.4 800.6,196.7 803.8,163.4 807.0,169.8 810.2,196.7 813.4,156.7 816.6,160.2 819.8,189.9 823.0,163.1 826.1,196.7 829.3,229.4 832.6,184.4 835.6,173.8 838.7,191.2 841.9,186.2 845.1,193.5 848.3,203.0 851.4,198.7 854.7,211.9 857.9,221.7 861.0,216.6 864.2,212.7 867.4,242.6 870.6,184.1 873.7,190.1 876.9,198.6 880.0,177.2 883.2,181.1 886.4,187.0 889.6,189.7 892.8,201.1" stroke="#000" stroke-width="0.90" stroke-opacity="1.00" fill="none" clip-path="url(#axis_clip)"/>
  </symbol>
  <symbol id="line_4" viewBox="0 0 1200.000 674.916">
<polyline class="pl" points="147.1,55.7 150.2,56.8 153.3,56.3 156.5,57.7 159.6,57.7 162.8,57.2 166.0,56.0 169.2,56.2 172.4,56.3 175.6,56.6 178.8,57.2 182.0,57.3 185.2,58.7 188.3,59.3 191.3,58.1 194.5,57.6 197.7,56.9 200.9,58.0 204.1,61.7 207.3,61.6 210.5,61.2 213.7,62.6 216.9,63.1 220.0,60.9 223.3,65.5 226.4,63.3 229.4,64.7 232.6,63.2 235.8,63.7 239.0,65.6 242.2,68.4 245.4,75.2 248.6,67.3 251.8,64.6 254.9,63.3 258.1,65.1 261.3,64.2 264.5,64.6 267.6,63.4 270.8,63.4 273.9,62.0 277.1,63.5 280.3,64.0 283.5,66.6 286.7,64.2 289.9,63.5 293.0,61.6 296.2,62.8 299.4,62.4 302.5,63.0 305.6,64.0 308.8,63.8 312.0,63.0 315.1,64.9 318.3,63.7 321.6,66.9 324.7,69.0 327.9,65.2 331.1,65.4 334.3,63.4 337.5,65.2 340.6,62.9 343.7,63.0 346.9,61.5 350.0,65.1 353.2,63.0 356.4,63.4 359.6,65.0 362.8,63.1 366.0,62.5 369.2,63.5 372.4,62.8 375.6,63.9 378.7,65.6 381.7,66.6 384.9,66.8 388.1,63.8 391.3,64.4 394.5,61.5 397.7,65.9 400.9,66.3 404.1,64.6 407.3,64.9 410.4,64.8 413.7,62.9 416.8,62.5 419.9,66.4 423.1,67.5 426.3,65.8 429.4,65.2 432.6,68.5 435.8,70.3 439.0,72.8 442.2,70.8 445.3,68.3 448.5,64.9 451.8,69.8 454.8,69.3 457.9,70.9 461.1,67.4 464.3,66.8 467.5,67.2 470.6,68.1 473.9,71.4 477.1,71.0 480.2,68.9 483.4,71.2 486.6,71.4 489.8,68.5 492.9,66.6 496.0,72.8 499.2,69.9 502.4,69.8 505.5,68.1 508.7,68.9 512.0,69.4 515.1,73.1 518.3,74.0 521.5,71.2 524.7,72.4 527.9,71.7 531.0,71.5 534.1,77.9 537.3,77.8 540.4,76.7 543.6,75.8 546.8,73.6 550.0,73.1 553.2,74.7 556.4,75.0 559.6,75.0 562.8,77.8 566.0,76.4 569.1,75.0 572.2,79.0 575.4,74.1 578.6,75.4 581.8,76.3 584.9,75.9 588.1,79.6 591.3,86.7 594.5,81.2 597.7,77.7 600.8,77.9 604.1,79.2 607.2,75.9 610.2,80.9 613.4,77.7 616.6,78.1 619.8,81.3 623.0,78.0 626.2,84.7 629.4,91.8 632.6,84.9 635.7,89.5 638.9,84.1 642.2,83.4 645.2,85.3 648.3,89.1 651.5,87.1 654.7,81.8 657.9,87.6 661.0,84.4 664.3,92.5 667.5,100.9 670.6,98.4 673.8,97.1 677.0,101.1 680.2,96.6 683.3,99.5 686.4,119.3 689.6,107.4 692.8,107.9 695.9,113.3 699.1,113.1 702.4,121.4 705.5,137.0 708.7,121.0 711.9,129.2 715.1,160.5 718.3,151.8 721.4,150.7 724.6,184.1 727.7,162.0 730.9,168.4 734.1,168.0 737.2,164.6 740.5,203.8 743.6,232.1 746.8,217.2 750.0,235.1 753.2,269.2 756.4,235.9 759.5,246.0 762.5,248.4 765.7,258.5 768.9,258.1 772.1,278.7 775.3,264.3 778.5,308.1 781.7,331.0 784.9,305.6 788.1,313.7 791.2,327.0 794.5,294.2 797.6,299.1 800.6,322.1 803.8,301.3 807.0,302.3 810.2,318.9 813.4,279.3 816.6,289.5 819.8,313.2 823.0,308.7 826.1,329.8 829.3,347.5 832.6,326.8 835.6,317.0 838.7,333.5 841.9,330.7 845.1,334.4 848.3,339.7 851.4,332.6 854.7,351.3 857.9,359.2 861.0,360.7 864.2,356.3 867.4,375.3 870.6,340.3 873.7,351.7 876.9,358.8 880.0,338.3 883.2,338.2 886.4,363.9 889.6,364.1 892.8,379.7" stroke="#000" stroke-width="0.90" stroke-opacity="1.00" fill="none" clip-path="url(#axis_clip)"/>
  </symbol>
  <symbol id="line_5" viewBox="0 0 1200.000 674.916">
<polyline class="pl" points="147.1,407.4 150.2,410.4 153.3,412.6 156.5,428.0 159.6,430.2 162.8,425.0 166.0,421.4 169.2,425.8 172.4,413.2 175.6,404.6 178.8,409.2 182.0,397.5 185.2,398.4 188.3,404.3 191.3,416.9 194.5,426.1 197.7,417.4 200.9,419.1 204.1,402.5 207.3,407.3 210.5,404.5 213.7,395.7 216.9,396.6 220.0,399.5 223.3,394.9 226.4,398.6 229.4,407.7 232.6,411.2 235.8,405.5 239.0,399.4 242.2,385.5 245.4,395.9 248.6,397.0 251.8,387.5 254.9,387.6 258.1,372.5 261.3,378.3 264.5,389.3 267.6,396.8 270.8,402.6 273.9,398.4 277.1,403.1 280.3,397.1 283.5,403.5 286.7,402.1 289.9,397.2 293.0,390.5 296.2,389.3 299.4,393.4 302.5,403.3 305.6,411.7 308.8,417.5 312.0,421.2 315.1,414.5 318.3,409.7 321.6,419.0 324.7,413.8 327.9,410.6 331.1,410.3 334.3,397.9 337.5,394.9 340.6,401.5 343.7,416.8 346.9,422.5 350.0,418.9 353.2,417.1 356.4,405.6 359.6,408.4 362.8,403.2 366.0,395.1 369.2,390.1 372.4,387.3 375.6,381.1 378.7,393.8 381.7,401.8 384.9,405.5 388.1,392.1 391.3,396.2 394.5,390.7 397.7,393.7 400.9,397.3 404.1,390.5 407.3,378.2 410.4,375.3 413.7,360.9 416.8,368.3 419.9,384.5 423.1,380.7 426.3,372.3 429.4,380.5 432.6,375.8 435.8,364.4 439.0,362.6 442.2,359.9 445.3,362.9 448.5,365.4 451.8,353.9 454.8,361.5 457.9,379.3 461.1,377.7 464.3,375.3 467.5,377.4 470.6,367.7 473.9,380.2 477.1,372.6 480.2,366.4 483.4,371.7 486.6,369.1 489.8,358.9 492.9,362.3 496.0,379.1 499.2,378.1 502.4,377.2 505.5,375.2 508.7,369.6 512.0,376.2 515.1,378.8 518.3,374.8 521.5,360.5 524.7,366.1 527.9,352.1 531.0,359.2 534.1,372.9 537.3,376.1 540.4,374.2 543.6,368.2 546.8,362.8 550.0,362.6 553.2,361.9 556.4,357.5 559.6,348.5 562.8,345.4 566.0,345.1 569.1,356.2 572.2,371.9 575.4,361.8 578.6,362.2 581.8,356.7 584.9,355.4 588.1,360.0 591.3,367.4 594.5,362.8 597.7,359.9 600.8,367.3 604.1,350.4 607.2,361.3 610.2,379.6 613.4,373.9 616.6,376.9 619.8,368.1 623.0,370.9 626.2,387.3 629.4,388.2 632.6,389.2 635.7,398.1 638.9,378.3 642.2,387.3 645.2,401.4 648.3,410.5 651.5,417.0 654.7,402.8 657.9,409.3 661.0,408.3 664.3,414.6 667.5,414.6 670.6,426.3 673.8,409.0 677.0,398.0 680.2,398.7 683.3,411.7 686.4,435.4 689.6,428.3 692.8,425.7 695.9,425.8 699.1,431.0 702.4,434.1 705.5,449.4 708.7,438.9 711.9,441.0 715.1,446.9 718.3,431.2 721.4,435.7 724.6,445.0 727.7,434.1 730.9,459.9 734.1,452.2 737.2,432.0 740.5,445.6 743.6,461.8 746.8,461.4 750.0,453.1 753.2,470.0 756.4,467.2 759.5,478.0 762.5,482.7 765.7,485.1 768.9,480.5 772.1,493.2 775.3,492.4 778.5,501.2 781.7,510.5 784.9,509.5 788.1,506.6 791.2,497.8 794.5,494.0 797.6,494.9 800.6,508.2 803.8,498.6 807.0,488.9 810.2,501.6 813.4,497.6 816.6,497.1 819.8,502.1 823.0,505.2 826.1,508.2 829.3,512.9 832.6,510.4 835.6,512.2 838.7,512.9 841.9,514.6 845.1,509.4 848.3,510.3 851.4,505.1 854.7,512.1 857.9,517.8 861.0,516.7 864.2,513.3 867.4,517.4 870.6,504.0 873.7,513.4 876.9,516.5 880.0,508.4 883.2,502.0 886.4,509.8 889.6,509.0 892.8,515.3" stroke="#000" stroke-width="0.90" stroke-opacity="1.00" fill="none" clip-path="url(#axis_clip)"/>
  </symbol>
  <symbol id="line_6" viewBox="0 0 1200.000 674.916">
<polyline class="pl" points="147.1,55.1 150.2,55.4 153.3,55.1 156.5,56.8 159.6,56.9 162.8,56.8 166.0,55.3 169.2,54.7 172.4,54.8 175.6,54.8 178.8,55.1 182.0,55.7 185.2,56.6 188.3,56.3 191.3,56.2 194.5,56.4 197.7,55.7 200.9,57.1 204.1,57.8 207.3,56.9 210.5,56.3 213.7,59.0 216.9,57.7 220.0,56.3 223.3,61.3 226.4,58.5 229.4,58.7 232.6,58.5 235.8,59.1 239.0,60.3 242.2,61.0 245.4,65.8 248.6,59.3 251.8,59.2 254.9,58.4 258.1,60.7 261.3,59.1 264.5,58.4 267.6,58.1 270.8,57.2 273.9,57.3 277.1,58.1 280.3,58.3 283.5,58.9 286.7,58.3 289.9,59.0 293.0,57.5 296.2,58.0 299.4,57.6 302.5,56.9 305.6,56.8 308.8,57.1 312.0,56.9 315.1,57.6 318.3,57.0 321.6,57.1 324.7,57.4 327.9,57.6 331.1,56.8 334.3,56.6 337.5,57.0 340.6,56.3 343.7,56.8 346.9,55.5 350.0,56.0 353.2,56.6 356.4,55.8 359.6,56.1 362.8,55.9 366.0,55.3 369.2,55.6 372.4,56.1 375.6,56.7 378.7,56.6 381.7,57.5 384.9,56.2 388.1,57.0 391.3,56.8 394.5,56.5 397.7,56.5 400.9,56.2 404.1,55.4 407.3,56.5 410.4,56.2 413.7,57.0 416.8,55.8 419.9,57.0 423.1,57.4 426.3,57.0 429.4,56.0 432.6,56.4 435.8,56.3 439.0,58.6 442.2,57.0 445.3,56.8 448.5,56.6 451.8,57.0 454.8,56.6 457.9,56.5 461.1,56.1 464.3,56.7 467.5,58.6 470.6,57.4 473.9,58.1 477.1,58.9 480.2,57.7 483.4,59.6 486.6,59.4 489.8,57.4 492.9,56.7 496.0,59.7 499.2,58.1 502.4,58.6 505.5,58.8 508.7,58.8 512.0,59.7 515.1,59.1 518.3,60.7 521.5,59.4 524.7,60.4 527.9,59.4 531.0,57.7 534.1,61.4 537.3,62.2 540.4,62.6 543.6,64.2 546.8,61.5 550.0,61.0 553.2,62.0 556.4,61.1 559.6,63.5 562.8,62.0 566.0,60.7 569.1,58.9 572.2,62.4 575.4,59.3 578.6,59.3 581.8,61.8 584.9,58.0 588.1,62.0 591.3,65.0 594.5,62.1 597.7,59.1 600.8,63.6 604.1,63.1 607.2,59.9 610.2,64.6 613.4,59.5 616.6,60.0 619.8,62.7 623.0,61.2 626.2,62.8 629.4,66.8 632.6,63.6 635.7,68.8 638.9,64.5 642.2,62.4 645.2,65.7 648.3,67.8 651.5,62.6 654.7,60.5 657.9,65.1 661.0,60.5 664.3,63.2 667.5,68.0 670.6,64.4 673.8,65.2 677.0,68.6 680.2,65.0 683.3,71.3 686.4,88.1 689.6,74.7 692.8,69.6 695.9,77.1 699.1,69.8 702.4,73.0 705.5,90.3 708.7,70.1 711.9,73.1 715.1,96.5 718.3,79.3 721.4,75.8 724.6,100.9 727.7,83.4 730.9,80.3 734.1,83.9 737.2,78.1 740.5,105.4 743.6,122.8 746.8,91.5 750.0,103.7 753.2,135.5 756.4,89.3 759.5,97.8 762.5,100.9 765.7,100.2 768.9,103.5 772.1,125.8 775.3,102.8 778.5,123.5 781.7,157.3 784.9,127.5 788.1,150.5 791.2,171.4 794.5,121.0 797.6,128.0 800.6,153.3 803.8,123.2 807.0,126.2 810.2,160.6 813.4,117.7 816.6,124.7 819.8,154.8 823.0,125.8 826.1,157.6 829.3,195.8 832.6,139.3 835.6,129.5 838.7,149.6 841.9,147.2 845.1,154.8 848.3,157.6 851.4,151.6 854.7,167.2 857.9,173.6 861.0,166.0 864.2,162.8 867.4,190.5 870.6,132.4 873.7,143.0 876.9,155.1 880.0,133.0 883.2,138.7 886.4,146.9 889.6,148.0 892.8,162.2" stroke="#000" stroke-width="0.90" stroke-opacity="1.00" fill="none" clip-path="url(#axis_clip)"/>
  </symbol>
  <symbol id="line_7" viewBox="0 0 1200.000 674.916">
<polyline class="pl" points="147.1,55.1 150.2,55.4 153.3,55.1 156.5,56.8 159.6,56.9 162.8,56.8 166.0,55.3 169.2,54.7 172.4,54.8 175.6,54.8 178.8,55.1 182.0,55.7 185.2,56.6 188.3,56.3 191.3,56.2 194.5,56.4 197.7,55.7 200.9,57.1 204.1,57.8 207.3,56.9 210.5,56.3 213.7,59.0 216.9,57.7 220.0,56.3 223.3,61.3 226.4,58.5 229.4,58.7 232.6,58.5 235.8,59.1 239.0,60.3 242.2,61.0 245.4,65.8 248.6,59.3 251.8,59.2 254.9,58.4 258.1,60.7 261.3,59.1 264.5,58.4 267.6,58.1 270.8,57.2 273.9,57.4 277.1,58.2 280.3,58.3 283.5,59.0 286.7,58.3 289.9,59.2 293.0,57.6 296.2,58.1 299.4,57.6 302.5,57.0 305.6,56.8 308.8,57.1 312.0,57.0 315.1,57.7 318.3,57.1 321.6,57.2 324.7,57.5 327.9,57.7 331.1,56.8 334.3,56.6 337.5,57.1 340.6,56.3 343.7,56.8 346.9,55.5 350.0,56.1 353.2,56.7 356.4,55.9 359.6,56.1 362.8,56.0 366.0,55.4 369.2,55.6 372.4,56.2 375.6,56.8 378.7,56.8 381.7,57.7 384.9,56.4 388.1,57.2 391.3,56.9 394.5,56.7 397.7,56.6 400.9,56.5 404.1,55.6 407.3,56.7 410.4,56.3 413.7,57.2 416.8,56.2 419.9,57.4 423.1,57.7 426.3,57.2 429.4,56.2 432.6,56.7 435.8,56.8 439.0,59.2 442.2,57.4 445.3,57.2 448.5,56.9 451.8,57.6 454.8,57.5 457.9,57.2 461.1,56.6 464.3,57.2 467.5,59.0 470.6,58.1 473.9,58.9 477.1,60.0 480.2,58.4 483.4,61.1 486.6,60.8 489.8,58.7 492.9,57.5 496.0,60.7 499.2,59.5 502.4,59.4 505.5,60.4 508.7,59.7 512.0,61.3 515.1,61.4 518.3,62.2 521.5,61.3 524.7,61.6 527.9,62.4 531.0,61.9 534.1,64.9 537.3,65.7 540.4,65.6 543.6,67.1 546.8,65.6 550.0,63.7 553.2,64.7 556.4,65.1 559.6,66.5 562.8,70.7 566.0,66.7 569.1,63.7 572.2,66.9 575.4,63.2 578.6,63.2 581.8,65.8 584.9,63.9 588.1,66.7 591.3,70.3 594.5,67.3 597.7,64.0 600.8,67.5 604.1,67.9 607.2,63.5 610.2,68.4 613.4,64.0 616.6,64.9 619.8,67.6 623.0,66.5 626.2,70.2 629.4,73.5 632.6,69.4 635.7,75.7 638.9,72.8 642.2,69.4 645.2,71.3 648.3,74.1 651.5,67.7 654.7,66.3 657.9,72.9 661.0,66.6 664.3,71.3 667.5,74.6 670.6,73.3 673.8,72.4 677.0,78.9 680.2,71.3 683.3,76.0 686.4,93.4 689.6,79.6 692.8,74.1 695.9,80.8 699.1,75.1 702.4,79.1 705.5,97.2 708.7,78.7 711.9,83.1 715.1,110.4 718.3,96.8 721.4,95.9 724.6,125.0 727.7,105.7 730.9,103.5 734.1,105.9 737.2,105.2 740.5,134.3 743.6,156.0 746.8,128.1 750.0,144.9 753.2,186.3 756.4,126.3 759.5,133.0 762.5,140.8 765.7,144.2 768.9,149.3 772.1,169.7 775.3,149.7 778.5,178.5 781.7,204.0 784.9,179.1 788.1,202.7 791.2,222.0 794.5,168.0 797.6,172.4 800.6,196.7 803.8,163.4 807.0,169.8 810.2,196.7 813.4,156.7 816.6,160.2 819.8,189.9 823.0,163.1 826.1,196.7 829.3,229.4 832.6,184.4 835.6,173.8 838.7,191.2 841.9,186.2 845.1,193.5 848.3,203.0 851.4,198.7 854.7,211.9 857.9,221.7 861.0,216.6 864.2,212.7 867.4,242.6 870.6,184.1 873.7,190.1 876.9,198.6 880.0,177.2 883.2,181.1 886.4,187.0 889.6,189.7 892.8,201.1" stroke="#000" stroke-width="0.90" stroke-opacity="1.00" fill="none" clip-path="url(#axis_clip)"/>
  </symbol>
  <symbol id="line_8" viewBox="0 0 1200.000 674.916">
<polyline class="pl" points="147.1,55.7 150.2,56.8 153.3,56.3 156.5,57.7 159.6,57.7 162.8,57.2 166.0,56.0 169.2,56.2 172.4,56.3 175.6,56.6 178.8,57.2 182.0,57.3 185.2,58.7 188.3,59.3 191.3,58.1 194.5,57.6 197.7,56.9 200.9,58.0 204.1,61.7 207.3,61.6 210.5,61.2 213.7,62.6 216.9,63.1 220.0,60.9 223.3,65.5 226.4,63.3 229.4,64.7 232.6,63.2 235.8,63.7 239.0,65.6 242.2,68.4 245.4,75.2 248.6,67.3 251.8,64.6 254.9,63.3 258.1,65.1 261.3,64.2 264.5,64.6 267.6,63.4 270.8,63.4 273.9,62.0 277.1,63.5 280.3,64.0 283.5,66.6 286.7,64.2 289.9,63.5 293.0,61.6 296.2,62.8 299.4,62.4 302.5,63.0 305.6,64.0 308.8,63.8 312.0,63.0 315.1,64.9 318.3,63.7 321.6,66.9 324.7,69.0 327.9,65.2 331.1,65.4 334.3,63.4 337.5,65.2 340.6,62.9 343.7,63.0 346.9,61.5 350.0,65.1 353.2,63.0 356.4,63.4 359.6,65.0 362.8,63.1 366.0,62.5 369.2,63.5 372.4,62.8 375.6,63.9 378.7,65.6 381.7,66.6 384.9,66.8 388.1,63.8 391.3,64.4 394.5,61.5 397.7,65.9 400.9,66.3 404.1,64.6 407.3,64.9 410.4,64.8 413.7,62.9 416.8,62.5 419.9,66.4 423.1,67.5 426.3,65.8 429.4,65.2 432.6,68.5 435.8,70.3 439.0,72.8 442.2,70.8 445.3,68.3 448.5,64.9 451.8,69.8 454.8,69.3 457.9,70.9 461.1,67.4 464.3,66.8 467.5,67.2 470.6,68.1 473.9,71.4 477.1,71.0 480.2,68.9 483.4,71.2 486.6,71.4 489.8,68.5 492.9,66.6 496.0,72.8 499.2,69.9 502.4,69.8 505.5,68.1 508.7,68.9 512.0,69.4 515.1,73.1 518.3,74.0 521.5,71.2 524.7,72.4 527.9,71.7 531.0,71.5 534.1,77.9 537.3,77.8 540.4,76.7 543.6,75.8 546.8,73.6 550.0,73.1 553.2,74.7 556.4,75.0 559.6,75.0 562.8,77.8 566.0,76.4 569.1,75.0 572.2,79.0 575.4,74.1 578.6,75.4 581.8,76.3 584.9,75.9 588.1,79.6 591.3,86.7 594.5,81.2 597.7,77.7 600.8,77.9 604.1,79.2 607.2,75.9 610.2,80.9 613.4,77.7 616.6,78.1 619.8,81.3 623.0,78.0 626.2,84.7 629.4,91.8 632.6,84.9 635.7,89.5 638.9,84.1 642.2,83.4 645.2,85.3 648.3,89.1 651.5,87.1 654.7,81.8 657.9,87.6 661.0,84.4 664.3,92.5 667.5,100.9 670.6,98.4 673.8,97.1 677.0,101.1 680.2,96.6 683.3,99.5 686.4,119.3 689.6,107.4 692.8,107.9 695.9,113.3 699.1,113.1 702.4,121.4 705.5,137.0 708.7,121.0 711.9,129.2 715.1,160.5 718.3,151.8 721.4,150.7 724.6,184.1 727.7,162.0 730.9,168.4 734.1,168.0 737.2,164.6 740.5,203.8 743.6,232.1 746.8,217.2 750.0,235.1 753.2,269.2 756.4,235.9 759.5,246.0 762.5,248.4 765.7,258.5 768.9,258.1 772.1,278.7 775.3,264.3 778.5,308.1 781.7,331.0 784.9,305.6 788.1,313.7 791.2,327.0 794.5,294.2 797.6,299.1 800.6,322.1 803.8,301.3 807.0,302.3 810.2,318.9 813.4,279.3 816.6,289.5 819.8,313.2 823.0,308.7 826.1,329.8 829.3,347.5 832.6,326.8 835.6,317.0 838.7,333.5 841.9,330.7 845.1,334.4 848.3,339.7 851.4,332.6 854.7,351.3 857.9,359.2 861.0,360.7 864.2,356.3 867.4,375.3 870.6,340.3 873.7,351.7 876.9,358.8 880.0,338.3 883.2,338.2 886.4,363.9 889.6,364.1 892.8,379.7" stroke="#000" stroke-width="0.90" stroke-opacity="1.00" fill="none" clip-path="url(#axis_clip)"/>
  </symbol>
  <symbol id="line_9" viewBox="0 0 1200.000 674.916">
<polyline class="pl" points="147.1,407.4 150.2,410.4 153.3,412.6 156.5,428.0 159.6,430.2 162.8,425.0 166.0,421.4 169.2,425.8 172.4,413.2 175.6,404.6 178.8,409.2 182.0,397.5 185.2,398.4 188.3,404.3 191.3,416.9 194.5,426.1 197.7,417.4 200.9,419.1 204.1,402.5 207.3,407.3 210.5,404.5 213.7,395.7 216.9,396.6 220.0,399.5 223.3,394.9 226.4,398.6 229.4,407.7 232.6,411.2 235.8,405.5 239.0,399.4 242.2,385.5 245.4,395.9 248.6,397.0 251.8,387.5 254.9,387.6 258.1,372.5 261.3,378.3 264.5,389.3 267.6,396.8 270.8,402.6 273.9,398.4 277.1,403.1 280.3,397.1 283.5,403.5 286.7,402.1 289.9,397.2 293.0,390.5 296.2,389.3 299.4,393.4 302.5,403.3 305.6,411.7 308.8,417.5 312.0,421.2 315.1,414.5 318.3,409.7 321.6,419.0 324.7,413.8 327.9,410.6 331.1,410.3 334.3,397.9 337.5,394.9 340.6,401.5 343.7,416.8 346.9,422.5 350.0,418.9 353.2,417.1 356.4,405.6 359.6,408.4 362.8,403.2 366.0,395.1 369.2,390.1 372.4,387.3 375.6,381.1 378.7,393.8 381.7,401.8 384.9,405.5 388.1,392.1 391.3,396.2 394.5,390.7 397.7,393.7 400.9,397.3 404.1,390.5 407.3,378.2 410.4,375.3 413.7,360.9 416.8,368.3 419.9,384.5 423.1,380.7 426.3,372.3 429.4,380.5 432.6,375.8 435.8,364.4 439.0,362.6 442.2,359.9 445.3,362.9 448.5,365.4 451.8,353.9 454.8,361.5 457.9,379.3 461.1,377.7 464.3,375.3 467.5,377.4 470.6,367.7 473.9,380.2 477.1,372.6 480.2,366.4 483.4,371.7 486.6,369.1 489.8,358.9 492.9,362.3 496.0,379.1 499.2,378.1 502.4,377.2 505.5,375.2 508.7,369.6 512.0,376.2 515.1,378.8 518.3,374.8 521.5,360.5 524.7,366.1 527.9,352.1 531.0,359.2 534.1,372.9 537.3,376.1 540.4,374.2 543.6,368.2 546.8,362.8 550.0,362.6 553.2,361.9 556.4,357.5 559.6,348.5 562.8,345.4 566.0,345.1 569.1,356.2 572.2,371.9 575.4,361.8 578.6,362.2 581.8,356.7 584.9,355.4 588.1,360.0 591.3,367.4 594.5,362.8 597.7,359.9 600.8,367.3 604.1,350.4 607.2,361.3 610.2,379.6 613.4,373.9 616.6,376.9 619.8,368.1 623.0,370.9 626.2,387.3 629.4,388.2 632.6,389.2 635.7,398.1 638.9,378.3 642.2,387.3 645.2,401.4 648.3,410.5 651.5,417.0 654.7,402.8 657.9,409.3 661.0,408.3 664.3,414.6 667.5,414.6 670.6,426.3 673.8,409.0 677.0,398.0 680.2,398.7 683.3,411.7 686.4,435.4 689.6,428.3 692.8,425.7 695.9,425.8 699.1,431.0 702.4,434.1 705.5,449.4 708.7,438.9 711.9,441.0 715.1,446.9 718.3,431.2 721.4,435.7 724.6,445.0 727.7,434.1 730.9,459.9 734.1,452.2 737.2,432.0 740.5,445.6 743.6,461.8 746.8,461.4 750.0,453.1 753.2,470.0 756.4,467.2 759.5,478.0 762.5,482.7 765.7,485.1 768.9,480.5 772.1,493.2 775.3,492.4 778.5,501.2 781.7,510.5 784.9,509.5 788.1,506.6 791.2,497.8 794.5,494.0 797.6,494.9 800.6,508.2 803.8,498.6 807.0,488.9 810.2,501.6 813.4,497.6 816.6,497.1 819.8,502.1 823.0,505.2 826.1,508.2 829.3,512.9 832.6,510.4 835.6,512.2 838.7,512.9 841.9,514.6 845.1,509.4 848.3,510.3 851.4,505.1 854.7,512.1 857.9,517.8 861.0,516.7 864.2,513.3 867.4,517.4 870.6,504.0 873.7,513.4 876.9,516.5 880.0,508.4 883.2,502.0 886.4,509.8 889.6,509.0 892.8,515.3" stroke="#000" stroke-width="0.90" stroke-opacity="1.00" fill="none" clip-path="url(#axis_clip)"/>
  </symbol>
  <symbol id="line_10" viewBox="0 0 1200.000 674.916">
<polyline class="pl" points="147.1,55.1 150.2,55.4 153.3,55.1 156.5,56.8 159.6,56.9 162.8,56.8 166.0,55.3 169.2,54.7 172.4,54.8 175.6,54.8 178.8,55.1 182.0,55.7 185.2,56.6 188.3,56.3 191.3,56.2 194.5,56.4 197.7,55.7 200.9,57.1 204.1,57.8 207.3,56.9 210.5,56.3 213.7,59.0 216.9,57.7 220.0,56.3 223.3,61.3 226.4,58.5 229.4,58.7 232.6,58.5 235.8,59.1 239.0,60.3 242.2,61.0 245.4,65.8 248.6,59.3 251.8,59.2 254.9,58.4 258.1,60.7 261.3,59.1 264.5,58.4 267.6,58.1 270.8,57.2 273.9,57.4 277.1,58.2 280.3,58.3 283.5,59.0 286.7,58.3 289.9,59.2 293.0,57.6 296.2,58.1 299.4,57.6 302.5,57.0 305.6,56.8 308.8,57.1 312.0,57.0 315.1,57.7 318.3,57.1 321.6,57.2 324.7,57.5 327.9,57.7 331.1,56.8 334.3,56.6 337.5,57.1 340.6,56.3 343.7,56.8 346.9,55.5 350.0,56.1 353.2,56.7 356.4,55.9 359.6,56.1 362.8,56.0 366.0,55.4 369.2,55.6 372.4,56.2 375.6,56.8 378.7,56.8 381.7,57.7 384.9,56.4 388.1,57.2 391.3,56.9 394.5,56.7 397.7,56.6 400.9,56.5 404.1,55.6 407.3,56.7 410.4,56.3 413.7,57.2 416.8,56.2 419.9,57.4 423.1,57.7 426.3,57.2 429.4,56.2 432.6,56.7 435.8,56.8 439.0,59.2 442.2,57.4 445.3,57.2 448.5,56.9 451.8,57.6 454.8,57.5 457.9,57.2 461.1,56.6 464.3,57.2 467.5,59.0 470.6,58.1 473.9,58.9 477.1,60.0 480.2,58.4 483.4,61.1 486.6,60.8 489.8,58.7 492.9,57.5 496.0,60.7 499.2,59.5 502.4,59.4 505.5,60.4 508.7,59.7 512.0,61.3 515.1,61.4 518.3,62.2 521.5,61.3 524.7,61.6 527.9,62.4 531.0,61.9 534.1,64.9 537.3,65.7 540.4,65.6 543.6,67.1 546.8,65.6 550.0,63.7 553.2,64.7 556.4,65.1 559.6,66.5 562.8,70.7 566.0,66.7 569.1,63.7 572.2,66.9 575.4,63.2 578.6,63.2 581.8,65.8 584.9,63.9 588.1,66.7 591.3,70.3 594.5,67.3 597.7,64.0 600.8,67.5 604.1,67.9 607.2,63.5 610.2,68.4 613.4,64.0 616.6,64.9 619.8,67.6 623.0,66.5 626.2,70.2 629.4,73.5 632.6,69.4 635.7,75.7 638.9,72.8 642.2,69.4 645.2,71.3 648.3,74.1 651.5,67.7 654.7,66.3 657.9,72.9 661.0,66.6 664.3,71.3 667.5,74.6 670.6,73.3 673.8,72.4 677.0,78.9 680.2,71.3 683.3,76.0 686.4,93.4 689.6,79.6 692.8,74.1 695.9,80.8 699.1,75.1 702.4,79.1 705.5,97.2 708.7,78.7 711.9,83.1 715.1,110.4 718.3,96.8 721.4,95.9 724.6,125.0 727.7,105.7 730.9,103.5 734.1,105.9 737.2,105.2 740.5,134.3 743.6,156.0 746.8,128.1 750.0,144.9 753.2,186.3 756.4,126.3 759.5,133.0 762.5,140.8 765.7,144.2 768.9,149.3 772.1,169.7 775.3,149.7 778.5,178.5 781.7,204.0 784.9,179.1 788.1,202.7 791.2,222.0 794.5,168.0 797.6,172.4 800.6,196.7 803.8,163.4 807.0,169.8 810.2,196.7 813.4,156.7 816.6,160.2 819.8,189.9 823.0,163.1 826.1,196.7 829.3,229.4 832.6,184.4 835.6,173.8 838.7,191.2 841.9,186.2 845.1,193.5 848.3,203.0 851.4,198.7 854.7,211.9 857.9,221.7 861.0,216.6 864.2,212.7 867.4,242.6 870.6,184.1 873.7,190.1 876.9,198.6 880.0,177.2 883.2,181.1 886.4,187.0 889.6,189.7 892.8,201.1" stroke="#000" stroke-width="0.90" stroke-opacity="1.00" fill="none" clip-path="url(#axis_clip)"/>
  </symbol>
  <symbol id="line_11" viewBox="0 0 1200.000 674.916">
<polyline class="pl" points="147.1,55.7 150.2,56.8 153.3,56.3 156.5,57.7 159.6,57.7 162.8,57.2 166.0,56.0 169.2,56.2 172.4,56.3 175.6,56.6 178.8,57.2 182.0,57.3 185.2,58.7 188.3,59.3 191.3,58.1 194.5,57.6 197.7,56.9 200.9,58.0 204.1,61.7 207.3,61.6 210.5,61.2 213.7,62.6 216.9,63.1 220.0,60.9 223.3,65.5 226.4,63.3 229.4,64.7 232.6,63.2 235.8,63.7 239.0,65.6 242.2,68.4 245.4,75.2 248.6,67.3 251.8,64.6 254.9,63.3 258.1,65.1 261.3,64.2 264.5,64.6 267.6,63.4 270.8,63.4 273.9,62.0 277.1,63.5 280.3,64.0 283.5,66.6 286.7,64.2 289.9,63.5 293.0,61.6 296.2,62.8 299.4,62.4 302.5,63.0 305.6,64.0 308.8,63.8 312.0,63.0 315.1,64.9 318.3,63.7 321.6,66.9 324.7,69.0 327.9,65.2 331.1,65.4 334.3,63.4 337.5,65.2 340.6,62.9 343.7,63.0 346.9,61.5 350.0,65.1 353.2,63.0 356.4,63.4 359.6,65.0 362.8,63.1 366.0,62.5 369.2,63.5 372.4,62.8 375.6,63.9 378.7,65.6 381.7,66.6 384.9,66.8 388.1,63.8 391.3,64.4 394.5,61.5 397.7,65.9 400.9,66.3 404.1,64.6 407.3,64.9 410.4,64.8 413.7,62.9 416.8,62.5 419.9,66.4 423.1,67.5 426.3,65.8 429.4,65.2 432.6,68.5 435.8,70.3 439.0,72.8 442.2,70.8 445.3,68.3 448.5,64.9 451.8,69.8 454.8,69.3 457.9,70.9 461.1,67.4 464.3,66.8 467.5,67.2 470.6,68.1 473.9,71.4 477.1,71.0 480.2,68.9 483.4,71.2 486.6,71.4 489.8,68.5 492.9,66.6 496.0,72.8 499.2,69.9 502.4,69.8 505.5,68.1 508.7,68.9 512.0,69.4 515.1,73.1 518.3,74.0 521.5,71.2 524.7,72.4 527.9,71.7 531.0,71.5 534.1,77.9 537.3,77.8 540.4,76.7 543.6,75.8 546.8,73.6 550.0,73.1 553.2,74.7 556.4,75.0 559.6,75.0 562.8,77.8 566.0,76.4 569.1,75.0 572.2,79.0 575.4,74.1 578.6,75.4 581.8,76.3 584.9,75.9 588.1,79.6 591.3,86.7 594.5,81.2 597.7,77.7 600.8,77.9 604.1,79.2 607.2,75.9 610.2,80.9 613.4,77.7 616.6,78.1 619.8,81.3 623.0,78.0 626.2,84.7 629.4,91.8 632.6,84.9 635.7,89.5 638.9,84.1 642.2,83.4 645.2,85.3 648.3,89.1 651.5,87.1 654.7,81.8 657.9,87.6 661.0,84.4 664.3,92.5 667.5,100.9 670.6,98.4 673.8,97.1 677.0,101.1 680.2,96.6 683.3,99.5 686.4,119.3 689.6,107.4 692.8,107.9 695.9,113.3 699.1,113.1 702.4,121.4 705.5,137.0 708.7,121.0 711.9,129.2 715.1,160.5 718.3,151.8 721.4,150.7 724.6,184.1 727.7,162.0 730.9,168.4 734.1,168.0 737.2,164.6 740.5,203.8 743.6,232.1 746.8,217.2 750.0,235.1 753.2,269.2 756.4,235.9 759.5,246.0 762.5,248.4 765.7,258.5 768.9,258.1 772.1,278.7 775.3,264.3 778.5,308.1 781.7,331.0 784.9,305.6 788.1,313.7 791.2,327.0 794.5,294.2 797.6,299.1 800.6,322.1 803.8,301.3 807.0,302.3 810.2,318.9 813.4,279.3 816.6,289.5 819.8,313.2 823.0,308.7 826.1,329.8 829.3,347.5 832.6,326.8 835.6,317.0 838.7,333.5 841.9,330.7 845.1,334.4 848.3,339.7 851.4,332.6 854.7,351.3 857.9,359.2 861.0,360.7 864.2,356.3 867.4,375.3 870.6,340.3 873.7,351.7 876.9,358.8 880.0,338.3 883.2,338.2 886.4,363.9 889.6,364.1 892.8,379.7" stroke="#000" stroke-width="0.90" stroke-opacity="1.00" fill="none" clip-path="url(#axis_clip)"/>
  </symbol>
  <symbol id="line_12" viewBox="0 0 1200.000 674.916">
<polyline class="pl" points="147.1,407.4 150.2,410.4 153.3,412.6 156.5,428.0 159.6,430.2 162.8,425.0 166.0,421.4 169.2,425.8 172.4,413.2 175.6,404.6 178.8,409.2 182.0,397.5 185.2,398.4 188.3,404.3 191.3,416.9 194.5,426.1 197.7,417.4 200.9,419.1 204.1,402.5 207.3,407.3 210.5,404.5 213.7,395.7 216.9,396.6 220.0,399.5 223.3,394.9 226.4,398.6 229.4,407.7 232.6,411.2 235.8,405.5 239.0,399.4 242.2,385.5 245.4,395.9 248.6,397.0 251.8,387.5 254.9,387.6 258.1,372.5 261.3,378.3 264.5,389.3 267.6,396.8 270.8,402.6 273.9,398.4 277.1,403.1 280.3,397.1 283.5,403.5 286.7,402.1 289.9,397.2 293.0,390.5 296.2,389.3 299.4,393.4 302.5,403.3 305.6,411.7 308.8,417.5 312.0,421.2 315.1,414.5 318.3,409.7 321.6,419.0 324.7,413.8 327.9,410.6 331.1,410.3 334.3,397.9 337.5,394.9 340.6,401.5 343.7,416.8 346.9,422.5 350.0,418.9 353.2,417.1 356.4,405.6 359.6,408.4 362.8,403.2 366.0,395.1 369.2,390.1 372.4,387.3 375.6,381.1 378.7,393.8 381.7,401.8 384.9,405.5 388.1,392.1 391.3,396.2 394.5,390.7 397.7,393.7 400.9,397.3 404.1,390.5 407.3,378.2 410.4,375.3 413.7,360.9 416.8,368.3 419.9,384.5 423.1,380.7 426.3,372.3 429.4,380.5 432.6,375.8 435.8,364.4 439.0,362.6 442.2,359.9 445.3,362.9 448.5,365.4 451.8,353.9 454.8,361.5 457.9,379.3 461.1,377.7 464.3,375.3 467.5,377.4 470.6,367.7 473.9,380.2 477.1,372.6 480.2,366.4 483.4,371.7 486.6,369.1 489.8,358.9 492.9,362.3 496.0,379.1 499.2,378.1 502.4,377.2 505.5,375.2 508.7,369.6 512.0,376.2 515.1,378.8 518.3,374.8 521.5,360.5 524.7,366.1 527.9,352.1 531.0,359.2 534.1,372.9 537.3,376.1 540.4,374.2 543.6,368.2 546.8,362.8 550.0,362.6 553.2,361.9 556.4,357.5 559.6,348.5 562.8,345.4 566.0,345.1 569.1,356.2 572.2,371.9 575.4,361.8 578.6,362.2 581.8,356.7 584.9,355.4 588.1,360.0 591.3,367.4 594.5,362.8 597.7,359.9 600.8,367.3 604.1,350.4 607.2,361.3 610.2,379.6 613.4,373.9 616.6,376.9 619.8,368.1 623.0,370.9 626.2,387.3 629.4,388.2 632.6,389.2 635.7,398.1 638.9,378.3 642.2,387.3 645.2,401.4 648.3,410.5 651.5,417.0 654.7,402.8 657.9,409.3 661.0,408.3 664.3,414.6 667.5,414.6 670.6,426.3 673.8,409.0 677.0,398.0 680.2,398.7 683.3,411.7 686.4,435.4 689.6,428.3 692.8,425.7 695.9,425.8 699.1,431.0 702.4,434.1 705.5,449.4 708.7,438.9 711.9,441.0 715.1,446.9 718.3,431.2 721.4,435.7 724.6,445.0 727.7,434.1 730.9,459.9 734.1,452.2 737.2,432.0 740.5,445.6 743.6,461.8 746.8,461.4 750.0,453.1 753.2,470.0 756.4,467.2 759.5,478.0 762.5,482.7 765.7,485.1 768.9,480.5 772.1,493.2 775.3,492.4 778.5,501.2 781.7,510.5 784.9,509.5 788.1,506.6 791.2,497.8 794.5,494.0 797.6,494.9 800.6,508.2 803.8,498.6 807.0,488.9 810.2,501.6 813.4,497.6 816.6,497.1 819.8,502.1 823.0,505.2 826.1,508.2 829.3,512.9 832.6,510.4 835.6,512.2 838.7,512.9 841.9,514.6 845.1,509.4 848.3,510.3 851.4,505.1 854.7,512.1 857.9,517.8 861.0,516.7 864.2,513.3 867.4,517.4 870.6,504.0 873.7,513.4 876.9,516.5 880.0,508.4 883.2,502.0 886.4,509.8 889.6,509.0 892.8,515.3" stroke="#000" stroke-width="0.90" stroke-opacity="1.00" fill="none" clip-path="url(#axis_clip)"/>
  </symbol>
  <symbol id="line_13" viewBox="0 0 1200.000 674.916">
<polyline class="pl" points="147.1,55.7 150.2,56.8 153.3,56.3 156.5,57.7 159.6,57.7 162.8,57.2 166.0,56.0 169.2,56.2 172.4,56.3 175.6,56.6 178.8,57.2 182.0,57.3 185.2,58.7 188.3,59.3 191.3,58.1 194.5,57.6 197.7,56.9 200.9,58.0 204.1,61.7 207.3,61.6 210.5,61.2 213.7,62.6 216.9,63.1 220.0,60.9 223.3,65.5 226.4,63.3 229.4,64.7 232.6,63.2 235.8,63.7 239.0,65.6 242.2,68.4 245.4,75.2 248.6,67.3 251.8,64.6 254.9,63.3 258.1,65.1 261.3,64.2 264.5,64.6 267.6,63.4 270.8,63.4 273.9,62.0 277.1,63.5 280.3,64.0 283.5,66.6 286.7,64.2 289.9,63.5 293.0,61.6 296.2,62.8 299.4,62.4 302.5,63.0 305.6,64.0 308.8,63.8 312.0,63.0 315.1,64.9 318.3,63.7 321.6,66.9 324.7,69.0 327.9,65.2 331.1,65.4 334.3,63.4 337.5,65.2 340.6,62.9 343.7,63.0 346.9,61.5 350.0,65.1 353.2,63.0 356.4,63.4 359.6,65.0 362.8,63.1 366.0,62.5 369.2,63.5 372.4,62.8 375.6,63.9 378.7,65.6 381.7,66.6 384.9,66.8 388.1,63.8 391.3,64.4 394.5,61.5 397.7,65.9 400.9,66.3 404.1,64.6 407.3,64.9 410.4,64.8 413.7,62.9 416.8,62.5 419.9,66.4 423.1,67.5 426.3,65.8 429.4,65.2 432.6,68.5 435.8,70.3 439.0,72.8 442.2,70.8 445.3,68.3 448.5,64.9 451.8,69.8 454.8,69.3 457.9,70.9 461.1,67.4 464.3,66.8 467.5,67.2 470.6,68.1 473.9,71.4 477.1,71.0 480.2,68.9 483.4,71.2 486.6,71.4 489.8,68.5 492.9,66.6 496.0,72.8 499.2,69.9 502.4,69.8 505.5,68.1 508.7,68.9 512.0,69.4 515.1,73.1 518.3,74.0 521.5,71.2 524.7,72.4 527.9,71.7 531.0,71.5 534.1,77.9 537.3,77.8 540.4,76.7 543.6,75.8 546.8,73.6 550.0,73.1 553.2,74.7 556.4,75.0 559.6,75.0 562.8,77.8 566.0,76.4 569.1,75.0 572.2,79.0 575.4,74.1 578.6,75.4 581.8,76.3 584.9,75.9 588.1,79.6 591.3,86.7 594.5,81.2 597.7,77.7 600.8,77.9 604.1,79.2 607.2,75.9 610.2,80.9 613.4,77.7 616.6,78.1 619.8,81.3 623.0,78.0 626.2,84.7 629.4,91.8 632.6,84.9 635.7,89.5 638.9,84.1 642.2,83.4 645.2,85.3 648.3,89.1 651.5,87.1 654.7,81.8 657.9,87.6 661.0,84.4 664.3,92.5 667.5,100.9 670.6,98.4 673.8,97.1 677.0,101.1 680.2,96.6 683.3,99.5 686.4,119.3 689.6,107.4 692.8,107.9 695.9,113.3 699.1,113.1 702.4,121.4 705.5,137.0 708.7,121.0 711.9,129.2 715.1,160.5 718.3,151.8 721.4,150.7 724.6,184.1 727.7,162.0 730.9,168.4 734.1,168.0 737.2,164.6 740.5,203.8 743.6,232.1 746.8,217.2 750.0,235.1 753.2,269.2 756.4,235.9 759.5,246.0 762.5,248.4 765.7,258.5 768.9,258.1 772.1,278.7 775.3,264.3 778.5,308.1 781.7,331.0 784.9,305.6 788.1,313.7 791.2,327.0 794.5,294.2 797.6,299.1 800.6,322.1 803.8,301.3 807.0,302.3 810.2,318.9 813.4,279.3 816.6,289.5 819.8,313.2 823.0,308.7 826.1,329.8 829.3,347.5 832.6,326.8 835.6,317.0 838.7,333.5 841.9,330.7 845.1,334.4 848.3,339.7 851.4,332.6 854.7,351.3 857.9,359.2 861.0,360.7 864.2,356.3 867.4,375.3 870.6,340.3 873.7,351.7 876.9,358.8 880.0,338.3 883.2,338.2 886.4,363.9 889.6,364.1 892.8,379.7" stroke="#000" stroke-width="0.90" stroke-opacity="1.00" fill="none" clip-path="url(#axis_clip)"/>
  </symbol>
  <symbol id="line_14" viewBox="0 0 1200.000 674.916">
<polyline class="pl" points="147.1,407.4 150.2,410.4 153.3,412.6 156.5,428.0 159.6,430.2 162.8,425.0 166.0,421.4 169.2,425.8 172.4,413.2 175.6,404.6 178.8,409.2 182.0,397.5 185.2,398.4 188.3,404.3 191.3,416.9 194.5,426.1 197.7,417.4 200.9,419.1 204.1,402.5 207.3,407.3 210.5,404.5 213.7,395.7 216.9,396.6 220.0,399.5 223.3,394.9 226.4,398.6 229.4,407.7 232.6,411.2 235.8,405.5 239.0,399.4 242.2,385.5 245.4,395.9 248.6,397.0 251.8,387.5 254.9,387.6 258.1,372.5 261.3,378.3 264.5,389.3 267.6,396.8 270.8,402.6 273.9,398.4 277.1,403.1 280.3,397.1 283.5,403.5 286.7,402.1 289.9,397.2 293.0,390.5 296.2,389.3 299.4,393.4 302.5,403.3 305.6,411.7 308.8,417.5 312.0,421.2 315.1,414.5 318.3,409.7 321.6,419.0 324.7,413.8 327.9,410.6 331.1,410.3 334.3,397.9 337.5,394.9 340.6,401.5 343.7,416.8 346.9,422.5 350.0,418.9 353.2,417.1 356.4,405.6 359.6,408.4 362.8,403.2 366.0,395.1 369.2,390.1 372.4,387.3 375.6,381.1 378.7,393.8 381.7,401.8 384.9,405.5 388.1,392.1 391.3,396.2 394.5,390.7 397.7,393.7 400.9,397.3 404.1,390.5 407.3,378.2 410.4,375.3 413.7,360.9 416.8,368.3 419.9,384.5 423.1,380.7 426.3,372.3 429.4,380.5 432.6,375.8 435.8,364.4 439.0,362.6 442.2,359.9 445.3,362.9 448.5,365.4 451.8,353.9 454.8,361.5 457.9,379.3 461.1,377.7 464.3,375.3 467.5,377.4 470.6,367.7 473.9,380.2 477.1,372.6 480.2,366.4 483.4,371.7 486.6,369.1 489.8,358.9 492.9,362.3 496.0,379.1 499.2,378.1 502.4,377.2 505.5,375.2 508.7,369.6 512.0,376.2 515.1,378.8 518.3,374.8 521.5,360.5 524.7,366.1 527.9,352.1 531.0,359.2 534.1,372.9 537.3,376.1 540.4,374.2 543.6,368.2 546.8,362.8 550.0,362.6 553.2,361.9 556.4,357.5 559.6,348.5 562.8,345.4 566.0,345.1 569.1,356.2 572.2,371.9 575.4,361.8 578.6,362.2 581.8,356.7 584.9,355.4 588.1,360.0 591.3,367.4 594.5,362.8 597.7,359.9 600.8,367.3 604.1,350.4 607.2,361.3 610.2,379.6 613.4,373.9 616.6,376.9 619.8,368.1 623.0,370.9 626.2,387.3 629.4,388.2 632.6,389.2 635.7,398.1 638.9,378.3 642.2,387.3 645.2,401.4 648.3,410.5 651.5,417.0 654.7,402.8 657.9,409.3 661.0,408.3 664.3,414.6 667.5,414.6 670.6,426.3 673.8,409.0 677.0,398.0 680.2,398.7 683.3,411.7 686.4,435.4 689.6,428.3 692.8,425.7 695.9,425.8 699.1,431.0 702.4,434.1 705.5,449.4 708.7,438.9 711.9,441.0 715.1,446.9 718.3,431.2 721.4,435.7 724.6,445.0 727.7,434.1 730.9,459.9 734.1,452.2 737.2,432.0 740.5,445.6 743.6,461.8 746.8,461.4 750.0,453.1 753.2,470.0 756.4,467.2 759.5,478.0 762.5,482.7 765.7,485.1 768.9,480.5 772.1,493.2 775.3,492.4 778.5,501.2 781.7,510.5 784.9,509.5 788.1,506.6 791.2,497.8 794.5,494.0 797.6,494.9 800.6,508.2 803.8,498.6 807.0,488.9 810.2,501.6 813.4,497.6 816.6,497.1 819.8,502.1 823.0,505.2 826.1,508.2 829.3,512.9 832.6,510.4 835.6,512.2 838.7,512.9 841.9,514.6 845.1,509.4 848.3,510.3 851.4,505.1 854.7,512.1 857.9,517.8 861.0,516.7 864.2,513.3 867.4,517.4 870.6,504.0 873.7,513.4 876.9,516.5 880.0,508.4 883.2,502.0 886.4,509.8 889.6,509.0 892.8,515.3" stroke="#000" stroke-width="0.90" stroke-opacity="1.00" fill="none" clip-path="url(#axis_clip)"/>
  </symbol>
  <symbol id="line_15" viewBox="0 0 1200.000 674.916">
<polyline class="pl" points="147.1,407.4 150.2,410.4 153.3,412.6 156.5,428.0 159.6,430.2 162.8,425.0 166.0,421.4 169.2,425.8 172.4,413.2 175.6,404.6 178.8,409.2 182.0,397.5 185.2,398.4 188.3,404.3 191.3,416.9 194.5,426.1 197.7,417.4 200.9,419.1 204.1,402.5 207.3,407.3 210.5,404.5 213.7,395.7 216.9,396.6 220.0,399.5 223.3,394.9 226.4,398.6 229.4,407.7 232.6,411.2 235.8,405.5 239.0,399.4 242.2,385.5 245.4,395.9 248.6,397.0 251.8,387.5 254.9,387.6 258.1,372.5 261.3,378.3 264.5,389.3 267.6,396.8 270.8,402.6 273.9,398.4 277.1,403.1 280.3,397.1 283.5,403.5 286.7,402.1 289.9,397.2 293.0,390.5 296.2,389.3 299.4,393.4 302.5,403.3 305.6,411.7 308.8,417.5 312.0,421.2 315.1,414.5 318.3,409.7 321.6,419.0 324.7,413.8 327.9,410.6 331.1,410.3 334.3,397.9 337.5,394.9 340.6,401.5 343.7,416.8 346.9,422.5 350.0,418.9 353.2,417.1 356.4,405.6 359.6,408.4 362.8,403.2 366.0,395.1 369.2,390.1 372.4,387.3 375.6,381.1 378.7,393.8 381.7,401.8 384.9,405.5 388.1,392.1 391.3,396.2 394.5,390.7 397.7,393.7 400.9,397.3 404.1,390.5 407.3,378.2 410.4,375.3 413.7,360.9 416.8,368.3 419.9,384.5 423.1,380.7 426.3,372.3 429.4,380.5 432.6,375.8 435.8,364.4 439.0,362.6 442.2,359.9 445.3,362.9 448.5,365.4 451.8,353.9 454.8,361.5 457.9,379.3 461.1,377.7 464.3,375.3 467.5,377.4 470.6,367.7 473.9,380.2 477.1,372.6 480.2,366.4 483.4,371.7 486.6,369.1 489.8,358.9 492.9,362.3 496.0,379.1 499.2,378.1 502.4,377.2 505.5,375.2 508.7,369.6 512.0,376.2 515.1,378.8 518.3,374.8 521.5,360.5 524.7,366.1 527.9,352.1 531.0,359.2 534.1,372.9 537.3,376.1 540.4,374.2 543.6,368.2 546.8,362.8 550.0,362.6 553.2,361.9 556.4,357.5 559.6,348.5 562.8,345.4 566.0,345.1 569.1,356.2 572.2,371.9 575.4,361.8 578.6,362.2 581.8,356.7 584.9,355.4 588.1,360.0 591.3,367.4 594.5,362.8 597.7,359.9 600.8,367.3 604.1,350.4 607.2,361.3 610.2,379.6 613.4,373.9 616.6,376.9 619.8,368.1 623.0,370.9 626.2,387.3 629.4,388.2 632.6,389.2 635.7,398.1 638.9,378.3 642.2,387.3 645.2,401.4 648.3,410.5 651.5,417.0 654.7,402.8 657.9,409.3 661.0,408.3 664.3,414.6 667.5,414.6 670.6,426.3 673.8,409.0 677.0,398.0 680.2,398.7 683.3,411.7 686.4,435.4 689.6,428.3 692.8,425.7 695.9,425.8 699.1,431.0 702.4,434.1 705.5,449.4 708.7,438.9 711.9,441.0 715.1,446.9 718.3,431.2 721.4,435.7 724.6,445.0 727.7,434.1 730.9,459.9 734.1,452.2 737.2,432.0 740.5,445.6 743.6,461.8 746.8,461.4 750.0,453.1 753.2,470.0 756.4,467.2 759.5,478.0 762.5,482.7 765.7,485.1 768.9,480.5 772.1,493.2 775.3,492.4 778.5,501.2 781.7,510.5 784.9,509.5 788.1,506.6 791.2,497.8 794.5,494.0 797.6,494.9 800.6,508.2 803.8,498.6 807.0,488.9 810.2,501.6 813.4,497.6 816.6,497.1 819.8,502.1 823.0,505.2 826.1,508.2 829.3,512.9 832.6,510.4 835.6,512.2 838.7,512.9 841.9,514.6 845.1,509.4 848.3,510.3 851.4,505.1 854.7,512.1 857.9,517.8 861.0,516.7 864.2,513.3 867.4,517.4 870.6,504.0 873.7,513.4 876.9,516.5 880.0,508.4 883.2,502.0 886.4,509.8 889.6,509.0 892.8,515.3" stroke="#000" stroke-width="0.90" stroke-opacity="1.00" fill="none" clip-path="url(#axis_clip)"/>
  </symbol>
</defs>
<g id="main">
<text class="ticklabel ytl" transform="translate(128.8,568.3)">0 %</text>
<text class="ticklabel ytl" transform="translate(128.8,467.0)">20 %</text>
<text class="ticklabel ytl" transform="translate(128.8,365.8)">40 %</text>
<text class="ticklabel ytl" transform="translate(128.8,264.6)">60 %</text>
<text class="ticklabel ytl" transform="translate(128.8,163.3)">80 %</text>
<text class="ticklabel ytl" transform="translate(128.8,62.1)">100 %</text>
<g id="areas">
  <g class="pg_6">
    <polygon class="pl" points="147.1,54.0 150.2,54.0 153.3,54.0 156.5,54.0 159.6,54.0 162.8,54.0 166.0,54.0 169.2,54.0 172.4,54.0 175.6,54.0 178.8,54.0 182.0,54.0 185.2,54.0 188.3,54.0 191.3,54.0 194.5,54.0 197.7,54.0 200.9,54.0 204.1,54.0 207.3,54.0 210.5,54.0 213.7,54.0 216.9,54.0 220.0,54.0 223.3,54.0 226.4,54.0 229.4,54.0 232.6,54.0 235.8,54.0 239.0,54.0 242.2,54.0 245.4,54.0 248.6,54.0 251.8,54.0 254.9,54.0 258.1,54.0 261.3,54.0 264.5,54.0 267.6,54.0 270.8,54.0 273.9,54.0 277.1,54.0 280.3,54.0 283.5,54.0 286.7,54.0 289.9,54.0 293.0,54.0 296.2,54.0 299.4,54.0 302.5,54.0 305.6,54.0 308.8,54.0 312.0,54.0 315.1,54.0 318.3,54.0 321.6,54.0 324.7,54.0 327.9,54.0 331.1,54.0 334.3,54.0 337.5,54.0 340.6,54.0 343.7,54.0 346.9,54.0 350.0,54.0 353.2,54.0 356.4,54.0 359.6,54.0 362.8,54.0 366.0,54.0 369.2,54.0 372.4,54.0 375.6,54.0 378.7,54.0 381.7,54.0 384.9,54.0 388.1,54.0 391.3,54.0 394.5,54.0 397.7,54.0 400.9,54.0 404.1,54.0 407.3,54.0 410.4,54.0 413.7,54.0 416.8,54.0 419.9,54.0 423.1,54.0 426.3,54.0 429.4,54.0 432.6,54.0 435.8,54.0 439.0,54.0 442.2,54.0 445.3,54.0 448.5,54.0 451.8,54.0 454.8,54.0 457.9,54.0 461.1,54.0 464.3,54.0 467.5,54.0 470.6,54.0 473.9,54.0 477.1,54.0 480.2,54.0 483.4,54.0 486.6,54.0 489.8,54.0 492.9,54.0 496.0,54.0 499.2,54.0 502.4,54.0 505.5,54.0 508.7,54.0 512.0,54.0 515.1,54.0 518.3,54.0 521.5,54.0 524.7,54.0 527.9,54.0 531.0,54.0 534.1,54.0 537.3,54.0 540.4,54.0 543.6,54.0 546.8,54.0 550.0,54.0 553.2,54.0 556.4,54.0 559.6,54.0 562.8,54.0 566.0,54.0 569.1,54.0 572.2,54.0 575.4,54.0 578.6,54.0 581.8,54.0 584.9,54.0 588.1,54.0 591.3,54.0 594.5,54.0 597.7,54.0 600.8,54.0 604.1,54.0 607.2,54.0 610.2,54.0 613.4,54.0 616.6,54.0 619.8,54.0 623.0,54.0 626.2,54.0 629.4,54.0 632.6,54.0 635.7,54.0 638.9,54.0 642.2,54.0 645.2,54.0 648.3,54.0 651.5,54.0 654.7,54.0 657.9,54.0 661.0,54.0 664.3,54.0 667.5,54.0 670.6,54.0 673.8,54.0 677.0,54.0 680.2,54.0 683.3,54.0 686.4,54.0 689.6,54.0 692.8,54.0 695.9,54.0 699.1,54.0 702.4,54.0 705.5,54.0 708.7,54.0 711.9,54.0 715.1,54.0 718.3,54.0 721.4,54.0 724.6,54.0 727.7,54.0 730.9,54.0 734.1,54.0 737.2,54.0 740.5,54.0 743.6,54.0 746.8,54.0 750.0,54.0 753.2,54.0 756.4,54.0 759.5,54.0 762.5,54.0 765.7,54.0 768.9,54.0 772.1,54.0 775.3,54.0 778.5,54.0 781.7,54.0 784.9,54.0 788.1,54.0 791.2,54.0 794.5,54.0 797.6,54.0 800.6,54.0 803.8,54.0 807.0,54.0 810.2,54.0 813.4,54.0 816.6,54.0 819.8,54.0 823.0,54.0 826.1,54.0 829.3,54.0 832.6,54.0 835.6,54.0 838.7,54.0 841.9,54.0 845.1,54.0 848.3,54.0 851.4,54.0 854.7,54.0 857.9,54.0 861.0,54.0 864.2,54.0 867.4,54.0 870.6,54.0 873.7,54.0 876.9,54.0 880.0,54.0 883.2,54.0 886.4,54.0 889.6,54.0 892.8,54.0 892.8,54.0 889.6,54.0 886.4,54.0 883.2,54.0 880.0,54.0 876.9,54.0 873.7,54.0 870.6,54.2 867.4,54.1 864.2,54.0 861.0,54.0 857.9,54.0 854.7,54.0 851.4,54.1 848.3,54.1 845.1,54.2 841.9,54.2 838.7,54.5 835.6,54.2 832.6,54.3 829.3,54.4 826.1,54.2 823.0,54.4 819.8,54.2 816.6,54.7 813.4,54.6 810.2,54.5 807.0,54.5 803.8,54.5 800.6,54.4 797.6,54.3 794.5,54.7 791.2,55.3 788.1,54.4 784.9,54.9 781.7,54.5 778.5,54.9 775.3,54.5 772.1,54.7 768.9,54.7 765.7,54.8 762.5,54.8 759.5,54.7 756.4,54.6 753.2,54.5 750.0,54.6 746.8,55.0 743.6,54.6 740.5,55.2 737.2,55.4 734.1,55.4 730.9,54.8 727.7,55.3 724.6,55.8 721.4,55.4 718.3,58.2 715.1,55.1 711.9,56.6 708.7,57.2 705.5,57.3 702.4,57.2 699.1,56.1 695.9,56.6 692.8,57.1 689.6,56.0 686.4,55.0 683.3,54.5 680.2,54.3 677.0,54.5 673.8,54.3 670.6,54.2 667.5,54.5 664.3,55.4 661.0,55.6 657.9,55.6 654.7,55.3 651.5,56.8 648.3,55.6 645.2,56.3 642.2,56.5 638.9,55.5 635.7,55.0 632.6,56.1 629.4,55.2 626.2,55.4 623.0,55.8 619.8,54.8 616.6,55.0 613.4,54.9 610.2,55.0 607.2,55.2 604.1,55.2 600.8,55.4 597.7,55.7 594.5,57.5 591.3,55.7 588.1,55.2 584.9,55.2 581.8,55.6 578.6,55.5 575.4,55.2 572.2,55.0 569.1,55.4 566.0,55.0 562.8,55.9 559.6,55.4 556.4,55.8 553.2,55.4 550.0,55.4 546.8,55.5 543.6,56.6 540.4,55.7 537.3,55.9 534.1,55.6 531.0,55.5 527.9,55.5 524.7,55.8 521.5,56.0 518.3,58.3 515.1,56.0 512.0,56.4 508.7,55.7 505.5,55.5 502.4,55.3 499.2,55.1 496.0,55.2 492.9,54.8 489.8,54.7 486.6,54.7 483.4,56.0 480.2,55.3 477.1,55.9 473.9,55.3 470.6,55.3 467.5,55.5 464.3,55.5 461.1,55.3 457.9,55.2 454.8,55.8 451.8,55.5 448.5,55.0 445.3,55.7 442.2,55.2 439.0,56.0 435.8,55.0 432.6,55.0 429.4,55.1 426.3,55.4 423.1,55.5 419.9,55.7 416.8,55.3 413.7,56.0 410.4,55.7 407.3,55.5 404.1,55.1 400.9,55.3 397.7,56.0 394.5,56.0 391.3,56.1 388.1,56.3 384.9,55.5 381.7,56.4 378.7,55.9 375.6,55.8 372.4,55.6 369.2,55.3 366.0,55.0 362.8,55.7 359.6,55.6 356.4,55.6 353.2,55.6 350.0,55.9 346.9,55.4 343.7,56.6 340.6,56.1 337.5,56.8 334.3,56.5 331.1,56.6 327.9,57.2 324.7,57.4 321.6,57.0 318.3,56.9 315.1,57.5 312.0,56.9 308.8,57.1 305.6,56.8 302.5,56.8 299.4,57.5 296.2,57.8 293.0,57.5 289.9,59.0 286.7,58.3 283.5,58.9 280.3,58.2 277.1,58.1 273.9,57.3 270.8,57.2 267.6,58.0 264.5,58.3 261.3,59.1 258.1,60.5 254.9,58.3 251.8,59.2 248.6,59.3 245.4,65.8 242.2,61.0 239.0,60.3 235.8,59.1 232.6,58.5 229.4,58.6 226.4,58.4 223.3,61.3 220.0,56.3 216.9,57.7 213.7,59.0 210.5,56.2 207.3,56.8 204.1,57.8 200.9,57.1 197.7,55.7 194.5,56.4 191.3,56.2 188.3,56.3 185.2,56.6 182.0,55.6 178.8,55.0 175.6,54.8 172.4,54.8 169.2,54.7 166.0,55.3 162.8,56.8 159.6,56.9 156.5,56.8 153.3,55.1 150.2,55.3 147.1,55.1" stroke="none" stroke-width="0.9000"  fill="#808080" clip-path="url(#axis_clip)"/>
    <text class="pl" transform="translate(937.2,54.0)" dy="7.6" font-size="25.20" fill="#808080" stroke="none">Others</text>
<polyline class="pl" points="910.8,54.0 911.9,54.0 913.0,54.0 914.0,54.0 914.9,54.0 915.8,54.0 916.6,54.0 917.4,54.0 918.1,54.0 918.8,54.0 919.5,54.0 920.1,54.0 920.7,54.0 921.3,54.0 921.9,54.0 922.5,54.0 923.1,54.0 923.7,54.0 924.3,54.0 924.9,54.0 925.6,54.0 926.3,54.0 927.0,54.0 927.8,54.0 928.6,54.0 929.5,54.0 930.4,54.0 931.4,54.0 932.5,54.0 933.6,54.0" stroke="#808080" stroke-width="0.90" stroke-opacity="1.00" fill="none" />
    <text class="pl" transform="translate(145.6,47.2)" dy="0.0" font-size="27.00" fill="#808080" stroke="none">Swiss new passenger car sales by type: Monthly</text>
  </g>
  <g class="pg_5">
    <polygon class="pl" points="147.1,55.1 150.2,55.3 153.3,55.1 156.5,56.8 159.6,56.9 162.8,56.8 166.0,55.3 169.2,54.7 172.4,54.8 175.6,54.8 178.8,55.0 182.0,55.6 185.2,56.6 188.3,56.3 191.3,56.2 194.5,56.4 197.7,55.7 200.9,57.1 204.1,57.8 207.3,56.8 210.5,56.2 213.7,59.0 216.9,57.7 220.0,56.3 223.3,61.3 226.4,58.4 229.4,58.6 232.6,58.5 235.8,59.1 239.0,60.3 242.2,61.0 245.4,65.8 248.6,59.3 251.8,59.2 254.9,58.3 258.1,60.5 261.3,59.1 264.5,58.3 267.6,58.0 270.8,57.2 273.9,57.3 277.1,58.1 280.3,58.2 283.5,58.9 286.7,58.3 289.9,59.0 293.0,57.5 296.2,57.8 299.4,57.5 302.5,56.8 305.6,56.8 308.8,57.1 312.0,56.9 315.1,57.5 318.3,56.9 321.6,57.0 324.7,57.4 327.9,57.2 331.1,56.6 334.3,56.5 337.5,56.8 340.6,56.1 343.7,56.6 346.9,55.4 350.0,55.9 353.2,55.6 356.4,55.6 359.6,55.6 362.8,55.7 366.0,55.0 369.2,55.3 372.4,55.6 375.6,55.8 378.7,55.9 381.7,56.4 384.9,55.5 388.1,56.3 391.3,56.1 394.5,56.0 397.7,56.0 400.9,55.3 404.1,55.1 407.3,55.5 410.4,55.7 413.7,56.0 416.8,55.3 419.9,55.7 423.1,55.5 426.3,55.4 429.4,55.1 432.6,55.0 435.8,55.0 439.0,56.0 442.2,55.2 445.3,55.7 448.5,55.0 451.8,55.5 454.8,55.8 457.9,55.2 461.1,55.3 464.3,55.5 467.5,55.5 470.6,55.3 473.9,55.3 477.1,55.9 480.2,55.3 483.4,56.0 486.6,54.7 489.8,54.7 492.9,54.8 496.0,55.2 499.2,55.1 502.4,55.3 505.5,55.5 508.7,55.7 512.0,56.4 515.1,56.0 518.3,58.3 521.5,56.0 524.7,55.8 527.9,55.5 531.0,55.5 534.1,55.6 537.3,55.9 540.4,55.7 543.6,56.6 546.8,55.5 550.0,55.4 553.2,55.4 556.4,55.8 559.6,55.4 562.8,55.9 566.0,55.0 569.1,55.4 572.2,55.0 575.4,55.2 578.6,55.5 581.8,55.6 584.9,55.2 588.1,55.2 591.3,55.7 594.5,57.5 597.7,55.7 600.8,55.4 604.1,55.2 607.2,55.2 610.2,55.0 613.4,54.9 616.6,55.0 619.8,54.8 623.0,55.8 626.2,55.4 629.4,55.2 632.6,56.1 635.7,55.0 638.9,55.5 642.2,56.5 645.2,56.3 648.3,55.6 651.5,56.8 654.7,55.3 657.9,55.6 661.0,55.6 664.3,55.4 667.5,54.5 670.6,54.2 673.8,54.3 677.0,54.5 680.2,54.3 683.3,54.5 686.4,55.0 689.6,56.0 692.8,57.1 695.9,56.6 699.1,56.1 702.4,57.2 705.5,57.3 708.7,57.2 711.9,56.6 715.1,55.1 718.3,58.2 721.4,55.4 724.6,55.8 727.7,55.3 730.9,54.8 734.1,55.4 737.2,55.4 740.5,55.2 743.6,54.6 746.8,55.0 750.0,54.6 753.2,54.5 756.4,54.6 759.5,54.7 762.5,54.8 765.7,54.8 768.9,54.7 772.1,54.7 775.3,54.5 778.5,54.9 781.7,54.5 784.9,54.9 788.1,54.4 791.2,55.3 794.5,54.7 797.6,54.3 800.6,54.4 803.8,54.5 807.0,54.5 810.2,54.5 813.4,54.6 816.6,54.7 819.8,54.2 823.0,54.4 826.1,54.2 829.3,54.4 832.6,54.3 835.6,54.2 838.7,54.5 841.9,54.2 845.1,54.2 848.3,54.1 851.4,54.1 854.7,54.0 857.9,54.0 861.0,54.0 864.2,54.0 867.4,54.1 870.6,54.2 873.7,54.0 876.9,54.0 880.0,54.0 883.2,54.0 886.4,54.0 889.6,54.0 892.8,54.0 892.8,162.2 889.6,148.0 886.4,146.9 883.2,138.7 880.0,133.0 876.9,155.1 873.7,143.0 870.6,132.4 867.4,190.5 864.2,162.8 861.0,166.0 857.9,173.6 854.7,167.2 851.4,151.6 848.3,157.6 845.1,154.8 841.9,147.2 838.7,149.6 835.6,129.5 832.6,139.3 829.3,195.8 826.1,157.6 823.0,125.8 819.8,154.8 816.6,124.7 813.4,117.7 810.2,160.6 807.0,126.2 803.8,123.2 800.6,153.3 797.6,128.0 794.5,121.0 791.2,171.4 788.1,150.5 784.9,127.5 781.7,157.3 778.5,123.5 775.3,102.8 772.1,125.8 768.9,103.5 765.7,100.2 762.5,100.9 759.5,97.8 756.4,89.3 753.2,135.5 750.0,103.7 746.8,91.5 743.6,122.8 740.5,105.4 737.2,78.1 734.1,83.9 730.9,80.3 727.7,83.4 724.6,100.9 721.4,75.8 718.3,79.3 715.1,96.5 711.9,73.1 708.7,70.1 705.5,90.3 702.4,73.0 699.1,69.8 695.9,77.1 692.8,69.6 689.6,74.7 686.4,88.1 683.3,71.3 680.2,65.0 677.0,68.6 673.8,65.2 670.6,64.4 667.5,68.0 664.3,63.2 661.0,60.5 657.9,65.1 654.7,60.5 651.5,62.6 648.3,67.8 645.2,65.7 642.2,62.4 638.9,64.5 635.7,68.8 632.6,63.6 629.4,66.8 626.2,62.8 623.0,61.2 619.8,62.7 616.6,60.0 613.4,59.5 610.2,64.6 607.2,59.9 604.1,63.1 600.8,63.6 597.7,59.1 594.5,62.1 591.3,65.0 588.1,62.0 584.9,58.0 581.8,61.8 578.6,59.3 575.4,59.3 572.2,62.4 569.1,58.9 566.0,60.7 562.8,62.0 559.6,63.5 556.4,61.1 553.2,62.0 550.0,61.0 546.8,61.5 543.6,64.2 540.4,62.6 537.3,62.2 534.1,61.4 531.0,57.7 527.9,59.4 524.7,60.4 521.5,59.4 518.3,60.7 515.1,59.1 512.0,59.7 508.7,58.8 505.5,58.8 502.4,58.6 499.2,58.1 496.0,59.7 492.9,56.7 489.8,57.4 486.6,59.4 483.4,59.6 480.2,57.7 477.1,58.9 473.9,58.1 470.6,57.4 467.5,58.6 464.3,56.7 461.1,56.1 457.9,56.5 454.8,56.6 451.8,57.0 448.5,56.6 445.3,56.8 442.2,57.0 439.0,58.6 435.8,56.3 432.6,56.4 429.4,56.0 426.3,57.0 423.1,57.4 419.9,57.0 416.8,55.8 413.7,57.0 410.4,56.2 407.3,56.5 404.1,55.4 400.9,56.2 397.7,56.5 394.5,56.5 391.3,56.8 388.1,57.0 384.9,56.2 381.7,57.5 378.7,56.6 375.6,56.7 372.4,56.1 369.2,55.6 366.0,55.3 362.8,55.9 359.6,56.1 356.4,55.8 353.2,56.6 350.0,56.0 346.9,55.5 343.7,56.8 340.6,56.3 337.5,57.0 334.3,56.6 331.1,56.8 327.9,57.6 324.7,57.4 321.6,57.1 318.3,57.0 315.1,57.6 312.0,56.9 308.8,57.1 305.6,56.8 302.5,56.9 299.4,57.6 296.2,58.0 293.0,57.5 289.9,59.0 286.7,58.3 283.5,58.9 280.3,58.3 277.1,58.1 273.9,57.3 270.8,57.2 267.6,58.1 264.5,58.4 261.3,59.1 258.1,60.7 254.9,58.4 251.8,59.2 248.6,59.3 245.4,65.8 242.2,61.0 239.0,60.3 235.8,59.1 232.6,58.5 229.4,58.7 226.4,58.5 223.3,61.3 220.0,56.3 216.9,57.7 213.7,59.0 210.5,56.3 207.3,56.9 204.1,57.8 200.9,57.1 197.7,55.7 194.5,56.4 191.3,56.2 188.3,56.3 185.2,56.6 182.0,55.7 178.8,55.1 175.6,54.8 172.4,54.8 169.2,54.7 166.0,55.3 162.8,56.8 159.6,56.9 156.5,56.8 153.3,55.1 150.2,55.4 147.1,55.1" stroke="none" stroke-width="0.9000"  fill="#6298C6" clip-path="url(#axis_clip)"/>
    <text class="pl" transform="translate(937.2,108.1)" dy="7.6" font-size="25.20" fill="#6298C6" stroke="none">Battery electric</text>
  </g>
  <g class="pg_4">
    <polygon class="pl" points="147.1,55.1 150.2,55.4 153.3,55.1 156.5,56.8 159.6,56.9 162.8,56.8 166.0,55.3 169.2,54.7 172.4,54.8 175.6,54.8 178.8,55.1 182.0,55.7 185.2,56.6 188.3,56.3 191.3,56.2 194.5,56.4 197.7,55.7 200.9,57.1 204.1,57.8 207.3,56.9 210.5,56.3 213.7,59.0 216.9,57.7 220.0,56.3 223.3,61.3 226.4,58.5 229.4,58.7 232.6,58.5 235.8,59.1 239.0,60.3 242.2,61.0 245.4,65.8 248.6,59.3 251.8,59.2 254.9,58.4 258.1,60.7 261.3,59.1 264.5,58.4 267.6,58.1 270.8,57.2 273.9,57.3 277.1,58.1 280.3,58.3 283.5,58.9 286.7,58.3 289.9,59.0 293.0,57.5 296.2,58.0 299.4,57.6 302.5,56.9 305.6,56.8 308.8,57.1 312.0,56.9 315.1,57.6 318.3,57.0 321.6,57.1 324.7,57.4 327.9,57.6 331.1,56.8 334.3,56.6 337.5,57.0 340.6,56.3 343.7,56.8 346.9,55.5 350.0,56.0 353.2,56.6 356.4,55.8 359.6,56.1 362.8,55.9 366.0,55.3 369.2,55.6 372.4,56.1 375.6,56.7 378.7,56.6 381.7,57.5 384.9,56.2 388.1,57.0 391.3,56.8 394.5,56.5 397.7,56.5 400.9,56.2 404.1,55.4 407.3,56.5 410.4,56.2 413.7,57.0 416.8,55.8 419.9,57.0 423.1,57.4 426.3,57.0 429.4,56.0 432.6,56.4 435.8,56.3 439.0,58.6 442.2,57.0 445.3,56.8 448.5,56.6 451.8,57.0 454.8,56.6 457.9,56.5 461.1,56.1 464.3,56.7 467.5,58.6 470.6,57.4 473.9,58.1 477.1,58.9 480.2,57.7 483.4,59.6 486.6,59.4 489.8,57.4 492.9,56.7 496.0,59.7 499.2,58.1 502.4,58.6 505.5,58.8 508.7,58.8 512.0,59.7 515.1,59.1 518.3,60.7 521.5,59.4 524.7,60.4 527.9,59.4 531.0,57.7 534.1,61.4 537.3,62.2 540.4,62.6 543.6,64.2 546.8,61.5 550.0,61.0 553.2,62.0 556.4,61.1 559.6,63.5 562.8,62.0 566.0,60.7 569.1,58.9 572.2,62.4 575.4,59.3 578.6,59.3 581.8,61.8 584.9,58.0 588.1,62.0 591.3,65.0 594.5,62.1 597.7,59.1 600.8,63.6 604.1,63.1 607.2,59.9 610.2,64.6 613.4,59.5 616.6,60.0 619.8,62.7 623.0,61.2 626.2,62.8 629.4,66.8 632.6,63.6 635.7,68.8 638.9,64.5 642.2,62.4 645.2,65.7 648.3,67.8 651.5,62.6 654.7,60.5 657.9,65.1 661.0,60.5 664.3,63.2 667.5,68.0 670.6,64.4 673.8,65.2 677.0,68.6 680.2,65.0 683.3,71.3 686.4,88.1 689.6,74.7 692.8,69.6 695.9,77.1 699.1,69.8 702.4,73.0 705.5,90.3 708.7,70.1 711.9,73.1 715.1,96.5 718.3,79.3 721.4,75.8 724.6,100.9 727.7,83.4 730.9,80.3 734.1,83.9 737.2,78.1 740.5,105.4 743.6,122.8 746.8,91.5 750.0,103.7 753.2,135.5 756.4,89.3 759.5,97.8 762.5,100.9 765.7,100.2 768.9,103.5 772.1,125.8 775.3,102.8 778.5,123.5 781.7,157.3 784.9,127.5 788.1,150.5 791.2,171.4 794.5,121.0 797.6,128.0 800.6,153.3 803.8,123.2 807.0,126.2 810.2,160.6 813.4,117.7 816.6,124.7 819.8,154.8 823.0,125.8 826.1,157.6 829.3,195.8 832.6,139.3 835.6,129.5 838.7,149.6 841.9,147.2 845.1,154.8 848.3,157.6 851.4,151.6 854.7,167.2 857.9,173.6 861.0,166.0 864.2,162.8 867.4,190.5 870.6,132.4 873.7,143.0 876.9,155.1 880.0,133.0 883.2,138.7 886.4,146.9 889.6,148.0 892.8,162.2 892.8,201.1 889.6,189.7 886.4,187.0 883.2,181.1 880.0,177.2 876.9,198.6 873.7,190.1 870.6,184.1 867.4,242.6 864.2,212.7 861.0,216.6 857.9,221.7 854.7,211.9 851.4,198.7 848.3,203.0 845.1,193.5 841.9,186.2 838.7,191.2 835.6,173.8 832.6,184.4 829.3,229.4 826.1,196.7 823.0,163.1 819.8,189.9 816.6,160.2 813.4,156.7 810.2,196.7 807.0,169.8 803.8,163.4 800.6,196.7 797.6,172.4 794.5,168.0 791.2,222.0 788.1,202.7 784.9,179.1 781.7,204.0 778.5,178.5 775.3,149.7 772.1,169.7 768.9,149.3 765.7,144.2 762.5,140.8 759.5,133.0 756.4,126.3 753.2,186.3 750.0,144.9 746.8,128.1 743.6,156.0 740.5,134.3 737.2,105.2 734.1,105.9 730.9,103.5 727.7,105.7 724.6,125.0 721.4,95.9 718.3,96.8 715.1,110.4 711.9,83.1 708.7,78.7 705.5,97.2 702.4,79.1 699.1,75.1 695.9,80.8 692.8,74.1 689.6,79.6 686.4,93.4 683.3,76.0 680.2,71.3 677.0,78.9 673.8,72.4 670.6,73.3 667.5,74.6 664.3,71.3 661.0,66.6 657.9,72.9 654.7,66.3 651.5,67.7 648.3,74.1 645.2,71.3 642.2,69.4 638.9,72.8 635.7,75.7 632.6,69.4 629.4,73.5 626.2,70.2 623.0,66.5 619.8,67.6 616.6,64.9 613.4,64.0 610.2,68.4 607.2,63.5 604.1,67.9 600.8,67.5 597.7,64.0 594.5,67.3 591.3,70.3 588.1,66.7 584.9,63.9 581.8,65.8 578.6,63.2 575.4,63.2 572.2,66.9 569.1,63.7 566.0,66.7 562.8,70.7 559.6,66.5 556.4,65.1 553.2,64.7 550.0,63.7 546.8,65.6 543.6,67.1 540.4,65.6 537.3,65.7 534.1,64.9 531.0,61.9 527.9,62.4 524.7,61.6 521.5,61.3 518.3,62.2 515.1,61.4 512.0,61.3 508.7,59.7 505.5,60.4 502.4,59.4 499.2,59.5 496.0,60.7 492.9,57.5 489.8,58.7 486.6,60.8 483.4,61.1 480.2,58.4 477.1,60.0 473.9,58.9 470.6,58.1 467.5,59.0 464.3,57.2 461.1,56.6 457.9,57.2 454.8,57.5 451.8,57.6 448.5,56.9 445.3,57.2 442.2,57.4 439.0,59.2 435.8,56.8 432.6,56.7 429.4,56.2 426.3,57.2 423.1,57.7 419.9,57.4 416.8,56.2 413.7,57.2 410.4,56.3 407.3,56.7 404.1,55.6 400.9,56.5 397.7,56.6 394.5,56.7 391.3,56.9 388.1,57.2 384.9,56.4 381.7,57.7 378.7,56.8 375.6,56.8 372.4,56.2 369.2,55.6 366.0,55.4 362.8,56.0 359.6,56.1 356.4,55.9 353.2,56.7 350.0,56.1 346.9,55.5 343.7,56.8 340.6,56.3 337.5,57.1 334.3,56.6 331.1,56.8 327.9,57.7 324.7,57.5 321.6,57.2 318.3,57.1 315.1,57.7 312.0,57.0 308.8,57.1 305.6,56.8 302.5,57.0 299.4,57.6 296.2,58.1 293.0,57.6 289.9,59.2 286.7,58.3 283.5,59.0 280.3,58.3 277.1,58.2 273.9,57.4 270.8,57.2 267.6,58.1 264.5,58.4 261.3,59.1 258.1,60.7 254.9,58.4 251.8,59.2 248.6,59.3 245.4,65.8 242.2,61.0 239.0,60.3 235.8,59.1 232.6,58.5 229.4,58.7 226.4,58.5 223.3,61.3 220.0,56.3 216.9,57.7 213.7,59.0 210.5,56.3 207.3,56.9 204.1,57.8 200.9,57.1 197.7,55.7 194.5,56.4 191.3,56.2 188.3,56.3 185.2,56.6 182.0,55.7 178.8,55.1 175.6,54.8 172.4,54.8 169.2,54.7 166.0,55.3 162.8,56.8 159.6,56.9 156.5,56.8 153.3,55.1 150.2,55.4 147.1,55.1" stroke="none" stroke-width="0.9000"  fill="#77AC30" clip-path="url(#axis_clip)"/>
    <text class="pl" transform="translate(937.2,181.6)" dy="7.6" font-size="25.20" fill="#77AC30" stroke="none">Plugin hybrid</text>
  </g>
  <g class="pg_3">
    <polygon class="pl" points="147.1,55.1 150.2,55.4 153.3,55.1 156.5,56.8 159.6,56.9 162.8,56.8 166.0,55.3 169.2,54.7 172.4,54.8 175.6,54.8 178.8,55.1 182.0,55.7 185.2,56.6 188.3,56.3 191.3,56.2 194.5,56.4 197.7,55.7 200.9,57.1 204.1,57.8 207.3,56.9 210.5,56.3 213.7,59.0 216.9,57.7 220.0,56.3 223.3,61.3 226.4,58.5 229.4,58.7 232.6,58.5 235.8,59.1 239.0,60.3 242.2,61.0 245.4,65.8 248.6,59.3 251.8,59.2 254.9,58.4 258.1,60.7 261.3,59.1 264.5,58.4 267.6,58.1 270.8,57.2 273.9,57.4 277.1,58.2 280.3,58.3 283.5,59.0 286.7,58.3 289.9,59.2 293.0,57.6 296.2,58.1 299.4,57.6 302.5,57.0 305.6,56.8 308.8,57.1 312.0,57.0 315.1,57.7 318.3,57.1 321.6,57.2 324.7,57.5 327.9,57.7 331.1,56.8 334.3,56.6 337.5,57.1 340.6,56.3 343.7,56.8 346.9,55.5 350.0,56.1 353.2,56.7 356.4,55.9 359.6,56.1 362.8,56.0 366.0,55.4 369.2,55.6 372.4,56.2 375.6,56.8 378.7,56.8 381.7,57.7 384.9,56.4 388.1,57.2 391.3,56.9 394.5,56.7 397.7,56.6 400.9,56.5 404.1,55.6 407.3,56.7 410.4,56.3 413.7,57.2 416.8,56.2 419.9,57.4 423.1,57.7 426.3,57.2 429.4,56.2 432.6,56.7 435.8,56.8 439.0,59.2 442.2,57.4 445.3,57.2 448.5,56.9 451.8,57.6 454.8,57.5 457.9,57.2 461.1,56.6 464.3,57.2 467.5,59.0 470.6,58.1 473.9,58.9 477.1,60.0 480.2,58.4 483.4,61.1 486.6,60.8 489.8,58.7 492.9,57.5 496.0,60.7 499.2,59.5 502.4,59.4 505.5,60.4 508.7,59.7 512.0,61.3 515.1,61.4 518.3,62.2 521.5,61.3 524.7,61.6 527.9,62.4 531.0,61.9 534.1,64.9 537.3,65.7 540.4,65.6 543.6,67.1 546.8,65.6 550.0,63.7 553.2,64.7 556.4,65.1 559.6,66.5 562.8,70.7 566.0,66.7 569.1,63.7 572.2,66.9 575.4,63.2 578.6,63.2 581.8,65.8 584.9,63.9 588.1,66.7 591.3,70.3 594.5,67.3 597.7,64.0 600.8,67.5 604.1,67.9 607.2,63.5 610.2,68.4 613.4,64.0 616.6,64.9 619.8,67.6 623.0,66.5 626.2,70.2 629.4,73.5 632.6,69.4 635.7,75.7 638.9,72.8 642.2,69.4 645.2,71.3 648.3,74.1 651.5,67.7 654.7,66.3 657.9,72.9 661.0,66.6 664.3,71.3 667.5,74.6 670.6,73.3 673.8,72.4 677.0,78.9 680.2,71.3 683.3,76.0 686.4,93.4 689.6,79.6 692.8,74.1 695.9,80.8 699.1,75.1 702.4,79.1 705.5,97.2 708.7,78.7 711.9,83.1 715.1,110.4 718.3,96.8 721.4,95.9 724.6,125.0 727.7,105.7 730.9,103.5 734.1,105.9 737.2,105.2 740.5,134.3 743.6,156.0 746.8,128.1 750.0,144.9 753.2,186.3 756.4,126.3 759.5,133.0 762.5,140.8 765.7,144.2 768.9,149.3 772.1,169.7 775.3,149.7 778.5,178.5 781.7,204.0 784.9,179.1 788.1,202.7 791.2,222.0 794.5,168.0 797.6,172.4 800.6,196.7 803.8,163.4 807.0,169.8 810.2,196.7 813.4,156.7 816.6,160.2 819.8,189.9 823.0,163.1 826.1,196.7 829.3,229.4 832.6,184.4 835.6,173.8 838.7,191.2 841.9,186.2 845.1,193.5 848.3,203.0 851.4,198.7 854.7,211.9 857.9,221.7 861.0,216.6 864.2,212.7 867.4,242.6 870.6,184.1 873.7,190.1 876.9,198.6 880.0,177.2 883.2,181.1 886.4,187.0 889.6,189.7 892.8,201.1 892.8,379.7 889.6,364.1 886.4,363.9 883.2,338.2 880.0,338.3 876.9,358.8 873.7,351.7 870.6,340.3 867.4,375.3 864.2,356.3 861.0,360.7 857.9,359.2 854.7,351.3 851.4,332.6 848.3,339.7 845.1,334.4 841.9,330.7 838.7,333.5 835.6,317.0 832.6,326.8 829.3,347.5 826.1,329.8 823.0,308.7 819.8,313.2 816.6,289.5 813.4,279.3 810.2,318.9 807.0,302.3 803.8,301.3 800.6,322.1 797.6,299.1 794.5,294.2 791.2,327.0 788.1,313.7 784.9,305.6 781.7,331.0 778.5,308.1 775.3,264.3 772.1,278.7 768.9,258.1 765.7,258.5 762.5,248.4 759.5,246.0 756.4,235.9 753.2,269.2 750.0,235.1 746.8,217.2 743.6,232.1 740.5,203.8 737.2,164.6 734.1,168.0 730.9,168.4 727.7,162.0 724.6,184.1 721.4,150.7 718.3,151.8 715.1,160.5 711.9,129.2 708.7,121.0 705.5,137.0 702.4,121.4 699.1,113.1 695.9,113.3 692.8,107.9 689.6,107.4 686.4,119.3 683.3,99.5 680.2,96.6 677.0,101.1 673.8,97.1 670.6,98.4 667.5,100.9 664.3,92.5 661.0,84.4 657.9,87.6 654.7,81.8 651.5,87.1 648.3,89.1 645.2,85.3 642.2,83.4 638.9,84.1 635.7,89.5 632.6,84.9 629.4,91.8 626.2,84.7 623.0,78.0 619.8,81.3 616.6,78.1 613.4,77.7 610.2,80.9 607.2,75.9 604.1,79.2 600.8,77.9 597.7,77.7 594.5,81.2 591.3,86.7 588.1,79.6 584.9,75.9 581.8,76.3 578.6,75.4 575.4,74.1 572.2,79.0 569.1,75.0 566.0,76.4 562.8,77.8 559.6,75.0 556.4,75.0 553.2,74.7 550.0,73.1 546.8,73.6 543.6,75.8 540.4,76.7 537.3,77.8 534.1,77.9 531.0,71.5 527.9,71.7 524.7,72.4 521.5,71.2 518.3,74.0 515.1,73.1 512.0,69.4 508.7,68.9 505.5,68.1 502.4,69.8 499.2,69.9 496.0,72.8 492.9,66.6 489.8,68.5 486.6,71.4 483.4,71.2 480.2,68.9 477.1,71.0 473.9,71.4 470.6,68.1 467.5,67.2 464.3,66.8 461.1,67.4 457.9,70.9 454.8,69.3 451.8,69.8 448.5,64.9 445.3,68.3 442.2,70.8 439.0,72.8 435.8,70.3 432.6,68.5 429.4,65.2 426.3,65.8 423.1,67.5 419.9,66.4 416.8,62.5 413.7,62.9 410.4,64.8 407.3,64.9 404.1,64.6 400.9,66.3 397.7,65.9 394.5,61.5 391.3,64.4 388.1,63.8 384.9,66.8 381.7,66.6 378.7,65.6 375.6,63.9 372.4,62.8 369.2,63.5 366.0,62.5 362.8,63.1 359.6,65.0 356.4,63.4 353.2,63.0 350.0,65.1 346.9,61.5 343.7,63.0 340.6,62.9 337.5,65.2 334.3,63.4 331.1,65.4 327.9,65.2 324.7,69.0 321.6,66.9 318.3,63.7 315.1,64.9 312.0,63.0 308.8,63.8 305.6,64.0 302.5,63.0 299.4,62.4 296.2,62.8 293.0,61.6 289.9,63.5 286.7,64.2 283.5,66.6 280.3,64.0 277.1,63.5 273.9,62.0 270.8,63.4 267.6,63.4 264.5,64.6 261.3,64.2 258.1,65.1 254.9,63.3 251.8,64.6 248.6,67.3 245.4,75.2 242.2,68.4 239.0,65.6 235.8,63.7 232.6,63.2 229.4,64.7 226.4,63.3 223.3,65.5 220.0,60.9 216.9,63.1 213.7,62.6 210.5,61.2 207.3,61.6 204.1,61.7 200.9,58.0 197.7,56.9 194.5,57.6 191.3,58.1 188.3,59.3 185.2,58.7 182.0,57.3 178.8,57.2 175.6,56.6 172.4,56.3 169.2,56.2 166.0,56.0 162.8,57.2 159.6,57.7 156.5,57.7 153.3,56.3 150.2,56.8 147.1,55.7" stroke="none" stroke-width="0.9000"  fill="#91AC6E" clip-path="url(#axis_clip)"/>
    <text class="pl" transform="translate(937.2,290.4)" dy="7.6" font-size="25.20" fill="#91AC6E" stroke="none">Non-plugin hybrid</text>
  </g>
  <g class="pg_2">
    <polygon class="pl" points="147.1,55.7 150.2,56.8 153.3,56.3 156.5,57.7 159.6,57.7 162.8,57.2 166.0,56.0 169.2,56.2 172.4,56.3 175.6,56.6 178.8,57.2 182.0,57.3 185.2,58.7 188.3,59.3 191.3,58.1 194.5,57.6 197.7,56.9 200.9,58.0 204.1,61.7 207.3,61.6 210.5,61.2 213.7,62.6 216.9,63.1 220.0,60.9 223.3,65.5 226.4,63.3 229.4,64.7 232.6,63.2 235.8,63.7 239.0,65.6 242.2,68.4 245.4,75.2 248.6,67.3 251.8,64.6 254.9,63.3 258.1,65.1 261.3,64.2 264.5,64.6 267.6,63.4 270.8,63.4 273.9,62.0 277.1,63.5 280.3,64.0 283.5,66.6 286.7,64.2 289.9,63.5 293.0,61.6 296.2,62.8 299.4,62.4 302.5,63.0 305.6,64.0 308.8,63.8 312.0,63.0 315.1,64.9 318.3,63.7 321.6,66.9 324.7,69.0 327.9,65.2 331.1,65.4 334.3,63.4 337.5,65.2 340.6,62.9 343.7,63.0 346.9,61.5 350.0,65.1 353.2,63.0 356.4,63.4 359.6,65.0 362.8,63.1 366.0,62.5 369.2,63.5 372.4,62.8 375.6,63.9 378.7,65.6 381.7,66.6 384.9,66.8 388.1,63.8 391.3,64.4 394.5,61.5 397.7,65.9 400.9,66.3 404.1,64.6 407.3,64.9 410.4,64.8 413.7,62.9 416.8,62.5 419.9,66.4 423.1,67.5 426.3,65.8 429.4,65.2 432.6,68.5 435.8,70.3 439.0,72.8 442.2,70.8 445.3,68.3 448.5,64.9 451.8,69.8 454.8,69.3 457.9,70.9 461.1,67.4 464.3,66.8 467.5,67.2 470.6,68.1 473.9,71.4 477.1,71.0 480.2,68.9 483.4,71.2 486.6,71.4 489.8,68.5 492.9,66.6 496.0,72.8 499.2,69.9 502.4,69.8 505.5,68.1 508.7,68.9 512.0,69.4 515.1,73.1 518.3,74.0 521.5,71.2 524.7,72.4 527.9,71.7 531.0,71.5 534.1,77.9 537.3,77.8 540.4,76.7 543.6,75.8 546.8,73.6 550.0,73.1 553.2,74.7 556.4,75.0 559.6,75.0 562.8,77.8 566.0,76.4 569.1,75.0 572.2,79.0 575.4,74.1 578.6,75.4 581.8,76.3 584.9,75.9 588.1,79.6 591.3,86.7 594.5,81.2 597.7,77.7 600.8,77.9 604.1,79.2 607.2,75.9 610.2,80.9 613.4,77.7 616.6,78.1 619.8,81.3 623.0,78.0 626.2,84.7 629.4,91.8 632.6,84.9 635.7,89.5 638.9,84.1 642.2,83.4 645.2,85.3 648.3,89.1 651.5,87.1 654.7,81.8 657.9,87.6 661.0,84.4 664.3,92.5 667.5,100.9 670.6,98.4 673.8,97.1 677.0,101.1 680.2,96.6 683.3,99.5 686.4,119.3 689.6,107.4 692.8,107.9 695.9,113.3 699.1,113.1 702.4,121.4 705.5,137.0 708.7,121.0 711.9,129.2 715.1,160.5 718.3,151.8 721.4,150.7 724.6,184.1 727.7,162.0 730.9,168.4 734.1,168.0 737.2,164.6 740.5,203.8 743.6,232.1 746.8,217.2 750.0,235.1 753.2,269.2 756.4,235.9 759.5,246.0 762.5,248.4 765.7,258.5 768.9,258.1 772.1,278.7 775.3,264.3 778.5,308.1 781.7,331.0 784.9,305.6 788.1,313.7 791.2,327.0 794.5,294.2 797.6,299.1 800.6,322.1 803.8,301.3 807.0,302.3 810.2,318.9 813.4,279.3 816.6,289.5 819.8,313.2 823.0,308.7 826.1,329.8 829.3,347.5 832.6,326.8 835.6,317.0 838.7,333.5 841.9,330.7 845.1,334.4 848.3,339.7 851.4,332.6 854.7,351.3 857.9,359.2 861.0,360.7 864.2,356.3 867.4,375.3 870.6,340.3 873.7,351.7 876.9,358.8 880.0,338.3 883.2,338.2 886.4,363.9 889.6,364.1 892.8,379.7 892.8,515.3 889.6,509.0 886.4,509.8 883.2,502.0 880.0,508.4 876.9,516.5 873.7,513.4 870.6,504.0 867.4,517.4 864.2,513.3 861.0,516.7 857.9,517.8 854.7,512.1 851.4,505.1 848.3,510.3 845.1,509.4 841.9,514.6 838.7,512.9 835.6,512.2 832.6,510.4 829.3,512.9 826.1,508.2 823.0,505.2 819.8,502.1 816.6,497.1 813.4,497.6 810.2,501.6 807.0,488.9 803.8,498.6 800.6,508.2 797.6,494.9 794.5,494.0 791.2,497.8 788.1,506.6 784.9,509.5 781.7,510.5 778.5,501.2 775.3,492.4 772.1,493.2 768.9,480.5 765.7,485.1 762.5,482.7 759.5,478.0 756.4,467.2 753.2,470.0 750.0,453.1 746.8,461.4 743.6,461.8 740.5,445.6 737.2,432.0 734.1,452.2 730.9,459.9 727.7,434.1 724.6,445.0 721.4,435.7 718.3,431.2 715.1,446.9 711.9,441.0 708.7,438.9 705.5,449.4 702.4,434.1 699.1,431.0 695.9,425.8 692.8,425.7 689.6,428.3 686.4,435.4 683.3,411.7 680.2,398.7 677.0,398.0 673.8,409.0 670.6,426.3 667.5,414.6 664.3,414.6 661.0,408.3 657.9,409.3 654.7,402.8 651.5,417.0 648.3,410.5 645.2,401.4 642.2,387.3 638.9,378.3 635.7,398.1 632.6,389.2 629.4,388.2 626.2,387.3 623.0,370.9 619.8,368.1 616.6,376.9 613.4,373.9 610.2,379.6 607.2,361.3 604.1,350.4 600.8,367.3 597.7,359.9 594.5,362.8 591.3,367.4 588.1,360.0 584.9,355.4 581.8,356.7 578.6,362.2 575.4,361.8 572.2,371.9 569.1,356.2 566.0,345.1 562.8,345.4 559.6,348.5 556.4,357.5 553.2,361.9 550.0,362.6 546.8,362.8 543.6,368.2 540.4,374.2 537.3,376.1 534.1,372.9 531.0,359.2 527.9,352.1 524.7,366.1 521.5,360.5 518.3,374.8 515.1,378.8 512.0,376.2 508.7,369.6 505.5,375.2 502.4,377.2 499.2,378.1 496.0,379.1 492.9,362.3 489.8,358.9 486.6,369.1 483.4,371.7 480.2,366.4 477.1,372.6 473.9,380.2 470.6,367.7 467.5,377.4 464.3,375.3 461.1,377.7 457.9,379.3 454.8,361.5 451.8,353.9 448.5,365.4 445.3,362.9 442.2,359.9 439.0,362.6 435.8,364.4 432.6,375.8 429.4,380.5 426.3,372.3 423.1,380.7 419.9,384.5 416.8,368.3 413.7,360.9 410.4,375.3 407.3,378.2 404.1,390.5 400.9,397.3 397.7,393.7 394.5,390.7 391.3,396.2 388.1,392.1 384.9,405.5 381.7,401.8 378.7,393.8 375.6,381.1 372.4,387.3 369.2,390.1 366.0,395.1 362.8,403.2 359.6,408.4 356.4,405.6 353.2,417.1 350.0,418.9 346.9,422.5 343.7,416.8 340.6,401.5 337.5,394.9 334.3,397.9 331.1,410.3 327.9,410.6 324.7,413.8 321.6,419.0 318.3,409.7 315.1,414.5 312.0,421.2 308.8,417.5 305.6,411.7 302.5,403.3 299.4,393.4 296.2,389.3 293.0,390.5 289.9,397.2 286.7,402.1 283.5,403.5 280.3,397.1 277.1,403.1 273.9,398.4 270.8,402.6 267.6,396.8 264.5,389.3 261.3,378.3 258.1,372.5 254.9,387.6 251.8,387.5 248.6,397.0 245.4,395.9 242.2,385.5 239.0,399.4 235.8,405.5 232.6,411.2 229.4,407.7 226.4,398.6 223.3,394.9 220.0,399.5 216.9,396.6 213.7,395.7 210.5,404.5 207.3,407.3 204.1,402.5 200.9,419.1 197.7,417.4 194.5,426.1 191.3,416.9 188.3,404.3 185.2,398.4 182.0,397.5 178.8,409.2 175.6,404.6 172.4,413.2 169.2,425.8 166.0,421.4 162.8,425.0 159.6,430.2 156.5,428.0 153.3,412.6 150.2,410.4 147.1,407.4" stroke="none" stroke-width="0.9000"  fill="#7B553E" clip-path="url(#axis_clip)"/>
    <text class="pl" transform="translate(937.2,447.5)" dy="7.6" font-size="25.20" fill="#7B553E" stroke="none">Petrol</text>
  </g>
  <g class="pg_1">
    <polygon class="pl" points="147.1,407.4 150.2,410.4 153.3,412.6 156.5,428.0 159.6,430.2 162.8,425.0 166.0,421.4 169.2,425.8 172.4,413.2 175.6,404.6 178.8,409.2 182.0,397.5 185.2,398.4 188.3,404.3 191.3,416.9 194.5,426.1 197.7,417.4 200.9,419.1 204.1,402.5 207.3,407.3 210.5,404.5 213.7,395.7 216.9,396.6 220.0,399.5 223.3,394.9 226.4,398.6 229.4,407.7 232.6,411.2 235.8,405.5 239.0,399.4 242.2,385.5 245.4,395.9 248.6,397.0 251.8,387.5 254.9,387.6 258.1,372.5 261.3,378.3 264.5,389.3 267.6,396.8 270.8,402.6 273.9,398.4 277.1,403.1 280.3,397.1 283.5,403.5 286.7,402.1 289.9,397.2 293.0,390.5 296.2,389.3 299.4,393.4 302.5,403.3 305.6,411.7 308.8,417.5 312.0,421.2 315.1,414.5 318.3,409.7 321.6,419.0 324.7,413.8 327.9,410.6 331.1,410.3 334.3,397.9 337.5,394.9 340.6,401.5 343.7,416.8 346.9,422.5 350.0,418.9 353.2,417.1 356.4,405.6 359.6,408.4 362.8,403.2 366.0,395.1 369.2,390.1 372.4,387.3 375.6,381.1 378.7,393.8 381.7,401.8 384.9,405.5 388.1,392.1 391.3,396.2 394.5,390.7 397.7,393.7 400.9,397.3 404.1,390.5 407.3,378.2 410.4,375.3 413.7,360.9 416.8,368.3 419.9,384.5 423.1,380.7 426.3,372.3 429.4,380.5 432.6,375.8 435.8,364.4 439.0,362.6 442.2,359.9 445.3,362.9 448.5,365.4 451.8,353.9 454.8,361.5 457.9,379.3 461.1,377.7 464.3,375.3 467.5,377.4 470.6,367.7 473.9,380.2 477.1,372.6 480.2,366.4 483.4,371.7 486.6,369.1 489.8,358.9 492.9,362.3 496.0,379.1 499.2,378.1 502.4,377.2 505.5,375.2 508.7,369.6 512.0,376.2 515.1,378.8 518.3,374.8 521.5,360.5 524.7,366.1 527.9,352.1 531.0,359.2 534.1,372.9 537.3,376.1 540.4,374.2 543.6,368.2 546.8,362.8 550.0,362.6 553.2,361.9 556.4,357.5 559.6,348.5 562.8,345.4 566.0,345.1 569.1,356.2 572.2,371.9 575.4,361.8 578.6,362.2 581.8,356.7 584.9,355.4 588.1,360.0 591.3,367.4 594.5,362.8 597.7,359.9 600.8,367.3 604.1,350.4 607.2,361.3 610.2,379.6 613.4,373.9 616.6,376.9 619.8,368.1 623.0,370.9 626.2,387.3 629.4,388.2 632.6,389.2 635.7,398.1 638.9,378.3 642.2,387.3 645.2,401.4 648.3,410.5 651.5,417.0 654.7,402.8 657.9,409.3 661.0,408.3 664.3,414.6 667.5,414.6 670.6,426.3 673.8,409.0 677.0,398.0 680.2,398.7 683.3,411.7 686.4,435.4 689.6,428.3 692.8,425.7 695.9,425.8 699.1,431.0 702.4,434.1 705.5,449.4 708.7,438.9 711.9,441.0 715.1,446.9 718.3,431.2 721.4,435.7 724.6,445.0 727.7,434.1 730.9,459.9 734.1,452.2 737.2,432.0 740.5,445.6 743.6,461.8 746.8,461.4 750.0,453.1 753.2,470.0 756.4,467.2 759.5,478.0 762.5,482.7 765.7,485.1 768.9,480.5 772.1,493.2 775.3,492.4 778.5,501.2 781.7,510.5 784.9,509.5 788.1,506.6 791.2,497.8 794.5,494.0 797.6,494.9 800.6,508.2 803.8,498.6 807.0,488.9 810.2,501.6 813.4,497.6 816.6,497.1 819.8,502.1 823.0,505.2 826.1,508.2 829.3,512.9 832.6,510.4 835.6,512.2 838.7,512.9 841.9,514.6 845.1,509.4 848.3,510.3 851.4,505.1 854.7,512.1 857.9,517.8 861.0,516.7 864.2,513.3 867.4,517.4 870.6,504.0 873.7,513.4 876.9,516.5 880.0,508.4 883.2,502.0 886.4,509.8 889.6,509.0 892.8,515.3 892.8,560.2 147.1,560.2" stroke="none" stroke-width="0.9000"  fill="#7B6E57" clip-path="url(#axis_clip)"/>
    <text class="pl" transform="translate(937.2,537.7)" dy="7.6" font-size="25.20" fill="#7B6E57" stroke="none">Diesel</text>
  </g>
</g>
<g id="lines">
  <g class="pl_1">
    <use xlink:href="#line_1" class="thick" stroke="#000" stroke-width="3" opacity="0"/>
    <use xlink:href="#line_1" class="pl pll" stroke="#000" stroke-width="0.90"/>
  </g>
  <g class="pl_2">
    <use xlink:href="#line_2" class="thick" stroke="#000" stroke-width="3" opacity="0"/>
    <use xlink:href="#line_2" class="pl pll" stroke="#000" stroke-width="0.90"/>
  </g>
  <g class="pl_3">
    <use xlink:href="#line_3" class="thick" stroke="#000" stroke-width="3" opacity="0"/>
    <use xlink:href="#line_3" class="pl pll" stroke="#000" stroke-width="0.90"/>
  </g>
  <g class="pl_4">
    <use xlink:href="#line_4" class="thick" stroke="#000" stroke-width="3" opacity="0"/>
    <use xlink:href="#line_4" class="pl pll" stroke="#000" stroke-width="0.90"/>
  </g>
  <g class="pl_5">
    <use xlink:href="#line_5" class="thick" stroke="#000" stroke-width="3" opacity="0"/>
    <use xlink:href="#line_5" class="pl pll" stroke="#000" stroke-width="0.90"/>
  </g>
  <g class="pl_6">
    <use xlink:href="#line_6" class="thick" stroke="#000" stroke-width="3" opacity="0"/>
    <use xlink:href="#line_6" class="pl pll" stroke="#000" stroke-width="0.90"/>
  </g>
  <g class="pl_7">
    <use xlink:href="#line_7" class="thick" stroke="#000" stroke-width="3" opacity="0"/>
    <use xlink:href="#line_7" class="pl pll" stroke="#000" stroke-width="0.90"/>
  </g>
  <g class="pl_8">
    <use xlink:href="#line_8" class="thick" stroke="#000" stroke-width="3" opacity="0"/>
    <use xlink:href="#line_8" class="pl pll" stroke="#000" stroke-width="0.90"/>
  </g>
  <g class="pl_9">
    <use xlink:href="#line_9" class="thick" stroke="#000" stroke-width="3" opacity="0"/>
    <use xlink:href="#line_9" class="pl pll" stroke="#000" stroke-width="0.90"/>
  </g>
  <g class="pl_10">
    <use xlink:href="#line_10" class="thick" stroke="#000" stroke-width="3" opacity="0"/>
    <use xlink:href="#line_10" class="pl pll" stroke="#000" stroke-width="0.90"/>
  </g>
  <g class="pl_11">
    <use xlink:href="#line_11" class="thick" stroke="#000" stroke-width="3" opacity="0"/>
    <use xlink:href="#line_11" class="pl pll" stroke="#000" stroke-width="0.90"/>
  </g>
  <g class="pl_12">
    <use xlink:href="#line_12" class="thick" stroke="#000" stroke-width="3" opacity="0"/>
    <use xlink:href="#line_12" class="pl pll" stroke="#000" stroke-width="0.90"/>
  </g>
  <g class="pl_13">
    <use xlink:href="#line_13" class="thick" stroke="#000" stroke-width="3" opacity="0"/>
    <use xlink:href="#line_13" class="pl pll" stroke="#000" stroke-width="0.90"/>
  </g>
  <g class="pl_14">
    <use xlink:href="#line_14" class="thick" stroke="#000" stroke-width="3" opacity="0"/>
    <use xlink:href="#line_14" class="pl pll" stroke="#000" stroke-width="0.90"/>
  </g>
  <g class="pl_15">
    <use xlink:href="#line_15" class="thick" stroke="#000" stroke-width="3" opacity="0"/>
    <use xlink:href="#line_15" class="pl pll" stroke="#000" stroke-width="0.90"/>
  </g>
</g>
    <text class="pl" transform="translate(164.6,573.0) rotate(-90)" dy="8.1" font-size="27.00" fill="#808080" stroke="none" text-anchor="end">2005</text>
    <text class="pl" transform="translate(202.7,573.0) rotate(-90)" dy="8.1" font-size="27.00" fill="#808080" stroke="none" text-anchor="end">2006</text>
    <text class="pl" transform="translate(240.8,573.0) rotate(-90)" dy="8.1" font-size="27.00" fill="#808080" stroke="none" text-anchor="end">2007</text>
    <text class="pl" transform="translate(278.9,573.0) rotate(-90)" dy="8.1" font-size="27.00" fill="#808080" stroke="none" text-anchor="end">2008</text>
    <text class="pl" transform="translate(317.0,573.0) rotate(-90)" dy="8.1" font-size="27.00" fill="#808080" stroke="none" text-anchor="end">2009</text>
    <text class="pl" transform="translate(355.0,573.0) rotate(-90)" dy="8.1" font-size="27.00" fill="#808080" stroke="none" text-anchor="end">2010</text>
    <text class="pl" transform="translate(393.1,573.0) rotate(-90)" dy="8.1" font-size="27.00" fill="#808080" stroke="none" text-anchor="end">2011</text>
    <text class="pl" transform="translate(431.2,573.0) rotate(-90)" dy="8.1" font-size="27.00" fill="#808080" stroke="none" text-anchor="end">2012</text>
    <text class="pl" transform="translate(469.3,573.0) rotate(-90)" dy="8.1" font-size="27.00" fill="#808080" stroke="none" text-anchor="end">2013</text>
    <text class="pl" transform="translate(507.4,573.0) rotate(-90)" dy="8.1" font-size="27.00" fill="#808080" stroke="none" text-anchor="end">2014</text>
    <text class="pl" transform="translate(545.4,573.0) rotate(-90)" dy="8.1" font-size="27.00" fill="#808080" stroke="none" text-anchor="end">2015</text>
    <text class="pl" transform="translate(583.5,573.0) rotate(-90)" dy="8.1" font-size="27.00" fill="#808080" stroke="none" text-anchor="end">2016</text>
    <text class="pl" transform="translate(621.6,573.0) rotate(-90)" dy="8.1" font-size="27.00" fill="#808080" stroke="none" text-anchor="end">2017</text>
    <text class="pl" transform="translate(659.7,573.0) rotate(-90)" dy="8.1" font-size="27.00" fill="#808080" stroke="none" text-anchor="end">2018</text>
    <text class="pl" transform="translate(697.8,573.0) rotate(-90)" dy="8.1" font-size="27.00" fill="#808080" stroke="none" text-anchor="end">2019</text>
    <text class="pl" transform="translate(735.8,573.0) rotate(-90)" dy="8.1" font-size="27.00" fill="#808080" stroke="none" text-anchor="end">2020</text>
    <text class="pl" transform="translate(773.9,573.0) rotate(-90)" dy="8.1" font-size="27.00" fill="#808080" stroke="none" text-anchor="end">2021</text>
    <text class="pl" transform="translate(812.0,573.0) rotate(-90)" dy="8.1" font-size="27.00" fill="#808080" stroke="none" text-anchor="end">2022</text>
    <text class="pl" transform="translate(850.1,573.0) rotate(-90)" dy="8.1" font-size="27.00" fill="#808080" stroke="none" text-anchor="end">2023</text>
    <text class="pl" transform="translate(888.2,573.0) rotate(-90)" dy="8.1" font-size="27.00" fill="#808080" stroke="none" text-anchor="end">2024</text>
<text transform="translate(157.6,666.1)" font-size="19.80" font-family="Helvetica" fill="#BFBFBF" stroke="none" xml:space="preserve"><a href="https://twitter.com/robbie_andrew" style="fill:#BFBFBF" target="_blank">@robbie_andrew</a>   &#9679;   Data: BFS   &#9679;   Through August 2024</text>
<text class="twitlink" transform="translate(157.6,666.1)" opacity="0" font-size="19.80" fill="#BFBFBF" stroke="none" xml:space="preserve"><a href="https://twitter.com/robbie_andrew" style="fill:#BFBFBF" target="_blank">@robbie_andrew</a></text>
  <g class="dl_el" transform="translate(154.6,578.4)">
    <g class="dl_el_balloon">
      <foreignObject x="0" y="0" width="120" height="500">
      <div xmlns="http://www.w3.org/1999/xhtml" class="dl_fe" style="height:60px">
      <p class="dl_fe_p">Find me on Twitter</p>
      </div>
	    </foreignObject>
      <path stroke="#000" fill="#FDFFDF" d="M0,60H60l5,5l5,-5H120"/>
    </g>
  </g>
<use xlink:href="#line_y" transform="translate(145.6,0)"/>
<use xlink:href="#line_y" transform="translate(183.7,0)"/>
<use xlink:href="#line_y" transform="translate(221.8,0)"/>
<use xlink:href="#line_y" transform="translate(259.8,0)"/>
<use xlink:href="#line_y" transform="translate(297.9,0)"/>
<use xlink:href="#line_y" transform="translate(336.0,0)"/>
<use xlink:href="#line_y" transform="translate(374.1,0)"/>
<use xlink:href="#line_y" transform="translate(412.2,0)"/>
<use xlink:href="#line_y" transform="translate(450.2,0)"/>
<use xlink:href="#line_y" transform="translate(488.3,0)"/>
<use xlink:href="#line_y" transform="translate(526.4,0)"/>
<use xlink:href="#line_y" transform="translate(564.5,0)"/>
<use xlink:href="#line_y" transform="translate(602.6,0)"/>
<use xlink:href="#line_y" transform="translate(640.6,0)"/>
<use xlink:href="#line_y" transform="translate(678.7,0)"/>
<use xlink:href="#line_y" transform="translate(716.8,0)"/>
<use xlink:href="#line_y" transform="translate(754.9,0)"/>
<use xlink:href="#line_y" transform="translate(793.0,0)"/>
<use xlink:href="#line_y" transform="translate(831.0,0)"/>
<use xlink:href="#line_y" transform="translate(869.1,0)"/>
<use xlink:href="#line_y" transform="translate(907.2,0)"/>
<use xlink:href="#line_x" transform="translate(0,560.2)"/>
<use xlink:href="#line_x" transform="translate(0,458.9)"/>
<use xlink:href="#line_x" transform="translate(0,357.7)"/>
<use xlink:href="#line_x" transform="translate(0,256.5)"/>
<use xlink:href="#line_x" transform="translate(0,155.2)"/>
<use xlink:href="#line_x" transform="translate(0,54.0)"/>
<use xlink:href="#tick_x" transform="translate(145.6,0)"/>
<use xlink:href="#tick_x" transform="translate(183.7,0)"/>
<use xlink:href="#tick_x" transform="translate(221.8,0)"/>
<use xlink:href="#tick_x" transform="translate(259.8,0)"/>
<use xlink:href="#tick_x" transform="translate(297.9,0)"/>
<use xlink:href="#tick_x" transform="translate(336.0,0)"/>
<use xlink:href="#tick_x" transform="translate(374.1,0)"/>
<use xlink:href="#tick_x" transform="translate(412.2,0)"/>
<use xlink:href="#tick_x" transform="translate(450.2,0)"/>
<use xlink:href="#tick_x" transform="translate(488.3,0)"/>
<use xlink:href="#tick_x" transform="translate(526.4,0)"/>
<use xlink:href="#tick_x" transform="translate(564.5,0)"/>
<use xlink:href="#tick_x" transform="translate(602.6,0)"/>
<use xlink:href="#tick_x" transform="translate(640.6,0)"/>
<use xlink:href="#tick_x" transform="translate(678.7,0)"/>
<use xlink:href="#tick_x" transform="translate(716.8,0)"/>
<use xlink:href="#tick_x" transform="translate(754.9,0)"/>
<use xlink:href="#tick_x" transform="translate(793.0,0)"/>
<use xlink:href="#tick_x" transform="translate(831.0,0)"/>
<use xlink:href="#tick_x" transform="translate(869.1,0)"/>
<use xlink:href="#tick_x" transform="translate(907.2,0)"/>
<use xlink:href="#tick_y" transform="translate(0,560.2)"/>
<use xlink:href="#tick_y" transform="translate(0,458.9)"/>
<use xlink:href="#tick_y" transform="translate(0,357.7)"/>
<use xlink:href="#tick_y" transform="translate(0,256.5)"/>
<use xlink:href="#tick_y" transform="translate(0,155.2)"/>
<use xlink:href="#tick_y" transform="translate(0,54.0)"/>
<polyline points="145.6,53.993 145.6,560.180 907.2,560.180" stroke="#808080" stroke-width="0.90" fill="none"/>
<g>
<a href="https://creativecommons.org/licenses/by/4.0/">
  <rect x="123.0" y="651.4" width="34" height="17" fill="#FFF" stroke="none"/>
  <g transform="translate(124.0,652.4) scale(0.24)">
  <g><circle fill="#FFF" cx="37.79" cy="28.5" r="28.84"/>
     <circle fill="none" cx="37.79" cy="28.5" r="28.84" stroke="#BFBFBF" stroke-width="5.5"/>
     <path fill="#BFBFBF" d="M37.16,23.19 l-4.29,2.23c-0.458-0.951-1.02-1.62-1.69-2c-0.667-0.38-1.29-0.571-1.86-0.571c-2.86,0-4.29,1.89-4.29,5.66 c0,1.71,0.36,3.08,1.09,4.11c0.724,1.03,1.79,1.54,3.2,1.54c1.87,0,3.18-0.915,3.94-2.74l3.94,2 c-0.838,1.56-2,2.79-3.49,3.69c-1.48,0.896-3.12,1.34-4.91,1.34c-2.86,0-5.16-0.875-6.92-2.63 c-1.75-1.75-2.63-4.19-2.63-7.31c0-3.05,0.886-5.47,2.66-7.26c1.77-1.79,4.01-2.69,6.72-2.69 C32.6,18.56,35.44,20.1,37.16,23.19z
              M55.61,23.19l-4.23,2.23c-0.457-0.951-1.02-1.62-1.69-2 c-0.668-0.38-1.31-0.571-1.91-0.571c-2.86,0-4.29,1.89-4.29,5.66c0,1.71,0.363,3.08,1.09,4.11 c0.723,1.03,1.79,1.54,3.2,1.54c1.87,0,3.18-0.915,3.94-2.74l4,2c-0.875,1.56-2.06,2.79-3.54,3.69 c-1.49,0.9-3.11,1.34-4.86,1.34c-2.9,0-5.21-0.875-6.94-2.63c-1.74-1.75-2.6-4.19-2.6-7.31 c0-3.05,0.885-5.47,2.66-7.26c1.77-1.79,4.01-2.69,6.71-2.69C51.12,18.56,53.944,20.1,55.61,23.19z"/>
  </g></g>
  <g transform="translate(140.2,652.4) scale(0.24)">
  <g><circle fill="#FFF" cx="37.79" cy="28.5" r="28.84"/>
     <circle fill="none" cx="37.79" cy="28.5" r="28.84" stroke="#BFBFBF" stroke-width="5.5"/>
     <path fill="#BFBFBF" d="M46.129,20.557v13.085h-3.656v15.542h-9.944V33.643h-3.656V20.557 c0-0.572,0.2-1.057,0.599-1.457c0.401-0.399,0.887-0.6,1.457-0.6h13.144c0.533,0,1.01,0.2,1.428,0.6 C45.918,19.5,46.129,19.986,46.129,20.557z
              M33.042,12.329c0-3.008,1.485-4.514,4.458-4.514s4.457,1.504,4.457,4.514 c0,2.971-1.486,4.457-4.457,4.457S33.042,15.3,33.042,12.329z"/>
  </g></g>
  </a>
</g>
  <g class="dl_el" transform="translate(69.1,548.4)">
    <g class="dl_el_balloon">
      <foreignObject x="0" y="0" width="250" height="500">
      <div xmlns="http://www.w3.org/1999/xhtml" class="dl_fe" style="height:90px">
      <p class="dl_fe_p">CC-BY: Material may be freely re-used as long as you credit the author</p>
      </div>
	    </foreignObject>
      <path stroke="#000" fill="#FDFFDF" d="M0,90H70l5,5l5,-5H250"/>
    </g>
  </g>
</g>
</svg>
