<svg version="1.1" xmlns="http://www.w3.org/2000/svg" xmlns:xlink="http://www.w3.org/1999/xlink" width="100%" height="100%" viewBox="0 0 1200.000 674.916">
<title>UK new passenger car sales by type: Half-Yearly</title>
<desc>Created by Robbie Andrew (@robbie_andrew), CICERO Center for International Climate Research. CC-BY: Material may be freely re-used as long as you credit the author</desc>
<style type="text/css">
  #main {font-family:Helvetica,Arial,sans-serif; font-size:27.00px;
         fill-opacity:1; fill:#000000; stroke:none; stroke-linejoin:round; stroke-linecap:round; stroke-width:1.00;}
  a:hover {text-decoration: underline;}
  .marker {stroke-opacity:0;fill-opacity:0;}
  .marker:hover {stroke-opacity:0.5; fill-opacity:1;}
  .ticklabel {font-size:27.00px;fill:#808080;stroke:none;font-family:Helvetica}
  .ytl {text-anchor:end;}
  .dp1 {pointer-events:none;font-size:70%;text-anchor:middle;fill:#000000;}
  .dp2 {pointer-events:none;font-size:70%;text-anchor:middle;fill:#FFFFFF;}
  .numtip {pointer-events:none;}
  .cc {opacity:0.25;}
.dl_fe {background-color:#FDFFDF;display:flex;margin:auto;align-items:center}
.dl_fe_p {font-size:20px;text-align:center;margin:3px}
.dl_el {display:none;pointer-events:none;}
.cc:hover + .dl_el {display:block;}
text:hover + .dl_el {display:block;}
  #areas .pl {transition: all 0.2s ease;}
  #areas:hover .pl {opacity:0.5;}
  #areas:hover .thick {stroke-width:1;}
  #areas:hover .pg_1:hover .pl {opacity:1;}
  #areas:hover .pg_1:hover .pll {stroke-width:3;}
  #areas:hover .pg_1:hover .pldlm {stroke-width:2;}
  #areas:hover .pg_1:hover .thick {stroke-width:12;}
  #areas:hover .pg_2:hover .pl {opacity:1;}
  #areas:hover .pg_2:hover .pll {stroke-width:3;}
  #areas:hover .pg_2:hover .pldlm {stroke-width:2;}
  #areas:hover .pg_2:hover .thick {stroke-width:12;}
  #areas:hover .pg_3:hover .pl {opacity:1;}
  #areas:hover .pg_3:hover .pll {stroke-width:3;}
  #areas:hover .pg_3:hover .pldlm {stroke-width:2;}
  #areas:hover .pg_3:hover .thick {stroke-width:12;}
  #areas:hover .pg_4:hover .pl {opacity:1;}
  #areas:hover .pg_4:hover .pll {stroke-width:3;}
  #areas:hover .pg_4:hover .pldlm {stroke-width:2;}
  #areas:hover .pg_4:hover .thick {stroke-width:12;}
  #areas:hover .pg_5:hover .pl {opacity:1;}
  #areas:hover .pg_5:hover .pll {stroke-width:3;}
  #areas:hover .pg_5:hover .pldlm {stroke-width:2;}
  #areas:hover .pg_5:hover .thick {stroke-width:12;}
  #areas:hover .pg_6:hover .pl {opacity:1;}
  #areas:hover .pg_6:hover .pll {stroke-width:3;}
  #areas:hover .pg_6:hover .pldlm {stroke-width:2;}
  #areas:hover .pg_6:hover .thick {stroke-width:12;}
  #lines .pl {transition: all 0.2s ease;}
  #lines:hover .pl {opacity:0.3;}
  #lines:hover .thick {stroke-width:1;}
  #lines:hover .pl_1:hover .pl {opacity:1;}
  #lines:hover .pl_1:hover .pll {stroke-width:3;}
  #lines:hover .pl_1:hover .pldlm {stroke-width:2;}
  #lines:hover .pl_1:hover .thick {stroke-width:12;}
  #lines:hover .pl_2:hover .pl {opacity:1;}
  #lines:hover .pl_2:hover .pll {stroke-width:3;}
  #lines:hover .pl_2:hover .pldlm {stroke-width:2;}
  #lines:hover .pl_2:hover .thick {stroke-width:12;}
  #lines:hover .pl_3:hover .pl {opacity:1;}
  #lines:hover .pl_3:hover .pll {stroke-width:3;}
  #lines:hover .pl_3:hover .pldlm {stroke-width:2;}
  #lines:hover .pl_3:hover .thick {stroke-width:12;}
  #lines:hover .pl_4:hover .pl {opacity:1;}
  #lines:hover .pl_4:hover .pll {stroke-width:3;}
  #lines:hover .pl_4:hover .pldlm {stroke-width:2;}
  #lines:hover .pl_4:hover .thick {stroke-width:12;}
  #lines:hover .pl_5:hover .pl {opacity:1;}
  #lines:hover .pl_5:hover .pll {stroke-width:3;}
  #lines:hover .pl_5:hover .pldlm {stroke-width:2;}
  #lines:hover .pl_5:hover .thick {stroke-width:12;}
  #lines:hover .pl_6:hover .pl {opacity:1;}
  #lines:hover .pl_6:hover .pll {stroke-width:3;}
  #lines:hover .pl_6:hover .pldlm {stroke-width:2;}
  #lines:hover .pl_6:hover .thick {stroke-width:12;}
  #lines:hover .pl_7:hover .pl {opacity:1;}
  #lines:hover .pl_7:hover .pll {stroke-width:3;}
  #lines:hover .pl_7:hover .pldlm {stroke-width:2;}
  #lines:hover .pl_7:hover .thick {stroke-width:12;}
  #lines:hover .pl_8:hover .pl {opacity:1;}
  #lines:hover .pl_8:hover .pll {stroke-width:3;}
  #lines:hover .pl_8:hover .pldlm {stroke-width:2;}
  #lines:hover .pl_8:hover .thick {stroke-width:12;}
  #lines:hover .pl_9:hover .pl {opacity:1;}
  #lines:hover .pl_9:hover .pll {stroke-width:3;}
  #lines:hover .pl_9:hover .pldlm {stroke-width:2;}
  #lines:hover .pl_9:hover .thick {stroke-width:12;}
  #lines:hover .pl_10:hover .pl {opacity:1;}
  #lines:hover .pl_10:hover .pll {stroke-width:3;}
  #lines:hover .pl_10:hover .pldlm {stroke-width:2;}
  #lines:hover .pl_10:hover .thick {stroke-width:12;}
  #lines:hover .pl_11:hover .pl {opacity:1;}
  #lines:hover .pl_11:hover .pll {stroke-width:3;}
  #lines:hover .pl_11:hover .pldlm {stroke-width:2;}
  #lines:hover .pl_11:hover .thick {stroke-width:12;}
  #lines:hover .pl_12:hover .pl {opacity:1;}
  #lines:hover .pl_12:hover .pll {stroke-width:3;}
  #lines:hover .pl_12:hover .pldlm {stroke-width:2;}
  #lines:hover .pl_12:hover .thick {stroke-width:12;}
  #lines:hover .pl_13:hover .pl {opacity:1;}
  #lines:hover .pl_13:hover .pll {stroke-width:3;}
  #lines:hover .pl_13:hover .pldlm {stroke-width:2;}
  #lines:hover .pl_13:hover .thick {stroke-width:12;}
  #lines:hover .pl_14:hover .pl {opacity:1;}
  #lines:hover .pl_14:hover .pll {stroke-width:3;}
  #lines:hover .pl_14:hover .pldlm {stroke-width:2;}
  #lines:hover .pl_14:hover .thick {stroke-width:12;}
  #lines:hover .pl_15:hover .pl {opacity:1;}
  #lines:hover .pl_15:hover .pll {stroke-width:3;}
  #lines:hover .pl_15:hover .pldlm {stroke-width:2;}
  #lines:hover .pl_15:hover .thick {stroke-width:12;}
</style>
<defs>
  <clipPath id="axis_clip"><rect x="145.8" y="54.2" width="761.2" height="505.8" /></clipPath>
  <path id="line_y" d="M 0,53.993 v 506.187" stroke="#FFF" stroke-opacity="0.15" stroke-width="1.00"/>
  <path id="line_x" d="M 145.600,0 h 761.600" stroke="#FFF" stroke-opacity="0.15" stroke-width="1.00"/>
  <path id="tick_y" d="M 145.600,0 h -6.000" stroke="#808080" stroke-width="0.90"/>
  <path id="tick_x" d="M 0,560.180 v 6.000" stroke="#808080" stroke-width="0.90"/>
  <symbol id="line_1" viewBox="0 0 1200.000 674.916">
<polyline class="pl" points="-6.7,54.5 12.3,54.5 12.3,54.3 31.4,54.3 31.4,54.5 50.4,54.5 50.4,54.5 69.4,54.5 69.4,54.6 88.5,54.6 88.5,54.6 107.5,54.6 107.5,54.4 126.6,54.4 126.6,54.3 145.6,54.3 145.6,54.1 164.6,54.1 164.6,54.1 183.7,54.1 183.7,54.0 202.7,54.0 202.7,54.0 221.8,54.0 221.8,54.0 240.8,54.0 240.8,54.1 259.8,54.1 259.8,54.0 278.9,54.0 278.9,54.0 297.9,54.0 297.9,54.1 317.0,54.1 317.0,54.1 336.0,54.1 336.0,54.1 355.0,54.1 355.0,54.0 374.1,54.0 374.1,54.0 393.1,54.0 393.1,54.0 412.2,54.0 412.2,54.1 431.2,54.1 431.2,54.1 450.2,54.1 450.2,54.1 469.3,54.1 469.3,54.1 488.3,54.1 488.3,54.2 507.4,54.2 507.4,54.3 526.4,54.3 526.4,54.3 545.4,54.3 545.4,54.4 564.5,54.4 564.5,54.3 583.5,54.3 583.5,54.5 602.6,54.5 602.6,54.5 621.6,54.5 621.6,54.5 640.6,54.5 640.6,54.3 659.7,54.3 659.7,54.7 678.7,54.7 678.7,54.1 697.8,54.1 697.8,54.0 716.8,54.0 716.8,54.1 735.8,54.1 735.8,54.4 754.9,54.4 754.9,54.5 773.9,54.5 773.9,55.0 793.0,55.0 793.0,55.1 812.0,55.1 812.0,55.3 831.0,55.3 831.0,54.6 850.1,54.6 850.1,54.9 869.1,54.9 869.1,54.6 888.2,54.6" stroke="#000" stroke-width="0.90" stroke-opacity="1.00" fill="none" clip-path="url(#axis_clip)"/>
  </symbol>
  <symbol id="line_2" viewBox="0 0 1200.000 674.916">
<polyline class="pl" points="-6.7,54.5 12.3,54.5 12.3,54.3 31.4,54.3 31.4,54.5 50.4,54.5 50.4,54.5 69.4,54.5 69.4,54.6 88.5,54.6 88.5,54.6 107.5,54.6 107.5,54.4 126.6,54.4 126.6,54.3 145.6,54.3 145.6,54.2 164.6,54.2 164.6,54.1 183.7,54.1 183.7,54.1 202.7,54.1 202.7,54.1 221.8,54.1 221.8,54.1 240.8,54.1 240.8,54.1 259.8,54.1 259.8,54.1 278.9,54.1 278.9,54.1 297.9,54.1 297.9,54.1 317.0,54.1 317.0,54.1 336.0,54.1 336.0,54.1 355.0,54.1 355.0,54.1 374.1,54.1 374.1,54.4 393.1,54.4 393.1,54.3 412.2,54.3 412.2,54.6 431.2,54.6 431.2,54.6 450.2,54.6 450.2,54.6 469.3,54.6 469.3,54.8 488.3,54.8 488.3,55.3 507.4,55.3 507.4,56.1 526.4,56.1 526.4,56.0 545.4,56.0 545.4,56.5 564.5,56.5 564.5,56.1 583.5,56.1 583.5,56.5 602.6,56.5 602.6,57.3 621.6,57.3 621.6,57.2 640.6,57.2 640.6,57.2 659.7,57.2 659.7,58.5 678.7,58.5 678.7,59.0 697.8,59.0 697.8,66.3 716.8,66.3 716.8,77.8 735.8,77.8 735.8,93.6 754.9,93.6 754.9,95.0 773.9,95.0 773.9,133.2 793.0,133.2 793.0,126.2 812.0,126.2 812.0,147.6 831.0,147.6 831.0,134.5 850.1,134.5 850.1,138.4 869.1,138.4 869.1,136.6 888.2,136.6" stroke="#000" stroke-width="0.90" stroke-opacity="1.00" fill="none" clip-path="url(#axis_clip)"/>
  </symbol>
  <symbol id="line_3" viewBox="0 0 1200.000 674.916">
<polyline class="pl" points="-6.7,54.5 12.3,54.5 12.3,54.3 31.4,54.3 31.4,54.5 50.4,54.5 50.4,54.5 69.4,54.5 69.4,54.6 88.5,54.6 88.5,54.6 107.5,54.6 107.5,54.4 126.6,54.4 126.6,54.3 145.6,54.3 145.6,54.2 164.6,54.2 164.6,54.1 183.7,54.1 183.7,54.1 202.7,54.1 202.7,54.1 221.8,54.1 221.8,54.1 240.8,54.1 240.8,54.1 259.8,54.1 259.8,54.1 278.9,54.1 278.9,54.1 297.9,54.1 297.9,54.1 317.0,54.1 317.0,54.1 336.0,54.1 336.0,54.1 355.0,54.1 355.0,54.1 374.1,54.1 374.1,54.4 393.1,54.4 393.1,54.3 412.2,54.3 412.2,54.6 431.2,54.6 431.2,54.8 450.2,54.8 450.2,54.7 469.3,54.7 469.3,55.0 488.3,55.0 488.3,55.6 507.4,55.6 507.4,58.5 526.4,58.5 526.4,59.5 545.4,59.5 545.4,59.7 564.5,59.7 564.5,61.2 583.5,61.2 583.5,61.3 602.6,61.3 602.6,62.4 621.6,62.4 621.6,65.4 640.6,65.4 640.6,65.3 659.7,65.3 659.7,68.5 678.7,68.5 678.7,64.9 697.8,64.9 697.8,75.8 716.8,75.8 716.8,92.8 735.8,92.8 735.8,117.7 754.9,117.7 754.9,126.8 773.9,126.8 773.9,171.0 793.0,171.0 793.0,157.7 812.0,157.7 812.0,177.8 831.0,177.8 831.0,166.9 850.1,166.9 850.1,179.3 869.1,179.3 869.1,176.8 888.2,176.8" stroke="#000" stroke-width="0.90" stroke-opacity="1.00" fill="none" clip-path="url(#axis_clip)"/>
  </symbol>
  <symbol id="line_4" viewBox="0 0 1200.000 674.916">
<polyline class="pl" points="-6.7,54.7 12.3,54.7 12.3,54.4 31.4,54.4 31.4,54.5 50.4,54.5 50.4,54.5 69.4,54.5 69.4,54.7 88.5,54.7 88.5,54.7 107.5,54.7 107.5,54.7 126.6,54.7 126.6,54.6 145.6,54.6 145.6,55.1 164.6,55.1 164.6,55.5 183.7,55.5 183.7,55.7 202.7,55.7 202.7,56.4 221.8,56.4 221.8,57.4 240.8,57.4 240.8,57.7 259.8,57.7 259.8,57.6 278.9,57.6 278.9,58.0 297.9,58.0 297.9,57.1 317.0,57.1 317.0,58.4 336.0,58.4 336.0,59.3 355.0,59.3 355.0,60.1 374.1,60.1 374.1,60.2 393.1,60.2 393.1,60.7 412.2,60.7 412.2,60.9 431.2,60.9 431.2,60.8 450.2,60.8 450.2,60.8 469.3,60.8 469.3,62.0 488.3,62.0 488.3,63.2 507.4,63.2 507.4,66.0 526.4,66.0 526.4,67.9 545.4,67.9 545.4,68.2 564.5,68.2 564.5,70.5 583.5,70.5 583.5,71.2 602.6,71.2 602.6,75.3 621.6,75.3 621.6,81.3 640.6,81.3 640.6,82.3 659.7,82.3 659.7,89.3 678.7,89.3 678.7,85.9 697.8,85.9 697.8,103.3 716.8,103.3 716.8,132.9 735.8,132.9 735.8,176.7 754.9,176.7 754.9,201.8 773.9,201.8 773.9,256.2 793.0,256.2 793.0,256.1 812.0,256.1 812.0,282.4 831.0,282.4 831.0,277.7 850.1,277.7 850.1,309.2 869.1,309.2 869.1,322.2 888.2,322.2" stroke="#000" stroke-width="0.90" stroke-opacity="1.00" fill="none" clip-path="url(#axis_clip)"/>
  </symbol>
  <symbol id="line_5" viewBox="0 0 1200.000 674.916">
<polyline class="pl" points="-6.7,478.7 12.3,478.7 12.3,460.8 31.4,460.8 31.4,444.9 50.4,444.9 50.4,434.6 69.4,434.6 69.4,427.2 88.5,427.2 88.5,414.0 107.5,414.0 107.5,402.3 126.6,402.3 126.6,387.0 145.6,387.0 145.6,384.7 164.6,384.7 164.6,364.2 183.7,364.2 183.7,372.6 202.7,372.6 202.7,360.9 221.8,360.9 221.8,365.5 240.8,365.5 240.8,349.2 259.8,349.2 259.8,344.3 278.9,344.3 278.9,337.1 297.9,337.1 297.9,340.7 317.0,340.7 317.0,358.8 336.0,358.8 336.0,343.4 355.0,343.4 355.0,311.1 374.1,311.1 374.1,308.9 393.1,308.9 393.1,302.4 412.2,302.4 412.2,302.7 431.2,302.7 431.2,306.3 450.2,306.3 450.2,312.7 469.3,312.7 469.3,306.0 488.3,306.0 488.3,308.5 507.4,308.5 507.4,307.5 526.4,307.5 526.4,316.5 545.4,316.5 545.4,315.3 564.5,315.3 564.5,318.5 583.5,318.5 583.5,321.2 602.6,321.2 602.6,338.9 621.6,338.9 621.6,359.8 640.6,359.8 640.6,395.6 659.7,395.6 659.7,406.3 678.7,406.3 678.7,421.1 697.8,421.1 697.8,431.9 716.8,431.9 716.8,455.3 735.8,455.3 735.8,475.0 754.9,475.0 754.9,487.4 773.9,487.4 773.9,518.6 793.0,518.6 793.0,517.8 812.0,517.8 812.0,524.1 831.0,524.1 831.0,525.3 850.1,525.3 850.1,529.4 869.1,529.4 869.1,531.5 888.2,531.5" stroke="#000" stroke-width="0.90" stroke-opacity="1.00" fill="none" clip-path="url(#axis_clip)"/>
  </symbol>
  <symbol id="line_6" viewBox="0 0 1200.000 674.916">
<polyline class="pl" points="-6.7,54.5 12.3,54.5 12.3,54.3 31.4,54.3 31.4,54.5 50.4,54.5 50.4,54.5 69.4,54.5 69.4,54.6 88.5,54.6 88.5,54.6 107.5,54.6 107.5,54.4 126.6,54.4 126.6,54.3 145.6,54.3 145.6,54.2 164.6,54.2 164.6,54.1 183.7,54.1 183.7,54.1 202.7,54.1 202.7,54.1 221.8,54.1 221.8,54.1 240.8,54.1 240.8,54.1 259.8,54.1 259.8,54.1 278.9,54.1 278.9,54.1 297.9,54.1 297.9,54.1 317.0,54.1 317.0,54.1 336.0,54.1 336.0,54.1 355.0,54.1 355.0,54.1 374.1,54.1 374.1,54.4 393.1,54.4 393.1,54.3 412.2,54.3 412.2,54.6 431.2,54.6 431.2,54.6 450.2,54.6 450.2,54.6 469.3,54.6 469.3,54.8 488.3,54.8 488.3,55.3 507.4,55.3 507.4,56.1 526.4,56.1 526.4,56.0 545.4,56.0 545.4,56.5 564.5,56.5 564.5,56.1 583.5,56.1 583.5,56.5 602.6,56.5 602.6,57.3 621.6,57.3 621.6,57.2 640.6,57.2 640.6,57.2 659.7,57.2 659.7,58.5 678.7,58.5 678.7,59.0 697.8,59.0 697.8,66.3 716.8,66.3 716.8,77.8 735.8,77.8 735.8,93.6 754.9,93.6 754.9,95.0 773.9,95.0 773.9,133.2 793.0,133.2 793.0,126.2 812.0,126.2 812.0,147.6 831.0,147.6 831.0,134.5 850.1,134.5 850.1,138.4 869.1,138.4 869.1,136.6 888.2,136.6" stroke="#000" stroke-width="0.90" stroke-opacity="1.00" fill="none" clip-path="url(#axis_clip)"/>
  </symbol>
  <symbol id="line_7" viewBox="0 0 1200.000 674.916">
<polyline class="pl" points="-6.7,54.5 12.3,54.5 12.3,54.3 31.4,54.3 31.4,54.5 50.4,54.5 50.4,54.5 69.4,54.5 69.4,54.6 88.5,54.6 88.5,54.6 107.5,54.6 107.5,54.4 126.6,54.4 126.6,54.3 145.6,54.3 145.6,54.2 164.6,54.2 164.6,54.1 183.7,54.1 183.7,54.1 202.7,54.1 202.7,54.1 221.8,54.1 221.8,54.1 240.8,54.1 240.8,54.1 259.8,54.1 259.8,54.1 278.9,54.1 278.9,54.1 297.9,54.1 297.9,54.1 317.0,54.1 317.0,54.1 336.0,54.1 336.0,54.1 355.0,54.1 355.0,54.1 374.1,54.1 374.1,54.4 393.1,54.4 393.1,54.3 412.2,54.3 412.2,54.6 431.2,54.6 431.2,54.8 450.2,54.8 450.2,54.7 469.3,54.7 469.3,55.0 488.3,55.0 488.3,55.6 507.4,55.6 507.4,58.5 526.4,58.5 526.4,59.5 545.4,59.5 545.4,59.7 564.5,59.7 564.5,61.2 583.5,61.2 583.5,61.3 602.6,61.3 602.6,62.4 621.6,62.4 621.6,65.4 640.6,65.4 640.6,65.3 659.7,65.3 659.7,68.5 678.7,68.5 678.7,64.9 697.8,64.9 697.8,75.8 716.8,75.8 716.8,92.8 735.8,92.8 735.8,117.7 754.9,117.7 754.9,126.8 773.9,126.8 773.9,171.0 793.0,171.0 793.0,157.7 812.0,157.7 812.0,177.8 831.0,177.8 831.0,166.9 850.1,166.9 850.1,179.3 869.1,179.3 869.1,176.8 888.2,176.8" stroke="#000" stroke-width="0.90" stroke-opacity="1.00" fill="none" clip-path="url(#axis_clip)"/>
  </symbol>
  <symbol id="line_8" viewBox="0 0 1200.000 674.916">
<polyline class="pl" points="-6.7,54.7 12.3,54.7 12.3,54.4 31.4,54.4 31.4,54.5 50.4,54.5 50.4,54.5 69.4,54.5 69.4,54.7 88.5,54.7 88.5,54.7 107.5,54.7 107.5,54.7 126.6,54.7 126.6,54.6 145.6,54.6 145.6,55.1 164.6,55.1 164.6,55.5 183.7,55.5 183.7,55.7 202.7,55.7 202.7,56.4 221.8,56.4 221.8,57.4 240.8,57.4 240.8,57.7 259.8,57.7 259.8,57.6 278.9,57.6 278.9,58.0 297.9,58.0 297.9,57.1 317.0,57.1 317.0,58.4 336.0,58.4 336.0,59.3 355.0,59.3 355.0,60.1 374.1,60.1 374.1,60.2 393.1,60.2 393.1,60.7 412.2,60.7 412.2,60.9 431.2,60.9 431.2,60.8 450.2,60.8 450.2,60.8 469.3,60.8 469.3,62.0 488.3,62.0 488.3,63.2 507.4,63.2 507.4,66.0 526.4,66.0 526.4,67.9 545.4,67.9 545.4,68.2 564.5,68.2 564.5,70.5 583.5,70.5 583.5,71.2 602.6,71.2 602.6,75.3 621.6,75.3 621.6,81.3 640.6,81.3 640.6,82.3 659.7,82.3 659.7,89.3 678.7,89.3 678.7,85.9 697.8,85.9 697.8,103.3 716.8,103.3 716.8,132.9 735.8,132.9 735.8,176.7 754.9,176.7 754.9,201.8 773.9,201.8 773.9,256.2 793.0,256.2 793.0,256.1 812.0,256.1 812.0,282.4 831.0,282.4 831.0,277.7 850.1,277.7 850.1,309.2 869.1,309.2 869.1,322.2 888.2,322.2" stroke="#000" stroke-width="0.90" stroke-opacity="1.00" fill="none" clip-path="url(#axis_clip)"/>
  </symbol>
  <symbol id="line_9" viewBox="0 0 1200.000 674.916">
<polyline class="pl" points="-6.7,478.7 12.3,478.7 12.3,460.8 31.4,460.8 31.4,444.9 50.4,444.9 50.4,434.6 69.4,434.6 69.4,427.2 88.5,427.2 88.5,414.0 107.5,414.0 107.5,402.3 126.6,402.3 126.6,387.0 145.6,387.0 145.6,384.7 164.6,384.7 164.6,364.2 183.7,364.2 183.7,372.6 202.7,372.6 202.7,360.9 221.8,360.9 221.8,365.5 240.8,365.5 240.8,349.2 259.8,349.2 259.8,344.3 278.9,344.3 278.9,337.1 297.9,337.1 297.9,340.7 317.0,340.7 317.0,358.8 336.0,358.8 336.0,343.4 355.0,343.4 355.0,311.1 374.1,311.1 374.1,308.9 393.1,308.9 393.1,302.4 412.2,302.4 412.2,302.7 431.2,302.7 431.2,306.3 450.2,306.3 450.2,312.7 469.3,312.7 469.3,306.0 488.3,306.0 488.3,308.5 507.4,308.5 507.4,307.5 526.4,307.5 526.4,316.5 545.4,316.5 545.4,315.3 564.5,315.3 564.5,318.5 583.5,318.5 583.5,321.2 602.6,321.2 602.6,338.9 621.6,338.9 621.6,359.8 640.6,359.8 640.6,395.6 659.7,395.6 659.7,406.3 678.7,406.3 678.7,421.1 697.8,421.1 697.8,431.9 716.8,431.9 716.8,455.3 735.8,455.3 735.8,475.0 754.9,475.0 754.9,487.4 773.9,487.4 773.9,518.6 793.0,518.6 793.0,517.8 812.0,517.8 812.0,524.1 831.0,524.1 831.0,525.3 850.1,525.3 850.1,529.4 869.1,529.4 869.1,531.5 888.2,531.5" stroke="#000" stroke-width="0.90" stroke-opacity="1.00" fill="none" clip-path="url(#axis_clip)"/>
  </symbol>
  <symbol id="line_10" viewBox="0 0 1200.000 674.916">
<polyline class="pl" points="-6.7,54.5 12.3,54.5 12.3,54.3 31.4,54.3 31.4,54.5 50.4,54.5 50.4,54.5 69.4,54.5 69.4,54.6 88.5,54.6 88.5,54.6 107.5,54.6 107.5,54.4 126.6,54.4 126.6,54.3 145.6,54.3 145.6,54.2 164.6,54.2 164.6,54.1 183.7,54.1 183.7,54.1 202.7,54.1 202.7,54.1 221.8,54.1 221.8,54.1 240.8,54.1 240.8,54.1 259.8,54.1 259.8,54.1 278.9,54.1 278.9,54.1 297.9,54.1 297.9,54.1 317.0,54.1 317.0,54.1 336.0,54.1 336.0,54.1 355.0,54.1 355.0,54.1 374.1,54.1 374.1,54.4 393.1,54.4 393.1,54.3 412.2,54.3 412.2,54.6 431.2,54.6 431.2,54.8 450.2,54.8 450.2,54.7 469.3,54.7 469.3,55.0 488.3,55.0 488.3,55.6 507.4,55.6 507.4,58.5 526.4,58.5 526.4,59.5 545.4,59.5 545.4,59.7 564.5,59.7 564.5,61.2 583.5,61.2 583.5,61.3 602.6,61.3 602.6,62.4 621.6,62.4 621.6,65.4 640.6,65.4 640.6,65.3 659.7,65.3 659.7,68.5 678.7,68.5 678.7,64.9 697.8,64.9 697.8,75.8 716.8,75.8 716.8,92.8 735.8,92.8 735.8,117.7 754.9,117.7 754.9,126.8 773.9,126.8 773.9,171.0 793.0,171.0 793.0,157.7 812.0,157.7 812.0,177.8 831.0,177.8 831.0,166.9 850.1,166.9 850.1,179.3 869.1,179.3 869.1,176.8 888.2,176.8" stroke="#000" stroke-width="0.90" stroke-opacity="1.00" fill="none" clip-path="url(#axis_clip)"/>
  </symbol>
  <symbol id="line_11" viewBox="0 0 1200.000 674.916">
<polyline class="pl" points="-6.7,54.7 12.3,54.7 12.3,54.4 31.4,54.4 31.4,54.5 50.4,54.5 50.4,54.5 69.4,54.5 69.4,54.7 88.5,54.7 88.5,54.7 107.5,54.7 107.5,54.7 126.6,54.7 126.6,54.6 145.6,54.6 145.6,55.1 164.6,55.1 164.6,55.5 183.7,55.5 183.7,55.7 202.7,55.7 202.7,56.4 221.8,56.4 221.8,57.4 240.8,57.4 240.8,57.7 259.8,57.7 259.8,57.6 278.9,57.6 278.9,58.0 297.9,58.0 297.9,57.1 317.0,57.1 317.0,58.4 336.0,58.4 336.0,59.3 355.0,59.3 355.0,60.1 374.1,60.1 374.1,60.2 393.1,60.2 393.1,60.7 412.2,60.7 412.2,60.9 431.2,60.9 431.2,60.8 450.2,60.8 450.2,60.8 469.3,60.8 469.3,62.0 488.3,62.0 488.3,63.2 507.4,63.2 507.4,66.0 526.4,66.0 526.4,67.9 545.4,67.9 545.4,68.2 564.5,68.2 564.5,70.5 583.5,70.5 583.5,71.2 602.6,71.2 602.6,75.3 621.6,75.3 621.6,81.3 640.6,81.3 640.6,82.3 659.7,82.3 659.7,89.3 678.7,89.3 678.7,85.9 697.8,85.9 697.8,103.3 716.8,103.3 716.8,132.9 735.8,132.9 735.8,176.7 754.9,176.7 754.9,201.8 773.9,201.8 773.9,256.2 793.0,256.2 793.0,256.1 812.0,256.1 812.0,282.4 831.0,282.4 831.0,277.7 850.1,277.7 850.1,309.2 869.1,309.2 869.1,322.2 888.2,322.2" stroke="#000" stroke-width="0.90" stroke-opacity="1.00" fill="none" clip-path="url(#axis_clip)"/>
  </symbol>
  <symbol id="line_12" viewBox="0 0 1200.000 674.916">
<polyline class="pl" points="-6.7,478.7 12.3,478.7 12.3,460.8 31.4,460.8 31.4,444.9 50.4,444.9 50.4,434.6 69.4,434.6 69.4,427.2 88.5,427.2 88.5,414.0 107.5,414.0 107.5,402.3 126.6,402.3 126.6,387.0 145.6,387.0 145.6,384.7 164.6,384.7 164.6,364.2 183.7,364.2 183.7,372.6 202.7,372.6 202.7,360.9 221.8,360.9 221.8,365.5 240.8,365.5 240.8,349.2 259.8,349.2 259.8,344.3 278.9,344.3 278.9,337.1 297.9,337.1 297.9,340.7 317.0,340.7 317.0,358.8 336.0,358.8 336.0,343.4 355.0,343.4 355.0,311.1 374.1,311.1 374.1,308.9 393.1,308.9 393.1,302.4 412.2,302.4 412.2,302.7 431.2,302.7 431.2,306.3 450.2,306.3 450.2,312.7 469.3,312.7 469.3,306.0 488.3,306.0 488.3,308.5 507.4,308.5 507.4,307.5 526.4,307.5 526.4,316.5 545.4,316.5 545.4,315.3 564.5,315.3 564.5,318.5 583.5,318.5 583.5,321.2 602.6,321.2 602.6,338.9 621.6,338.9 621.6,359.8 640.6,359.8 640.6,395.6 659.7,395.6 659.7,406.3 678.7,406.3 678.7,421.1 697.8,421.1 697.8,431.9 716.8,431.9 716.8,455.3 735.8,455.3 735.8,475.0 754.9,475.0 754.9,487.4 773.9,487.4 773.9,518.6 793.0,518.6 793.0,517.8 812.0,517.8 812.0,524.1 831.0,524.1 831.0,525.3 850.1,525.3 850.1,529.4 869.1,529.4 869.1,531.5 888.2,531.5" stroke="#000" stroke-width="0.90" stroke-opacity="1.00" fill="none" clip-path="url(#axis_clip)"/>
  </symbol>
  <symbol id="line_13" viewBox="0 0 1200.000 674.916">
<polyline class="pl" points="-6.7,54.7 12.3,54.7 12.3,54.4 31.4,54.4 31.4,54.5 50.4,54.5 50.4,54.5 69.4,54.5 69.4,54.7 88.5,54.7 88.5,54.7 107.5,54.7 107.5,54.7 126.6,54.7 126.6,54.6 145.6,54.6 145.6,55.1 164.6,55.1 164.6,55.5 183.7,55.5 183.7,55.7 202.7,55.7 202.7,56.4 221.8,56.4 221.8,57.4 240.8,57.4 240.8,57.7 259.8,57.7 259.8,57.6 278.9,57.6 278.9,58.0 297.9,58.0 297.9,57.1 317.0,57.1 317.0,58.4 336.0,58.4 336.0,59.3 355.0,59.3 355.0,60.1 374.1,60.1 374.1,60.2 393.1,60.2 393.1,60.7 412.2,60.7 412.2,60.9 431.2,60.9 431.2,60.8 450.2,60.8 450.2,60.8 469.3,60.8 469.3,62.0 488.3,62.0 488.3,63.2 507.4,63.2 507.4,66.0 526.4,66.0 526.4,67.9 545.4,67.9 545.4,68.2 564.5,68.2 564.5,70.5 583.5,70.5 583.5,71.2 602.6,71.2 602.6,75.3 621.6,75.3 621.6,81.3 640.6,81.3 640.6,82.3 659.7,82.3 659.7,89.3 678.7,89.3 678.7,85.9 697.8,85.9 697.8,103.3 716.8,103.3 716.8,132.9 735.8,132.9 735.8,176.7 754.9,176.7 754.9,201.8 773.9,201.8 773.9,256.2 793.0,256.2 793.0,256.1 812.0,256.1 812.0,282.4 831.0,282.4 831.0,277.7 850.1,277.7 850.1,309.2 869.1,309.2 869.1,322.2 888.2,322.2" stroke="#000" stroke-width="0.90" stroke-opacity="1.00" fill="none" clip-path="url(#axis_clip)"/>
  </symbol>
  <symbol id="line_14" viewBox="0 0 1200.000 674.916">
<polyline class="pl" points="-6.7,478.7 12.3,478.7 12.3,460.8 31.4,460.8 31.4,444.9 50.4,444.9 50.4,434.6 69.4,434.6 69.4,427.2 88.5,427.2 88.5,414.0 107.5,414.0 107.5,402.3 126.6,402.3 126.6,387.0 145.6,387.0 145.6,384.7 164.6,384.7 164.6,364.2 183.7,364.2 183.7,372.6 202.7,372.6 202.7,360.9 221.8,360.9 221.8,365.5 240.8,365.5 240.8,349.2 259.8,349.2 259.8,344.3 278.9,344.3 278.9,337.1 297.9,337.1 297.9,340.7 317.0,340.7 317.0,358.8 336.0,358.8 336.0,343.4 355.0,343.4 355.0,311.1 374.1,311.1 374.1,308.9 393.1,308.9 393.1,302.4 412.2,302.4 412.2,302.7 431.2,302.7 431.2,306.3 450.2,306.3 450.2,312.7 469.3,312.7 469.3,306.0 488.3,306.0 488.3,308.5 507.4,308.5 507.4,307.5 526.4,307.5 526.4,316.5 545.4,316.5 545.4,315.3 564.5,315.3 564.5,318.5 583.5,318.5 583.5,321.2 602.6,321.2 602.6,338.9 621.6,338.9 621.6,359.8 640.6,359.8 640.6,395.6 659.7,395.6 659.7,406.3 678.7,406.3 678.7,421.1 697.8,421.1 697.8,431.9 716.8,431.9 716.8,455.3 735.8,455.3 735.8,475.0 754.9,475.0 754.9,487.4 773.9,487.4 773.9,518.6 793.0,518.6 793.0,517.8 812.0,517.8 812.0,524.1 831.0,524.1 831.0,525.3 850.1,525.3 850.1,529.4 869.1,529.4 869.1,531.5 888.2,531.5" stroke="#000" stroke-width="0.90" stroke-opacity="1.00" fill="none" clip-path="url(#axis_clip)"/>
  </symbol>
  <symbol id="line_15" viewBox="0 0 1200.000 674.916">
<polyline class="pl" points="-6.7,478.7 12.3,478.7 12.3,460.8 31.4,460.8 31.4,444.9 50.4,444.9 50.4,434.6 69.4,434.6 69.4,427.2 88.5,427.2 88.5,414.0 107.5,414.0 107.5,402.3 126.6,402.3 126.6,387.0 145.6,387.0 145.6,384.7 164.6,384.7 164.6,364.2 183.7,364.2 183.7,372.6 202.7,372.6 202.7,360.9 221.8,360.9 221.8,365.5 240.8,365.5 240.8,349.2 259.8,349.2 259.8,344.3 278.9,344.3 278.9,337.1 297.9,337.1 297.9,340.7 317.0,340.7 317.0,358.8 336.0,358.8 336.0,343.4 355.0,343.4 355.0,311.1 374.1,311.1 374.1,308.9 393.1,308.9 393.1,302.4 412.2,302.4 412.2,302.7 431.2,302.7 431.2,306.3 450.2,306.3 450.2,312.7 469.3,312.7 469.3,306.0 488.3,306.0 488.3,308.5 507.4,308.5 507.4,307.5 526.4,307.5 526.4,316.5 545.4,316.5 545.4,315.3 564.5,315.3 564.5,318.5 583.5,318.5 583.5,321.2 602.6,321.2 602.6,338.9 621.6,338.9 621.6,359.8 640.6,359.8 640.6,395.6 659.7,395.6 659.7,406.3 678.7,406.3 678.7,421.1 697.8,421.1 697.8,431.9 716.8,431.9 716.8,455.3 735.8,455.3 735.8,475.0 754.9,475.0 754.9,487.4 773.9,487.4 773.9,518.6 793.0,518.6 793.0,517.8 812.0,517.8 812.0,524.1 831.0,524.1 831.0,525.3 850.1,525.3 850.1,529.4 869.1,529.4 869.1,531.5 888.2,531.5" stroke="#000" stroke-width="0.90" stroke-opacity="1.00" fill="none" clip-path="url(#axis_clip)"/>
  </symbol>
</defs>
<g id="main">
<text class="ticklabel ytl" transform="translate(128.8,568.3)">0 %</text>
<text class="ticklabel ytl" transform="translate(128.8,467.0)">20 %</text>
<text class="ticklabel ytl" transform="translate(128.8,365.8)">40 %</text>
<text class="ticklabel ytl" transform="translate(128.8,264.6)">60 %</text>
<text class="ticklabel ytl" transform="translate(128.8,163.3)">80 %</text>
<text class="ticklabel ytl" transform="translate(128.8,62.1)">100 %</text>
<g id="areas">
  <g class="pg_6">
    <polygon class="pl" points="-6.7,54.0 12.3,54.0 12.3,54.0 31.4,54.0 31.4,54.0 50.4,54.0 50.4,54.0 69.4,54.0 69.4,54.0 88.5,54.0 88.5,54.0 107.5,54.0 107.5,54.0 126.6,54.0 126.6,54.0 145.6,54.0 145.6,54.0 164.6,54.0 164.6,54.0 183.7,54.0 183.7,54.0 202.7,54.0 202.7,54.0 221.8,54.0 221.8,54.0 240.8,54.0 240.8,54.0 259.8,54.0 259.8,54.0 278.9,54.0 278.9,54.0 297.9,54.0 297.9,54.0 317.0,54.0 317.0,54.0 336.0,54.0 336.0,54.0 355.0,54.0 355.0,54.0 374.1,54.0 374.1,54.0 393.1,54.0 393.1,54.0 412.2,54.0 412.2,54.0 431.2,54.0 431.2,54.0 450.2,54.0 450.2,54.0 469.3,54.0 469.3,54.0 488.3,54.0 488.3,54.0 507.4,54.0 507.4,54.0 526.4,54.0 526.4,54.0 545.4,54.0 545.4,54.0 564.5,54.0 564.5,54.0 583.5,54.0 583.5,54.0 602.6,54.0 602.6,54.0 621.6,54.0 621.6,54.0 640.6,54.0 640.6,54.0 659.7,54.0 659.7,54.0 678.7,54.0 678.7,54.0 697.8,54.0 697.8,54.0 716.8,54.0 716.8,54.0 735.8,54.0 735.8,54.0 754.9,54.0 754.9,54.0 773.9,54.0 773.9,54.0 793.0,54.0 793.0,54.0 812.0,54.0 812.0,54.0 831.0,54.0 831.0,54.0 850.1,54.0 850.1,54.0 869.1,54.0 869.1,54.0 888.2,54.0 888.2,54.6 869.1,54.6 869.1,54.9 850.1,54.9 850.1,54.6 831.0,54.6 831.0,55.3 812.0,55.3 812.0,55.1 793.0,55.1 793.0,55.0 773.9,55.0 773.9,54.5 754.9,54.5 754.9,54.4 735.8,54.4 735.8,54.1 716.8,54.1 716.8,54.0 697.8,54.0 697.8,54.1 678.7,54.1 678.7,54.7 659.7,54.7 659.7,54.3 640.6,54.3 640.6,54.5 621.6,54.5 621.6,54.5 602.6,54.5 602.6,54.5 583.5,54.5 583.5,54.3 564.5,54.3 564.5,54.4 545.4,54.4 545.4,54.3 526.4,54.3 526.4,54.3 507.4,54.3 507.4,54.2 488.3,54.2 488.3,54.1 469.3,54.1 469.3,54.1 450.2,54.1 450.2,54.1 431.2,54.1 431.2,54.1 412.2,54.1 412.2,54.0 393.1,54.0 393.1,54.0 374.1,54.0 374.1,54.0 355.0,54.0 355.0,54.1 336.0,54.1 336.0,54.1 317.0,54.1 317.0,54.1 297.9,54.1 297.9,54.0 278.9,54.0 278.9,54.0 259.8,54.0 259.8,54.1 240.8,54.1 240.8,54.0 221.8,54.0 221.8,54.0 202.7,54.0 202.7,54.0 183.7,54.0 183.7,54.1 164.6,54.1 164.6,54.1 145.6,54.1 145.6,54.3 126.6,54.3 126.6,54.4 107.5,54.4 107.5,54.6 88.5,54.6 88.5,54.6 69.4,54.6 69.4,54.5 50.4,54.5 50.4,54.5 31.4,54.5 31.4,54.3 12.3,54.3 12.3,54.5 -6.7,54.5" stroke="none" stroke-width="0.9000"  fill="#808080" clip-path="url(#axis_clip)"/>
    <text class="pl" transform="translate(925.2,54.3)" dy="7.6" font-size="25.20" fill="#808080" stroke="none">Others</text>
    <text class="pl" transform="translate(145.6,47.2)" dy="0.0" font-size="27.00" fill="#808080" stroke="none">UK new passenger car sales by type: Half-Yearly</text>
  </g>
  <g class="pg_5">
    <polygon class="pl" points="-6.7,54.5 12.3,54.5 12.3,54.3 31.4,54.3 31.4,54.5 50.4,54.5 50.4,54.5 69.4,54.5 69.4,54.6 88.5,54.6 88.5,54.6 107.5,54.6 107.5,54.4 126.6,54.4 126.6,54.3 145.6,54.3 145.6,54.1 164.6,54.1 164.6,54.1 183.7,54.1 183.7,54.0 202.7,54.0 202.7,54.0 221.8,54.0 221.8,54.0 240.8,54.0 240.8,54.1 259.8,54.1 259.8,54.0 278.9,54.0 278.9,54.0 297.9,54.0 297.9,54.1 317.0,54.1 317.0,54.1 336.0,54.1 336.0,54.1 355.0,54.1 355.0,54.0 374.1,54.0 374.1,54.0 393.1,54.0 393.1,54.0 412.2,54.0 412.2,54.1 431.2,54.1 431.2,54.1 450.2,54.1 450.2,54.1 469.3,54.1 469.3,54.1 488.3,54.1 488.3,54.2 507.4,54.2 507.4,54.3 526.4,54.3 526.4,54.3 545.4,54.3 545.4,54.4 564.5,54.4 564.5,54.3 583.5,54.3 583.5,54.5 602.6,54.5 602.6,54.5 621.6,54.5 621.6,54.5 640.6,54.5 640.6,54.3 659.7,54.3 659.7,54.7 678.7,54.7 678.7,54.1 697.8,54.1 697.8,54.0 716.8,54.0 716.8,54.1 735.8,54.1 735.8,54.4 754.9,54.4 754.9,54.5 773.9,54.5 773.9,55.0 793.0,55.0 793.0,55.1 812.0,55.1 812.0,55.3 831.0,55.3 831.0,54.6 850.1,54.6 850.1,54.9 869.1,54.9 869.1,54.6 888.2,54.6 888.2,136.6 869.1,136.6 869.1,138.4 850.1,138.4 850.1,134.5 831.0,134.5 831.0,147.6 812.0,147.6 812.0,126.2 793.0,126.2 793.0,133.2 773.9,133.2 773.9,95.0 754.9,95.0 754.9,93.6 735.8,93.6 735.8,77.8 716.8,77.8 716.8,66.3 697.8,66.3 697.8,59.0 678.7,59.0 678.7,58.5 659.7,58.5 659.7,57.2 640.6,57.2 640.6,57.2 621.6,57.2 621.6,57.3 602.6,57.3 602.6,56.5 583.5,56.5 583.5,56.1 564.5,56.1 564.5,56.5 545.4,56.5 545.4,56.0 526.4,56.0 526.4,56.1 507.4,56.1 507.4,55.3 488.3,55.3 488.3,54.8 469.3,54.8 469.3,54.6 450.2,54.6 450.2,54.6 431.2,54.6 431.2,54.6 412.2,54.6 412.2,54.3 393.1,54.3 393.1,54.4 374.1,54.4 374.1,54.1 355.0,54.1 355.0,54.1 336.0,54.1 336.0,54.1 317.0,54.1 317.0,54.1 297.9,54.1 297.9,54.1 278.9,54.1 278.9,54.1 259.8,54.1 259.8,54.1 240.8,54.1 240.8,54.1 221.8,54.1 221.8,54.1 202.7,54.1 202.7,54.1 183.7,54.1 183.7,54.1 164.6,54.1 164.6,54.2 145.6,54.2 145.6,54.3 126.6,54.3 126.6,54.4 107.5,54.4 107.5,54.6 88.5,54.6 88.5,54.6 69.4,54.6 69.4,54.5 50.4,54.5 50.4,54.5 31.4,54.5 31.4,54.3 12.3,54.3 12.3,54.5 -6.7,54.5" stroke="none" stroke-width="0.9000"  fill="#6298C6" clip-path="url(#axis_clip)"/>
    <text class="pl" transform="translate(925.2,95.6)" dy="7.6" font-size="25.20" fill="#6298C6" stroke="none">Battery electric</text>
  </g>
  <g class="pg_4">
    <polygon class="pl" points="-6.7,54.5 12.3,54.5 12.3,54.3 31.4,54.3 31.4,54.5 50.4,54.5 50.4,54.5 69.4,54.5 69.4,54.6 88.5,54.6 88.5,54.6 107.5,54.6 107.5,54.4 126.6,54.4 126.6,54.3 145.6,54.3 145.6,54.2 164.6,54.2 164.6,54.1 183.7,54.1 183.7,54.1 202.7,54.1 202.7,54.1 221.8,54.1 221.8,54.1 240.8,54.1 240.8,54.1 259.8,54.1 259.8,54.1 278.9,54.1 278.9,54.1 297.9,54.1 297.9,54.1 317.0,54.1 317.0,54.1 336.0,54.1 336.0,54.1 355.0,54.1 355.0,54.1 374.1,54.1 374.1,54.4 393.1,54.4 393.1,54.3 412.2,54.3 412.2,54.6 431.2,54.6 431.2,54.6 450.2,54.6 450.2,54.6 469.3,54.6 469.3,54.8 488.3,54.8 488.3,55.3 507.4,55.3 507.4,56.1 526.4,56.1 526.4,56.0 545.4,56.0 545.4,56.5 564.5,56.5 564.5,56.1 583.5,56.1 583.5,56.5 602.6,56.5 602.6,57.3 621.6,57.3 621.6,57.2 640.6,57.2 640.6,57.2 659.7,57.2 659.7,58.5 678.7,58.5 678.7,59.0 697.8,59.0 697.8,66.3 716.8,66.3 716.8,77.8 735.8,77.8 735.8,93.6 754.9,93.6 754.9,95.0 773.9,95.0 773.9,133.2 793.0,133.2 793.0,126.2 812.0,126.2 812.0,147.6 831.0,147.6 831.0,134.5 850.1,134.5 850.1,138.4 869.1,138.4 869.1,136.6 888.2,136.6 888.2,176.8 869.1,176.8 869.1,179.3 850.1,179.3 850.1,166.9 831.0,166.9 831.0,177.8 812.0,177.8 812.0,157.7 793.0,157.7 793.0,171.0 773.9,171.0 773.9,126.8 754.9,126.8 754.9,117.7 735.8,117.7 735.8,92.8 716.8,92.8 716.8,75.8 697.8,75.8 697.8,64.9 678.7,64.9 678.7,68.5 659.7,68.5 659.7,65.3 640.6,65.3 640.6,65.4 621.6,65.4 621.6,62.4 602.6,62.4 602.6,61.3 583.5,61.3 583.5,61.2 564.5,61.2 564.5,59.7 545.4,59.7 545.4,59.5 526.4,59.5 526.4,58.5 507.4,58.5 507.4,55.6 488.3,55.6 488.3,55.0 469.3,55.0 469.3,54.7 450.2,54.7 450.2,54.8 431.2,54.8 431.2,54.6 412.2,54.6 412.2,54.3 393.1,54.3 393.1,54.4 374.1,54.4 374.1,54.1 355.0,54.1 355.0,54.1 336.0,54.1 336.0,54.1 317.0,54.1 317.0,54.1 297.9,54.1 297.9,54.1 278.9,54.1 278.9,54.1 259.8,54.1 259.8,54.1 240.8,54.1 240.8,54.1 221.8,54.1 221.8,54.1 202.7,54.1 202.7,54.1 183.7,54.1 183.7,54.1 164.6,54.1 164.6,54.2 145.6,54.2 145.6,54.3 126.6,54.3 126.6,54.4 107.5,54.4 107.5,54.6 88.5,54.6 88.5,54.6 69.4,54.6 69.4,54.5 50.4,54.5 50.4,54.5 31.4,54.5 31.4,54.3 12.3,54.3 12.3,54.5 -6.7,54.5" stroke="none" stroke-width="0.9000"  fill="#77AC30" clip-path="url(#axis_clip)"/>
    <text class="pl" transform="translate(925.2,156.7)" dy="7.6" font-size="25.20" fill="#77AC30" stroke="none">Plugin hybrid</text>
  </g>
  <g class="pg_3">
    <polygon class="pl" points="-6.7,54.5 12.3,54.5 12.3,54.3 31.4,54.3 31.4,54.5 50.4,54.5 50.4,54.5 69.4,54.5 69.4,54.6 88.5,54.6 88.5,54.6 107.5,54.6 107.5,54.4 126.6,54.4 126.6,54.3 145.6,54.3 145.6,54.2 164.6,54.2 164.6,54.1 183.7,54.1 183.7,54.1 202.7,54.1 202.7,54.1 221.8,54.1 221.8,54.1 240.8,54.1 240.8,54.1 259.8,54.1 259.8,54.1 278.9,54.1 278.9,54.1 297.9,54.1 297.9,54.1 317.0,54.1 317.0,54.1 336.0,54.1 336.0,54.1 355.0,54.1 355.0,54.1 374.1,54.1 374.1,54.4 393.1,54.4 393.1,54.3 412.2,54.3 412.2,54.6 431.2,54.6 431.2,54.8 450.2,54.8 450.2,54.7 469.3,54.7 469.3,55.0 488.3,55.0 488.3,55.6 507.4,55.6 507.4,58.5 526.4,58.5 526.4,59.5 545.4,59.5 545.4,59.7 564.5,59.7 564.5,61.2 583.5,61.2 583.5,61.3 602.6,61.3 602.6,62.4 621.6,62.4 621.6,65.4 640.6,65.4 640.6,65.3 659.7,65.3 659.7,68.5 678.7,68.5 678.7,64.9 697.8,64.9 697.8,75.8 716.8,75.8 716.8,92.8 735.8,92.8 735.8,117.7 754.9,117.7 754.9,126.8 773.9,126.8 773.9,171.0 793.0,171.0 793.0,157.7 812.0,157.7 812.0,177.8 831.0,177.8 831.0,166.9 850.1,166.9 850.1,179.3 869.1,179.3 869.1,176.8 888.2,176.8 888.2,322.2 869.1,322.2 869.1,309.2 850.1,309.2 850.1,277.7 831.0,277.7 831.0,282.4 812.0,282.4 812.0,256.1 793.0,256.1 793.0,256.2 773.9,256.2 773.9,201.8 754.9,201.8 754.9,176.7 735.8,176.7 735.8,132.9 716.8,132.9 716.8,103.3 697.8,103.3 697.8,85.9 678.7,85.9 678.7,89.3 659.7,89.3 659.7,82.3 640.6,82.3 640.6,81.3 621.6,81.3 621.6,75.3 602.6,75.3 602.6,71.2 583.5,71.2 583.5,70.5 564.5,70.5 564.5,68.2 545.4,68.2 545.4,67.9 526.4,67.9 526.4,66.0 507.4,66.0 507.4,63.2 488.3,63.2 488.3,62.0 469.3,62.0 469.3,60.8 450.2,60.8 450.2,60.8 431.2,60.8 431.2,60.9 412.2,60.9 412.2,60.7 393.1,60.7 393.1,60.2 374.1,60.2 374.1,60.1 355.0,60.1 355.0,59.3 336.0,59.3 336.0,58.4 317.0,58.4 317.0,57.1 297.9,57.1 297.9,58.0 278.9,58.0 278.9,57.6 259.8,57.6 259.8,57.7 240.8,57.7 240.8,57.4 221.8,57.4 221.8,56.4 202.7,56.4 202.7,55.7 183.7,55.7 183.7,55.5 164.6,55.5 164.6,55.1 145.6,55.1 145.6,54.6 126.6,54.6 126.6,54.7 107.5,54.7 107.5,54.7 88.5,54.7 88.5,54.7 69.4,54.7 69.4,54.5 50.4,54.5 50.4,54.5 31.4,54.5 31.4,54.4 12.3,54.4 12.3,54.7 -6.7,54.7" stroke="none" stroke-width="0.9000"  fill="#91AC6E" clip-path="url(#axis_clip)"/>
    <text class="pl" transform="translate(925.2,249.5)" dy="7.6" font-size="25.20" fill="#91AC6E" stroke="none">Non-plugin hybrid</text>
  </g>
  <g class="pg_2">
    <polygon class="pl" points="-6.7,54.7 12.3,54.7 12.3,54.4 31.4,54.4 31.4,54.5 50.4,54.5 50.4,54.5 69.4,54.5 69.4,54.7 88.5,54.7 88.5,54.7 107.5,54.7 107.5,54.7 126.6,54.7 126.6,54.6 145.6,54.6 145.6,55.1 164.6,55.1 164.6,55.5 183.7,55.5 183.7,55.7 202.7,55.7 202.7,56.4 221.8,56.4 221.8,57.4 240.8,57.4 240.8,57.7 259.8,57.7 259.8,57.6 278.9,57.6 278.9,58.0 297.9,58.0 297.9,57.1 317.0,57.1 317.0,58.4 336.0,58.4 336.0,59.3 355.0,59.3 355.0,60.1 374.1,60.1 374.1,60.2 393.1,60.2 393.1,60.7 412.2,60.7 412.2,60.9 431.2,60.9 431.2,60.8 450.2,60.8 450.2,60.8 469.3,60.8 469.3,62.0 488.3,62.0 488.3,63.2 507.4,63.2 507.4,66.0 526.4,66.0 526.4,67.9 545.4,67.9 545.4,68.2 564.5,68.2 564.5,70.5 583.5,70.5 583.5,71.2 602.6,71.2 602.6,75.3 621.6,75.3 621.6,81.3 640.6,81.3 640.6,82.3 659.7,82.3 659.7,89.3 678.7,89.3 678.7,85.9 697.8,85.9 697.8,103.3 716.8,103.3 716.8,132.9 735.8,132.9 735.8,176.7 754.9,176.7 754.9,201.8 773.9,201.8 773.9,256.2 793.0,256.2 793.0,256.1 812.0,256.1 812.0,282.4 831.0,282.4 831.0,277.7 850.1,277.7 850.1,309.2 869.1,309.2 869.1,322.2 888.2,322.2 888.2,531.5 869.1,531.5 869.1,529.4 850.1,529.4 850.1,525.3 831.0,525.3 831.0,524.1 812.0,524.1 812.0,517.8 793.0,517.8 793.0,518.6 773.9,518.6 773.9,487.4 754.9,487.4 754.9,475.0 735.8,475.0 735.8,455.3 716.8,455.3 716.8,431.9 697.8,431.9 697.8,421.1 678.7,421.1 678.7,406.3 659.7,406.3 659.7,395.6 640.6,395.6 640.6,359.8 621.6,359.8 621.6,338.9 602.6,338.9 602.6,321.2 583.5,321.2 583.5,318.5 564.5,318.5 564.5,315.3 545.4,315.3 545.4,316.5 526.4,316.5 526.4,307.5 507.4,307.5 507.4,308.5 488.3,308.5 488.3,306.0 469.3,306.0 469.3,312.7 450.2,312.7 450.2,306.3 431.2,306.3 431.2,302.7 412.2,302.7 412.2,302.4 393.1,302.4 393.1,308.9 374.1,308.9 374.1,311.1 355.0,311.1 355.0,343.4 336.0,343.4 336.0,358.8 317.0,358.8 317.0,340.7 297.9,340.7 297.9,337.1 278.9,337.1 278.9,344.3 259.8,344.3 259.8,349.2 240.8,349.2 240.8,365.5 221.8,365.5 221.8,360.9 202.7,360.9 202.7,372.6 183.7,372.6 183.7,364.2 164.6,364.2 164.6,384.7 145.6,384.7 145.6,387.0 126.6,387.0 126.6,402.3 107.5,402.3 107.5,414.0 88.5,414.0 88.5,427.2 69.4,427.2 69.4,434.6 50.4,434.6 50.4,444.9 31.4,444.9 31.4,460.8 12.3,460.8 12.3,478.7 -6.7,478.7" stroke="none" stroke-width="0.9000"  fill="#7B553E" clip-path="url(#axis_clip)"/>
    <text class="pl" transform="translate(925.2,426.8)" dy="7.6" font-size="25.20" fill="#7B553E" stroke="none">Petrol</text>
  </g>
  <g class="pg_1">
    <polygon class="pl" points="-6.7,478.7 12.3,478.7 12.3,460.8 31.4,460.8 31.4,444.9 50.4,444.9 50.4,434.6 69.4,434.6 69.4,427.2 88.5,427.2 88.5,414.0 107.5,414.0 107.5,402.3 126.6,402.3 126.6,387.0 145.6,387.0 145.6,384.7 164.6,384.7 164.6,364.2 183.7,364.2 183.7,372.6 202.7,372.6 202.7,360.9 221.8,360.9 221.8,365.5 240.8,365.5 240.8,349.2 259.8,349.2 259.8,344.3 278.9,344.3 278.9,337.1 297.9,337.1 297.9,340.7 317.0,340.7 317.0,358.8 336.0,358.8 336.0,343.4 355.0,343.4 355.0,311.1 374.1,311.1 374.1,308.9 393.1,308.9 393.1,302.4 412.2,302.4 412.2,302.7 431.2,302.7 431.2,306.3 450.2,306.3 450.2,312.7 469.3,312.7 469.3,306.0 488.3,306.0 488.3,308.5 507.4,308.5 507.4,307.5 526.4,307.5 526.4,316.5 545.4,316.5 545.4,315.3 564.5,315.3 564.5,318.5 583.5,318.5 583.5,321.2 602.6,321.2 602.6,338.9 621.6,338.9 621.6,359.8 640.6,359.8 640.6,395.6 659.7,395.6 659.7,406.3 678.7,406.3 678.7,421.1 697.8,421.1 697.8,431.9 716.8,431.9 716.8,455.3 735.8,455.3 735.8,475.0 754.9,475.0 754.9,487.4 773.9,487.4 773.9,518.6 793.0,518.6 793.0,517.8 812.0,517.8 812.0,524.1 831.0,524.1 831.0,525.3 850.1,525.3 850.1,529.4 869.1,529.4 869.1,531.5 888.2,531.5 888.2,560.2 -6.7,560.2" stroke="none" stroke-width="0.9000"  fill="#7B6E57" clip-path="url(#axis_clip)"/>
    <text class="pl" transform="translate(925.2,545.9)" dy="7.6" font-size="25.20" fill="#7B6E57" stroke="none">Diesel</text>
  </g>
</g>
<g id="lines">
  <g class="pl_1">
    <use xlink:href="#line_1" class="thick" stroke="#000" stroke-width="3" opacity="0"/>
    <use xlink:href="#line_1" class="pl pll" stroke="#000" stroke-width="0.90"/>
  </g>
  <g class="pl_2">
    <use xlink:href="#line_2" class="thick" stroke="#000" stroke-width="3" opacity="0"/>
    <use xlink:href="#line_2" class="pl pll" stroke="#000" stroke-width="0.90"/>
  </g>
  <g class="pl_3">
    <use xlink:href="#line_3" class="thick" stroke="#000" stroke-width="3" opacity="0"/>
    <use xlink:href="#line_3" class="pl pll" stroke="#000" stroke-width="0.90"/>
  </g>
  <g class="pl_4">
    <use xlink:href="#line_4" class="thick" stroke="#000" stroke-width="3" opacity="0"/>
    <use xlink:href="#line_4" class="pl pll" stroke="#000" stroke-width="0.90"/>
  </g>
  <g class="pl_5">
    <use xlink:href="#line_5" class="thick" stroke="#000" stroke-width="3" opacity="0"/>
    <use xlink:href="#line_5" class="pl pll" stroke="#000" stroke-width="0.90"/>
  </g>
  <g class="pl_6">
    <use xlink:href="#line_6" class="thick" stroke="#000" stroke-width="3" opacity="0"/>
    <use xlink:href="#line_6" class="pl pll" stroke="#000" stroke-width="0.90"/>
  </g>
  <g class="pl_7">
    <use xlink:href="#line_7" class="thick" stroke="#000" stroke-width="3" opacity="0"/>
    <use xlink:href="#line_7" class="pl pll" stroke="#000" stroke-width="0.90"/>
  </g>
  <g class="pl_8">
    <use xlink:href="#line_8" class="thick" stroke="#000" stroke-width="3" opacity="0"/>
    <use xlink:href="#line_8" class="pl pll" stroke="#000" stroke-width="0.90"/>
  </g>
  <g class="pl_9">
    <use xlink:href="#line_9" class="thick" stroke="#000" stroke-width="3" opacity="0"/>
    <use xlink:href="#line_9" class="pl pll" stroke="#000" stroke-width="0.90"/>
  </g>
  <g class="pl_10">
    <use xlink:href="#line_10" class="thick" stroke="#000" stroke-width="3" opacity="0"/>
    <use xlink:href="#line_10" class="pl pll" stroke="#000" stroke-width="0.90"/>
  </g>
  <g class="pl_11">
    <use xlink:href="#line_11" class="thick" stroke="#000" stroke-width="3" opacity="0"/>
    <use xlink:href="#line_11" class="pl pll" stroke="#000" stroke-width="0.90"/>
  </g>
  <g class="pl_12">
    <use xlink:href="#line_12" class="thick" stroke="#000" stroke-width="3" opacity="0"/>
    <use xlink:href="#line_12" class="pl pll" stroke="#000" stroke-width="0.90"/>
  </g>
  <g class="pl_13">
    <use xlink:href="#line_13" class="thick" stroke="#000" stroke-width="3" opacity="0"/>
    <use xlink:href="#line_13" class="pl pll" stroke="#000" stroke-width="0.90"/>
  </g>
  <g class="pl_14">
    <use xlink:href="#line_14" class="thick" stroke="#000" stroke-width="3" opacity="0"/>
    <use xlink:href="#line_14" class="pl pll" stroke="#000" stroke-width="0.90"/>
  </g>
  <g class="pl_15">
    <use xlink:href="#line_15" class="thick" stroke="#000" stroke-width="3" opacity="0"/>
    <use xlink:href="#line_15" class="pl pll" stroke="#000" stroke-width="0.90"/>
  </g>
</g>
    <text class="pl" transform="translate(164.6,573.0) rotate(-90)" dy="8.1" font-size="27.00" fill="#808080" stroke="none" text-anchor="end">2005</text>
    <text class="pl" transform="translate(202.7,573.0) rotate(-90)" dy="8.1" font-size="27.00" fill="#808080" stroke="none" text-anchor="end">2006</text>
    <text class="pl" transform="translate(240.8,573.0) rotate(-90)" dy="8.1" font-size="27.00" fill="#808080" stroke="none" text-anchor="end">2007</text>
    <text class="pl" transform="translate(278.9,573.0) rotate(-90)" dy="8.1" font-size="27.00" fill="#808080" stroke="none" text-anchor="end">2008</text>
    <text class="pl" transform="translate(317.0,573.0) rotate(-90)" dy="8.1" font-size="27.00" fill="#808080" stroke="none" text-anchor="end">2009</text>
    <text class="pl" transform="translate(355.0,573.0) rotate(-90)" dy="8.1" font-size="27.00" fill="#808080" stroke="none" text-anchor="end">2010</text>
    <text class="pl" transform="translate(393.1,573.0) rotate(-90)" dy="8.1" font-size="27.00" fill="#808080" stroke="none" text-anchor="end">2011</text>
    <text class="pl" transform="translate(431.2,573.0) rotate(-90)" dy="8.1" font-size="27.00" fill="#808080" stroke="none" text-anchor="end">2012</text>
    <text class="pl" transform="translate(469.3,573.0) rotate(-90)" dy="8.1" font-size="27.00" fill="#808080" stroke="none" text-anchor="end">2013</text>
    <text class="pl" transform="translate(507.4,573.0) rotate(-90)" dy="8.1" font-size="27.00" fill="#808080" stroke="none" text-anchor="end">2014</text>
    <text class="pl" transform="translate(545.4,573.0) rotate(-90)" dy="8.1" font-size="27.00" fill="#808080" stroke="none" text-anchor="end">2015</text>
    <text class="pl" transform="translate(583.5,573.0) rotate(-90)" dy="8.1" font-size="27.00" fill="#808080" stroke="none" text-anchor="end">2016</text>
    <text class="pl" transform="translate(621.6,573.0) rotate(-90)" dy="8.1" font-size="27.00" fill="#808080" stroke="none" text-anchor="end">2017</text>
    <text class="pl" transform="translate(659.7,573.0) rotate(-90)" dy="8.1" font-size="27.00" fill="#808080" stroke="none" text-anchor="end">2018</text>
    <text class="pl" transform="translate(697.8,573.0) rotate(-90)" dy="8.1" font-size="27.00" fill="#808080" stroke="none" text-anchor="end">2019</text>
    <text class="pl" transform="translate(735.8,573.0) rotate(-90)" dy="8.1" font-size="27.00" fill="#808080" stroke="none" text-anchor="end">2020</text>
    <text class="pl" transform="translate(773.9,573.0) rotate(-90)" dy="8.1" font-size="27.00" fill="#808080" stroke="none" text-anchor="end">2021</text>
    <text class="pl" transform="translate(812.0,573.0) rotate(-90)" dy="8.1" font-size="27.00" fill="#808080" stroke="none" text-anchor="end">2022</text>
    <text class="pl" transform="translate(850.1,573.0) rotate(-90)" dy="8.1" font-size="27.00" fill="#808080" stroke="none" text-anchor="end">2023</text>
    <text class="pl" transform="translate(888.2,573.0) rotate(-90)" dy="8.1" font-size="27.00" fill="#808080" stroke="none" text-anchor="end">2024</text>
<text transform="translate(157.6,666.1)" font-size="19.80" font-family="Helvetica" fill="#BFBFBF" stroke="none" xml:space="preserve"><a href="https://twitter.com/robbie_andrew" style="fill:#BFBFBF" target="_blank">@robbie_andrew</a>   &#9679;   Data: Dept for Transport   &#9679;   Through June 2024</text>
<text class="twitlink" transform="translate(157.6,666.1)" opacity="0" font-size="19.80" fill="#BFBFBF" stroke="none" xml:space="preserve"><a href="https://twitter.com/robbie_andrew" style="fill:#BFBFBF" target="_blank">@robbie_andrew</a></text>
  <g class="dl_el" transform="translate(154.6,578.4)">
    <g class="dl_el_balloon">
      <foreignObject x="0" y="0" width="120" height="500">
      <div xmlns="http://www.w3.org/1999/xhtml" class="dl_fe" style="height:60px">
      <p class="dl_fe_p">Find me on Twitter</p>
      </div>
	    </foreignObject>
      <path stroke="#000" fill="#FDFFDF" d="M0,60H60l5,5l5,-5H120"/>
    </g>
  </g>
<use xlink:href="#line_y" transform="translate(145.6,0)"/>
<use xlink:href="#line_y" transform="translate(183.7,0)"/>
<use xlink:href="#line_y" transform="translate(221.8,0)"/>
<use xlink:href="#line_y" transform="translate(259.8,0)"/>
<use xlink:href="#line_y" transform="translate(297.9,0)"/>
<use xlink:href="#line_y" transform="translate(336.0,0)"/>
<use xlink:href="#line_y" transform="translate(374.1,0)"/>
<use xlink:href="#line_y" transform="translate(412.2,0)"/>
<use xlink:href="#line_y" transform="translate(450.2,0)"/>
<use xlink:href="#line_y" transform="translate(488.3,0)"/>
<use xlink:href="#line_y" transform="translate(526.4,0)"/>
<use xlink:href="#line_y" transform="translate(564.5,0)"/>
<use xlink:href="#line_y" transform="translate(602.6,0)"/>
<use xlink:href="#line_y" transform="translate(640.6,0)"/>
<use xlink:href="#line_y" transform="translate(678.7,0)"/>
<use xlink:href="#line_y" transform="translate(716.8,0)"/>
<use xlink:href="#line_y" transform="translate(754.9,0)"/>
<use xlink:href="#line_y" transform="translate(793.0,0)"/>
<use xlink:href="#line_y" transform="translate(831.0,0)"/>
<use xlink:href="#line_y" transform="translate(869.1,0)"/>
<use xlink:href="#line_y" transform="translate(907.2,0)"/>
<use xlink:href="#line_x" transform="translate(0,560.2)"/>
<use xlink:href="#line_x" transform="translate(0,458.9)"/>
<use xlink:href="#line_x" transform="translate(0,357.7)"/>
<use xlink:href="#line_x" transform="translate(0,256.5)"/>
<use xlink:href="#line_x" transform="translate(0,155.2)"/>
<use xlink:href="#line_x" transform="translate(0,54.0)"/>
<use xlink:href="#tick_x" transform="translate(145.6,0)"/>
<use xlink:href="#tick_x" transform="translate(183.7,0)"/>
<use xlink:href="#tick_x" transform="translate(221.8,0)"/>
<use xlink:href="#tick_x" transform="translate(259.8,0)"/>
<use xlink:href="#tick_x" transform="translate(297.9,0)"/>
<use xlink:href="#tick_x" transform="translate(336.0,0)"/>
<use xlink:href="#tick_x" transform="translate(374.1,0)"/>
<use xlink:href="#tick_x" transform="translate(412.2,0)"/>
<use xlink:href="#tick_x" transform="translate(450.2,0)"/>
<use xlink:href="#tick_x" transform="translate(488.3,0)"/>
<use xlink:href="#tick_x" transform="translate(526.4,0)"/>
<use xlink:href="#tick_x" transform="translate(564.5,0)"/>
<use xlink:href="#tick_x" transform="translate(602.6,0)"/>
<use xlink:href="#tick_x" transform="translate(640.6,0)"/>
<use xlink:href="#tick_x" transform="translate(678.7,0)"/>
<use xlink:href="#tick_x" transform="translate(716.8,0)"/>
<use xlink:href="#tick_x" transform="translate(754.9,0)"/>
<use xlink:href="#tick_x" transform="translate(793.0,0)"/>
<use xlink:href="#tick_x" transform="translate(831.0,0)"/>
<use xlink:href="#tick_x" transform="translate(869.1,0)"/>
<use xlink:href="#tick_x" transform="translate(907.2,0)"/>
<use xlink:href="#tick_y" transform="translate(0,560.2)"/>
<use xlink:href="#tick_y" transform="translate(0,458.9)"/>
<use xlink:href="#tick_y" transform="translate(0,357.7)"/>
<use xlink:href="#tick_y" transform="translate(0,256.5)"/>
<use xlink:href="#tick_y" transform="translate(0,155.2)"/>
<use xlink:href="#tick_y" transform="translate(0,54.0)"/>
<polyline points="145.6,53.993 145.6,560.180 907.2,560.180" stroke="#808080" stroke-width="0.90" fill="none"/>
<g>
<a href="https://creativecommons.org/licenses/by/4.0/">
  <rect x="123.0" y="651.4" width="34" height="17" fill="#FFF" stroke="none"/>
  <g transform="translate(124.0,652.4) scale(0.24)">
  <g><circle fill="#FFF" cx="37.79" cy="28.5" r="28.84"/>
     <circle fill="none" cx="37.79" cy="28.5" r="28.84" stroke="#BFBFBF" stroke-width="5.5"/>
     <path fill="#BFBFBF" d="M37.16,23.19 l-4.29,2.23c-0.458-0.951-1.02-1.62-1.69-2c-0.667-0.38-1.29-0.571-1.86-0.571c-2.86,0-4.29,1.89-4.29,5.66 c0,1.71,0.36,3.08,1.09,4.11c0.724,1.03,1.79,1.54,3.2,1.54c1.87,0,3.18-0.915,3.94-2.74l3.94,2 c-0.838,1.56-2,2.79-3.49,3.69c-1.48,0.896-3.12,1.34-4.91,1.34c-2.86,0-5.16-0.875-6.92-2.63 c-1.75-1.75-2.63-4.19-2.63-7.31c0-3.05,0.886-5.47,2.66-7.26c1.77-1.79,4.01-2.69,6.72-2.69 C32.6,18.56,35.44,20.1,37.16,23.19z
              M55.61,23.19l-4.23,2.23c-0.457-0.951-1.02-1.62-1.69-2 c-0.668-0.38-1.31-0.571-1.91-0.571c-2.86,0-4.29,1.89-4.29,5.66c0,1.71,0.363,3.08,1.09,4.11 c0.723,1.03,1.79,1.54,3.2,1.54c1.87,0,3.18-0.915,3.94-2.74l4,2c-0.875,1.56-2.06,2.79-3.54,3.69 c-1.49,0.9-3.11,1.34-4.86,1.34c-2.9,0-5.21-0.875-6.94-2.63c-1.74-1.75-2.6-4.19-2.6-7.31 c0-3.05,0.885-5.47,2.66-7.26c1.77-1.79,4.01-2.69,6.71-2.69C51.12,18.56,53.944,20.1,55.61,23.19z"/>
  </g></g>
  <g transform="translate(140.2,652.4) scale(0.24)">
  <g><circle fill="#FFF" cx="37.79" cy="28.5" r="28.84"/>
     <circle fill="none" cx="37.79" cy="28.5" r="28.84" stroke="#BFBFBF" stroke-width="5.5"/>
     <path fill="#BFBFBF" d="M46.129,20.557v13.085h-3.656v15.542h-9.944V33.643h-3.656V20.557 c0-0.572,0.2-1.057,0.599-1.457c0.401-0.399,0.887-0.6,1.457-0.6h13.144c0.533,0,1.01,0.2,1.428,0.6 C45.918,19.5,46.129,19.986,46.129,20.557z
              M33.042,12.329c0-3.008,1.485-4.514,4.458-4.514s4.457,1.504,4.457,4.514 c0,2.971-1.486,4.457-4.457,4.457S33.042,15.3,33.042,12.329z"/>
  </g></g>
  </a>
</g>
  <g class="dl_el" transform="translate(69.1,548.4)">
    <g class="dl_el_balloon">
      <foreignObject x="0" y="0" width="250" height="500">
      <div xmlns="http://www.w3.org/1999/xhtml" class="dl_fe" style="height:90px">
      <p class="dl_fe_p">CC-BY: Material may be freely re-used as long as you credit the author</p>
      </div>
	    </foreignObject>
      <path stroke="#000" fill="#FDFFDF" d="M0,90H70l5,5l5,-5H250"/>
    </g>
  </g>
</g>
</svg>
