<svg version="1.1" xmlns="http://www.w3.org/2000/svg" xmlns:xlink="http://www.w3.org/1999/xlink" width="100%" height="100%" viewBox="0 0 1200.000 674.916">
<title>US new passenger car sales by type: Annual</title>
<desc>Created by Robbie Andrew (@robbie_andrew), CICERO Center for International Climate Research. CC-BY: Material may be freely re-used as long as you credit the author</desc>
<style type="text/css">
  #main {font-family:Helvetica,Arial,sans-serif; font-size:27.00px;
         fill-opacity:1; fill:#000000; stroke:none; stroke-linejoin:round; stroke-linecap:round; stroke-width:1.00;}
  a:hover {text-decoration: underline;}
  .marker {stroke-opacity:0;fill-opacity:0;}
  .marker:hover {stroke-opacity:0.5; fill-opacity:1;}
  .ticklabel {font-size:27.00px;fill:#808080;stroke:none;font-family:Helvetica}
  .ytl {text-anchor:end;}
  .dp1 {pointer-events:none;font-size:70%;text-anchor:middle;fill:#000000;}
  .dp2 {pointer-events:none;font-size:70%;text-anchor:middle;fill:#FFFFFF;}
  .numtip {pointer-events:none;}
  .cc {opacity:0.25;}
.dl_fe {background-color:#FDFFDF;display:flex;margin:auto;align-items:center}
.dl_fe_p {font-size:20px;text-align:center;margin:3px}
.dl_el {display:none;pointer-events:none;}
.cc:hover + .dl_el {display:block;}
text:hover + .dl_el {display:block;}
  #areas .pl {transition: all 0.2s ease;}
  #areas:hover .pl {opacity:0.5;}
  #areas:hover .thick {stroke-width:1;}
  #areas:hover .pg_1:hover .pl {opacity:1;}
  #areas:hover .pg_1:hover .pll {stroke-width:3;}
  #areas:hover .pg_1:hover .pldlm {stroke-width:2;}
  #areas:hover .pg_1:hover .thick {stroke-width:12;}
  #areas:hover .pg_2:hover .pl {opacity:1;}
  #areas:hover .pg_2:hover .pll {stroke-width:3;}
  #areas:hover .pg_2:hover .pldlm {stroke-width:2;}
  #areas:hover .pg_2:hover .thick {stroke-width:12;}
  #areas:hover .pg_3:hover .pl {opacity:1;}
  #areas:hover .pg_3:hover .pll {stroke-width:3;}
  #areas:hover .pg_3:hover .pldlm {stroke-width:2;}
  #areas:hover .pg_3:hover .thick {stroke-width:12;}
  #areas:hover .pg_4:hover .pl {opacity:1;}
  #areas:hover .pg_4:hover .pll {stroke-width:3;}
  #areas:hover .pg_4:hover .pldlm {stroke-width:2;}
  #areas:hover .pg_4:hover .thick {stroke-width:12;}
  #lines .pl {transition: all 0.2s ease;}
  #lines:hover .pl {opacity:0.3;}
  #lines:hover .thick {stroke-width:1;}
  #lines:hover .pl_1:hover .pl {opacity:1;}
  #lines:hover .pl_1:hover .pll {stroke-width:3;}
  #lines:hover .pl_1:hover .pldlm {stroke-width:2;}
  #lines:hover .pl_1:hover .thick {stroke-width:12;}
  #lines:hover .pl_2:hover .pl {opacity:1;}
  #lines:hover .pl_2:hover .pll {stroke-width:3;}
  #lines:hover .pl_2:hover .pldlm {stroke-width:2;}
  #lines:hover .pl_2:hover .thick {stroke-width:12;}
  #lines:hover .pl_3:hover .pl {opacity:1;}
  #lines:hover .pl_3:hover .pll {stroke-width:3;}
  #lines:hover .pl_3:hover .pldlm {stroke-width:2;}
  #lines:hover .pl_3:hover .thick {stroke-width:12;}
  #lines:hover .pl_4:hover .pl {opacity:1;}
  #lines:hover .pl_4:hover .pll {stroke-width:3;}
  #lines:hover .pl_4:hover .pldlm {stroke-width:2;}
  #lines:hover .pl_4:hover .thick {stroke-width:12;}
  #lines:hover .pl_5:hover .pl {opacity:1;}
  #lines:hover .pl_5:hover .pll {stroke-width:3;}
  #lines:hover .pl_5:hover .pldlm {stroke-width:2;}
  #lines:hover .pl_5:hover .thick {stroke-width:12;}
  #lines:hover .pl_6:hover .pl {opacity:1;}
  #lines:hover .pl_6:hover .pll {stroke-width:3;}
  #lines:hover .pl_6:hover .pldlm {stroke-width:2;}
  #lines:hover .pl_6:hover .thick {stroke-width:12;}
  #lines:hover .pl_7:hover .pl {opacity:1;}
  #lines:hover .pl_7:hover .pll {stroke-width:3;}
  #lines:hover .pl_7:hover .pldlm {stroke-width:2;}
  #lines:hover .pl_7:hover .thick {stroke-width:12;}
  #lines:hover .pl_8:hover .pl {opacity:1;}
  #lines:hover .pl_8:hover .pll {stroke-width:3;}
  #lines:hover .pl_8:hover .pldlm {stroke-width:2;}
  #lines:hover .pl_8:hover .thick {stroke-width:12;}
  #lines:hover .pl_9:hover .pl {opacity:1;}
  #lines:hover .pl_9:hover .pll {stroke-width:3;}
  #lines:hover .pl_9:hover .pldlm {stroke-width:2;}
  #lines:hover .pl_9:hover .thick {stroke-width:12;}
  #lines:hover .pl_10:hover .pl {opacity:1;}
  #lines:hover .pl_10:hover .pll {stroke-width:3;}
  #lines:hover .pl_10:hover .pldlm {stroke-width:2;}
  #lines:hover .pl_10:hover .thick {stroke-width:12;}
</style>
<defs>
  <clipPath id="axis_clip"><rect x="145.8" y="54.2" width="761.2" height="505.8" /></clipPath>
  <path id="line_y" d="M 0,53.993 v 506.187" stroke="#4D4D4D" stroke-opacity="0.15" stroke-width="1.00"/>
  <path id="line_x" d="M 145.600,0 h 761.600" stroke="#4D4D4D" stroke-opacity="0.15" stroke-width="1.00"/>
  <path id="tick_y" d="M 145.600,0 h -6.000" stroke="#808080" stroke-width="0.90"/>
  <path id="tick_x" d="M 0,560.180 v 6.000" stroke="#808080" stroke-width="0.90"/>
  <symbol id="line_1" viewBox="0 0 1200.000 674.916">
<polyline class="pl" points="145.6,200.8 204.2,200.8 204.2,152.6 262.8,152.6 262.8,122.0 321.4,122.0 321.4,95.5 379.9,95.5 379.9,68.9 438.5,68.9 438.5,66.7 497.1,66.7 497.1,75.3 555.7,75.3 555.7,76.1 614.3,76.1 614.3,83.4 672.9,83.4 672.9,153.2 731.4,153.2 731.4,139.8 790.0,139.8 790.0,173.4 848.6,173.4 848.6,124.6 907.2,124.6" stroke="#000" stroke-width="0.90" stroke-opacity="1.00" fill="none" clip-path="url(#axis_clip)"/>
  </symbol>
  <symbol id="line_2" viewBox="0 0 1200.000 674.916">
<polyline class="pl" points="145.6,201.1 204.2,201.1 204.2,153.0 262.8,153.0 262.8,123.4 321.4,123.4 321.4,97.3 379.9,97.3 379.9,70.9 438.5,70.9 438.5,69.2 497.1,69.2 497.1,78.3 555.7,78.3 555.7,81.9 614.3,81.9 614.3,90.0 672.9,90.0 672.9,159.9 731.4,159.9 731.4,152.8 790.0,152.8 790.0,194.4 848.6,194.4 848.6,157.0 907.2,157.0" stroke="#000" stroke-width="0.90" stroke-opacity="1.00" fill="none" clip-path="url(#axis_clip)"/>
  </symbol>
  <symbol id="line_3" viewBox="0 0 1200.000 674.916">
<polyline class="pl" points="145.6,201.3 204.2,201.3 204.2,154.1 262.8,154.1 262.8,124.7 321.4,124.7 321.4,98.9 379.9,98.9 379.9,72.1 438.5,72.1 438.5,71.2 497.1,71.2 497.1,80.8 555.7,80.8 555.7,85.4 614.3,85.4 614.3,92.4 672.9,92.4 672.9,161.9 731.4,161.9 731.4,157.7 790.0,157.7 790.0,199.6 848.6,199.6 848.6,165.3 907.2,165.3" stroke="#000" stroke-width="0.90" stroke-opacity="1.00" fill="none" clip-path="url(#axis_clip)"/>
  </symbol>
  <symbol id="line_4" viewBox="0 0 1200.000 674.916">
<polyline class="pl" points="145.6,208.9 204.2,208.9 204.2,166.4 262.8,166.4 262.8,138.7 321.4,138.7 321.4,111.6 379.9,111.6 379.9,82.9 438.5,82.9 438.5,81.0 497.1,81.0 497.1,91.3 555.7,91.3 555.7,94.9 614.3,94.9 614.3,103.7 672.9,103.7 672.9,174.7 731.4,174.7 731.4,180.2 790.0,180.2 790.0,221.1 848.6,221.1 848.6,198.3 907.2,198.3" stroke="#000" stroke-width="0.90" stroke-opacity="1.00" fill="none" clip-path="url(#axis_clip)"/>
  </symbol>
  <symbol id="line_5" viewBox="0 0 1200.000 674.916">
<polyline class="pl" points="145.6,201.1 204.2,201.1 204.2,153.0 262.8,153.0 262.8,123.4 321.4,123.4 321.4,97.3 379.9,97.3 379.9,70.9 438.5,70.9 438.5,69.2 497.1,69.2 497.1,78.3 555.7,78.3 555.7,81.9 614.3,81.9 614.3,90.0 672.9,90.0 672.9,159.9 731.4,159.9 731.4,152.8 790.0,152.8 790.0,194.4 848.6,194.4 848.6,157.0 907.2,157.0" stroke="#000" stroke-width="0.90" stroke-opacity="1.00" fill="none" clip-path="url(#axis_clip)"/>
  </symbol>
  <symbol id="line_6" viewBox="0 0 1200.000 674.916">
<polyline class="pl" points="145.6,201.3 204.2,201.3 204.2,154.1 262.8,154.1 262.8,124.7 321.4,124.7 321.4,98.9 379.9,98.9 379.9,72.1 438.5,72.1 438.5,71.2 497.1,71.2 497.1,80.8 555.7,80.8 555.7,85.4 614.3,85.4 614.3,92.4 672.9,92.4 672.9,161.9 731.4,161.9 731.4,157.7 790.0,157.7 790.0,199.6 848.6,199.6 848.6,165.3 907.2,165.3" stroke="#000" stroke-width="0.90" stroke-opacity="1.00" fill="none" clip-path="url(#axis_clip)"/>
  </symbol>
  <symbol id="line_7" viewBox="0 0 1200.000 674.916">
<polyline class="pl" points="145.6,208.9 204.2,208.9 204.2,166.4 262.8,166.4 262.8,138.7 321.4,138.7 321.4,111.6 379.9,111.6 379.9,82.9 438.5,82.9 438.5,81.0 497.1,81.0 497.1,91.3 555.7,91.3 555.7,94.9 614.3,94.9 614.3,103.7 672.9,103.7 672.9,174.7 731.4,174.7 731.4,180.2 790.0,180.2 790.0,221.1 848.6,221.1 848.6,198.3 907.2,198.3" stroke="#000" stroke-width="0.90" stroke-opacity="1.00" fill="none" clip-path="url(#axis_clip)"/>
  </symbol>
  <symbol id="line_8" viewBox="0 0 1200.000 674.916">
<polyline class="pl" points="145.6,201.3 204.2,201.3 204.2,154.1 262.8,154.1 262.8,124.7 321.4,124.7 321.4,98.9 379.9,98.9 379.9,72.1 438.5,72.1 438.5,71.2 497.1,71.2 497.1,80.8 555.7,80.8 555.7,85.4 614.3,85.4 614.3,92.4 672.9,92.4 672.9,161.9 731.4,161.9 731.4,157.7 790.0,157.7 790.0,199.6 848.6,199.6 848.6,165.3 907.2,165.3" stroke="#000" stroke-width="0.90" stroke-opacity="1.00" fill="none" clip-path="url(#axis_clip)"/>
  </symbol>
  <symbol id="line_9" viewBox="0 0 1200.000 674.916">
<polyline class="pl" points="145.6,208.9 204.2,208.9 204.2,166.4 262.8,166.4 262.8,138.7 321.4,138.7 321.4,111.6 379.9,111.6 379.9,82.9 438.5,82.9 438.5,81.0 497.1,81.0 497.1,91.3 555.7,91.3 555.7,94.9 614.3,94.9 614.3,103.7 672.9,103.7 672.9,174.7 731.4,174.7 731.4,180.2 790.0,180.2 790.0,221.1 848.6,221.1 848.6,198.3 907.2,198.3" stroke="#000" stroke-width="0.90" stroke-opacity="1.00" fill="none" clip-path="url(#axis_clip)"/>
  </symbol>
  <symbol id="line_10" viewBox="0 0 1200.000 674.916">
<polyline class="pl" points="145.6,208.9 204.2,208.9 204.2,166.4 262.8,166.4 262.8,138.7 321.4,138.7 321.4,111.6 379.9,111.6 379.9,82.9 438.5,82.9 438.5,81.0 497.1,81.0 497.1,91.3 555.7,91.3 555.7,94.9 614.3,94.9 614.3,103.7 672.9,103.7 672.9,174.7 731.4,174.7 731.4,180.2 790.0,180.2 790.0,221.1 848.6,221.1 848.6,198.3 907.2,198.3" stroke="#000" stroke-width="0.90" stroke-opacity="1.00" fill="none" clip-path="url(#axis_clip)"/>
  </symbol>
</defs>
<g id="main">
<text class="ticklabel ytl" transform="translate(128.8,568.3)">0</text>
<text class="ticklabel ytl" transform="translate(128.8,512.0)">2.00</text>
<text class="ticklabel ytl" transform="translate(128.8,455.8)">4.00</text>
<text class="ticklabel ytl" transform="translate(128.8,399.6)">6.00</text>
<text class="ticklabel ytl" transform="translate(128.8,343.3)">8.00</text>
<text class="ticklabel ytl" transform="translate(128.8,287.1)">10.00</text>
<text class="ticklabel ytl" transform="translate(128.8,230.8)">12.00</text>
<text class="ticklabel ytl" transform="translate(128.8,174.6)">14.00</text>
<text class="ticklabel ytl" transform="translate(128.8,118.3)">16.00</text>
<text class="ticklabel ytl" transform="translate(128.8,62.1)">18.00</text>
<g id="areas">
  <g class="pg_4">
    <polygon class="pl" points="145.6,200.8 204.2,200.8 204.2,152.6 262.8,152.6 262.8,122.0 321.4,122.0 321.4,95.5 379.9,95.5 379.9,68.9 438.5,68.9 438.5,66.7 497.1,66.7 497.1,75.3 555.7,75.3 555.7,76.1 614.3,76.1 614.3,83.4 672.9,83.4 672.9,153.2 731.4,153.2 731.4,139.8 790.0,139.8 790.0,173.4 848.6,173.4 848.6,124.6 907.2,124.6 907.2,157.0 848.6,157.0 848.6,194.4 790.0,194.4 790.0,152.8 731.4,152.8 731.4,159.9 672.9,159.9 672.9,90.0 614.3,90.0 614.3,81.9 555.7,81.9 555.7,78.3 497.1,78.3 497.1,69.2 438.5,69.2 438.5,70.9 379.9,70.9 379.9,97.3 321.4,97.3 321.4,123.4 262.8,123.4 262.8,153.0 204.2,153.0 204.2,201.1 145.6,201.1" stroke="none" stroke-width="0.9000"  fill="#6298C6" clip-path="url(#axis_clip)"/>
    <text class="pl" transform="translate(937.2,137.9)" dy="7.0" font-size="23.40" fill="#6298C6" stroke="none">Battery electric</text>
<polyline class="pl" points="910.8,140.8 911.9,140.8 913.0,140.8 914.0,140.7 914.9,140.7 915.8,140.6 916.6,140.5 917.4,140.4 918.1,140.3 918.8,140.1 919.5,140.0 920.1,139.9 920.7,139.7 921.3,139.6 921.9,139.4 922.5,139.3 923.1,139.1 923.7,139.0 924.3,138.9 924.9,138.7 925.6,138.6 926.3,138.5 927.0,138.4 927.8,138.3 928.6,138.2 929.5,138.1 930.4,138.0 931.4,138.0 932.5,137.9 933.6,137.9" stroke="#6298C6" stroke-width="0.90" stroke-opacity="1.00" fill="none" />
  </g>
  <g class="pg_3">
    <polygon class="pl" points="145.6,201.1 204.2,201.1 204.2,153.0 262.8,153.0 262.8,123.4 321.4,123.4 321.4,97.3 379.9,97.3 379.9,70.9 438.5,70.9 438.5,69.2 497.1,69.2 497.1,78.3 555.7,78.3 555.7,81.9 614.3,81.9 614.3,90.0 672.9,90.0 672.9,159.9 731.4,159.9 731.4,152.8 790.0,152.8 790.0,194.4 848.6,194.4 848.6,157.0 907.2,157.0 907.2,165.3 848.6,165.3 848.6,199.6 790.0,199.6 790.0,157.7 731.4,157.7 731.4,161.9 672.9,161.9 672.9,92.4 614.3,92.4 614.3,85.4 555.7,85.4 555.7,80.8 497.1,80.8 497.1,71.2 438.5,71.2 438.5,72.1 379.9,72.1 379.9,98.9 321.4,98.9 321.4,124.7 262.8,124.7 262.8,154.1 204.2,154.1 204.2,201.3 145.6,201.3" stroke="none" stroke-width="0.9000"  fill="#77AC30" clip-path="url(#axis_clip)"/>
    <text class="pl" transform="translate(937.2,161.2)" dy="7.0" font-size="23.40" fill="#77AC30" stroke="none">Plugin hybrid</text>
<polyline class="pl" points="910.8,161.1 911.9,161.1 913.0,161.1 914.0,161.1 914.9,161.1 915.8,161.1 916.6,161.1 917.4,161.1 918.1,161.2 918.8,161.2 919.5,161.2 920.1,161.2 920.7,161.2 921.3,161.2 921.9,161.2 922.5,161.2 923.1,161.2 923.7,161.2 924.3,161.2 924.9,161.2 925.6,161.2 926.3,161.2 927.0,161.2 927.8,161.2 928.6,161.2 929.5,161.2 930.4,161.2 931.4,161.2 932.5,161.2 933.6,161.2" stroke="#77AC30" stroke-width="0.90" stroke-opacity="1.00" fill="none" />
  </g>
  <g class="pg_2">
    <polygon class="pl" points="145.6,201.3 204.2,201.3 204.2,154.1 262.8,154.1 262.8,124.7 321.4,124.7 321.4,98.9 379.9,98.9 379.9,72.1 438.5,72.1 438.5,71.2 497.1,71.2 497.1,80.8 555.7,80.8 555.7,85.4 614.3,85.4 614.3,92.4 672.9,92.4 672.9,161.9 731.4,161.9 731.4,157.7 790.0,157.7 790.0,199.6 848.6,199.6 848.6,165.3 907.2,165.3 907.2,198.3 848.6,198.3 848.6,221.1 790.0,221.1 790.0,180.2 731.4,180.2 731.4,174.7 672.9,174.7 672.9,103.7 614.3,103.7 614.3,94.9 555.7,94.9 555.7,91.3 497.1,91.3 497.1,81.0 438.5,81.0 438.5,82.9 379.9,82.9 379.9,111.6 321.4,111.6 321.4,138.7 262.8,138.7 262.8,166.4 204.2,166.4 204.2,208.9 145.6,208.9" stroke="none" stroke-width="0.9000"  fill="#91AC6E" clip-path="url(#axis_clip)"/>
    <text class="pl" transform="translate(937.2,184.6)" dy="7.0" font-size="23.40" fill="#91AC6E" stroke="none">Non-plugin hybrid</text>
<polyline class="pl" points="910.8,181.8 911.9,181.8 913.0,181.8 914.0,181.9 914.9,181.9 915.8,182.0 916.6,182.1 917.4,182.2 918.1,182.3 918.8,182.4 919.5,182.6 920.1,182.7 920.7,182.8 921.3,183.0 921.9,183.1 922.5,183.3 923.1,183.4 923.7,183.5 924.3,183.7 924.9,183.8 925.6,183.9 926.3,184.0 927.0,184.2 927.8,184.3 928.6,184.3 929.5,184.4 930.4,184.5 931.4,184.5 932.5,184.6 933.6,184.6" stroke="#91AC6E" stroke-width="0.90" stroke-opacity="1.00" fill="none" />
  </g>
  <g class="pg_1">
    <polygon class="pl" points="145.6,208.9 204.2,208.9 204.2,166.4 262.8,166.4 262.8,138.7 321.4,138.7 321.4,111.6 379.9,111.6 379.9,82.9 438.5,82.9 438.5,81.0 497.1,81.0 497.1,91.3 555.7,91.3 555.7,94.9 614.3,94.9 614.3,103.7 672.9,103.7 672.9,174.7 731.4,174.7 731.4,180.2 790.0,180.2 790.0,221.1 848.6,221.1 848.6,198.3 907.2,198.3 907.2,560.2 145.6,560.2" stroke="none" stroke-width="0.9000"  fill="#7B553E" clip-path="url(#axis_clip)"/>
    <text class="pl" transform="translate(937.2,379.3)" dy="7.0" font-size="23.40" fill="#7B553E" stroke="none">Internal combustion</text>
  </g>
</g>
<g id="lines">
  <g class="pl_1">
    <use xlink:href="#line_1" class="thick" stroke="#000" stroke-width="3" opacity="0"/>
    <use xlink:href="#line_1" class="pl pll" stroke="#000" stroke-width="0.90"/>
  </g>
  <g class="pl_2">
    <use xlink:href="#line_2" class="thick" stroke="#000" stroke-width="3" opacity="0"/>
    <use xlink:href="#line_2" class="pl pll" stroke="#000" stroke-width="0.90"/>
  </g>
  <g class="pl_3">
    <use xlink:href="#line_3" class="thick" stroke="#000" stroke-width="3" opacity="0"/>
    <use xlink:href="#line_3" class="pl pll" stroke="#000" stroke-width="0.90"/>
  </g>
  <g class="pl_4">
    <use xlink:href="#line_4" class="thick" stroke="#000" stroke-width="3" opacity="0"/>
    <use xlink:href="#line_4" class="pl pll" stroke="#000" stroke-width="0.90"/>
  </g>
  <g class="pl_5">
    <use xlink:href="#line_5" class="thick" stroke="#000" stroke-width="3" opacity="0"/>
    <use xlink:href="#line_5" class="pl pll" stroke="#000" stroke-width="0.90"/>
  </g>
  <g class="pl_6">
    <use xlink:href="#line_6" class="thick" stroke="#000" stroke-width="3" opacity="0"/>
    <use xlink:href="#line_6" class="pl pll" stroke="#000" stroke-width="0.90"/>
  </g>
  <g class="pl_7">
    <use xlink:href="#line_7" class="thick" stroke="#000" stroke-width="3" opacity="0"/>
    <use xlink:href="#line_7" class="pl pll" stroke="#000" stroke-width="0.90"/>
  </g>
  <g class="pl_8">
    <use xlink:href="#line_8" class="thick" stroke="#000" stroke-width="3" opacity="0"/>
    <use xlink:href="#line_8" class="pl pll" stroke="#000" stroke-width="0.90"/>
  </g>
  <g class="pl_9">
    <use xlink:href="#line_9" class="thick" stroke="#000" stroke-width="3" opacity="0"/>
    <use xlink:href="#line_9" class="pl pll" stroke="#000" stroke-width="0.90"/>
  </g>
  <g class="pl_10">
    <use xlink:href="#line_10" class="thick" stroke="#000" stroke-width="3" opacity="0"/>
    <use xlink:href="#line_10" class="pl pll" stroke="#000" stroke-width="0.90"/>
  </g>
</g>
    <text class="pl" transform="translate(174.9,573.0) rotate(-90)" dy="8.1" font-size="27.00" fill="#808080" stroke="none" text-anchor="end">2011</text>
    <text class="pl" transform="translate(233.5,573.0) rotate(-90)" dy="8.1" font-size="27.00" fill="#808080" stroke="none" text-anchor="end">2012</text>
    <text class="pl" transform="translate(292.1,573.0) rotate(-90)" dy="8.1" font-size="27.00" fill="#808080" stroke="none" text-anchor="end">2013</text>
    <text class="pl" transform="translate(350.6,573.0) rotate(-90)" dy="8.1" font-size="27.00" fill="#808080" stroke="none" text-anchor="end">2014</text>
    <text class="pl" transform="translate(409.2,573.0) rotate(-90)" dy="8.1" font-size="27.00" fill="#808080" stroke="none" text-anchor="end">2015</text>
    <text class="pl" transform="translate(467.8,573.0) rotate(-90)" dy="8.1" font-size="27.00" fill="#808080" stroke="none" text-anchor="end">2016</text>
    <text class="pl" transform="translate(526.4,573.0) rotate(-90)" dy="8.1" font-size="27.00" fill="#808080" stroke="none" text-anchor="end">2017</text>
    <text class="pl" transform="translate(585.0,573.0) rotate(-90)" dy="8.1" font-size="27.00" fill="#808080" stroke="none" text-anchor="end">2018</text>
    <text class="pl" transform="translate(643.6,573.0) rotate(-90)" dy="8.1" font-size="27.00" fill="#808080" stroke="none" text-anchor="end">2019</text>
    <text class="pl" transform="translate(702.2,573.0) rotate(-90)" dy="8.1" font-size="27.00" fill="#808080" stroke="none" text-anchor="end">2020</text>
    <text class="pl" transform="translate(760.7,573.0) rotate(-90)" dy="8.1" font-size="27.00" fill="#808080" stroke="none" text-anchor="end">2021</text>
    <text class="pl" transform="translate(819.3,573.0) rotate(-90)" dy="8.1" font-size="27.00" fill="#808080" stroke="none" text-anchor="end">2022</text>
    <text class="pl" transform="translate(877.9,573.0) rotate(-90)" dy="8.1" font-size="27.00" fill="#808080" stroke="none" text-anchor="end">2023</text>
    <text class="pl" transform="translate(130.0,81.6)" dy="8.1" font-size="27.00" fill="#808080" stroke="none" text-anchor="end">million</text>
    <text class="pl" transform="translate(145.6,47.2)" dy="0.0" font-size="27.00" fill="#808080" stroke="none">US new passenger car sales by type: Annual</text>
<text transform="translate(157.6,666.1)" font-size="19.80" font-family="Helvetica" fill="#BFBFBF" stroke="none" xml:space="preserve"><a href="https://twitter.com/robbie_andrew" style="fill:#BFBFBF" target="_blank">@robbie_andrew</a>   &#9679;   Data: Argonne National Laboratory</text>
<text class="twitlink" transform="translate(157.6,666.1)" opacity="0" font-size="19.80" fill="#BFBFBF" stroke="none" xml:space="preserve"><a href="https://twitter.com/robbie_andrew" style="fill:#BFBFBF" target="_blank">@robbie_andrew</a></text>
  <g class="dl_el" transform="translate(154.6,578.4)">
    <g class="dl_el_balloon">
      <foreignObject x="0" y="0" width="120" height="500">
      <div xmlns="http://www.w3.org/1999/xhtml" class="dl_fe" style="height:60px">
      <p class="dl_fe_p">Find me on Twitter</p>
      </div>
	    </foreignObject>
      <path stroke="#000" fill="#FDFFDF" d="M0,60H60l5,5l5,-5H120"/>
    </g>
  </g>
<use xlink:href="#line_y" transform="translate(145.6,0)"/>
<use xlink:href="#line_y" transform="translate(204.2,0)"/>
<use xlink:href="#line_y" transform="translate(262.8,0)"/>
<use xlink:href="#line_y" transform="translate(321.4,0)"/>
<use xlink:href="#line_y" transform="translate(379.9,0)"/>
<use xlink:href="#line_y" transform="translate(438.5,0)"/>
<use xlink:href="#line_y" transform="translate(497.1,0)"/>
<use xlink:href="#line_y" transform="translate(555.7,0)"/>
<use xlink:href="#line_y" transform="translate(614.3,0)"/>
<use xlink:href="#line_y" transform="translate(672.9,0)"/>
<use xlink:href="#line_y" transform="translate(731.4,0)"/>
<use xlink:href="#line_y" transform="translate(790.0,0)"/>
<use xlink:href="#line_y" transform="translate(848.6,0)"/>
<use xlink:href="#line_y" transform="translate(907.2,0)"/>
<use xlink:href="#line_x" transform="translate(0,560.2)"/>
<use xlink:href="#line_x" transform="translate(0,503.9)"/>
<use xlink:href="#line_x" transform="translate(0,447.7)"/>
<use xlink:href="#line_x" transform="translate(0,391.5)"/>
<use xlink:href="#line_x" transform="translate(0,335.2)"/>
<use xlink:href="#line_x" transform="translate(0,279.0)"/>
<use xlink:href="#line_x" transform="translate(0,222.7)"/>
<use xlink:href="#line_x" transform="translate(0,166.5)"/>
<use xlink:href="#line_x" transform="translate(0,110.2)"/>
<use xlink:href="#line_x" transform="translate(0,54.0)"/>
<use xlink:href="#tick_x" transform="translate(145.6,0)"/>
<use xlink:href="#tick_x" transform="translate(204.2,0)"/>
<use xlink:href="#tick_x" transform="translate(262.8,0)"/>
<use xlink:href="#tick_x" transform="translate(321.4,0)"/>
<use xlink:href="#tick_x" transform="translate(379.9,0)"/>
<use xlink:href="#tick_x" transform="translate(438.5,0)"/>
<use xlink:href="#tick_x" transform="translate(497.1,0)"/>
<use xlink:href="#tick_x" transform="translate(555.7,0)"/>
<use xlink:href="#tick_x" transform="translate(614.3,0)"/>
<use xlink:href="#tick_x" transform="translate(672.9,0)"/>
<use xlink:href="#tick_x" transform="translate(731.4,0)"/>
<use xlink:href="#tick_x" transform="translate(790.0,0)"/>
<use xlink:href="#tick_x" transform="translate(848.6,0)"/>
<use xlink:href="#tick_x" transform="translate(907.2,0)"/>
<use xlink:href="#tick_y" transform="translate(0,560.2)"/>
<use xlink:href="#tick_y" transform="translate(0,503.9)"/>
<use xlink:href="#tick_y" transform="translate(0,447.7)"/>
<use xlink:href="#tick_y" transform="translate(0,391.5)"/>
<use xlink:href="#tick_y" transform="translate(0,335.2)"/>
<use xlink:href="#tick_y" transform="translate(0,279.0)"/>
<use xlink:href="#tick_y" transform="translate(0,222.7)"/>
<use xlink:href="#tick_y" transform="translate(0,166.5)"/>
<use xlink:href="#tick_y" transform="translate(0,110.2)"/>
<use xlink:href="#tick_y" transform="translate(0,54.0)"/>
<polyline points="145.6,53.993 145.6,560.180 907.2,560.180" stroke="#808080" stroke-width="0.90" fill="none"/>
<g>
<a href="https://creativecommons.org/licenses/by/4.0/">
  <rect x="123.0" y="651.4" width="34" height="17" fill="#FFF" stroke="none"/>
  <g transform="translate(124.0,652.4) scale(0.24)">
  <g><circle fill="#FFF" cx="37.79" cy="28.5" r="28.84"/>
     <circle fill="none" cx="37.79" cy="28.5" r="28.84" stroke="#BFBFBF" stroke-width="5.5"/>
     <path fill="#BFBFBF" d="M37.16,23.19 l-4.29,2.23c-0.458-0.951-1.02-1.62-1.69-2c-0.667-0.38-1.29-0.571-1.86-0.571c-2.86,0-4.29,1.89-4.29,5.66 c0,1.71,0.36,3.08,1.09,4.11c0.724,1.03,1.79,1.54,3.2,1.54c1.87,0,3.18-0.915,3.94-2.74l3.94,2 c-0.838,1.56-2,2.79-3.49,3.69c-1.48,0.896-3.12,1.34-4.91,1.34c-2.86,0-5.16-0.875-6.92-2.63 c-1.75-1.75-2.63-4.19-2.63-7.31c0-3.05,0.886-5.47,2.66-7.26c1.77-1.79,4.01-2.69,6.72-2.69 C32.6,18.56,35.44,20.1,37.16,23.19z
              M55.61,23.19l-4.23,2.23c-0.457-0.951-1.02-1.62-1.69-2 c-0.668-0.38-1.31-0.571-1.91-0.571c-2.86,0-4.29,1.89-4.29,5.66c0,1.71,0.363,3.08,1.09,4.11 c0.723,1.03,1.79,1.54,3.2,1.54c1.87,0,3.18-0.915,3.94-2.74l4,2c-0.875,1.56-2.06,2.79-3.54,3.69 c-1.49,0.9-3.11,1.34-4.86,1.34c-2.9,0-5.21-0.875-6.94-2.63c-1.74-1.75-2.6-4.19-2.6-7.31 c0-3.05,0.885-5.47,2.66-7.26c1.77-1.79,4.01-2.69,6.71-2.69C51.12,18.56,53.944,20.1,55.61,23.19z"/>
  </g></g>
  <g transform="translate(140.2,652.4) scale(0.24)">
  <g><circle fill="#FFF" cx="37.79" cy="28.5" r="28.84"/>
     <circle fill="none" cx="37.79" cy="28.5" r="28.84" stroke="#BFBFBF" stroke-width="5.5"/>
     <path fill="#BFBFBF" d="M46.129,20.557v13.085h-3.656v15.542h-9.944V33.643h-3.656V20.557 c0-0.572,0.2-1.057,0.599-1.457c0.401-0.399,0.887-0.6,1.457-0.6h13.144c0.533,0,1.01,0.2,1.428,0.6 C45.918,19.5,46.129,19.986,46.129,20.557z
              M33.042,12.329c0-3.008,1.485-4.514,4.458-4.514s4.457,1.504,4.457,4.514 c0,2.971-1.486,4.457-4.457,4.457S33.042,15.3,33.042,12.329z"/>
  </g></g>
  </a>
</g>
  <g class="dl_el" transform="translate(69.1,548.4)">
    <g class="dl_el_balloon">
      <foreignObject x="0" y="0" width="250" height="500">
      <div xmlns="http://www.w3.org/1999/xhtml" class="dl_fe" style="height:90px">
      <p class="dl_fe_p">CC-BY: Material may be freely re-used as long as you credit the author</p>
      </div>
	    </foreignObject>
      <path stroke="#000" fill="#FDFFDF" d="M0,90H70l5,5l5,-5H250"/>
    </g>
  </g>
</g>
</svg>
