<svg version="1.1" xmlns="http://www.w3.org/2000/svg" xmlns:xlink="http://www.w3.org/1999/xlink" width="100%" height="100%" viewBox="0 0 1200.000 674.916">
<title>US new passenger car sales by type: Annual</title>
<desc>Created by Robbie Andrew (@robbie_andrew), CICERO Center for International Climate Research. CC-BY: Material may be freely re-used as long as you credit the author</desc>
<style type="text/css">
  #main {font-family:Helvetica,Arial,sans-serif; font-size:27.00px;
         fill-opacity:1; fill:#000000; stroke:none; stroke-linejoin:round; stroke-linecap:round; stroke-width:1.00;}
  a:hover {text-decoration: underline;}
  .marker {stroke-opacity:0;fill-opacity:0;}
  .marker:hover {stroke-opacity:0.5; fill-opacity:1;}
  .ticklabel {font-size:27.00px;fill:#808080;stroke:none;font-family:Helvetica}
  .ytl {text-anchor:end;}
  .dp1 {pointer-events:none;font-size:70%;text-anchor:middle;fill:#000000;}
  .dp2 {pointer-events:none;font-size:70%;text-anchor:middle;fill:#FFFFFF;}
  .numtip {pointer-events:none;}
  .cc {opacity:0.25;}
.dl_fe {background-color:#FDFFDF;display:flex;margin:auto;align-items:center}
.dl_fe_p {font-size:20px;text-align:center;margin:3px}
.dl_el {display:none;pointer-events:none;}
.cc:hover + .dl_el {display:block;}
text:hover + .dl_el {display:block;}
  #areas .pl {transition: all 0.2s ease;}
  #areas:hover .pl {opacity:0.5;}
  #areas:hover .thick {stroke-width:1;}
  #areas:hover .pg_1:hover .pl {opacity:1;}
  #areas:hover .pg_1:hover .pll {stroke-width:3;}
  #areas:hover .pg_1:hover .pldlm {stroke-width:2;}
  #areas:hover .pg_1:hover .thick {stroke-width:12;}
  #areas:hover .pg_2:hover .pl {opacity:1;}
  #areas:hover .pg_2:hover .pll {stroke-width:3;}
  #areas:hover .pg_2:hover .pldlm {stroke-width:2;}
  #areas:hover .pg_2:hover .thick {stroke-width:12;}
  #areas:hover .pg_3:hover .pl {opacity:1;}
  #areas:hover .pg_3:hover .pll {stroke-width:3;}
  #areas:hover .pg_3:hover .pldlm {stroke-width:2;}
  #areas:hover .pg_3:hover .thick {stroke-width:12;}
  #areas:hover .pg_4:hover .pl {opacity:1;}
  #areas:hover .pg_4:hover .pll {stroke-width:3;}
  #areas:hover .pg_4:hover .pldlm {stroke-width:2;}
  #areas:hover .pg_4:hover .thick {stroke-width:12;}
  #lines .pl {transition: all 0.2s ease;}
  #lines:hover .pl {opacity:0.3;}
  #lines:hover .thick {stroke-width:1;}
  #lines:hover .pl_1:hover .pl {opacity:1;}
  #lines:hover .pl_1:hover .pll {stroke-width:3;}
  #lines:hover .pl_1:hover .pldlm {stroke-width:2;}
  #lines:hover .pl_1:hover .thick {stroke-width:12;}
  #lines:hover .pl_2:hover .pl {opacity:1;}
  #lines:hover .pl_2:hover .pll {stroke-width:3;}
  #lines:hover .pl_2:hover .pldlm {stroke-width:2;}
  #lines:hover .pl_2:hover .thick {stroke-width:12;}
  #lines:hover .pl_3:hover .pl {opacity:1;}
  #lines:hover .pl_3:hover .pll {stroke-width:3;}
  #lines:hover .pl_3:hover .pldlm {stroke-width:2;}
  #lines:hover .pl_3:hover .thick {stroke-width:12;}
  #lines:hover .pl_4:hover .pl {opacity:1;}
  #lines:hover .pl_4:hover .pll {stroke-width:3;}
  #lines:hover .pl_4:hover .pldlm {stroke-width:2;}
  #lines:hover .pl_4:hover .thick {stroke-width:12;}
  #lines:hover .pl_5:hover .pl {opacity:1;}
  #lines:hover .pl_5:hover .pll {stroke-width:3;}
  #lines:hover .pl_5:hover .pldlm {stroke-width:2;}
  #lines:hover .pl_5:hover .thick {stroke-width:12;}
  #lines:hover .pl_6:hover .pl {opacity:1;}
  #lines:hover .pl_6:hover .pll {stroke-width:3;}
  #lines:hover .pl_6:hover .pldlm {stroke-width:2;}
  #lines:hover .pl_6:hover .thick {stroke-width:12;}
</style>
<defs>
  <clipPath id="axis_clip"><rect x="145.8" y="54.2" width="761.2" height="505.8" /></clipPath>
  <path id="line_y" d="M 0,53.993 v 506.187" stroke="#FFF" stroke-opacity="0.15" stroke-width="1.00"/>
  <path id="line_x" d="M 145.600,0 h 761.600" stroke="#FFF" stroke-opacity="0.15" stroke-width="1.00"/>
  <path id="tick_y" d="M 145.600,0 h -6.000" stroke="#808080" stroke-width="0.90"/>
  <path id="tick_x" d="M 0,560.180 v 6.000" stroke="#808080" stroke-width="0.90"/>
  <symbol id="line_1" viewBox="0 0 1200.000 674.916">
<polyline class="pl" points="91.2,54.0 145.6,54.0 145.6,54.4 200.0,54.4 200.0,54.5 254.4,54.5 254.4,55.6 308.8,55.6 308.8,55.9 363.2,55.9 363.2,56.1 417.6,56.1 417.6,56.5 472.0,56.5 472.0,57.1 526.4,57.1 526.4,60.1 580.8,60.1 580.8,61.0 635.2,61.0 635.2,62.3 689.6,62.3 689.6,69.6 744.0,69.6 744.0,81.5 798.4,81.5 798.4,91.6 852.8,91.6 852.8,91.7 907.2,91.7" stroke="#000" stroke-width="0.90" stroke-opacity="1.00" fill="none" clip-path="url(#axis_clip)"/>
  </symbol>
  <symbol id="line_2" viewBox="0 0 1200.000 674.916">
<polyline class="pl" points="91.2,54.1 145.6,54.1 145.6,54.7 200.0,54.7 200.0,55.9 254.4,55.9 254.4,57.1 308.8,57.1 308.8,57.6 363.2,57.6 363.2,57.3 417.6,57.3 417.6,58.6 472.0,58.6 472.0,59.7 526.4,59.7 526.4,63.7 580.8,63.7 580.8,63.5 635.2,63.5 635.2,64.8 689.6,64.8 689.6,75.5 744.0,75.5 744.0,88.3 798.4,88.3 798.4,101.2 852.8,101.2 852.8,102.1 907.2,102.1" stroke="#000" stroke-width="0.90" stroke-opacity="1.00" fill="none" clip-path="url(#axis_clip)"/>
  </symbol>
  <symbol id="line_3" viewBox="0 0 1200.000 674.916">
<polyline class="pl" points="91.2,66.8 145.6,66.8 145.6,65.3 200.0,65.3 200.0,71.0 254.4,71.0 254.4,73.2 308.8,73.2 308.8,71.5 363.2,71.5 363.2,68.4 417.6,68.4 417.6,68.6 472.0,68.6 472.0,70.6 526.4,70.6 526.4,73.7 580.8,73.7 580.8,75.5 635.2,75.5 635.2,80.7 689.6,80.7 689.6,102.6 744.0,102.6 744.0,116.5 798.4,116.5 798.4,139.7 852.8,139.7 852.8,150.0 907.2,150.0" stroke="#000" stroke-width="0.90" stroke-opacity="1.00" fill="none" clip-path="url(#axis_clip)"/>
  </symbol>
  <symbol id="line_4" viewBox="0 0 1200.000 674.916">
<polyline class="pl" points="91.2,54.1 145.6,54.1 145.6,54.7 200.0,54.7 200.0,55.9 254.4,55.9 254.4,57.1 308.8,57.1 308.8,57.6 363.2,57.6 363.2,57.3 417.6,57.3 417.6,58.6 472.0,58.6 472.0,59.7 526.4,59.7 526.4,63.7 580.8,63.7 580.8,63.5 635.2,63.5 635.2,64.8 689.6,64.8 689.6,75.5 744.0,75.5 744.0,88.3 798.4,88.3 798.4,101.2 852.8,101.2 852.8,102.1 907.2,102.1" stroke="#000" stroke-width="0.90" stroke-opacity="1.00" fill="none" clip-path="url(#axis_clip)"/>
  </symbol>
  <symbol id="line_5" viewBox="0 0 1200.000 674.916">
<polyline class="pl" points="91.2,66.8 145.6,66.8 145.6,65.3 200.0,65.3 200.0,71.0 254.4,71.0 254.4,73.2 308.8,73.2 308.8,71.5 363.2,71.5 363.2,68.4 417.6,68.4 417.6,68.6 472.0,68.6 472.0,70.6 526.4,70.6 526.4,73.7 580.8,73.7 580.8,75.5 635.2,75.5 635.2,80.7 689.6,80.7 689.6,102.6 744.0,102.6 744.0,116.5 798.4,116.5 798.4,139.7 852.8,139.7 852.8,150.0 907.2,150.0" stroke="#000" stroke-width="0.90" stroke-opacity="1.00" fill="none" clip-path="url(#axis_clip)"/>
  </symbol>
  <symbol id="line_6" viewBox="0 0 1200.000 674.916">
<polyline class="pl" points="91.2,66.8 145.6,66.8 145.6,65.3 200.0,65.3 200.0,71.0 254.4,71.0 254.4,73.2 308.8,73.2 308.8,71.5 363.2,71.5 363.2,68.4 417.6,68.4 417.6,68.6 472.0,68.6 472.0,70.6 526.4,70.6 526.4,73.7 580.8,73.7 580.8,75.5 635.2,75.5 635.2,80.7 689.6,80.7 689.6,102.6 744.0,102.6 744.0,116.5 798.4,116.5 798.4,139.7 852.8,139.7 852.8,150.0 907.2,150.0" stroke="#000" stroke-width="0.90" stroke-opacity="1.00" fill="none" clip-path="url(#axis_clip)"/>
  </symbol>
</defs>
<g id="main">
<text class="ticklabel ytl" transform="translate(128.8,568.3)">0 %</text>
<text class="ticklabel ytl" transform="translate(128.8,467.0)">20 %</text>
<text class="ticklabel ytl" transform="translate(128.8,365.8)">40 %</text>
<text class="ticklabel ytl" transform="translate(128.8,264.6)">60 %</text>
<text class="ticklabel ytl" transform="translate(128.8,163.3)">80 %</text>
<text class="ticklabel ytl" transform="translate(128.8,62.1)">100 %</text>
<g id="areas">
  <g class="pg_4">
    <polygon class="pl" points="91.2,54.0 145.6,54.0 145.6,54.0 200.0,54.0 200.0,54.0 254.4,54.0 254.4,54.0 308.8,54.0 308.8,54.0 363.2,54.0 363.2,54.0 417.6,54.0 417.6,54.0 472.0,54.0 472.0,54.0 526.4,54.0 526.4,54.0 580.8,54.0 580.8,54.0 635.2,54.0 635.2,54.0 689.6,54.0 689.6,54.0 744.0,54.0 744.0,54.0 798.4,54.0 798.4,54.0 852.8,54.0 852.8,54.0 907.2,54.0 907.2,91.7 852.8,91.7 852.8,91.6 798.4,91.6 798.4,81.5 744.0,81.5 744.0,69.6 689.6,69.6 689.6,62.3 635.2,62.3 635.2,61.0 580.8,61.0 580.8,60.1 526.4,60.1 526.4,57.1 472.0,57.1 472.0,56.5 417.6,56.5 417.6,56.1 363.2,56.1 363.2,55.9 308.8,55.9 308.8,55.6 254.4,55.6 254.4,54.5 200.0,54.5 200.0,54.4 145.6,54.4 145.6,54.0 91.2,54.0" stroke="none" stroke-width="0.9000"  fill="#6298C6" clip-path="url(#axis_clip)"/>
    <text class="pl" transform="translate(925.2,72.8)" dy="7.0" font-size="23.40" fill="#6298C6" stroke="none">Battery electric 7%</text>
    <text class="pl" transform="translate(925.2,44.8)" dy="0.0" font-size="18.00" fill="#6298C6" stroke="none">in 2024 so far (Jan-Aug)</text>
  </g>
  <g class="pg_3">
    <polygon class="pl" points="91.2,54.0 145.6,54.0 145.6,54.4 200.0,54.4 200.0,54.5 254.4,54.5 254.4,55.6 308.8,55.6 308.8,55.9 363.2,55.9 363.2,56.1 417.6,56.1 417.6,56.5 472.0,56.5 472.0,57.1 526.4,57.1 526.4,60.1 580.8,60.1 580.8,61.0 635.2,61.0 635.2,62.3 689.6,62.3 689.6,69.6 744.0,69.6 744.0,81.5 798.4,81.5 798.4,91.6 852.8,91.6 852.8,91.7 907.2,91.7 907.2,102.1 852.8,102.1 852.8,101.2 798.4,101.2 798.4,88.3 744.0,88.3 744.0,75.5 689.6,75.5 689.6,64.8 635.2,64.8 635.2,63.5 580.8,63.5 580.8,63.7 526.4,63.7 526.4,59.7 472.0,59.7 472.0,58.6 417.6,58.6 417.6,57.3 363.2,57.3 363.2,57.6 308.8,57.6 308.8,57.1 254.4,57.1 254.4,55.9 200.0,55.9 200.0,54.7 145.6,54.7 145.6,54.1 91.2,54.1" stroke="none" stroke-width="0.9000"  fill="#77AC30" clip-path="url(#axis_clip)"/>
    <text class="pl" transform="translate(925.2,96.9)" dy="7.0" font-size="23.40" fill="#77AC30" stroke="none">Plugin hybrid 2%</text>
  </g>
  <g class="pg_2">
    <polygon class="pl" points="91.2,54.1 145.6,54.1 145.6,54.7 200.0,54.7 200.0,55.9 254.4,55.9 254.4,57.1 308.8,57.1 308.8,57.6 363.2,57.6 363.2,57.3 417.6,57.3 417.6,58.6 472.0,58.6 472.0,59.7 526.4,59.7 526.4,63.7 580.8,63.7 580.8,63.5 635.2,63.5 635.2,64.8 689.6,64.8 689.6,75.5 744.0,75.5 744.0,88.3 798.4,88.3 798.4,101.2 852.8,101.2 852.8,102.1 907.2,102.1 907.2,150.0 852.8,150.0 852.8,139.7 798.4,139.7 798.4,116.5 744.0,116.5 744.0,102.6 689.6,102.6 689.6,80.7 635.2,80.7 635.2,75.5 580.8,75.5 580.8,73.7 526.4,73.7 526.4,70.6 472.0,70.6 472.0,68.6 417.6,68.6 417.6,68.4 363.2,68.4 363.2,71.5 308.8,71.5 308.8,73.2 254.4,73.2 254.4,71.0 200.0,71.0 200.0,65.3 145.6,65.3 145.6,66.8 91.2,66.8" stroke="none" stroke-width="0.9000"  fill="#91AC6E" clip-path="url(#axis_clip)"/>
    <text class="pl" transform="translate(925.2,126.0)" dy="7.0" font-size="23.40" fill="#91AC6E" stroke="none">Non-plugin hybrid 9%</text>
  </g>
  <g class="pg_1">
    <polygon class="pl" points="91.2,66.8 145.6,66.8 145.6,65.3 200.0,65.3 200.0,71.0 254.4,71.0 254.4,73.2 308.8,73.2 308.8,71.5 363.2,71.5 363.2,68.4 417.6,68.4 417.6,68.6 472.0,68.6 472.0,70.6 526.4,70.6 526.4,73.7 580.8,73.7 580.8,75.5 635.2,75.5 635.2,80.7 689.6,80.7 689.6,102.6 744.0,102.6 744.0,116.5 798.4,116.5 798.4,139.7 852.8,139.7 852.8,150.0 907.2,150.0 907.2,560.2 91.2,560.2" stroke="none" stroke-width="0.9000"  fill="#7B553E" clip-path="url(#axis_clip)"/>
    <text class="pl" transform="translate(925.2,355.1)" dy="7.0" font-size="23.40" fill="#7B553E" stroke="none">Internal combustion 81%</text>
  </g>
</g>
<g id="lines">
  <g class="pl_1">
    <use xlink:href="#line_1" class="thick" stroke="#000" stroke-width="3" opacity="0"/>
    <use xlink:href="#line_1" class="pl pll" stroke="#000" stroke-width="0.90"/>
  </g>
  <g class="pl_2">
    <use xlink:href="#line_2" class="thick" stroke="#000" stroke-width="3" opacity="0"/>
    <use xlink:href="#line_2" class="pl pll" stroke="#000" stroke-width="0.90"/>
  </g>
  <g class="pl_3">
    <use xlink:href="#line_3" class="thick" stroke="#000" stroke-width="3" opacity="0"/>
    <use xlink:href="#line_3" class="pl pll" stroke="#000" stroke-width="0.90"/>
  </g>
  <g class="pl_4">
    <use xlink:href="#line_4" class="thick" stroke="#000" stroke-width="3" opacity="0"/>
    <use xlink:href="#line_4" class="pl pll" stroke="#000" stroke-width="0.90"/>
  </g>
  <g class="pl_5">
    <use xlink:href="#line_5" class="thick" stroke="#000" stroke-width="3" opacity="0"/>
    <use xlink:href="#line_5" class="pl pll" stroke="#000" stroke-width="0.90"/>
  </g>
  <g class="pl_6">
    <use xlink:href="#line_6" class="thick" stroke="#000" stroke-width="3" opacity="0"/>
    <use xlink:href="#line_6" class="pl pll" stroke="#000" stroke-width="0.90"/>
  </g>
</g>
    <text class="pl" transform="translate(172.8,573.0) rotate(-90)" dy="8.1" font-size="27.00" fill="#808080" stroke="none" text-anchor="end">2011</text>
    <text class="pl" transform="translate(227.2,573.0) rotate(-90)" dy="8.1" font-size="27.00" fill="#808080" stroke="none" text-anchor="end">2012</text>
    <text class="pl" transform="translate(281.6,573.0) rotate(-90)" dy="8.1" font-size="27.00" fill="#808080" stroke="none" text-anchor="end">2013</text>
    <text class="pl" transform="translate(336.0,573.0) rotate(-90)" dy="8.1" font-size="27.00" fill="#808080" stroke="none" text-anchor="end">2014</text>
    <text class="pl" transform="translate(390.4,573.0) rotate(-90)" dy="8.1" font-size="27.00" fill="#808080" stroke="none" text-anchor="end">2015</text>
    <text class="pl" transform="translate(444.8,573.0) rotate(-90)" dy="8.1" font-size="27.00" fill="#808080" stroke="none" text-anchor="end">2016</text>
    <text class="pl" transform="translate(499.2,573.0) rotate(-90)" dy="8.1" font-size="27.00" fill="#808080" stroke="none" text-anchor="end">2017</text>
    <text class="pl" transform="translate(553.6,573.0) rotate(-90)" dy="8.1" font-size="27.00" fill="#808080" stroke="none" text-anchor="end">2018</text>
    <text class="pl" transform="translate(608.0,573.0) rotate(-90)" dy="8.1" font-size="27.00" fill="#808080" stroke="none" text-anchor="end">2019</text>
    <text class="pl" transform="translate(662.4,573.0) rotate(-90)" dy="8.1" font-size="27.00" fill="#808080" stroke="none" text-anchor="end">2020</text>
    <text class="pl" transform="translate(716.8,573.0) rotate(-90)" dy="8.1" font-size="27.00" fill="#808080" stroke="none" text-anchor="end">2021</text>
    <text class="pl" transform="translate(771.2,573.0) rotate(-90)" dy="8.1" font-size="27.00" fill="#808080" stroke="none" text-anchor="end">2022</text>
    <text class="pl" transform="translate(825.6,573.0) rotate(-90)" dy="8.1" font-size="27.00" fill="#808080" stroke="none" text-anchor="end">2023</text>
    <text class="pl" transform="translate(880.0,573.0) rotate(-90)" dy="8.1" font-size="27.00" fill="#808080" stroke="none" text-anchor="end">2024</text>
    <text class="pl" transform="translate(145.6,47.2)" dy="0.0" font-size="27.00" fill="#808080" stroke="none">US new passenger car sales by type: Annual</text>
<text transform="translate(157.6,666.1)" font-size="19.80" font-family="Helvetica" fill="#BFBFBF" stroke="none" xml:space="preserve"><a href="https://twitter.com/robbie_andrew" style="fill:#BFBFBF" target="_blank">@robbie_andrew</a>   &#9679;   Data: Argonne National Laboratory</text>
<text class="twitlink" transform="translate(157.6,666.1)" opacity="0" font-size="19.80" fill="#BFBFBF" stroke="none" xml:space="preserve"><a href="https://twitter.com/robbie_andrew" style="fill:#BFBFBF" target="_blank">@robbie_andrew</a></text>
  <g class="dl_el" transform="translate(154.6,578.4)">
    <g class="dl_el_balloon">
      <foreignObject x="0" y="0" width="120" height="500">
      <div xmlns="http://www.w3.org/1999/xhtml" class="dl_fe" style="height:60px">
      <p class="dl_fe_p">Find me on Twitter</p>
      </div>
	    </foreignObject>
      <path stroke="#000" fill="#FDFFDF" d="M0,60H60l5,5l5,-5H120"/>
    </g>
  </g>
<use xlink:href="#line_y" transform="translate(145.6,0)"/>
<use xlink:href="#line_y" transform="translate(200.0,0)"/>
<use xlink:href="#line_y" transform="translate(254.4,0)"/>
<use xlink:href="#line_y" transform="translate(308.8,0)"/>
<use xlink:href="#line_y" transform="translate(363.2,0)"/>
<use xlink:href="#line_y" transform="translate(417.6,0)"/>
<use xlink:href="#line_y" transform="translate(472.0,0)"/>
<use xlink:href="#line_y" transform="translate(526.4,0)"/>
<use xlink:href="#line_y" transform="translate(580.8,0)"/>
<use xlink:href="#line_y" transform="translate(635.2,0)"/>
<use xlink:href="#line_y" transform="translate(689.6,0)"/>
<use xlink:href="#line_y" transform="translate(744.0,0)"/>
<use xlink:href="#line_y" transform="translate(798.4,0)"/>
<use xlink:href="#line_y" transform="translate(852.8,0)"/>
<use xlink:href="#line_y" transform="translate(907.2,0)"/>
<use xlink:href="#line_x" transform="translate(0,560.2)"/>
<use xlink:href="#line_x" transform="translate(0,458.9)"/>
<use xlink:href="#line_x" transform="translate(0,357.7)"/>
<use xlink:href="#line_x" transform="translate(0,256.5)"/>
<use xlink:href="#line_x" transform="translate(0,155.2)"/>
<use xlink:href="#line_x" transform="translate(0,54.0)"/>
<use xlink:href="#tick_x" transform="translate(145.6,0)"/>
<use xlink:href="#tick_x" transform="translate(200.0,0)"/>
<use xlink:href="#tick_x" transform="translate(254.4,0)"/>
<use xlink:href="#tick_x" transform="translate(308.8,0)"/>
<use xlink:href="#tick_x" transform="translate(363.2,0)"/>
<use xlink:href="#tick_x" transform="translate(417.6,0)"/>
<use xlink:href="#tick_x" transform="translate(472.0,0)"/>
<use xlink:href="#tick_x" transform="translate(526.4,0)"/>
<use xlink:href="#tick_x" transform="translate(580.8,0)"/>
<use xlink:href="#tick_x" transform="translate(635.2,0)"/>
<use xlink:href="#tick_x" transform="translate(689.6,0)"/>
<use xlink:href="#tick_x" transform="translate(744.0,0)"/>
<use xlink:href="#tick_x" transform="translate(798.4,0)"/>
<use xlink:href="#tick_x" transform="translate(852.8,0)"/>
<use xlink:href="#tick_x" transform="translate(907.2,0)"/>
<use xlink:href="#tick_y" transform="translate(0,560.2)"/>
<use xlink:href="#tick_y" transform="translate(0,458.9)"/>
<use xlink:href="#tick_y" transform="translate(0,357.7)"/>
<use xlink:href="#tick_y" transform="translate(0,256.5)"/>
<use xlink:href="#tick_y" transform="translate(0,155.2)"/>
<use xlink:href="#tick_y" transform="translate(0,54.0)"/>
<polyline points="145.6,53.993 145.6,560.180 907.2,560.180" stroke="#808080" stroke-width="0.90" fill="none"/>
<g>
<a href="https://creativecommons.org/licenses/by/4.0/">
  <rect x="123.0" y="651.4" width="34" height="17" fill="#FFF" stroke="none"/>
  <g transform="translate(124.0,652.4) scale(0.24)">
  <g><circle fill="#FFF" cx="37.79" cy="28.5" r="28.84"/>
     <circle fill="none" cx="37.79" cy="28.5" r="28.84" stroke="#BFBFBF" stroke-width="5.5"/>
     <path fill="#BFBFBF" d="M37.16,23.19 l-4.29,2.23c-0.458-0.951-1.02-1.62-1.69-2c-0.667-0.38-1.29-0.571-1.86-0.571c-2.86,0-4.29,1.89-4.29,5.66 c0,1.71,0.36,3.08,1.09,4.11c0.724,1.03,1.79,1.54,3.2,1.54c1.87,0,3.18-0.915,3.94-2.74l3.94,2 c-0.838,1.56-2,2.79-3.49,3.69c-1.48,0.896-3.12,1.34-4.91,1.34c-2.86,0-5.16-0.875-6.92-2.63 c-1.75-1.75-2.63-4.19-2.63-7.31c0-3.05,0.886-5.47,2.66-7.26c1.77-1.79,4.01-2.69,6.72-2.69 C32.6,18.56,35.44,20.1,37.16,23.19z
              M55.61,23.19l-4.23,2.23c-0.457-0.951-1.02-1.62-1.69-2 c-0.668-0.38-1.31-0.571-1.91-0.571c-2.86,0-4.29,1.89-4.29,5.66c0,1.71,0.363,3.08,1.09,4.11 c0.723,1.03,1.79,1.54,3.2,1.54c1.87,0,3.18-0.915,3.94-2.74l4,2c-0.875,1.56-2.06,2.79-3.54,3.69 c-1.49,0.9-3.11,1.34-4.86,1.34c-2.9,0-5.21-0.875-6.94-2.63c-1.74-1.75-2.6-4.19-2.6-7.31 c0-3.05,0.885-5.47,2.66-7.26c1.77-1.79,4.01-2.69,6.71-2.69C51.12,18.56,53.944,20.1,55.61,23.19z"/>
  </g></g>
  <g transform="translate(140.2,652.4) scale(0.24)">
  <g><circle fill="#FFF" cx="37.79" cy="28.5" r="28.84"/>
     <circle fill="none" cx="37.79" cy="28.5" r="28.84" stroke="#BFBFBF" stroke-width="5.5"/>
     <path fill="#BFBFBF" d="M46.129,20.557v13.085h-3.656v15.542h-9.944V33.643h-3.656V20.557 c0-0.572,0.2-1.057,0.599-1.457c0.401-0.399,0.887-0.6,1.457-0.6h13.144c0.533,0,1.01,0.2,1.428,0.6 C45.918,19.5,46.129,19.986,46.129,20.557z
              M33.042,12.329c0-3.008,1.485-4.514,4.458-4.514s4.457,1.504,4.457,4.514 c0,2.971-1.486,4.457-4.457,4.457S33.042,15.3,33.042,12.329z"/>
  </g></g>
  </a>
</g>
  <g class="dl_el" transform="translate(69.1,548.4)">
    <g class="dl_el_balloon">
      <foreignObject x="0" y="0" width="250" height="500">
      <div xmlns="http://www.w3.org/1999/xhtml" class="dl_fe" style="height:90px">
      <p class="dl_fe_p">CC-BY: Material may be freely re-used as long as you credit the author</p>
      </div>
	    </foreignObject>
      <path stroke="#000" fill="#FDFFDF" d="M0,90H70l5,5l5,-5H250"/>
    </g>
  </g>
</g>
</svg>
