<svg version="1.1" xmlns="http://www.w3.org/2000/svg" xmlns:xlink="http://www.w3.org/1999/xlink" width="100%" height="100%" viewBox="0 0 1200.000 674.916">
<title>Monthly US CO2 emissions: Oil</title>
<desc>Created by Robbie Andrew (@robbie_andrew), CICERO Center for International Climate Research. CC-BY: Material may be freely re-used as long as you credit the author</desc>
<style type="text/css">
  #main {font-family:Helvetica,Arial,sans-serif; font-size:27.00px;
         fill-opacity:1; fill:#000000; stroke:none; stroke-linejoin:round; stroke-linecap:round; stroke-width:1.00;}
  .marker {stroke-opacity:0;fill-opacity:0;}
  .marker:hover {stroke-opacity:0.5; fill-opacity:1;}
  .ticklabel {font-size:27.00px;fill:#808080;stroke:none;font-family:Helvetica}
  .ytl {text-anchor:end;}
  .dp1 {pointer-events:none;font-size:70%;text-anchor:middle;fill:#000000;}
  .dp2 {pointer-events:none;font-size:70%;text-anchor:middle;fill:#FFFFFF;}
  .numtip {pointer-events:none;}
  .cc {opacity:0.25;}
.dl_fe {background-color:#FDFFDF;display:flex;margin:auto;align-items:center}
.dl_fe_p {font-size:20px;text-align:center;margin:3px}
.dl_el {display:none;pointer-events:none;}
.cc:hover + .dl_el {display:block;}
text:hover + .dl_el {display:block;}
</style>
<defs>
  <clipPath id="axis_clip"><rect x="145.8" y="54.2" width="761.2" height="532.8" /></clipPath>
  <path id="line_x" d="M 145.600,0 h 761.600" stroke="#262626" stroke-opacity="0.15" stroke-width="1.00"/>
  <path id="tick_y" d="M 145.600,0 h -6.000" stroke="#808080" stroke-width="0.90"/>
  <path id="tick_x" d="M 0,587.177 v 6.000" stroke="#808080" stroke-width="0.90"/>
</defs>
<g id="main">
<use xlink:href="#line_x" transform="translate(0,587.2)"/>
<use xlink:href="#line_x" transform="translate(0,520.5)"/>
<use xlink:href="#line_x" transform="translate(0,453.9)"/>
<use xlink:href="#line_x" transform="translate(0,387.2)"/>
<use xlink:href="#line_x" transform="translate(0,320.6)"/>
<use xlink:href="#line_x" transform="translate(0,253.9)"/>
<use xlink:href="#line_x" transform="translate(0,187.3)"/>
<use xlink:href="#line_x" transform="translate(0,120.6)"/>
<use xlink:href="#line_x" transform="translate(0,54.0)"/>
<use xlink:href="#tick_y" transform="translate(0,587.2)"/>
<use xlink:href="#tick_y" transform="translate(0,520.5)"/>
<use xlink:href="#tick_y" transform="translate(0,453.9)"/>
<use xlink:href="#tick_y" transform="translate(0,387.2)"/>
<use xlink:href="#tick_y" transform="translate(0,320.6)"/>
<use xlink:href="#tick_y" transform="translate(0,253.9)"/>
<use xlink:href="#tick_y" transform="translate(0,187.3)"/>
<use xlink:href="#tick_y" transform="translate(0,120.6)"/>
<use xlink:href="#tick_y" transform="translate(0,54.0)"/>
<use xlink:href="#tick_x" transform="translate(145.6,0)"/>
<use xlink:href="#tick_x" transform="translate(214.8,0)"/>
<use xlink:href="#tick_x" transform="translate(284.1,0)"/>
<use xlink:href="#tick_x" transform="translate(353.3,0)"/>
<use xlink:href="#tick_x" transform="translate(422.5,0)"/>
<use xlink:href="#tick_x" transform="translate(491.8,0)"/>
<use xlink:href="#tick_x" transform="translate(561.0,0)"/>
<use xlink:href="#tick_x" transform="translate(630.3,0)"/>
<use xlink:href="#tick_x" transform="translate(699.5,0)"/>
<use xlink:href="#tick_x" transform="translate(768.7,0)"/>
<use xlink:href="#tick_x" transform="translate(838.0,0)"/>
<use xlink:href="#tick_x" transform="translate(907.2,0)"/>
<polyline points="145.6,53.993 145.6,587.177 907.2,587.177" stroke="#808080" stroke-width="0.90" fill="none"/>
<text class="ticklabel xtl" transform="translate(145.6,629.0)" text-anchor="middle">Jan</text>
<text class="ticklabel xtl" transform="translate(214.8,629.0)" text-anchor="middle">Feb</text>
<text class="ticklabel xtl" transform="translate(284.1,629.0)" text-anchor="middle">Mar</text>
<text class="ticklabel xtl" transform="translate(353.3,629.0)" text-anchor="middle">Apr</text>
<text class="ticklabel xtl" transform="translate(422.5,629.0)" text-anchor="middle">May</text>
<text class="ticklabel xtl" transform="translate(491.8,629.0)" text-anchor="middle">Jun</text>
<text class="ticklabel xtl" transform="translate(561.0,629.0)" text-anchor="middle">Jul</text>
<text class="ticklabel xtl" transform="translate(630.3,629.0)" text-anchor="middle">Aug</text>
<text class="ticklabel xtl" transform="translate(699.5,629.0)" text-anchor="middle">Sep</text>
<text class="ticklabel xtl" transform="translate(768.7,629.0)" text-anchor="middle">Oct</text>
<text class="ticklabel xtl" transform="translate(838.0,629.0)" text-anchor="middle">Nov</text>
<text class="ticklabel xtl" transform="translate(907.2,629.0)" text-anchor="middle">Dec</text>
<text class="ticklabel ytl" transform="translate(128.8,595.3)">130</text>
<text class="ticklabel ytl" transform="translate(128.8,528.6)">140</text>
<text class="ticklabel ytl" transform="translate(128.8,462.0)">150</text>
<text class="ticklabel ytl" transform="translate(128.8,395.3)">160</text>
<text class="ticklabel ytl" transform="translate(128.8,328.7)">170</text>
<text class="ticklabel ytl" transform="translate(128.8,262.0)">180</text>
<text class="ticklabel ytl" transform="translate(128.8,195.4)">190</text>
<text class="ticklabel ytl" transform="translate(128.8,128.7)">200</text>
<text class="ticklabel ytl" transform="translate(128.8,62.1)">210 Mt</text>
<g stroke="none" stroke-width="0.9000" fill-opacity="0.20" clip-path="url(#axis_clip)">
  <polygon points="145.6,268.9 214.8,406.3 284.1,262.5 353.3,567.9 422.5,455.1 491.8,395.2 561.0,300.7 630.3,272.1 699.5,318.8 768.7,277.3 838.0,318.6 907.2,276.9 907.2,116.8 838.0,141.7 768.7,104.0 699.5,187.9 630.3,67.4 561.0,103.8 491.8,135.4 422.5,109.3 353.3,161.6 284.1,121.3 214.8,219.3 145.6,102.7" fill="#616161"/>
</g>
<polyline class="pl" points="145.6,227.3 214.8,298.5 284.1,215.6 353.3,222.3 422.5,153.8 491.8,215.5 561.0,179.7 630.3,129.9" stroke="#616161" stroke-width="2.70" stroke-opacity="1.00" fill="none" clip-path="url(#axis_clip)"/>
<g class="pl" fill="#616161" stroke="#616161" stroke-width="0.900">
  <circle cx="630.3" cy="129.9" r="5.4" />
</g>
<polyline class="pl" points="630.3,129.9 699.5,219.1" stroke="#616161" stroke-width="2.70" stroke-dasharray="10" stroke-opacity="1.00" fill="none" clip-path="url(#axis_clip)"/>
<text transform="translate(710.2,212.6)" dy="5.4" font-size="18.00" fill="#616161" stroke="none">forecast for September</text>
<polyline class="pl" points="966.2,116.8 966.2,116.8 966.2,116.8 966.3,116.8 966.3,116.9 966.4,116.9 966.6,116.9 966.7,116.9 966.9,116.9 967.0,116.9 967.2,116.9 967.4,117.0 967.6,117.0 967.9,117.0 968.1,117.1 968.4,117.1 968.6,117.2 968.9,117.3 969.2,117.3 969.4,117.4 969.7,117.5 970.0,117.6 970.3,117.7 970.6,117.9 970.9,118.0 971.2,118.2 971.5,118.3 971.8,118.5 972.1,118.7 972.4,118.9 972.7,119.1 973.0,119.3 973.3,119.6 973.5,119.8 973.8,120.1 974.0,120.4 974.3,120.7 974.5,121.1 974.7,121.4 974.9,121.8 975.1,122.2 975.3,122.6 975.4,123.0 975.6,123.5 975.7,124.0 975.8,124.4 975.9,125.0 975.9,125.5 976.0,126.1 976.0,126.7" stroke="#808080" stroke-width="0.90" stroke-opacity="1.00" fill="none" />
<polyline class="pl" points="966.2,276.9 966.2,276.9 966.2,276.9 966.3,276.9 966.3,276.9 966.4,276.9 966.6,276.9 966.7,276.9 966.9,276.9 967.0,276.9 967.2,276.8 967.4,276.8 967.6,276.8 967.9,276.7 968.1,276.7 968.4,276.6 968.6,276.6 968.9,276.5 969.2,276.4 969.4,276.4 969.7,276.3 970.0,276.2 970.3,276.0 970.6,275.9 970.9,275.8 971.2,275.6 971.5,275.5 971.8,275.3 972.1,275.1 972.4,274.9 972.7,274.7 973.0,274.4 973.3,274.2 973.5,273.9 973.8,273.7 974.0,273.4 974.3,273.0 974.5,272.7 974.7,272.4 974.9,272.0 975.1,271.6 975.3,271.2 975.4,270.8 975.6,270.3 975.7,269.8 975.8,269.3 975.9,268.8 975.9,268.3 976.0,267.7 976.0,267.1" stroke="#808080" stroke-width="0.90" stroke-opacity="1.00" fill="none" />
<polyline class="pl" points="976.0,206.7 976.0,206.7 976.0,206.7 976.0,206.6 976.0,206.5 976.0,206.4 976.0,206.3 976.0,206.2 976.0,206.0 976.1,205.8 976.1,205.6 976.1,205.4 976.1,205.2 976.2,205.0 976.2,204.8 976.3,204.5 976.3,204.2 976.4,204.0 976.5,203.7 976.6,203.4 976.7,203.1 976.8,202.8 976.9,202.5 977.0,202.2 977.1,201.9 977.3,201.6 977.5,201.3 977.6,201.0 977.8,200.8 978.0,200.5 978.2,200.2 978.5,199.9 978.7,199.6 979.0,199.3 979.3,199.1 979.6,198.8 979.9,198.6 980.2,198.4 980.6,198.2 980.9,197.9 981.3,197.8 981.7,197.6 982.2,197.4 982.6,197.3 983.1,197.2 983.6,197.1 984.1,197.0 984.7,196.9 985.2,196.9 985.8,196.9" stroke="#808080" stroke-width="0.90" stroke-opacity="1.00" fill="none" />
<polyline class="pl" points="976.0,187.1 976.0,187.1 976.0,187.1 976.0,187.2 976.0,187.3 976.0,187.4 976.0,187.5 976.0,187.6 976.0,187.8 976.1,187.9 976.1,188.1 976.1,188.3 976.1,188.6 976.2,188.8 976.2,189.0 976.3,189.3 976.3,189.5 976.4,189.8 976.5,190.1 976.6,190.4 976.7,190.6 976.8,190.9 976.9,191.2 977.0,191.5 977.1,191.8 977.3,192.1 977.5,192.4 977.6,192.7 977.8,193.0 978.0,193.3 978.2,193.6 978.5,193.9 978.7,194.2 979.0,194.4 979.3,194.7 979.6,194.9 979.9,195.2 980.2,195.4 980.6,195.6 980.9,195.8 981.3,196.0 981.7,196.2 982.2,196.3 982.6,196.5 983.1,196.6 983.6,196.7 984.1,196.8 984.7,196.8 985.2,196.9 985.8,196.9" stroke="#808080" stroke-width="0.90" stroke-opacity="1.00" fill="none" />
<polyline class="pl" points="976.0,126.7 976.0,187.1" stroke="#808080" stroke-width="0.90" stroke-opacity="1.00" fill="none" />
<polyline class="pl" points="976.0,267.1 976.0,206.7" stroke="#808080" stroke-width="0.90" stroke-opacity="1.00" fill="none" />
<text transform="translate(995.6,196.9)" dy="5.4" font-size="18.00" fill="#808080" stroke="none">Range for 2019&#8211;2023</text>
<text transform="translate(925.2,129.9)" dy="6.5" font-size="21.60" fill="#616161" stroke="none">2024</text>
<text transform="translate(145.6,47.2)" dy="0.0" font-size="27.00" fill="#808080" stroke="none">Monthly US CO<tspan dy="0.2em"><tspan style="font-size:70%">2</tspan></tspan><tspan dy="-0.2em"> </tspan>emissions: Oil</text>
<text transform="translate(157.6,666.1)" font-size="19.80" font-family="Helvetica" fill="#BFBFBF" stroke="none" xml:space="preserve">@robbie_andrew   &#9679;   Data: EIA</text>
<text class="twitlink" transform="translate(157.6,666.1)" opacity="0" font-size="19.80" fill="#BFBFBF" stroke="none" xml:space="preserve"></text>
  <g class="dl_el" transform="translate(154.6,578.4)">
    <g class="dl_el_balloon">
      <foreignObject x="0" y="0" width="120" height="500">
      <div xmlns="http://www.w3.org/1999/xhtml" class="dl_fe" style="height:60px">
      <p class="dl_fe_p">Find me on Twitter</p>
      </div>
	    </foreignObject>
      <path stroke="#000" fill="#FDFFDF" d="M0,60H60l5,5l5,-5H120"/>
    </g>
  </g>
<g>
  <rect x="123.0" y="651.4" width="34" height="17" fill="#FFF" stroke="none"/>
  <g transform="translate(124.0,652.4) scale(0.24)">
  <g><circle fill="#FFF" cx="37.79" cy="28.5" r="28.84"/>
     <circle fill="none" cx="37.79" cy="28.5" r="28.84" stroke="#BFBFBF" stroke-width="5.5"/>
     <path fill="#BFBFBF" d="M37.16,23.19 l-4.29,2.23c-0.458-0.951-1.02-1.62-1.69-2c-0.667-0.38-1.29-0.571-1.86-0.571c-2.86,0-4.29,1.89-4.29,5.66 c0,1.71,0.36,3.08,1.09,4.11c0.724,1.03,1.79,1.54,3.2,1.54c1.87,0,3.18-0.915,3.94-2.74l3.94,2 c-0.838,1.56-2,2.79-3.49,3.69c-1.48,0.896-3.12,1.34-4.91,1.34c-2.86,0-5.16-0.875-6.92-2.63 c-1.75-1.75-2.63-4.19-2.63-7.31c0-3.05,0.886-5.47,2.66-7.26c1.77-1.79,4.01-2.69,6.72-2.69 C32.6,18.56,35.44,20.1,37.16,23.19z
              M55.61,23.19l-4.23,2.23c-0.457-0.951-1.02-1.62-1.69-2 c-0.668-0.38-1.31-0.571-1.91-0.571c-2.86,0-4.29,1.89-4.29,5.66c0,1.71,0.363,3.08,1.09,4.11 c0.723,1.03,1.79,1.54,3.2,1.54c1.87,0,3.18-0.915,3.94-2.74l4,2c-0.875,1.56-2.06,2.79-3.54,3.69 c-1.49,0.9-3.11,1.34-4.86,1.34c-2.9,0-5.21-0.875-6.94-2.63c-1.74-1.75-2.6-4.19-2.6-7.31 c0-3.05,0.885-5.47,2.66-7.26c1.77-1.79,4.01-2.69,6.71-2.69C51.12,18.56,53.944,20.1,55.61,23.19z"/>
  </g></g>
  <g transform="translate(140.2,652.4) scale(0.24)">
  <g><circle fill="#FFF" cx="37.79" cy="28.5" r="28.84"/>
     <circle fill="none" cx="37.79" cy="28.5" r="28.84" stroke="#BFBFBF" stroke-width="5.5"/>
     <path fill="#BFBFBF" d="M46.129,20.557v13.085h-3.656v15.542h-9.944V33.643h-3.656V20.557 c0-0.572,0.2-1.057,0.599-1.457c0.401-0.399,0.887-0.6,1.457-0.6h13.144c0.533,0,1.01,0.2,1.428,0.6 C45.918,19.5,46.129,19.986,46.129,20.557z
              M33.042,12.329c0-3.008,1.485-4.514,4.458-4.514s4.457,1.504,4.457,4.514 c0,2.971-1.486,4.457-4.457,4.457S33.042,15.3,33.042,12.329z"/>
  </g></g>
</g>
</g>
</svg>
