<svg version="1.1" xmlns="http://www.w3.org/2000/svg" xmlns:xlink="http://www.w3.org/1999/xlink" width="100%" height="100%" viewBox="0 0 1200.000 674.916">
<title>Monthly US CO2 emissions: Natural Gas</title>
<desc>Created by Robbie Andrew (@robbie_andrew), CICERO Center for International Climate Research. CC-BY: Material may be freely re-used as long as you credit the author</desc>
<style type="text/css">
  #main {font-family:Helvetica,Arial,sans-serif; font-size:27.00px;
         fill-opacity:1; fill:#000000; stroke:none; stroke-linejoin:round; stroke-linecap:round; stroke-width:1.00;}
  .marker {stroke-opacity:0;fill-opacity:0;}
  .marker:hover {stroke-opacity:0.5; fill-opacity:1;}
  .ticklabel {font-size:27.00px;fill:#808080;stroke:none;font-family:Helvetica}
  .ytl {text-anchor:end;}
  .dp1 {pointer-events:none;font-size:70%;text-anchor:middle;fill:#000000;}
  .dp2 {pointer-events:none;font-size:70%;text-anchor:middle;fill:#FFFFFF;}
  .numtip {pointer-events:none;}
  .cc {opacity:0.25;}
.dl_fe {background-color:#FDFFDF;display:flex;margin:auto;align-items:center}
.dl_fe_p {font-size:20px;text-align:center;margin:3px}
.dl_el {display:none;pointer-events:none;}
.cc:hover + .dl_el {display:block;}
text:hover + .dl_el {display:block;}
</style>
<defs>
  <clipPath id="axis_clip"><rect x="145.8" y="54.2" width="761.2" height="532.8" /></clipPath>
  <path id="line_x" d="M 145.600,0 h 761.600" stroke="#262626" stroke-opacity="0.15" stroke-width="1.00"/>
  <path id="tick_y" d="M 145.600,0 h -6.000" stroke="#808080" stroke-width="0.90"/>
  <path id="tick_x" d="M 0,587.177 v 6.000" stroke="#808080" stroke-width="0.90"/>
</defs>
<g id="main">
<use xlink:href="#line_x" transform="translate(0,587.2)"/>
<use xlink:href="#line_x" transform="translate(0,533.9)"/>
<use xlink:href="#line_x" transform="translate(0,480.5)"/>
<use xlink:href="#line_x" transform="translate(0,427.2)"/>
<use xlink:href="#line_x" transform="translate(0,373.9)"/>
<use xlink:href="#line_x" transform="translate(0,320.6)"/>
<use xlink:href="#line_x" transform="translate(0,267.3)"/>
<use xlink:href="#line_x" transform="translate(0,213.9)"/>
<use xlink:href="#line_x" transform="translate(0,160.6)"/>
<use xlink:href="#line_x" transform="translate(0,107.3)"/>
<use xlink:href="#line_x" transform="translate(0,54.0)"/>
<use xlink:href="#tick_y" transform="translate(0,587.2)"/>
<use xlink:href="#tick_y" transform="translate(0,533.9)"/>
<use xlink:href="#tick_y" transform="translate(0,480.5)"/>
<use xlink:href="#tick_y" transform="translate(0,427.2)"/>
<use xlink:href="#tick_y" transform="translate(0,373.9)"/>
<use xlink:href="#tick_y" transform="translate(0,320.6)"/>
<use xlink:href="#tick_y" transform="translate(0,267.3)"/>
<use xlink:href="#tick_y" transform="translate(0,213.9)"/>
<use xlink:href="#tick_y" transform="translate(0,160.6)"/>
<use xlink:href="#tick_y" transform="translate(0,107.3)"/>
<use xlink:href="#tick_y" transform="translate(0,54.0)"/>
<use xlink:href="#tick_x" transform="translate(145.6,0)"/>
<use xlink:href="#tick_x" transform="translate(214.8,0)"/>
<use xlink:href="#tick_x" transform="translate(284.1,0)"/>
<use xlink:href="#tick_x" transform="translate(353.3,0)"/>
<use xlink:href="#tick_x" transform="translate(422.5,0)"/>
<use xlink:href="#tick_x" transform="translate(491.8,0)"/>
<use xlink:href="#tick_x" transform="translate(561.0,0)"/>
<use xlink:href="#tick_x" transform="translate(630.3,0)"/>
<use xlink:href="#tick_x" transform="translate(699.5,0)"/>
<use xlink:href="#tick_x" transform="translate(768.7,0)"/>
<use xlink:href="#tick_x" transform="translate(838.0,0)"/>
<use xlink:href="#tick_x" transform="translate(907.2,0)"/>
<polyline points="145.6,53.993 145.6,587.177 907.2,587.177" stroke="#808080" stroke-width="0.90" fill="none"/>
<text class="ticklabel xtl" transform="translate(145.6,629.0)" text-anchor="middle">Jan</text>
<text class="ticklabel xtl" transform="translate(214.8,629.0)" text-anchor="middle">Feb</text>
<text class="ticklabel xtl" transform="translate(284.1,629.0)" text-anchor="middle">Mar</text>
<text class="ticklabel xtl" transform="translate(353.3,629.0)" text-anchor="middle">Apr</text>
<text class="ticklabel xtl" transform="translate(422.5,629.0)" text-anchor="middle">May</text>
<text class="ticklabel xtl" transform="translate(491.8,629.0)" text-anchor="middle">Jun</text>
<text class="ticklabel xtl" transform="translate(561.0,629.0)" text-anchor="middle">Jul</text>
<text class="ticklabel xtl" transform="translate(630.3,629.0)" text-anchor="middle">Aug</text>
<text class="ticklabel xtl" transform="translate(699.5,629.0)" text-anchor="middle">Sep</text>
<text class="ticklabel xtl" transform="translate(768.7,629.0)" text-anchor="middle">Oct</text>
<text class="ticklabel xtl" transform="translate(838.0,629.0)" text-anchor="middle">Nov</text>
<text class="ticklabel xtl" transform="translate(907.2,629.0)" text-anchor="middle">Dec</text>
<text class="ticklabel ytl" transform="translate(128.8,595.3)">110</text>
<text class="ticklabel ytl" transform="translate(128.8,542.0)">120</text>
<text class="ticklabel ytl" transform="translate(128.8,488.6)">130</text>
<text class="ticklabel ytl" transform="translate(128.8,435.3)">140</text>
<text class="ticklabel ytl" transform="translate(128.8,382.0)">150</text>
<text class="ticklabel ytl" transform="translate(128.8,328.7)">160</text>
<text class="ticklabel ytl" transform="translate(128.8,275.4)">170</text>
<text class="ticklabel ytl" transform="translate(128.8,222.0)">180</text>
<text class="ticklabel ytl" transform="translate(128.8,168.7)">190</text>
<text class="ticklabel ytl" transform="translate(128.8,115.4)">200</text>
<text class="ticklabel ytl" transform="translate(128.8,62.1)">210 Mt</text>
<g stroke="none" stroke-width="0.9000" fill-opacity="0.20" clip-path="url(#axis_clip)">
  <polygon points="145.6,220.6 214.8,323.3 284.1,412.6 353.3,536.5 422.5,576.2 491.8,563.5 561.0,483.5 630.3,481.2 699.5,558.9 768.7,524.0 838.0,469.2 907.2,305.9 907.2,199.4 838.0,360.5 768.7,472.1 699.5,490.5 630.3,403.9 561.0,406.3 491.8,493.6 422.5,508.4 353.3,477.6 284.1,305.1 214.8,278.6 145.6,139.8" fill="#4AB0FF"/>
</g>
<polyline class="pl" points="145.6,106.1 214.8,317.4 284.1,369.4 353.3,485.0 422.5,504.7 491.8,497.2 561.0,408.0 630.3,405.9" stroke="#4AB0FF" stroke-width="2.70" stroke-opacity="1.00" fill="none" clip-path="url(#axis_clip)"/>
<g class="pl" fill="#4AB0FF" stroke="#4AB0FF" stroke-width="0.900">
  <circle cx="630.3" cy="405.9" r="5.4" />
</g>
<polyline class="pl" points="630.3,405.9 699.5,488.4" stroke="#4AB0FF" stroke-width="2.70" stroke-dasharray="10" stroke-opacity="1.00" fill="none" clip-path="url(#axis_clip)"/>
<text transform="translate(710.2,481.9)" dy="5.4" font-size="18.00" fill="#4AB0FF" stroke="none">forecast for September</text>
<polyline class="pl" points="966.2,199.4 966.2,199.4 966.2,199.4 966.3,199.4 966.3,199.4 966.4,199.4 966.6,199.4 966.7,199.4 966.9,199.5 967.0,199.5 967.2,199.5 967.4,199.5 967.6,199.6 967.9,199.6 968.1,199.6 968.4,199.7 968.6,199.8 968.9,199.8 969.2,199.9 969.4,200.0 969.7,200.1 970.0,200.2 970.3,200.3 970.6,200.4 970.9,200.6 971.2,200.7 971.5,200.9 971.8,201.1 972.1,201.2 972.4,201.4 972.7,201.7 973.0,201.9 973.3,202.1 973.5,202.4 973.8,202.7 974.0,203.0 974.3,203.3 974.5,203.6 974.7,204.0 974.9,204.4 975.1,204.8 975.3,205.2 975.4,205.6 975.6,206.0 975.7,206.5 975.8,207.0 975.9,207.5 975.9,208.1 976.0,208.6 976.0,209.2" stroke="#808080" stroke-width="0.90" stroke-opacity="1.00" fill="none" />
<polyline class="pl" points="966.2,305.9 966.2,305.9 966.2,305.9 966.3,305.9 966.3,305.9 966.4,305.9 966.6,305.9 966.7,305.9 966.9,305.8 967.0,305.8 967.2,305.8 967.4,305.8 967.6,305.7 967.9,305.7 968.1,305.7 968.4,305.6 968.6,305.5 968.9,305.5 969.2,305.4 969.4,305.3 969.7,305.2 970.0,305.1 970.3,305.0 970.6,304.9 970.9,304.7 971.2,304.6 971.5,304.4 971.8,304.2 972.1,304.1 972.4,303.9 972.7,303.6 973.0,303.4 973.3,303.2 973.5,302.9 973.8,302.6 974.0,302.3 974.3,302.0 974.5,301.7 974.7,301.3 974.9,300.9 975.1,300.5 975.3,300.1 975.4,299.7 975.6,299.3 975.7,298.8 975.8,298.3 975.9,297.8 975.9,297.2 976.0,296.7 976.0,296.1" stroke="#808080" stroke-width="0.90" stroke-opacity="1.00" fill="none" />
<polyline class="pl" points="976.0,262.5 976.0,262.5 976.0,262.4 976.0,262.4 976.0,262.3 976.0,262.2 976.0,262.1 976.0,261.9 976.0,261.8 976.1,261.6 976.1,261.4 976.1,261.2 976.1,261.0 976.2,260.8 976.2,260.5 976.3,260.3 976.3,260.0 976.4,259.7 976.5,259.5 976.6,259.2 976.7,258.9 976.8,258.6 976.9,258.3 977.0,258.0 977.1,257.7 977.3,257.4 977.5,257.1 977.6,256.8 977.8,256.5 978.0,256.2 978.2,255.9 978.5,255.7 978.7,255.4 979.0,255.1 979.3,254.8 979.6,254.6 979.9,254.4 980.2,254.1 980.6,253.9 980.9,253.7 981.3,253.5 981.7,253.3 982.2,253.2 982.6,253.1 983.1,252.9 983.6,252.8 984.1,252.8 984.7,252.7 985.2,252.7 985.8,252.7" stroke="#808080" stroke-width="0.90" stroke-opacity="1.00" fill="none" />
<polyline class="pl" points="976.0,242.8 976.0,242.8 976.0,242.9 976.0,242.9 976.0,243.0 976.0,243.1 976.0,243.2 976.0,243.4 976.0,243.5 976.1,243.7 976.1,243.9 976.1,244.1 976.1,244.3 976.2,244.5 976.2,244.8 976.3,245.0 976.3,245.3 976.4,245.6 976.5,245.8 976.6,246.1 976.7,246.4 976.8,246.7 976.9,247.0 977.0,247.3 977.1,247.6 977.3,247.9 977.5,248.2 977.6,248.5 977.8,248.8 978.0,249.1 978.2,249.4 978.5,249.7 978.7,249.9 979.0,250.2 979.3,250.5 979.6,250.7 979.9,250.9 980.2,251.2 980.6,251.4 980.9,251.6 981.3,251.8 981.7,252.0 982.2,252.1 982.6,252.2 983.1,252.4 983.6,252.5 984.1,252.5 984.7,252.6 985.2,252.6 985.8,252.7" stroke="#808080" stroke-width="0.90" stroke-opacity="1.00" fill="none" />
<polyline class="pl" points="976.0,209.2 976.0,242.8" stroke="#808080" stroke-width="0.90" stroke-opacity="1.00" fill="none" />
<polyline class="pl" points="976.0,296.1 976.0,262.5" stroke="#808080" stroke-width="0.90" stroke-opacity="1.00" fill="none" />
<text transform="translate(995.6,252.7)" dy="5.4" font-size="18.00" fill="#808080" stroke="none">Range for 2019&#8211;2023</text>
<text transform="translate(925.2,405.9)" dy="6.5" font-size="21.60" fill="#4AB0FF" stroke="none">2024</text>
<text transform="translate(145.6,47.2)" dy="0.0" font-size="27.00" fill="#808080" stroke="none">Monthly US CO<tspan dy="0.2em"><tspan style="font-size:70%">2</tspan></tspan><tspan dy="-0.2em"> </tspan>emissions: Natural Gas</text>
<text transform="translate(157.6,666.1)" font-size="19.80" font-family="Helvetica" fill="#BFBFBF" stroke="none" xml:space="preserve">@robbie_andrew   &#9679;   Data: EIA</text>
<text class="twitlink" transform="translate(157.6,666.1)" opacity="0" font-size="19.80" fill="#BFBFBF" stroke="none" xml:space="preserve"></text>
  <g class="dl_el" transform="translate(154.6,578.4)">
    <g class="dl_el_balloon">
      <foreignObject x="0" y="0" width="120" height="500">
      <div xmlns="http://www.w3.org/1999/xhtml" class="dl_fe" style="height:60px">
      <p class="dl_fe_p">Find me on Twitter</p>
      </div>
	    </foreignObject>
      <path stroke="#000" fill="#FDFFDF" d="M0,60H60l5,5l5,-5H120"/>
    </g>
  </g>
<g>
  <rect x="123.0" y="651.4" width="34" height="17" fill="#FFF" stroke="none"/>
  <g transform="translate(124.0,652.4) scale(0.24)">
  <g><circle fill="#FFF" cx="37.79" cy="28.5" r="28.84"/>
     <circle fill="none" cx="37.79" cy="28.5" r="28.84" stroke="#BFBFBF" stroke-width="5.5"/>
     <path fill="#BFBFBF" d="M37.16,23.19 l-4.29,2.23c-0.458-0.951-1.02-1.62-1.69-2c-0.667-0.38-1.29-0.571-1.86-0.571c-2.86,0-4.29,1.89-4.29,5.66 c0,1.71,0.36,3.08,1.09,4.11c0.724,1.03,1.79,1.54,3.2,1.54c1.87,0,3.18-0.915,3.94-2.74l3.94,2 c-0.838,1.56-2,2.79-3.49,3.69c-1.48,0.896-3.12,1.34-4.91,1.34c-2.86,0-5.16-0.875-6.92-2.63 c-1.75-1.75-2.63-4.19-2.63-7.31c0-3.05,0.886-5.47,2.66-7.26c1.77-1.79,4.01-2.69,6.72-2.69 C32.6,18.56,35.44,20.1,37.16,23.19z
              M55.61,23.19l-4.23,2.23c-0.457-0.951-1.02-1.62-1.69-2 c-0.668-0.38-1.31-0.571-1.91-0.571c-2.86,0-4.29,1.89-4.29,5.66c0,1.71,0.363,3.08,1.09,4.11 c0.723,1.03,1.79,1.54,3.2,1.54c1.87,0,3.18-0.915,3.94-2.74l4,2c-0.875,1.56-2.06,2.79-3.54,3.69 c-1.49,0.9-3.11,1.34-4.86,1.34c-2.9,0-5.21-0.875-6.94-2.63c-1.74-1.75-2.6-4.19-2.6-7.31 c0-3.05,0.885-5.47,2.66-7.26c1.77-1.79,4.01-2.69,6.71-2.69C51.12,18.56,53.944,20.1,55.61,23.19z"/>
  </g></g>
  <g transform="translate(140.2,652.4) scale(0.24)">
  <g><circle fill="#FFF" cx="37.79" cy="28.5" r="28.84"/>
     <circle fill="none" cx="37.79" cy="28.5" r="28.84" stroke="#BFBFBF" stroke-width="5.5"/>
     <path fill="#BFBFBF" d="M46.129,20.557v13.085h-3.656v15.542h-9.944V33.643h-3.656V20.557 c0-0.572,0.2-1.057,0.599-1.457c0.401-0.399,0.887-0.6,1.457-0.6h13.144c0.533,0,1.01,0.2,1.428,0.6 C45.918,19.5,46.129,19.986,46.129,20.557z
              M33.042,12.329c0-3.008,1.485-4.514,4.458-4.514s4.457,1.504,4.457,4.514 c0,2.971-1.486,4.457-4.457,4.457S33.042,15.3,33.042,12.329z"/>
  </g></g>
</g>
</g>
</svg>
