<svg version="1.1" xmlns="http://www.w3.org/2000/svg" xmlns:xlink="http://www.w3.org/1999/xlink" width="100%" height="100%" viewBox="0 0 1200.000 674.916">
<title>Past and forecasted US monthly fossil-fuel emissions</title>
<desc>Created by Robbie Andrew (@robbie_andrew), CICERO Center for International Climate Research. CC-BY: Material may be freely re-used as long as you credit the author</desc>
<style type="text/css">
  #main {font-family:Helvetica,Arial,sans-serif; font-size:27.00px;
         fill-opacity:1; fill:#000000; stroke:none; stroke-linejoin:round; stroke-linecap:round; stroke-width:1.00;}
  a:hover {text-decoration: underline;}
  .marker {stroke-opacity:0;fill-opacity:0;}
  .marker:hover {stroke-opacity:0.5; fill-opacity:1;}
  .ticklabel {font-size:27.00px;fill:#808080;stroke:none;font-family:Helvetica}
  .ytl {text-anchor:end;}
  .dp1 {pointer-events:none;font-size:70%;text-anchor:middle;fill:#000000;}
  .dp2 {pointer-events:none;font-size:70%;text-anchor:middle;fill:#FFFFFF;}
  .numtip {pointer-events:none;}
  .cc {opacity:0.25;}
.dl_fe {background-color:#FDFFDF;display:flex;margin:auto;align-items:center}
.dl_fe_p {font-size:20px;text-align:center;margin:3px}
.dl_el {display:none;pointer-events:none;}
.cc:hover + .dl_el {display:block;}
text:hover + .dl_el {display:block;}
  #areas .pl {transition: all 0.2s ease;}
  #areas:hover .pl {opacity:0.5;}
  #areas:hover .thick {stroke-width:1;}
  #areas:hover .pg_1:hover .pl {opacity:1;}
  #areas:hover .pg_1:hover .pll {stroke-width:3;}
  #areas:hover .pg_1:hover .pldlm {stroke-width:2;}
  #areas:hover .pg_1:hover .thick {stroke-width:12;}
  #areas:hover .pg_2:hover .pl {opacity:1;}
  #areas:hover .pg_2:hover .pll {stroke-width:3;}
  #areas:hover .pg_2:hover .pldlm {stroke-width:2;}
  #areas:hover .pg_2:hover .thick {stroke-width:12;}
  #areas:hover .pg_3:hover .pl {opacity:1;}
  #areas:hover .pg_3:hover .pll {stroke-width:3;}
  #areas:hover .pg_3:hover .pldlm {stroke-width:2;}
  #areas:hover .pg_3:hover .thick {stroke-width:12;}
  #lines .pl {transition: all 0.2s ease;}
  #lines:hover .pl {opacity:0.3;}
  #lines:hover .thick {stroke-width:1;}
  #lines:hover .pl_1:hover .pl {opacity:1;}
  #lines:hover .pl_1:hover .pll {stroke-width:3;}
  #lines:hover .pl_1:hover .pldlm {stroke-width:2;}
  #lines:hover .pl_1:hover .thick {stroke-width:12;}
  #lines:hover .pl_2:hover .pl {opacity:1;}
  #lines:hover .pl_2:hover .pll {stroke-width:3;}
  #lines:hover .pl_2:hover .pldlm {stroke-width:2;}
  #lines:hover .pl_2:hover .thick {stroke-width:12;}
  #lines:hover .pl_3:hover .pl {opacity:1;}
  #lines:hover .pl_3:hover .pll {stroke-width:3;}
  #lines:hover .pl_3:hover .pldlm {stroke-width:2;}
  #lines:hover .pl_3:hover .thick {stroke-width:12;}
  #lines:hover .pl_4:hover .pl {opacity:1;}
  #lines:hover .pl_4:hover .pll {stroke-width:3;}
  #lines:hover .pl_4:hover .pldlm {stroke-width:2;}
  #lines:hover .pl_4:hover .thick {stroke-width:12;}
</style>
<defs>
  <clipPath id="axis_clip"><rect x="145.8" y="54.2" width="761.2" height="532.8" /></clipPath>
  <path id="line_y" d="M 0,53.993 v 533.183" stroke="#262626" stroke-opacity="0.15" stroke-width="1.00"/>
  <path id="line_x" d="M 145.600,0 h 761.600" stroke="#262626" stroke-opacity="0.15" stroke-width="1.00"/>
  <path id="tick_y" d="M 145.600,0 h -6.000" stroke="#808080" stroke-width="0.90"/>
  <path id="tick_x" d="M 0,587.177 v 6.000" stroke="#808080" stroke-width="0.90"/>
  <symbol id="line_1" viewBox="0 0 1200.000 674.916">
<polyline class="pl" points="779.9,587.2 779.9,54.0" stroke="#808080" stroke-width="0.90" stroke-dasharray="10" stroke-opacity="1.00" fill="none" clip-path="url(#axis_clip)"/>
  </symbol>
  <symbol id="line_2" viewBox="0 0 1200.000 674.916">
<polyline class="pl" points="141.3,156.0 149.4,133.0 157.1,219.4 164.8,190.9 172.7,229.9 180.7,226.6 188.6,214.2 196.6,184.7 204.7,179.9 212.6,219.9 220.6,209.5 228.5,189.9 236.5,167.9 244.6,144.0 252.3,203.4 260.0,189.5 267.9,247.5 275.9,233.5 283.8,230.9 291.8,194.8 299.9,193.7 307.8,229.2 315.8,228.6 323.7,203.4 331.7,183.4 339.8,187.6 347.6,216.1 355.4,243.3 363.3,316.4 371.2,305.6 379.2,278.6 387.1,229.0 395.2,227.1 403.1,264.3 411.0,258.0 419.0,256.6 426.9,200.0 435.0,188.5 442.7,214.3 450.4,231.8 458.3,260.1 466.3,252.6 474.2,228.2 482.2,204.3 490.3,198.9 498.2,241.7 506.2,242.2 514.1,228.8 522.1,205.9 530.2,164.9 537.9,214.0 545.6,217.4 553.5,256.3 561.5,248.9 569.4,236.5 577.4,210.1 585.5,207.6 593.4,245.3 601.4,248.1 609.3,229.0 617.3,185.8 625.4,202.2 633.1,242.8 640.8,217.0 648.7,265.5 656.7,260.4 664.6,246.6 672.6,218.0 680.7,208.1 688.6,249.4 696.6,244.5 704.5,229.4 712.5,211.5 720.6,172.0 728.4,243.1 736.2,246.7 744.1,268.8 752.0,254.6 760.0,249.0 767.9,215.2 776.0,211.0 783.9,252.1 791.8,247.8 799.8,237.2 807.7,193.8 815.8,174.6 823.5,239.7 831.2,237.4 839.1,272.9 847.1,261.0 855.0,249.8 863.0,212.3 871.1,203.6 879.0,245.8 887.0,242.2 894.9,238.3 902.9,191.0" stroke="#000" stroke-width="0.90" stroke-opacity="1.00" fill="none" clip-path="url(#axis_clip)"/>
  </symbol>
  <symbol id="line_3" viewBox="0 0 1200.000 674.916">
<polyline class="pl" points="141.3,304.8 149.4,293.7 157.1,349.6 164.8,325.2 172.7,342.6 180.7,324.9 188.6,313.0 196.6,297.4 204.7,290.8 212.6,323.1 220.6,319.0 228.5,320.2 236.5,312.0 244.6,309.1 252.3,349.0 260.0,330.5 267.9,353.7 275.9,335.8 283.8,332.6 291.8,309.9 299.9,310.6 307.8,335.1 315.8,339.3 323.7,337.4 331.7,336.2 339.8,347.8 347.6,363.5 355.4,374.4 363.3,425.1 371.2,405.2 379.2,381.0 387.1,347.5 395.2,342.5 403.1,367.7 411.0,369.2 419.0,374.0 426.9,353.4 435.0,349.1 442.7,363.5 450.4,358.7 458.3,369.1 466.3,354.0 474.2,335.7 482.2,320.3 490.3,315.8 498.2,344.1 506.2,350.5 514.1,357.7 522.1,350.5 530.2,337.2 537.9,360.5 545.6,350.7 553.5,369.1 561.5,356.0 569.4,347.4 577.4,334.2 585.5,330.6 593.4,355.0 601.4,361.2 609.3,361.8 617.3,348.2 625.4,361.1 633.1,384.5 640.8,361.8 648.7,381.5 656.7,371.3 664.6,359.9 672.6,345.9 680.7,336.4 688.6,363.3 696.6,361.4 704.5,364.9 712.5,363.7 720.6,349.9 728.4,385.8 736.2,380.7 744.1,383.6 752.0,366.1 760.0,365.4 767.9,342.8 776.0,338.9 783.9,366.3 791.8,368.4 799.8,370.3 807.7,351.5 815.8,346.7 823.5,383.2 831.2,377.0 839.1,389.3 847.1,371.1 855.0,361.5 863.0,337.9 871.1,332.2 879.0,358.8 887.0,362.3 894.9,369.8 902.9,346.8" stroke="#000" stroke-width="0.90" stroke-opacity="1.00" fill="none" clip-path="url(#axis_clip)"/>
  </symbol>
  <symbol id="line_4" viewBox="0 0 1200.000 674.916">
<polyline class="pl" points="141.3,484.3 149.4,474.7 157.1,505.5 164.8,507.3 172.7,513.9 180.7,502.9 188.6,489.0 196.6,476.4 204.7,476.5 212.6,492.2 220.6,500.9 228.5,495.6 236.5,489.1 244.6,489.3 252.3,506.8 260.0,508.1 267.9,526.0 275.9,515.0 283.8,508.3 291.8,489.8 299.9,495.4 307.8,503.9 315.8,519.2 323.7,512.3 331.7,514.4 339.8,520.4 347.6,528.1 355.4,533.2 363.3,543.2 371.2,538.3 379.2,522.1 387.1,501.3 395.2,500.0 403.1,519.0 411.0,526.1 419.0,525.4 426.9,510.3 435.0,507.1 442.7,503.1 450.4,524.0 458.3,532.0 466.3,522.8 474.2,503.2 482.2,489.3 490.3,489.7 498.2,509.1 506.2,522.6 514.1,527.3 522.1,524.7 530.2,502.3 537.9,516.3 545.6,525.2 553.5,531.2 561.5,524.7 569.4,513.8 577.4,501.5 585.5,503.2 593.4,521.1 601.4,530.1 609.3,528.7 617.3,513.8 625.4,524.0 633.1,537.8 640.8,534.6 648.7,544.7 656.7,540.4 664.6,527.8 672.6,510.4 680.7,511.3 688.6,526.9 696.6,534.0 704.5,533.8 712.5,530.4 720.6,513.4 728.4,539.8 736.2,545.7 744.1,547.7 752.0,539.4 760.0,526.8 767.9,512.6 776.0,515.4 783.9,530.9 791.8,539.8 799.8,536.4 807.7,520.1 815.8,513.2 823.5,535.1 831.2,547.7 839.1,553.6 847.1,545.2 855.0,528.1 863.0,511.0 871.1,507.9 879.0,525.2 887.0,535.2 894.9,536.0 902.9,517.1" stroke="#000" stroke-width="0.90" stroke-opacity="1.00" fill="none" clip-path="url(#axis_clip)"/>
  </symbol>
</defs>
<g id="main">
<use xlink:href="#line_y" transform="translate(145.6,0)"/>
<use xlink:href="#line_y" transform="translate(240.8,0)"/>
<use xlink:href="#line_y" transform="translate(336.0,0)"/>
<use xlink:href="#line_y" transform="translate(431.2,0)"/>
<use xlink:href="#line_y" transform="translate(526.4,0)"/>
<use xlink:href="#line_y" transform="translate(621.6,0)"/>
<use xlink:href="#line_y" transform="translate(716.8,0)"/>
<use xlink:href="#line_y" transform="translate(812.0,0)"/>
<use xlink:href="#line_y" transform="translate(907.2,0)"/>
<use xlink:href="#line_x" transform="translate(0,587.2)"/>
<use xlink:href="#line_x" transform="translate(0,498.3)"/>
<use xlink:href="#line_x" transform="translate(0,409.4)"/>
<use xlink:href="#line_x" transform="translate(0,320.6)"/>
<use xlink:href="#line_x" transform="translate(0,231.7)"/>
<use xlink:href="#line_x" transform="translate(0,142.9)"/>
<use xlink:href="#line_x" transform="translate(0,54.0)"/>
<use xlink:href="#tick_y" transform="translate(0,587.2)"/>
<use xlink:href="#tick_y" transform="translate(0,498.3)"/>
<use xlink:href="#tick_y" transform="translate(0,409.4)"/>
<use xlink:href="#tick_y" transform="translate(0,320.6)"/>
<use xlink:href="#tick_y" transform="translate(0,231.7)"/>
<use xlink:href="#tick_y" transform="translate(0,142.9)"/>
<use xlink:href="#tick_y" transform="translate(0,54.0)"/>
<use xlink:href="#tick_x" transform="translate(145.6,0)"/>
<use xlink:href="#tick_x" transform="translate(240.8,0)"/>
<use xlink:href="#tick_x" transform="translate(336.0,0)"/>
<use xlink:href="#tick_x" transform="translate(431.2,0)"/>
<use xlink:href="#tick_x" transform="translate(526.4,0)"/>
<use xlink:href="#tick_x" transform="translate(621.6,0)"/>
<use xlink:href="#tick_x" transform="translate(716.8,0)"/>
<use xlink:href="#tick_x" transform="translate(812.0,0)"/>
<use xlink:href="#tick_x" transform="translate(907.2,0)"/>
<polyline points="145.6,53.993 145.6,587.177 907.2,587.177" stroke="#808080" stroke-width="0.90" fill="none"/>
<text class="ticklabel ytl" transform="translate(128.8,595.3)">0</text>
<text class="ticklabel ytl" transform="translate(128.8,506.4)">100</text>
<text class="ticklabel ytl" transform="translate(128.8,417.5)">200</text>
<text class="ticklabel ytl" transform="translate(128.8,328.7)">300</text>
<text class="ticklabel ytl" transform="translate(128.8,239.8)">400</text>
<text class="ticklabel ytl" transform="translate(128.8,151.0)">500</text>
<text class="ticklabel ytl" transform="translate(128.8,62.1)">600 Mt</text>
<g id="areas">
  <g class="pg_3">
    <polygon class="pl" points="141.3,156.0 149.4,133.0 157.1,219.4 164.8,190.9 172.7,229.9 180.7,226.6 188.6,214.2 196.6,184.7 204.7,179.9 212.6,219.9 220.6,209.5 228.5,189.9 236.5,167.9 244.6,144.0 252.3,203.4 260.0,189.5 267.9,247.5 275.9,233.5 283.8,230.9 291.8,194.8 299.9,193.7 307.8,229.2 315.8,228.6 323.7,203.4 331.7,183.4 339.8,187.6 347.6,216.1 355.4,243.3 363.3,316.4 371.2,305.6 379.2,278.6 387.1,229.0 395.2,227.1 403.1,264.3 411.0,258.0 419.0,256.6 426.9,200.0 435.0,188.5 442.7,214.3 450.4,231.8 458.3,260.1 466.3,252.6 474.2,228.2 482.2,204.3 490.3,198.9 498.2,241.7 506.2,242.2 514.1,228.8 522.1,205.9 530.2,164.9 537.9,214.0 545.6,217.4 553.5,256.3 561.5,248.9 569.4,236.5 577.4,210.1 585.5,207.6 593.4,245.3 601.4,248.1 609.3,229.0 617.3,185.8 625.4,202.2 633.1,242.8 640.8,217.0 648.7,265.5 656.7,260.4 664.6,246.6 672.6,218.0 680.7,208.1 688.6,249.4 696.6,244.5 704.5,229.4 712.5,211.5 720.6,172.0 728.4,243.1 736.2,246.7 744.1,268.8 752.0,254.6 760.0,249.0 767.9,215.2 776.0,211.0 783.9,252.1 791.8,247.8 799.8,237.2 807.7,193.8 815.8,174.6 823.5,239.7 831.2,237.4 839.1,272.9 847.1,261.0 855.0,249.8 863.0,212.3 871.1,203.6 879.0,245.8 887.0,242.2 894.9,238.3 902.9,191.0 902.9,346.8 894.9,369.8 887.0,362.3 879.0,358.8 871.1,332.2 863.0,337.9 855.0,361.5 847.1,371.1 839.1,389.3 831.2,377.0 823.5,383.2 815.8,346.7 807.7,351.5 799.8,370.3 791.8,368.4 783.9,366.3 776.0,338.9 767.9,342.8 760.0,365.4 752.0,366.1 744.1,383.6 736.2,380.7 728.4,385.8 720.6,349.9 712.5,363.7 704.5,364.9 696.6,361.4 688.6,363.3 680.7,336.4 672.6,345.9 664.6,359.9 656.7,371.3 648.7,381.5 640.8,361.8 633.1,384.5 625.4,361.1 617.3,348.2 609.3,361.8 601.4,361.2 593.4,355.0 585.5,330.6 577.4,334.2 569.4,347.4 561.5,356.0 553.5,369.1 545.6,350.7 537.9,360.5 530.2,337.2 522.1,350.5 514.1,357.7 506.2,350.5 498.2,344.1 490.3,315.8 482.2,320.3 474.2,335.7 466.3,354.0 458.3,369.1 450.4,358.7 442.7,363.5 435.0,349.1 426.9,353.4 419.0,374.0 411.0,369.2 403.1,367.7 395.2,342.5 387.1,347.5 379.2,381.0 371.2,405.2 363.3,425.1 355.4,374.4 347.6,363.5 339.8,347.8 331.7,336.2 323.7,337.4 315.8,339.3 307.8,335.1 299.9,310.6 291.8,309.9 283.8,332.6 275.9,335.8 267.9,353.7 260.0,330.5 252.3,349.0 244.6,309.1 236.5,312.0 228.5,320.2 220.6,319.0 212.6,323.1 204.7,290.8 196.6,297.4 188.6,313.0 180.7,324.9 172.7,342.6 164.8,325.2 157.1,349.6 149.4,293.7 141.3,304.8" stroke="none" stroke-width="0.9000"  fill="#6298C6" clip-path="url(#axis_clip)"/>
    <text class="pl" transform="translate(925.2,268.9)" dy="8.1" font-size="27.00" fill="#6298C6" stroke="none">Natural gas</text>
  </g>
  <g class="pg_2">
    <polygon class="pl" points="141.3,304.8 149.4,293.7 157.1,349.6 164.8,325.2 172.7,342.6 180.7,324.9 188.6,313.0 196.6,297.4 204.7,290.8 212.6,323.1 220.6,319.0 228.5,320.2 236.5,312.0 244.6,309.1 252.3,349.0 260.0,330.5 267.9,353.7 275.9,335.8 283.8,332.6 291.8,309.9 299.9,310.6 307.8,335.1 315.8,339.3 323.7,337.4 331.7,336.2 339.8,347.8 347.6,363.5 355.4,374.4 363.3,425.1 371.2,405.2 379.2,381.0 387.1,347.5 395.2,342.5 403.1,367.7 411.0,369.2 419.0,374.0 426.9,353.4 435.0,349.1 442.7,363.5 450.4,358.7 458.3,369.1 466.3,354.0 474.2,335.7 482.2,320.3 490.3,315.8 498.2,344.1 506.2,350.5 514.1,357.7 522.1,350.5 530.2,337.2 537.9,360.5 545.6,350.7 553.5,369.1 561.5,356.0 569.4,347.4 577.4,334.2 585.5,330.6 593.4,355.0 601.4,361.2 609.3,361.8 617.3,348.2 625.4,361.1 633.1,384.5 640.8,361.8 648.7,381.5 656.7,371.3 664.6,359.9 672.6,345.9 680.7,336.4 688.6,363.3 696.6,361.4 704.5,364.9 712.5,363.7 720.6,349.9 728.4,385.8 736.2,380.7 744.1,383.6 752.0,366.1 760.0,365.4 767.9,342.8 776.0,338.9 783.9,366.3 791.8,368.4 799.8,370.3 807.7,351.5 815.8,346.7 823.5,383.2 831.2,377.0 839.1,389.3 847.1,371.1 855.0,361.5 863.0,337.9 871.1,332.2 879.0,358.8 887.0,362.3 894.9,369.8 902.9,346.8 902.9,517.1 894.9,536.0 887.0,535.2 879.0,525.2 871.1,507.9 863.0,511.0 855.0,528.1 847.1,545.2 839.1,553.6 831.2,547.7 823.5,535.1 815.8,513.2 807.7,520.1 799.8,536.4 791.8,539.8 783.9,530.9 776.0,515.4 767.9,512.6 760.0,526.8 752.0,539.4 744.1,547.7 736.2,545.7 728.4,539.8 720.6,513.4 712.5,530.4 704.5,533.8 696.6,534.0 688.6,526.9 680.7,511.3 672.6,510.4 664.6,527.8 656.7,540.4 648.7,544.7 640.8,534.6 633.1,537.8 625.4,524.0 617.3,513.8 609.3,528.7 601.4,530.1 593.4,521.1 585.5,503.2 577.4,501.5 569.4,513.8 561.5,524.7 553.5,531.2 545.6,525.2 537.9,516.3 530.2,502.3 522.1,524.7 514.1,527.3 506.2,522.6 498.2,509.1 490.3,489.7 482.2,489.3 474.2,503.2 466.3,522.8 458.3,532.0 450.4,524.0 442.7,503.1 435.0,507.1 426.9,510.3 419.0,525.4 411.0,526.1 403.1,519.0 395.2,500.0 387.1,501.3 379.2,522.1 371.2,538.3 363.3,543.2 355.4,533.2 347.6,528.1 339.8,520.4 331.7,514.4 323.7,512.3 315.8,519.2 307.8,503.9 299.9,495.4 291.8,489.8 283.8,508.3 275.9,515.0 267.9,526.0 260.0,508.1 252.3,506.8 244.6,489.3 236.5,489.1 228.5,495.6 220.6,500.9 212.6,492.2 204.7,476.5 196.6,476.4 188.6,489.0 180.7,502.9 172.7,513.9 164.8,507.3 157.1,505.5 149.4,474.7 141.3,484.3" stroke="none" stroke-width="0.9000"  fill="#404040" clip-path="url(#axis_clip)"/>
    <text class="pl" transform="translate(925.2,432.0)" dy="8.1" font-size="27.00" fill="#404040" stroke="none">Coal</text>
  </g>
  <g class="pg_1">
    <polygon class="pl" points="141.3,484.3 149.4,474.7 157.1,505.5 164.8,507.3 172.7,513.9 180.7,502.9 188.6,489.0 196.6,476.4 204.7,476.5 212.6,492.2 220.6,500.9 228.5,495.6 236.5,489.1 244.6,489.3 252.3,506.8 260.0,508.1 267.9,526.0 275.9,515.0 283.8,508.3 291.8,489.8 299.9,495.4 307.8,503.9 315.8,519.2 323.7,512.3 331.7,514.4 339.8,520.4 347.6,528.1 355.4,533.2 363.3,543.2 371.2,538.3 379.2,522.1 387.1,501.3 395.2,500.0 403.1,519.0 411.0,526.1 419.0,525.4 426.9,510.3 435.0,507.1 442.7,503.1 450.4,524.0 458.3,532.0 466.3,522.8 474.2,503.2 482.2,489.3 490.3,489.7 498.2,509.1 506.2,522.6 514.1,527.3 522.1,524.7 530.2,502.3 537.9,516.3 545.6,525.2 553.5,531.2 561.5,524.7 569.4,513.8 577.4,501.5 585.5,503.2 593.4,521.1 601.4,530.1 609.3,528.7 617.3,513.8 625.4,524.0 633.1,537.8 640.8,534.6 648.7,544.7 656.7,540.4 664.6,527.8 672.6,510.4 680.7,511.3 688.6,526.9 696.6,534.0 704.5,533.8 712.5,530.4 720.6,513.4 728.4,539.8 736.2,545.7 744.1,547.7 752.0,539.4 760.0,526.8 767.9,512.6 776.0,515.4 783.9,530.9 791.8,539.8 799.8,536.4 807.7,520.1 815.8,513.2 823.5,535.1 831.2,547.7 839.1,553.6 847.1,545.2 855.0,528.1 863.0,511.0 871.1,507.9 879.0,525.2 887.0,535.2 894.9,536.0 902.9,517.1 902.9,587.2 -4134.6,587.2" stroke="none" stroke-width="0.9000"  fill="#7B553E" clip-path="url(#axis_clip)"/>
    <text class="pl" transform="translate(925.2,552.2)" dy="8.1" font-size="27.00" fill="#7B553E" stroke="none">Oil</text>
  </g>
</g>
<g id="lines">
  <g class="pl_1">
    <use xlink:href="#line_1" class="thick" stroke="#000" stroke-width="3" opacity="0"/>
    <use xlink:href="#line_1" class="pl pll" stroke="#808080" stroke-width="0.90" stroke-dasharray="10"/>
  </g>
  <g class="pl_2">
    <use xlink:href="#line_2" class="thick" stroke="#000" stroke-width="3" opacity="0"/>
    <use xlink:href="#line_2" class="pl pll" stroke="#000" stroke-width="0.90"/>
  </g>
  <g class="pl_3">
    <use xlink:href="#line_3" class="thick" stroke="#000" stroke-width="3" opacity="0"/>
    <use xlink:href="#line_3" class="pl pll" stroke="#000" stroke-width="0.90"/>
  </g>
  <g class="pl_4">
    <use xlink:href="#line_4" class="thick" stroke="#000" stroke-width="3" opacity="0"/>
    <use xlink:href="#line_4" class="pl pll" stroke="#000" stroke-width="0.90"/>
  </g>
</g>
    <text class="pl" transform="translate(193.2,600.7)" dy="27.0" font-size="27.00" fill="#808080" stroke="none" text-anchor="middle">2018</text>
    <text class="pl" transform="translate(288.4,600.7)" dy="27.0" font-size="27.00" fill="#808080" stroke="none" text-anchor="middle">2019</text>
    <text class="pl" transform="translate(383.6,600.7)" dy="27.0" font-size="27.00" fill="#808080" stroke="none" text-anchor="middle">2020</text>
    <text class="pl" transform="translate(478.8,600.7)" dy="27.0" font-size="27.00" fill="#808080" stroke="none" text-anchor="middle">2021</text>
    <text class="pl" transform="translate(574.0,600.7)" dy="27.0" font-size="27.00" fill="#808080" stroke="none" text-anchor="middle">2022</text>
    <text class="pl" transform="translate(669.2,600.7)" dy="27.0" font-size="27.00" fill="#808080" stroke="none" text-anchor="middle">2023</text>
    <text class="pl" transform="translate(764.4,600.7)" dy="27.0" font-size="27.00" fill="#808080" stroke="none" text-anchor="middle">2024</text>
    <text class="pl" transform="translate(859.6,600.7)" dy="27.0" font-size="27.00" fill="#808080" stroke="none" text-anchor="middle">2025</text>
    <text class="pl" transform="translate(785.9,54.0)" dy="14.4" font-size="14.40" fill="#808080" stroke="none">Forecast</text>
    <text class="pl" transform="translate(773.9,54.0)" dy="14.4" font-size="14.40" fill="#808080" stroke="none" text-anchor="end">Observed</text>
    <text class="pl" transform="translate(193.2,87.7)" dy="6.5" font-size="21.60" fill="#808080" stroke="none" text-anchor="middle">5278 Mt</text>
    <g stroke="none" stroke-width="0.9000"  >
      <polygon class="pl" points="160.7,114.2 170.3,100.7 179.9,114.2 160.7,114.2" fill="#F60"/>
    </g>
    <text class="pl" transform="translate(184.7,109.5)" dy="5.4" font-size="18.00" fill="#F60" stroke="none">2.9%</text>
    <text class="pl" transform="translate(288.4,87.7)" dy="6.5" font-size="21.60" fill="#808080" stroke="none" text-anchor="middle">5147 Mt</text>
    <g stroke="none" stroke-width="0.9000"  >
      <polygon class="pl" points="255.9,100.7 265.5,114.2 275.1,100.7 255.9,100.7" fill="#54B547"/>
    </g>
    <text class="pl" transform="translate(279.9,109.5)" dy="5.4" font-size="18.00" fill="#54B547" stroke="none">2.5%</text>
    <text class="pl" transform="translate(383.6,87.7)" dy="6.5" font-size="21.60" fill="#808080" stroke="none" text-anchor="middle">4584 Mt</text>
    <g stroke="none" stroke-width="0.9000"  >
      <polygon class="pl" points="345.7,100.7 355.3,114.2 364.9,100.7 345.7,100.7" fill="#54B547"/>
    </g>
    <text class="pl" transform="translate(369.7,109.5)" dy="5.4" font-size="18.00" fill="#54B547" stroke="none">11.2%</text>
    <text class="pl" transform="translate(478.8,87.7)" dy="6.5" font-size="21.60" fill="#808080" stroke="none" text-anchor="middle">4906 Mt</text>
    <g stroke="none" stroke-width="0.9000"  >
      <polygon class="pl" points="446.3,114.2 455.9,100.7 465.5,114.2 446.3,114.2" fill="#F60"/>
    </g>
    <text class="pl" transform="translate(470.3,109.5)" dy="5.4" font-size="18.00" fill="#F60" stroke="none">7.3%</text>
    <text class="pl" transform="translate(574.0,87.7)" dy="6.5" font-size="21.60" fill="#808080" stroke="none" text-anchor="middle">4939 Mt</text>
    <g stroke="none" stroke-width="0.9000"  >
      <polygon class="pl" points="541.5,114.2 551.1,100.7 560.7,114.2 541.5,114.2" fill="#F60"/>
    </g>
    <text class="pl" transform="translate(565.5,109.5)" dy="5.4" font-size="18.00" fill="#F60" stroke="none">0.7%</text>
    <text class="pl" transform="translate(669.2,87.7)" dy="6.5" font-size="21.60" fill="#808080" stroke="none" text-anchor="middle">4791 Mt</text>
    <g stroke="none" stroke-width="0.9000"  >
      <polygon class="pl" points="636.7,100.7 646.3,114.2 655.9,100.7 636.7,100.7" fill="#54B547"/>
    </g>
    <text class="pl" transform="translate(660.7,109.5)" dy="5.4" font-size="18.00" fill="#54B547" stroke="none">3.0%</text>
    <text class="pl" transform="translate(764.4,87.7)" dy="6.5" font-size="21.60" fill="#808080" stroke="none" text-anchor="middle">4796 Mt</text>
    <g stroke="none" stroke-width="0.9000"  >
      <polygon class="pl" points="731.9,100.7 741.5,114.2 751.1,100.7 731.9,100.7" fill="#54B547"/>
    </g>
    <text class="pl" transform="translate(755.9,109.5)" dy="5.4" font-size="18.00" fill="#54B547" stroke="none">0.2%</text>
    <text class="pl" transform="translate(859.6,87.7)" dy="6.5" font-size="21.60" fill="#808080" stroke="none" text-anchor="middle">4821 Mt</text>
    <g stroke="none" stroke-width="0.9000"  >
      <polygon class="pl" points="827.1,114.2 836.7,100.7 846.3,114.2 827.1,114.2" fill="#F60"/>
    </g>
    <text class="pl" transform="translate(851.1,109.5)" dy="5.4" font-size="18.00" fill="#F60" stroke="none">0.8%</text>
    <text class="pl" transform="translate(145.6,47.2)" dy="0.0" font-size="27.00" fill="#808080" stroke="none">Past and forecasted US monthly fossil-fuel emissions</text>
    <text class="pl" transform="translate(130.0,81.6)" dy="8.1" font-size="27.00" fill="#808080" stroke="none" text-anchor="end">CO<tspan dy="0.2em"><tspan style="font-size:70%">2</tspan></tspan><tspan dy="-0.2em"></tspan></text>
<text transform="translate(157.6,666.1)" font-size="19.80" font-family="Helvetica" fill="#BFBFBF" stroke="none" xml:space="preserve"><a href="https://twitter.com/robbie_andrew" style="fill:#BFBFBF" target="_blank">@robbie_andrew</a>   &#9679;   Data: <a href="https://www.eia.gov/international/data/world/other-statistics/emissions-by-fuel" target="_blank" style="fill:#BFBFBF">EIA</a>   &#9679;   STEO Sep 2024 / MER Sep 2024</text>
<text class="twitlink" transform="translate(157.6,666.1)" opacity="0" font-size="19.80" fill="#BFBFBF" stroke="none" xml:space="preserve"><a href="https://twitter.com/robbie_andrew" style="fill:#BFBFBF" target="_blank">@robbie_andrew</a></text>
  <g class="dl_el" transform="translate(154.6,578.4)">
    <g class="dl_el_balloon">
      <foreignObject x="0" y="0" width="120" height="500">
      <div xmlns="http://www.w3.org/1999/xhtml" class="dl_fe" style="height:60px">
      <p class="dl_fe_p">Find me on Twitter</p>
      </div>
	    </foreignObject>
      <path stroke="#000" fill="#FDFFDF" d="M0,60H60l5,5l5,-5H120"/>
    </g>
  </g>
<g>
<a href="https://creativecommons.org/licenses/by/4.0/">
  <rect x="123.0" y="651.4" width="34" height="17" fill="#FFF" stroke="none"/>
  <g transform="translate(124.0,652.4) scale(0.24)">
  <g><circle fill="#FFF" cx="37.79" cy="28.5" r="28.84"/>
     <circle fill="none" cx="37.79" cy="28.5" r="28.84" stroke="#BFBFBF" stroke-width="5.5"/>
     <path fill="#BFBFBF" d="M37.16,23.19 l-4.29,2.23c-0.458-0.951-1.02-1.62-1.69-2c-0.667-0.38-1.29-0.571-1.86-0.571c-2.86,0-4.29,1.89-4.29,5.66 c0,1.71,0.36,3.08,1.09,4.11c0.724,1.03,1.79,1.54,3.2,1.54c1.87,0,3.18-0.915,3.94-2.74l3.94,2 c-0.838,1.56-2,2.79-3.49,3.69c-1.48,0.896-3.12,1.34-4.91,1.34c-2.86,0-5.16-0.875-6.92-2.63 c-1.75-1.75-2.63-4.19-2.63-7.31c0-3.05,0.886-5.47,2.66-7.26c1.77-1.79,4.01-2.69,6.72-2.69 C32.6,18.56,35.44,20.1,37.16,23.19z
              M55.61,23.19l-4.23,2.23c-0.457-0.951-1.02-1.62-1.69-2 c-0.668-0.38-1.31-0.571-1.91-0.571c-2.86,0-4.29,1.89-4.29,5.66c0,1.71,0.363,3.08,1.09,4.11 c0.723,1.03,1.79,1.54,3.2,1.54c1.87,0,3.18-0.915,3.94-2.74l4,2c-0.875,1.56-2.06,2.79-3.54,3.69 c-1.49,0.9-3.11,1.34-4.86,1.34c-2.9,0-5.21-0.875-6.94-2.63c-1.74-1.75-2.6-4.19-2.6-7.31 c0-3.05,0.885-5.47,2.66-7.26c1.77-1.79,4.01-2.69,6.71-2.69C51.12,18.56,53.944,20.1,55.61,23.19z"/>
  </g></g>
  <g transform="translate(140.2,652.4) scale(0.24)">
  <g><circle fill="#FFF" cx="37.79" cy="28.5" r="28.84"/>
     <circle fill="none" cx="37.79" cy="28.5" r="28.84" stroke="#BFBFBF" stroke-width="5.5"/>
     <path fill="#BFBFBF" d="M46.129,20.557v13.085h-3.656v15.542h-9.944V33.643h-3.656V20.557 c0-0.572,0.2-1.057,0.599-1.457c0.401-0.399,0.887-0.6,1.457-0.6h13.144c0.533,0,1.01,0.2,1.428,0.6 C45.918,19.5,46.129,19.986,46.129,20.557z
              M33.042,12.329c0-3.008,1.485-4.514,4.458-4.514s4.457,1.504,4.457,4.514 c0,2.971-1.486,4.457-4.457,4.457S33.042,15.3,33.042,12.329z"/>
  </g></g>
  </a>
</g>
  <g class="dl_el" transform="translate(69.1,548.4)">
    <g class="dl_el_balloon">
      <foreignObject x="0" y="0" width="250" height="500">
      <div xmlns="http://www.w3.org/1999/xhtml" class="dl_fe" style="height:90px">
      <p class="dl_fe_p">CC-BY: Material may be freely re-used as long as you credit the author</p>
      </div>
	    </foreignObject>
      <path stroke="#000" fill="#FDFFDF" d="M0,90H70l5,5l5,-5H250"/>
    </g>
  </g>
</g>
</svg>
