<svg version="1.1" xmlns="http://www.w3.org/2000/svg" xmlns:xlink="http://www.w3.org/1999/xlink" width="100%" height="100%" viewBox="0 0 1200.000 674.916">
<title>United States monthly HDD / CDD anomaly</title>
<desc>Created by Robbie Andrew (@robbie_andrew), CICERO Center for International Climate Research. CC-BY: Material may be freely re-used as long as you credit the author</desc>
<style type="text/css">
  #main {font-family:Helvetica,Arial,sans-serif; font-size:27.00px;
         fill-opacity:1; fill:#000000; stroke:none; stroke-linejoin:round; stroke-linecap:round; stroke-width:1.00;}
  a:hover {text-decoration: underline;}
  .marker {stroke-opacity:0;fill-opacity:0;}
  .marker:hover {stroke-opacity:0.5; fill-opacity:1;}
  .ticklabel {font-size:27.00px;fill:#808080;stroke:none;font-family:Helvetica}
  .ytl {text-anchor:end;}
  .dp1 {pointer-events:none;font-size:70%;text-anchor:middle;fill:#000000;}
  .dp2 {pointer-events:none;font-size:70%;text-anchor:middle;fill:#FFFFFF;}
  .numtip {pointer-events:none;}
  .cc {opacity:0.25;}
.dl_fe {background-color:#FDFFDF;display:flex;margin:auto;align-items:center}
.dl_fe_p {font-size:20px;text-align:center;margin:3px}
.dl_el {display:none;pointer-events:none;}
.cc:hover + .dl_el {display:block;}
text:hover + .dl_el {display:block;}
  #lines .pl {transition: all 0.2s ease;}
  #lines:hover .pl {opacity:0.3;}
  #lines:hover .thick {stroke-width:1;}
  #lines:hover .pl_1:hover .pl {opacity:1;}
  #lines:hover .pl_1:hover .pll {stroke-width:3;}
  #lines:hover .pl_1:hover .pldlm {stroke-width:2;}
  #lines:hover .pl_1:hover .thick {stroke-width:12;}
  #lines:hover .pl_2:hover .pl {opacity:1;}
  #lines:hover .pl_2:hover .pll {stroke-width:3;}
  #lines:hover .pl_2:hover .pldlm {stroke-width:2;}
  #lines:hover .pl_2:hover .thick {stroke-width:12;}
  #lines:hover .pl_3:hover .pl {opacity:1;}
  #lines:hover .pl_3:hover .pll {stroke-width:3;}
  #lines:hover .pl_3:hover .pldlm {stroke-width:2;}
  #lines:hover .pl_3:hover .thick {stroke-width:12;}
</style>
<defs>
  <clipPath id="axis_clip"><rect x="145.8" y="54.2" width="761.2" height="532.8" /></clipPath>
  <path id="line_y" d="M 0,53.993 v 533.183" stroke="#262626" stroke-opacity="0.15" stroke-width="1.00"/>
  <path id="line_x" d="M 145.600,0 h 761.600" stroke="#262626" stroke-opacity="0.15" stroke-width="1.00"/>
  <path id="tick_y" d="M 145.600,0 h -6.000" stroke="#808080" stroke-width="0.90"/>
  <path id="tick_x" d="M 0,587.177 v 6.000" stroke="#808080" stroke-width="0.90"/>
  <symbol id="line_1" viewBox="0 0 1200.000 674.916">
    <polyline class="pl pll" points="794.1,587.2 794.1,54.0" stroke="#808080" stroke-dasharray="10" fill="none" clip-path="url(#axis_clip)"/>
  </symbol>
  <symbol id="line_2" viewBox="0 0 1200.000 674.916">
    <polyline class="pl pll" points="141.8,274.7 149.0,270.0 155.8,263.6 162.6,271.1 169.7,257.1 176.8,297.1 183.9,296.8 190.9,257.2 198.1,330.0 205.2,287.4 212.3,260.0 219.3,268.9 226.4,286.0 233.6,284.5 240.4,264.4 247.3,287.8 254.3,296.8 261.4,191.7 268.5,254.0 275.5,245.9 282.7,229.5 289.8,215.5 296.9,271.7 303.9,284.0 311.0,283.9 318.2,283.0 325.0,273.5 331.9,292.6 339.0,283.3 346.0,271.1 353.1,320.9 360.2,257.4 367.4,263.0 374.4,206.5 381.5,267.3 388.6,287.8 395.6,279.5 402.8,273.7 409.8,283.1 416.7,254.9 423.7,284.4 430.8,309.9 437.8,291.5 444.9,233.1 452.1,236.7 459.1,312.2 466.2,259.9 473.2,263.3 480.3,291.1 487.5,283.5 494.3,285.2 501.1,282.0 508.2,294.5 515.3,313.6 522.3,243.9 529.4,313.7 536.6,236.1 543.7,280.4 550.7,261.0 557.8,286.7 564.9,263.3 572.1,286.1 578.9,286.8 585.8,284.2 592.8,272.6 599.9,241.3 607.0,252.4 614.0,233.5 621.2,235.0 628.3,281.3 635.4,310.4 642.4,278.8 649.5,288.0 656.7,273.0 663.5,273.5 670.4,274.0 677.4,280.5 684.5,298.6 691.6,349.5 698.7,237.3 705.8,254.2 712.9,285.1 720.0,283.7 727.1,284.5 734.1,287.5 741.3,284.5 748.2,285.7 755.2,277.4 762.2,277.7 769.3,226.7 776.3,217.5 783.4,243.4 790.6,299.1 797.6,295.6 804.7,288.0 811.7,283.2 818.8,286.2 825.9,281.9 832.8,285.6 839.6,286.9 846.7,281.9 853.8,270.3 860.8,262.5 867.9,250.6 875.1,244.9 882.2,285.4 889.2,286.5 896.3,284.4 903.4,286.2" stroke="#D95319" fill="none" clip-path="url(#axis_clip)"/>
  </symbol>
  <symbol id="line_3" viewBox="0 0 1200.000 674.916">
    <polyline class="pl pll" points="141.8,251.4 149.0,467.9 155.8,587.0 162.6,305.2 169.7,391.3 176.8,257.1 183.9,290.6 190.9,286.2 198.1,276.1 205.2,294.1 212.3,362.9 219.3,311.6 226.4,242.4 233.6,258.6 240.4,423.6 247.3,211.2 254.3,125.3 261.4,367.7 268.5,288.6 275.5,287.4 282.7,289.2 289.8,304.0 296.9,271.5 303.9,148.3 311.0,343.0 318.2,316.5 325.0,264.4 331.9,175.9 339.0,323.9 346.0,240.6 353.1,275.8 360.2,285.4 367.4,283.4 374.4,296.7 381.5,267.0 388.6,164.9 395.6,354.6 402.8,484.2 409.8,370.0 416.7,409.0 423.7,208.4 430.8,245.7 437.8,287.2 444.9,284.4 452.1,286.9 459.1,267.1 466.2,264.2 473.2,441.2 480.3,276.9 487.5,359.1 494.3,132.2 501.1,363.8 508.2,300.2 515.3,257.0 522.3,306.3 529.4,284.3 536.6,288.5 543.7,295.7 550.7,369.7 557.8,293.6 564.9,460.9 572.1,169.3 578.9,264.9 585.8,327.8 592.8,248.4 599.9,299.9 607.0,281.6 614.0,285.4 621.2,288.2 628.3,286.3 635.4,239.9 642.4,296.2 649.5,192.3 656.7,495.7 663.5,416.3 670.4,256.1 677.4,324.3 684.5,269.1 691.6,255.1 698.7,283.3 705.8,281.7 712.9,281.2 720.0,317.1 727.1,302.4 734.1,443.7 741.3,286.5 748.2,468.6 755.2,392.0 762.2,341.3 769.3,319.2 776.3,292.9 783.4,284.8 790.6,278.5 797.6,277.9 804.7,258.3 811.7,320.3 818.8,260.3 825.9,325.6 832.8,315.8 839.6,296.7 846.7,302.4 853.8,281.8 860.8,274.0 867.9,278.6 875.1,279.1 882.2,263.2 889.2,263.0 896.3,304.0 903.4,268.0" stroke="#0072BD" fill="none" clip-path="url(#axis_clip)"/>
  </symbol>
</defs>
<g id="main">
<text class="ticklabel ytl" transform="translate(128.8,595.3)">-200</text>
<text class="ticklabel ytl" transform="translate(128.8,519.1)">-150</text>
<text class="ticklabel ytl" transform="translate(128.8,442.9)">-100</text>
<text class="ticklabel ytl" transform="translate(128.8,366.8)">-50</text>
<text class="ticklabel ytl" transform="translate(128.8,290.6)">0</text>
<text class="ticklabel ytl" transform="translate(128.8,214.4)">50</text>
<text class="ticklabel ytl" transform="translate(128.8,138.3)">100</text>
<text class="ticklabel ytl" transform="translate(128.8,62.1)">150</text>
<g id="lines">
  <g class="pl_1">
    <use xlink:href="#line_1" class="thick" stroke="#000" stroke-width="3" opacity="0"/>
    <use xlink:href="#line_1" class="pl pll" stroke="#808080" stroke-width="0.90" stroke-dasharray="10"/>
<polyline class="pl" points="278.6,518.9 272.5,526.4 266.5,518.9" stroke="#808080" stroke-width="0.90" stroke-opacity="1.00" fill="none" />
<polyline class="pl" points="272.5,492.7 272.5,492.7 272.5,492.7 272.5,492.7 272.5,492.7 272.5,492.7 272.5,492.8 272.5,492.8 272.5,492.8 272.5,492.9 272.5,493.0 272.5,493.1 272.5,493.2 272.5,493.3 272.5,493.5 272.5,493.7 272.5,493.9 272.5,494.1 272.5,494.4 272.5,494.7 272.5,495.0 272.5,495.3 272.5,495.7 272.5,496.2 272.5,496.7 272.5,497.2 272.5,497.7 272.5,498.3 272.5,499.0 272.5,499.7 272.5,500.4 272.5,501.2 272.5,502.1 272.5,503.0 272.5,504.0 272.5,505.0 272.5,506.1 272.5,507.2 272.5,508.4 272.5,509.7 272.5,511.0 272.5,512.5 272.5,513.9 272.5,515.5 272.5,517.1 272.5,518.8 272.5,520.6 272.5,522.5 272.5,524.4 272.5,526.4" stroke="#808080" stroke-width="0.90" stroke-opacity="1.00" fill="none" clip-path="url(#axis_clip)"/>
    <text class="pl" transform="translate(272.5,485.9)" dy="0.0" font-size="18.00" fill="#808080" stroke="none" text-anchor="middle">Annual totals</text>
    <text class="pl" transform="translate(788.1,57.4)" dy="14.4" font-size="14.40" fill="#808080" stroke="none" text-anchor="end">Observed</text>
    <text class="pl" transform="translate(800.1,57.4)" dy="14.4" font-size="14.40" fill="#808080" stroke="none">Forecast</text>
    <text class="pl" transform="translate(157.6,60.7)" dy="18.0" font-size="18.00" fill="#808080" stroke="none">Compared with 10-year average</text>
    <text class="pl" transform="translate(130.0,81.6)" dy="8.1" font-size="27.00" fill="#808080" stroke="none" text-anchor="end">&#176;F-days</text>
    <text class="pl" transform="translate(145.6,47.2)" dy="0.0" font-size="27.00" fill="#808080" stroke="none">United States monthly HDD / CDD anomaly</text>
  </g>
  <g class="pl_2">
    <use xlink:href="#line_2" class="thick" stroke="#000" stroke-width="3" opacity="0"/>
    <use xlink:href="#line_2" class="pl pll" stroke="#D95319" stroke-width="0.90"/>
    <text class="pl" transform="translate(925.2,290.1)" dy="8.1" font-size="27.00" fill="#D95319" stroke="none">CDD</text>
    <text class="pl" transform="translate(864.9,546.7)" dy="6.5" font-size="21.60" fill="#D95319" stroke="none" text-anchor="middle">54</text>
    <text class="pl" transform="translate(780.3,546.7)" dy="6.5" font-size="21.60" fill="#D95319" stroke="none" text-anchor="middle">82</text>
    <text class="pl" transform="translate(695.6,546.7)" dy="6.5" font-size="21.60" fill="#D95319" stroke="none" text-anchor="middle">6</text>
    <text class="pl" transform="translate(611.0,546.7)" dy="6.5" font-size="21.60" fill="#D95319" stroke="none" text-anchor="middle">92</text>
    <text class="pl" transform="translate(526.4,546.7)" dy="6.5" font-size="21.60" fill="#D95319" stroke="none" text-anchor="middle">30</text>
    <text class="pl" transform="translate(441.8,546.7)" dy="6.5" font-size="21.60" fill="#D95319" stroke="none" text-anchor="middle">63</text>
    <text class="pl" transform="translate(357.2,546.7)" dy="6.5" font-size="21.60" fill="#D95319" stroke="none" text-anchor="middle">69</text>
    <text class="pl" transform="translate(272.5,546.7)" dy="6.5" font-size="21.60" fill="#D95319" stroke="none" text-anchor="middle">184</text>
    <text class="pl" transform="translate(187.9,546.7)" dy="6.5" font-size="21.60" fill="#D95319" stroke="none" text-anchor="middle">29</text>
    <text class="pl" transform="translate(925.2,313.0)" dy="18.0" font-size="18.00" fill="#D95319" stroke="none">Cooling requirement</text>
  </g>
  <g class="pl_3">
    <use xlink:href="#line_3" class="thick" stroke="#000" stroke-width="3" opacity="0"/>
    <use xlink:href="#line_3" class="pl pll" stroke="#0072BD" stroke-width="0.90"/>
    <text class="pl" transform="translate(925.2,264.2)" dy="8.1" font-size="27.00" fill="#0072BD" stroke="none">HDD</text>
    <text class="pl" transform="translate(864.9,573.7)" dy="6.5" font-size="21.60" fill="#0072BD" stroke="none" text-anchor="middle">-41</text>
    <text class="pl" transform="translate(780.3,573.7)" dy="6.5" font-size="21.60" fill="#0072BD" stroke="none" text-anchor="middle">-256</text>
    <text class="pl" transform="translate(695.6,573.7)" dy="6.5" font-size="21.60" fill="#0072BD" stroke="none" text-anchor="middle">-352</text>
    <text class="pl" transform="translate(611.0,573.7)" dy="6.5" font-size="21.60" fill="#0072BD" stroke="none" text-anchor="middle">138</text>
    <text class="pl" transform="translate(526.4,573.7)" dy="6.5" font-size="21.60" fill="#0072BD" stroke="none" text-anchor="middle">-211</text>
    <text class="pl" transform="translate(441.8,573.7)" dy="6.5" font-size="21.60" fill="#0072BD" stroke="none" text-anchor="middle">-286</text>
    <text class="pl" transform="translate(357.2,573.7)" dy="6.5" font-size="21.60" fill="#0072BD" stroke="none" text-anchor="middle">93</text>
    <text class="pl" transform="translate(272.5,573.7)" dy="6.5" font-size="21.60" fill="#0072BD" stroke="none" text-anchor="middle">47</text>
    <text class="pl" transform="translate(187.9,573.7)" dy="6.5" font-size="21.60" fill="#0072BD" stroke="none" text-anchor="middle">-448</text>
    <text class="pl" transform="translate(925.2,234.5)" dy="0.0" font-size="18.00" fill="#0072BD" stroke="none">Heating requirement</text>
  </g>
</g>
    <text class="pl" transform="translate(187.9,600.7)" dy="27.0" font-size="27.00" fill="#808080" stroke="none" text-anchor="middle">2017</text>
    <text class="pl" transform="translate(272.5,600.7)" dy="27.0" font-size="27.00" fill="#808080" stroke="none" text-anchor="middle">2018</text>
    <text class="pl" transform="translate(357.2,600.7)" dy="27.0" font-size="27.00" fill="#808080" stroke="none" text-anchor="middle">2019</text>
    <text class="pl" transform="translate(441.8,600.7)" dy="27.0" font-size="27.00" fill="#808080" stroke="none" text-anchor="middle">2020</text>
    <text class="pl" transform="translate(526.4,600.7)" dy="27.0" font-size="27.00" fill="#808080" stroke="none" text-anchor="middle">2021</text>
    <text class="pl" transform="translate(611.0,600.7)" dy="27.0" font-size="27.00" fill="#808080" stroke="none" text-anchor="middle">2022</text>
    <text class="pl" transform="translate(695.6,600.7)" dy="27.0" font-size="27.00" fill="#808080" stroke="none" text-anchor="middle">2023</text>
    <text class="pl" transform="translate(780.3,600.7)" dy="27.0" font-size="27.00" fill="#808080" stroke="none" text-anchor="middle">2024</text>
    <text class="pl" transform="translate(864.9,600.7)" dy="27.0" font-size="27.00" fill="#808080" stroke="none" text-anchor="middle">2025</text>
<text transform="translate(157.6,666.1)" font-size="19.80" font-family="Helvetica" fill="#BFBFBF" stroke="none" xml:space="preserve"><a href="https://twitter.com/robbie_andrew" style="fill:#BFBFBF" target="_blank">@robbie_andrew</a>   &#9679;   Data: NOAA/DoC (via <a href="https://www.eia.gov/international/data/world/other-statistics/emissions-by-fuel" target="_blank" style="fill:#BFBFBF">EIA</a>)</text>
<text class="twitlink" transform="translate(157.6,666.1)" opacity="0" font-size="19.80" fill="#BFBFBF" stroke="none" xml:space="preserve"><a href="https://twitter.com/robbie_andrew" style="fill:#BFBFBF" target="_blank">@robbie_andrew</a></text>
  <g class="dl_el" transform="translate(154.6,578.4)">
    <g class="dl_el_balloon">
      <foreignObject x="0" y="0" width="120" height="500">
      <div xmlns="http://www.w3.org/1999/xhtml" class="dl_fe" style="height:60px">
      <p class="dl_fe_p">Find me on Twitter</p>
      </div>
	    </foreignObject>
      <path stroke="#000" fill="#FDFFDF" d="M0,60H60l5,5l5,-5H120"/>
    </g>
  </g>
<use xlink:href="#line_y" transform="translate(145.6,0)"/>
<use xlink:href="#line_y" transform="translate(230.2,0)"/>
<use xlink:href="#line_y" transform="translate(314.8,0)"/>
<use xlink:href="#line_y" transform="translate(399.5,0)"/>
<use xlink:href="#line_y" transform="translate(484.1,0)"/>
<use xlink:href="#line_y" transform="translate(568.7,0)"/>
<use xlink:href="#line_y" transform="translate(653.3,0)"/>
<use xlink:href="#line_y" transform="translate(738.0,0)"/>
<use xlink:href="#line_y" transform="translate(822.6,0)"/>
<use xlink:href="#line_y" transform="translate(907.2,0)"/>
<use xlink:href="#line_x" transform="translate(0,587.2)"/>
<use xlink:href="#line_x" transform="translate(0,511.0)"/>
<use xlink:href="#line_x" transform="translate(0,434.8)"/>
<use xlink:href="#line_x" transform="translate(0,358.7)"/>
<use xlink:href="#line_x" transform="translate(0,282.5)"/>
<use xlink:href="#line_x" transform="translate(0,206.3)"/>
<use xlink:href="#line_x" transform="translate(0,130.2)"/>
<use xlink:href="#line_x" transform="translate(0,54.0)"/>
<use xlink:href="#tick_x" transform="translate(145.6,0)"/>
<use xlink:href="#tick_x" transform="translate(230.2,0)"/>
<use xlink:href="#tick_x" transform="translate(314.8,0)"/>
<use xlink:href="#tick_x" transform="translate(399.5,0)"/>
<use xlink:href="#tick_x" transform="translate(484.1,0)"/>
<use xlink:href="#tick_x" transform="translate(568.7,0)"/>
<use xlink:href="#tick_x" transform="translate(653.3,0)"/>
<use xlink:href="#tick_x" transform="translate(738.0,0)"/>
<use xlink:href="#tick_x" transform="translate(822.6,0)"/>
<use xlink:href="#tick_x" transform="translate(907.2,0)"/>
<use xlink:href="#tick_y" transform="translate(0,587.2)"/>
<use xlink:href="#tick_y" transform="translate(0,511.0)"/>
<use xlink:href="#tick_y" transform="translate(0,434.8)"/>
<use xlink:href="#tick_y" transform="translate(0,358.7)"/>
<use xlink:href="#tick_y" transform="translate(0,282.5)"/>
<use xlink:href="#tick_y" transform="translate(0,206.3)"/>
<use xlink:href="#tick_y" transform="translate(0,130.2)"/>
<use xlink:href="#tick_y" transform="translate(0,54.0)"/>
<polyline points="145.6,53.993 145.6,587.177 907.2,587.177" stroke="#808080" stroke-width="0.90" fill="none"/>
<g>
<a href="https://creativecommons.org/licenses/by/4.0/">
  <rect x="123.0" y="651.4" width="34" height="17" fill="#FFF" stroke="none"/>
  <g transform="translate(124.0,652.4) scale(0.24)">
  <g><circle fill="#FFF" cx="37.79" cy="28.5" r="28.84"/>
     <circle fill="none" cx="37.79" cy="28.5" r="28.84" stroke="#BFBFBF" stroke-width="5.5"/>
     <path fill="#BFBFBF" d="M37.16,23.19 l-4.29,2.23c-0.458-0.951-1.02-1.62-1.69-2c-0.667-0.38-1.29-0.571-1.86-0.571c-2.86,0-4.29,1.89-4.29,5.66 c0,1.71,0.36,3.08,1.09,4.11c0.724,1.03,1.79,1.54,3.2,1.54c1.87,0,3.18-0.915,3.94-2.74l3.94,2 c-0.838,1.56-2,2.79-3.49,3.69c-1.48,0.896-3.12,1.34-4.91,1.34c-2.86,0-5.16-0.875-6.92-2.63 c-1.75-1.75-2.63-4.19-2.63-7.31c0-3.05,0.886-5.47,2.66-7.26c1.77-1.79,4.01-2.69,6.72-2.69 C32.6,18.56,35.44,20.1,37.16,23.19z
              M55.61,23.19l-4.23,2.23c-0.457-0.951-1.02-1.62-1.69-2 c-0.668-0.38-1.31-0.571-1.91-0.571c-2.86,0-4.29,1.89-4.29,5.66c0,1.71,0.363,3.08,1.09,4.11 c0.723,1.03,1.79,1.54,3.2,1.54c1.87,0,3.18-0.915,3.94-2.74l4,2c-0.875,1.56-2.06,2.79-3.54,3.69 c-1.49,0.9-3.11,1.34-4.86,1.34c-2.9,0-5.21-0.875-6.94-2.63c-1.74-1.75-2.6-4.19-2.6-7.31 c0-3.05,0.885-5.47,2.66-7.26c1.77-1.79,4.01-2.69,6.71-2.69C51.12,18.56,53.944,20.1,55.61,23.19z"/>
  </g></g>
  <g transform="translate(140.2,652.4) scale(0.24)">
  <g><circle fill="#FFF" cx="37.79" cy="28.5" r="28.84"/>
     <circle fill="none" cx="37.79" cy="28.5" r="28.84" stroke="#BFBFBF" stroke-width="5.5"/>
     <path fill="#BFBFBF" d="M46.129,20.557v13.085h-3.656v15.542h-9.944V33.643h-3.656V20.557 c0-0.572,0.2-1.057,0.599-1.457c0.401-0.399,0.887-0.6,1.457-0.6h13.144c0.533,0,1.01,0.2,1.428,0.6 C45.918,19.5,46.129,19.986,46.129,20.557z
              M33.042,12.329c0-3.008,1.485-4.514,4.458-4.514s4.457,1.504,4.457,4.514 c0,2.971-1.486,4.457-4.457,4.457S33.042,15.3,33.042,12.329z"/>
  </g></g>
  </a>
</g>
  <g class="dl_el" transform="translate(69.1,548.4)">
    <g class="dl_el_balloon">
      <foreignObject x="0" y="0" width="250" height="500">
      <div xmlns="http://www.w3.org/1999/xhtml" class="dl_fe" style="height:90px">
      <p class="dl_fe_p">CC-BY: Material may be freely re-used as long as you credit the author</p>
      </div>
	    </foreignObject>
      <path stroke="#000" fill="#FDFFDF" d="M0,90H70l5,5l5,-5H250"/>
    </g>
  </g>
</g>
</svg>
