<svg version="1.1" xmlns="http://www.w3.org/2000/svg" xmlns:xlink="http://www.w3.org/1999/xlink" width="100%" height="100%" viewBox="0 0 1200.000 674.916">
<title>Past and forecasted US monthly fossil-fuel emissions</title>
<desc>Created by Robbie Andrew (@robbie_andrew), CICERO Center for International Climate Research. CC-BY: Material may be freely re-used as long as you credit the author</desc>
<style type="text/css">
  #main {font-family:Helvetica,Arial,sans-serif; font-size:27.00px;
         fill-opacity:1; fill:#000000; stroke:none; stroke-linejoin:round; stroke-linecap:round; stroke-width:1.00;}
  a:hover {text-decoration: underline;}
  .marker {stroke-opacity:0;fill-opacity:0;}
  .marker:hover {stroke-opacity:0.5; fill-opacity:1;}
  .ticklabel {font-size:27.00px;fill:#808080;stroke:none;font-family:Helvetica}
  .ytl {text-anchor:end;}
  .dp1 {pointer-events:none;font-size:70%;text-anchor:middle;fill:#000000;}
  .dp2 {pointer-events:none;font-size:70%;text-anchor:middle;fill:#FFFFFF;}
  .numtip {pointer-events:none;}
  .cc {opacity:0.25;}
.dl_fe {background-color:#FDFFDF;display:flex;margin:auto;align-items:center}
.dl_fe_p {font-size:20px;text-align:center;margin:3px}
.dl_el {display:none;pointer-events:none;}
.cc:hover + .dl_el {display:block;}
text:hover + .dl_el {display:block;}
  #lines .pl {transition: all 0.2s ease;}
  #lines:hover .pl {opacity:0.3;}
  #lines:hover .thick {stroke-width:1;}
  #lines:hover .pl_1:hover .pl {opacity:1;}
  #lines:hover .pl_1:hover .pll {stroke-width:3;}
  #lines:hover .pl_1:hover .pldlm {stroke-width:2;}
  #lines:hover .pl_1:hover .thick {stroke-width:12;}
  #lines:hover .pl_2:hover .pl {opacity:1;}
  #lines:hover .pl_2:hover .pll {stroke-width:3;}
  #lines:hover .pl_2:hover .pldlm {stroke-width:2;}
  #lines:hover .pl_2:hover .thick {stroke-width:12;}
  #lines:hover .pl_3:hover .pl {opacity:1;}
  #lines:hover .pl_3:hover .pll {stroke-width:3;}
  #lines:hover .pl_3:hover .pldlm {stroke-width:2;}
  #lines:hover .pl_3:hover .thick {stroke-width:12;}
  #lines:hover .pl_4:hover .pl {opacity:1;}
  #lines:hover .pl_4:hover .pll {stroke-width:3;}
  #lines:hover .pl_4:hover .pldlm {stroke-width:2;}
  #lines:hover .pl_4:hover .thick {stroke-width:12;}
</style>
<defs>
  <clipPath id="axis_clip"><rect x="145.8" y="54.2" width="761.2" height="505.8" /></clipPath>
  <path id="line_y" d="M 0,53.993 v 506.187" stroke="#262626" stroke-opacity="0.15" stroke-width="1.00"/>
  <path id="line_x" d="M 145.600,0 h 761.600" stroke="#262626" stroke-opacity="0.15" stroke-width="1.00"/>
  <path id="tick_y" d="M 145.600,0 h -6.000" stroke="#808080" stroke-width="0.90"/>
  <path id="tick_x" d="M 0,560.180 v 6.000" stroke="#808080" stroke-width="0.90"/>
  <symbol id="line_1" viewBox="0 0 1200.000 674.916">
    <polyline class="pl pll" points="814.6,560.2 814.6,54.0" stroke="#808080" stroke-dasharray="10" fill="none" clip-path="url(#axis_clip)"/>
  </symbol>
  <symbol id="line_2" viewBox="0 0 1200.000 674.916">
    <polyline class="pl pll" points="142.5,266.5 148.4,217.1 153.9,237.9 159.5,275.1 165.3,339.7 171.1,356.4 176.9,351.6 182.7,333.1 188.6,334.8 194.3,351.5 200.1,342.1 205.9,313.0 211.7,275.5 217.6,219.5 223.3,268.2 228.9,301.1 234.7,331.3 240.5,344.4 246.2,340.5 252.0,320.0 257.9,317.6 263.6,346.4 269.4,348.9 275.2,322.9 281.0,244.6 286.8,239.7 292.4,303.1 298.0,283.0 303.8,348.4 309.6,352.9 315.4,350.9 321.2,325.3 327.0,330.6 332.8,349.8 338.6,337.6 344.4,301.5 350.2,221.1 356.1,193.9 361.7,263.4 367.3,254.1 373.0,303.5 378.8,336.2 384.6,335.2 390.4,303.4 396.3,307.5 402.1,325.0 407.8,310.8 413.6,263.2 419.4,231.8 425.3,184.0 430.9,228.6 436.5,239.0 442.3,318.2 448.1,327.0 453.8,328.5 459.6,298.1 465.5,293.8 471.3,318.9 477.1,307.9 482.9,255.0 488.7,212.2 494.5,195.0 500.2,224.2 505.9,261.6 511.6,312.5 517.4,333.3 523.2,326.9 529.0,290.0 534.8,297.2 540.6,324.6 546.4,306.6 552.1,292.6 557.9,210.6 563.8,194.3 569.4,220.3 575.0,271.1 580.7,312.0 586.5,329.2 592.3,315.2 598.1,295.9 604.0,293.8 609.8,326.7 615.6,313.5 621.3,266.4 627.1,230.6 633.0,167.6 638.6,226.2 644.2,256.4 650.0,303.1 655.8,316.1 661.6,307.4 667.3,277.3 673.2,280.0 679.0,310.1 684.8,302.6 690.6,257.7 696.4,190.2 702.2,198.2 707.8,237.2 713.4,230.3 719.2,295.9 725.0,307.6 730.8,301.9 736.6,268.8 742.5,267.9 748.2,300.8 754.0,293.8 759.8,251.4 765.6,213.2 771.5,154.8 777.1,235.0 782.8,254.8 788.6,298.6 794.4,306.1 800.1,294.8 805.9,269.4 811.8,268.6 817.5,299.9 823.3,285.4 829.1,257.0 834.8,200.9 840.7,168.1 846.3,233.1 851.9,242.0 857.7,294.9 863.5,309.2 869.3,305.7 875.0,274.0 880.9,267.1 886.7,302.8 892.5,286.6 898.3,260.6 904.1,205.2" stroke="#6298C6" fill="none" clip-path="url(#axis_clip)"/>
  </symbol>
  <symbol id="line_3" viewBox="0 0 1200.000 674.916">
    <polyline class="pl pll" points="142.5,168.0 148.4,168.7 153.9,199.9 159.5,163.9 165.3,181.2 171.1,169.5 176.9,174.8 182.7,156.2 188.6,161.5 194.3,184.0 200.1,170.4 205.9,188.8 211.7,166.8 217.6,175.2 223.3,183.9 228.9,159.8 234.7,180.0 240.5,173.9 246.2,175.3 252.0,167.1 257.9,152.3 263.6,178.5 269.4,166.3 275.2,174.1 281.0,153.8 286.8,168.9 292.4,211.2 298.0,156.1 303.8,178.9 309.6,156.7 315.4,164.0 321.2,159.1 327.0,152.9 332.8,176.7 338.6,161.3 344.4,164.6 350.2,151.2 356.1,147.8 361.7,204.9 367.3,145.2 373.0,169.9 378.8,154.7 384.6,159.1 390.4,152.4 396.3,137.1 402.1,174.8 407.8,145.6 413.6,160.5 419.4,156.6 425.3,149.8 430.9,200.5 436.5,155.4 442.3,167.7 448.1,151.8 453.8,159.7 459.6,150.1 465.5,139.1 471.3,175.7 477.1,150.2 482.9,161.6 488.7,154.1 494.5,166.9 500.2,185.2 505.9,198.3 511.6,291.1 517.4,256.8 523.2,238.7 529.0,209.9 534.8,201.3 540.6,215.4 546.4,202.8 552.1,215.4 557.9,202.7 563.8,200.3 569.4,242.0 575.0,183.6 580.7,188.9 586.5,175.5 592.3,178.5 598.1,175.0 604.0,163.8 609.8,184.3 615.6,168.1 621.3,173.9 627.1,163.4 633.0,184.1 638.6,205.4 644.2,162.7 650.0,190.9 655.8,175.9 661.6,181.2 667.3,179.1 673.2,166.9 679.0,181.8 684.8,175.3 690.6,180.0 696.4,182.8 702.2,189.0 707.8,211.0 713.4,166.4 719.2,188.5 725.0,174.9 730.8,177.6 736.6,185.3 742.5,161.7 748.2,187.5 754.0,167.1 759.8,175.4 765.6,180.5 771.5,187.8 777.1,209.4 782.8,184.2 788.6,186.2 794.4,165.4 800.1,192.4 805.9,173.2 811.8,158.1 817.5,185.1 823.3,169.7 829.1,181.7 834.8,175.9 840.7,180.8 846.3,214.1 851.9,171.4 857.7,185.7 863.5,163.5 869.3,180.6 875.0,165.8 880.9,159.9 886.7,181.1 892.5,166.1 898.3,181.5 904.1,172.0" stroke="#404040" fill="none" clip-path="url(#axis_clip)"/>
  </symbol>
  <symbol id="line_4" viewBox="0 0 1200.000 674.916">
    <polyline class="pl pll" points="142.5,282.5 148.4,271.2 153.9,288.5 159.5,320.8 165.3,359.7 171.1,327.4 176.9,283.1 182.7,254.4 188.6,265.3 194.3,299.4 200.1,340.3 205.9,358.3 211.7,353.1 217.6,310.1 223.3,352.3 228.9,391.7 234.7,396.5 240.5,374.3 246.2,306.6 252.0,266.0 257.9,267.8 263.6,310.5 269.4,339.2 275.2,363.4 281.0,299.8 286.8,307.6 292.4,364.7 298.0,361.2 303.8,378.7 309.6,354.2 315.4,325.6 321.2,284.3 327.0,299.4 332.8,340.3 338.6,357.7 344.4,354.1 350.2,325.9 356.1,304.0 361.7,374.1 367.3,378.3 373.0,393.2 378.8,368.1 384.6,336.5 390.4,307.7 396.3,308.0 402.1,343.9 407.8,363.6 413.6,351.6 419.4,336.8 425.3,337.1 430.9,377.1 436.5,380.0 442.3,420.8 448.1,395.8 453.8,380.5 459.6,338.4 465.5,351.1 471.3,370.4 477.1,405.4 482.9,389.6 488.7,394.4 494.5,408.1 500.2,425.6 505.9,437.2 511.6,460.0 517.4,448.9 523.2,412.0 529.0,364.4 534.8,361.6 540.6,404.8 546.4,421.0 552.1,419.4 557.9,385.0 563.8,377.7 569.4,368.6 575.0,416.2 580.7,434.5 586.5,413.5 592.3,368.9 598.1,337.2 604.0,338.1 609.8,382.3 615.6,412.9 621.3,423.7 627.1,417.7 633.0,366.7 638.6,398.6 644.2,418.9 650.0,432.6 655.8,417.9 661.6,392.9 667.3,364.9 673.2,368.9 679.0,409.6 684.8,430.2 690.6,426.8 696.4,393.1 702.2,416.1 707.8,447.6 713.4,440.5 719.2,463.3 725.0,453.5 730.8,424.9 736.6,385.2 742.5,387.2 748.2,422.8 754.0,438.9 759.8,438.5 765.6,430.8 771.5,392.0 777.1,452.2 782.8,465.7 788.6,470.3 794.4,451.3 800.1,422.7 805.9,390.3 811.8,396.7 817.5,431.9 823.3,452.2 829.1,444.4 834.8,407.5 840.7,391.6 846.3,441.5 851.9,470.2 857.7,483.7 863.5,464.6 869.3,425.5 875.0,386.6 880.9,379.5 886.7,418.9 892.5,441.8 898.3,443.5 904.1,400.6" stroke="#7B553E" fill="none" clip-path="url(#axis_clip)"/>
  </symbol>
</defs>
<g id="main">
<use xlink:href="#line_y" transform="translate(145.6,0)"/>
<use xlink:href="#line_y" transform="translate(214.8,0)"/>
<use xlink:href="#line_y" transform="translate(284.1,0)"/>
<use xlink:href="#line_y" transform="translate(353.3,0)"/>
<use xlink:href="#line_y" transform="translate(422.5,0)"/>
<use xlink:href="#line_y" transform="translate(491.8,0)"/>
<use xlink:href="#line_y" transform="translate(561.0,0)"/>
<use xlink:href="#line_y" transform="translate(630.3,0)"/>
<use xlink:href="#line_y" transform="translate(699.5,0)"/>
<use xlink:href="#line_y" transform="translate(768.7,0)"/>
<use xlink:href="#line_y" transform="translate(838.0,0)"/>
<use xlink:href="#line_y" transform="translate(907.2,0)"/>
<use xlink:href="#line_x" transform="translate(0,560.2)"/>
<use xlink:href="#line_x" transform="translate(0,458.9)"/>
<use xlink:href="#line_x" transform="translate(0,357.7)"/>
<use xlink:href="#line_x" transform="translate(0,256.5)"/>
<use xlink:href="#line_x" transform="translate(0,155.2)"/>
<use xlink:href="#line_x" transform="translate(0,54.0)"/>
<use xlink:href="#tick_y" transform="translate(0,560.2)"/>
<use xlink:href="#tick_y" transform="translate(0,458.9)"/>
<use xlink:href="#tick_y" transform="translate(0,357.7)"/>
<use xlink:href="#tick_y" transform="translate(0,256.5)"/>
<use xlink:href="#tick_y" transform="translate(0,155.2)"/>
<use xlink:href="#tick_y" transform="translate(0,54.0)"/>
<use xlink:href="#tick_x" transform="translate(145.6,0)"/>
<use xlink:href="#tick_x" transform="translate(214.8,0)"/>
<use xlink:href="#tick_x" transform="translate(284.1,0)"/>
<use xlink:href="#tick_x" transform="translate(353.3,0)"/>
<use xlink:href="#tick_x" transform="translate(422.5,0)"/>
<use xlink:href="#tick_x" transform="translate(491.8,0)"/>
<use xlink:href="#tick_x" transform="translate(561.0,0)"/>
<use xlink:href="#tick_x" transform="translate(630.3,0)"/>
<use xlink:href="#tick_x" transform="translate(699.5,0)"/>
<use xlink:href="#tick_x" transform="translate(768.7,0)"/>
<use xlink:href="#tick_x" transform="translate(838.0,0)"/>
<use xlink:href="#tick_x" transform="translate(907.2,0)"/>
<polyline points="145.6,53.993 145.6,560.180 907.2,560.180" stroke="#808080" stroke-width="0.90" fill="none"/>
<text class="ticklabel ytl" transform="translate(128.8,568.3)">0</text>
<text class="ticklabel ytl" transform="translate(128.8,467.0)">50</text>
<text class="ticklabel ytl" transform="translate(128.8,365.8)">100</text>
<text class="ticklabel ytl" transform="translate(128.8,264.6)">150</text>
<text class="ticklabel ytl" transform="translate(128.8,163.3)">200</text>
<text class="ticklabel ytl" transform="translate(128.8,62.1)">250 Mt</text>
<g id="lines">
  <g class="pl_1">
    <use xlink:href="#line_1" class="thick" stroke="#000" stroke-width="3" opacity="0"/>
    <use xlink:href="#line_1" class="pl pll" stroke="#808080" stroke-width="0.90" stroke-dasharray="10"/>
    <text class="pl" transform="translate(130.0,81.6)" dy="8.1" font-size="27.00" fill="#808080" stroke="none" text-anchor="end">CO<tspan dy="0.2em"><tspan style="font-size:70%">2</tspan></tspan><tspan dy="-0.2em"></tspan></text>
    <text class="pl" transform="translate(145.6,47.2)" dy="0.0" font-size="27.00" fill="#808080" stroke="none">Past and forecasted US monthly fossil-fuel emissions</text>
    <text class="pl" transform="translate(808.6,54.0)" dy="14.4" font-size="14.40" fill="#808080" stroke="none" text-anchor="end">Observed</text>
    <text class="pl" transform="translate(820.6,54.0)" dy="14.4" font-size="14.40" fill="#808080" stroke="none">Forecast</text>
  </g>
  <g class="pl_2">
    <use xlink:href="#line_2" class="thick" stroke="#000" stroke-width="3" opacity="0"/>
    <use xlink:href="#line_2" class="pl pll" stroke="#6298C6" stroke-width="2.70"/>
    <text class="pl" transform="translate(925.2,205.2)" dy="8.1" font-size="27.00" fill="#6298C6" stroke="none">Natural gas</text>
  </g>
  <g class="pl_3">
    <use xlink:href="#line_3" class="thick" stroke="#000" stroke-width="3" opacity="0"/>
    <use xlink:href="#line_3" class="pl pll" stroke="#404040" stroke-width="2.70"/>
    <text class="pl" transform="translate(925.2,172.0)" dy="8.1" font-size="27.00" fill="#404040" stroke="none">Oil</text>
  </g>
  <g class="pl_4">
    <use xlink:href="#line_4" class="thick" stroke="#000" stroke-width="3" opacity="0"/>
    <use xlink:href="#line_4" class="pl pll" stroke="#7B553E" stroke-width="2.70"/>
    <text class="pl" transform="translate(925.2,400.6)" dy="8.1" font-size="27.00" fill="#7B553E" stroke="none">Coal</text>
  </g>
</g>
    <text class="pl" transform="translate(180.2,573.0) rotate(-90)" dy="8.1" font-size="27.00" fill="#808080" stroke="none" text-anchor="end">2015</text>
    <text class="pl" transform="translate(249.5,573.0) rotate(-90)" dy="8.1" font-size="27.00" fill="#808080" stroke="none" text-anchor="end">2016</text>
    <text class="pl" transform="translate(318.7,573.0) rotate(-90)" dy="8.1" font-size="27.00" fill="#808080" stroke="none" text-anchor="end">2017</text>
    <text class="pl" transform="translate(387.9,573.0) rotate(-90)" dy="8.1" font-size="27.00" fill="#808080" stroke="none" text-anchor="end">2018</text>
    <text class="pl" transform="translate(457.2,573.0) rotate(-90)" dy="8.1" font-size="27.00" fill="#808080" stroke="none" text-anchor="end">2019</text>
    <text class="pl" transform="translate(526.4,573.0) rotate(-90)" dy="8.1" font-size="27.00" fill="#808080" stroke="none" text-anchor="end">2020</text>
    <text class="pl" transform="translate(595.6,573.0) rotate(-90)" dy="8.1" font-size="27.00" fill="#808080" stroke="none" text-anchor="end">2021</text>
    <text class="pl" transform="translate(664.9,573.0) rotate(-90)" dy="8.1" font-size="27.00" fill="#808080" stroke="none" text-anchor="end">2022</text>
    <text class="pl" transform="translate(734.1,573.0) rotate(-90)" dy="8.1" font-size="27.00" fill="#808080" stroke="none" text-anchor="end">2023</text>
    <text class="pl" transform="translate(803.3,573.0) rotate(-90)" dy="8.1" font-size="27.00" fill="#808080" stroke="none" text-anchor="end">2024</text>
    <text class="pl" transform="translate(872.6,573.0) rotate(-90)" dy="8.1" font-size="27.00" fill="#808080" stroke="none" text-anchor="end">2025</text>
<text transform="translate(157.6,666.1)" font-size="19.80" font-family="Helvetica" fill="#BFBFBF" stroke="none" xml:space="preserve"><a href="https://twitter.com/robbie_andrew" style="fill:#BFBFBF" target="_blank">@robbie_andrew</a>   &#9679;   Data: <a href="https://www.eia.gov/international/data/world/other-statistics/emissions-by-fuel" target="_blank" style="fill:#BFBFBF">EIA</a>   &#9679;   STEO Sep 2024 / MER Sep 2024</text>
<text class="twitlink" transform="translate(157.6,666.1)" opacity="0" font-size="19.80" fill="#BFBFBF" stroke="none" xml:space="preserve"><a href="https://twitter.com/robbie_andrew" style="fill:#BFBFBF" target="_blank">@robbie_andrew</a></text>
  <g class="dl_el" transform="translate(154.6,578.4)">
    <g class="dl_el_balloon">
      <foreignObject x="0" y="0" width="120" height="500">
      <div xmlns="http://www.w3.org/1999/xhtml" class="dl_fe" style="height:60px">
      <p class="dl_fe_p">Find me on Twitter</p>
      </div>
	    </foreignObject>
      <path stroke="#000" fill="#FDFFDF" d="M0,60H60l5,5l5,-5H120"/>
    </g>
  </g>
<g>
<a href="https://creativecommons.org/licenses/by/4.0/">
  <rect x="123.0" y="651.4" width="34" height="17" fill="#FFF" stroke="none"/>
  <g transform="translate(124.0,652.4) scale(0.24)">
  <g><circle fill="#FFF" cx="37.79" cy="28.5" r="28.84"/>
     <circle fill="none" cx="37.79" cy="28.5" r="28.84" stroke="#BFBFBF" stroke-width="5.5"/>
     <path fill="#BFBFBF" d="M37.16,23.19 l-4.29,2.23c-0.458-0.951-1.02-1.62-1.69-2c-0.667-0.38-1.29-0.571-1.86-0.571c-2.86,0-4.29,1.89-4.29,5.66 c0,1.71,0.36,3.08,1.09,4.11c0.724,1.03,1.79,1.54,3.2,1.54c1.87,0,3.18-0.915,3.94-2.74l3.94,2 c-0.838,1.56-2,2.79-3.49,3.69c-1.48,0.896-3.12,1.34-4.91,1.34c-2.86,0-5.16-0.875-6.92-2.63 c-1.75-1.75-2.63-4.19-2.63-7.31c0-3.05,0.886-5.47,2.66-7.26c1.77-1.79,4.01-2.69,6.72-2.69 C32.6,18.56,35.44,20.1,37.16,23.19z
              M55.61,23.19l-4.23,2.23c-0.457-0.951-1.02-1.62-1.69-2 c-0.668-0.38-1.31-0.571-1.91-0.571c-2.86,0-4.29,1.89-4.29,5.66c0,1.71,0.363,3.08,1.09,4.11 c0.723,1.03,1.79,1.54,3.2,1.54c1.87,0,3.18-0.915,3.94-2.74l4,2c-0.875,1.56-2.06,2.79-3.54,3.69 c-1.49,0.9-3.11,1.34-4.86,1.34c-2.9,0-5.21-0.875-6.94-2.63c-1.74-1.75-2.6-4.19-2.6-7.31 c0-3.05,0.885-5.47,2.66-7.26c1.77-1.79,4.01-2.69,6.71-2.69C51.12,18.56,53.944,20.1,55.61,23.19z"/>
  </g></g>
  <g transform="translate(140.2,652.4) scale(0.24)">
  <g><circle fill="#FFF" cx="37.79" cy="28.5" r="28.84"/>
     <circle fill="none" cx="37.79" cy="28.5" r="28.84" stroke="#BFBFBF" stroke-width="5.5"/>
     <path fill="#BFBFBF" d="M46.129,20.557v13.085h-3.656v15.542h-9.944V33.643h-3.656V20.557 c0-0.572,0.2-1.057,0.599-1.457c0.401-0.399,0.887-0.6,1.457-0.6h13.144c0.533,0,1.01,0.2,1.428,0.6 C45.918,19.5,46.129,19.986,46.129,20.557z
              M33.042,12.329c0-3.008,1.485-4.514,4.458-4.514s4.457,1.504,4.457,4.514 c0,2.971-1.486,4.457-4.457,4.457S33.042,15.3,33.042,12.329z"/>
  </g></g>
  </a>
</g>
  <g class="dl_el" transform="translate(69.1,548.4)">
    <g class="dl_el_balloon">
      <foreignObject x="0" y="0" width="250" height="500">
      <div xmlns="http://www.w3.org/1999/xhtml" class="dl_fe" style="height:90px">
      <p class="dl_fe_p">CC-BY: Material may be freely re-used as long as you credit the author</p>
      </div>
	    </foreignObject>
      <path stroke="#000" fill="#FDFFDF" d="M0,90H70l5,5l5,-5H250"/>
    </g>
  </g>
</g>
</svg>
