<svg version="1.1" xmlns="http://www.w3.org/2000/svg" xmlns:xlink="http://www.w3.org/1999/xlink" width="100%" height="100%" viewBox="0 0 1200.000 674.916">
<title>Atmospheric CO2 concentration: Global average</title>
<desc>Created by Robbie Andrew (@robbie_andrew), CICERO Center for International Climate Research. CC-BY: Material may be freely re-used as long as you credit the author</desc>
<style type="text/css">
  #main {font-family:Helvetica,Arial,sans-serif; font-size:27.00px;
         fill-opacity:1; fill:#000000; stroke:none; stroke-linejoin:round; stroke-linecap:round; stroke-width:1.00;}
  .marker {stroke-opacity:0;fill-opacity:0;}
  .marker:hover {stroke-opacity:0.5; fill-opacity:1;}
  .ticklabel {font-size:27.00px;fill:#808080;stroke:none;font-family:Helvetica}
  .ytl {text-anchor:end;}
  .dp1 {pointer-events:none;font-size:70%;text-anchor:middle;fill:#000000;}
  .dp2 {pointer-events:none;font-size:70%;text-anchor:middle;fill:#FFFFFF;}
  .numtip {pointer-events:none;}
  .cc {opacity:0.25;}
.dl_fe {background-color:#FDFFDF;display:flex;margin:auto;align-items:center}
.dl_fe_p {font-size:20px;text-align:center;margin:3px}
.dl_el {display:none;pointer-events:none;}
.cc:hover + .dl_el {display:block;}
text:hover + .dl_el {display:block;}
</style>
<defs>
  <clipPath id="axis_clip"><rect x="145.8" y="54.2" width="761.2" height="532.8" /></clipPath>
  <path id="line_x" d="M 145.600,0 h 761.600" stroke="#262626" stroke-opacity="0.15" stroke-width="1.00"/>
  <path id="tick_y" d="M 145.600,0 h -6.000" stroke="#808080" stroke-width="0.90"/>
  <path id="tick_x" d="M 0,587.177 v 6.000" stroke="#808080" stroke-width="0.90"/>
</defs>
<g id="main">
<use xlink:href="#line_x" transform="translate(0,542.7)"/>
<use xlink:href="#line_x" transform="translate(0,453.9)"/>
<use xlink:href="#line_x" transform="translate(0,365.0)"/>
<use xlink:href="#line_x" transform="translate(0,276.2)"/>
<use xlink:href="#line_x" transform="translate(0,187.3)"/>
<use xlink:href="#line_x" transform="translate(0,98.4)"/>
<use xlink:href="#tick_y" transform="translate(0,542.7)"/>
<use xlink:href="#tick_y" transform="translate(0,453.9)"/>
<use xlink:href="#tick_y" transform="translate(0,365.0)"/>
<use xlink:href="#tick_y" transform="translate(0,276.2)"/>
<use xlink:href="#tick_y" transform="translate(0,187.3)"/>
<use xlink:href="#tick_y" transform="translate(0,98.4)"/>
<use xlink:href="#tick_x" transform="translate(145.6,0)"/>
<use xlink:href="#tick_x" transform="translate(262.8,0)"/>
<use xlink:href="#tick_x" transform="translate(379.9,0)"/>
<use xlink:href="#tick_x" transform="translate(497.1,0)"/>
<use xlink:href="#tick_x" transform="translate(614.3,0)"/>
<use xlink:href="#tick_x" transform="translate(731.4,0)"/>
<use xlink:href="#tick_x" transform="translate(848.6,0)"/>
<polyline points="145.6,53.993 145.6,587.177 907.2,587.177" stroke="#808080" stroke-width="0.90" fill="none"/>
<text class="ticklabel xtl" transform="translate(145.6,629.0)" text-anchor="middle">1960</text>
<text class="ticklabel xtl" transform="translate(262.8,629.0)" text-anchor="middle">1970</text>
<text class="ticklabel xtl" transform="translate(379.9,629.0)" text-anchor="middle">1980</text>
<text class="ticklabel xtl" transform="translate(497.1,629.0)" text-anchor="middle">1990</text>
<text class="ticklabel xtl" transform="translate(614.3,629.0)" text-anchor="middle">2000</text>
<text class="ticklabel xtl" transform="translate(731.4,629.0)" text-anchor="middle">2010</text>
<text class="ticklabel xtl" transform="translate(848.6,629.0)" text-anchor="middle">2020</text>
<text class="ticklabel ytl" transform="translate(128.8,550.8)">320</text>
<text class="ticklabel ytl" transform="translate(128.8,462.0)">340</text>
<text class="ticklabel ytl" transform="translate(128.8,373.1)">360</text>
<text class="ticklabel ytl" transform="translate(128.8,284.3)">380</text>
<text class="ticklabel ytl" transform="translate(128.8,195.4)">400</text>
<text class="ticklabel ytl" transform="translate(128.8,106.5)">420 ppm</text>
<polyline class="pl" points="368.7,469.2 369.7,465.9 370.7,463.3 371.6,461.3 372.6,461.6 373.6,465.5 374.6,473.6 375.5,478.9 376.5,476.0 377.5,470.1 378.5,465.6 379.4,463.4 380.4,460.3 381.4,457.2 382.4,455.7 383.4,453.9 384.3,451.9 385.3,453.9 386.3,460.8 387.3,466.3 388.2,467.0 389.2,463.5 390.2,458.6 391.2,455.5 392.1,453.1 393.1,450.5 394.1,447.7 395.1,446.4 396.0,447.5 397.0,451.1 398.0,457.3 399.0,462.4 400.0,462.9 400.9,458.0 401.9,453.1 402.9,450.5 403.9,447.8 404.8,445.2 405.8,444.0 406.8,442.7 407.8,443.4 408.7,447.3 409.7,455.0 410.7,462.3 411.7,462.1 412.7,455.6 413.6,449.7 414.6,446.0 415.6,443.4 416.6,441.7 417.5,440.4 418.5,438.3 419.5,436.8 420.5,438.3 421.4,444.4 422.4,451.1 423.4,451.5 424.4,446.1 425.3,441.3 426.3,438.4 427.3,434.7 428.3,432.5 429.2,431.8 430.2,430.8 431.2,430.2 432.2,433.6 433.2,439.7 434.1,444.1 435.1,444.4 436.1,440.6 437.1,435.4 438.0,431.7 439.0,430.1 440.0,428.1 441.0,424.4 441.9,423.0 442.9,423.8 443.9,426.1 444.9,432.0 445.8,438.7 446.8,438.9 447.8,433.3 448.8,428.2 449.7,424.8 450.7,422.3 451.7,421.3 452.7,419.6 453.7,417.4 454.6,416.9 455.6,419.4 456.6,425.9 457.6,432.0 458.5,432.3 459.5,427.1 460.5,421.4 461.5,419.4 462.4,418.2 463.4,415.8 464.4,412.6 465.4,409.5 466.4,408.3 467.3,411.8 468.3,419.0 469.3,424.5 470.3,424.1 471.2,418.5 472.2,412.8 473.2,408.5 474.2,405.4 475.1,402.9 476.1,401.2 477.1,399.2 478.1,398.5 479.0,401.6 480.0,408.2 481.0,413.4 482.0,412.7 483.0,407.5 483.9,402.3 484.9,398.5 485.9,396.2 486.9,394.1 487.8,391.7 488.8,390.0 489.8,390.8 490.8,395.0 491.7,402.5 492.7,408.5 493.7,407.0 494.7,401.2 495.6,395.9 496.6,392.1 497.6,389.6 498.6,387.8 499.5,386.3 500.5,385.0 501.5,385.5 502.5,390.2 503.5,397.4 504.4,402.4 505.4,401.5 506.4,395.3 507.4,389.8 508.3,386.4 509.3,383.9 510.3,381.9 511.3,379.8 512.2,377.5 513.2,377.9 514.2,382.0 515.2,389.3 516.1,395.9 517.1,396.4 518.1,391.7 519.1,386.5 520.0,383.0 521.0,380.5 522.0,378.8 523.0,377.2 524.0,375.0 524.9,374.7 525.9,378.9 526.9,386.4 527.9,393.1 528.8,393.5 529.8,388.1 530.8,382.9 531.8,379.5 532.8,377.4 533.7,375.9 534.7,374.1 535.7,372.0 536.7,372.2 537.6,376.8 538.6,384.0 539.6,389.7 540.6,389.6 541.5,384.1 542.5,378.6 543.5,374.6 544.5,371.8 545.4,369.4 546.4,367.9 547.4,366.3 548.4,366.2 549.3,370.3 550.3,377.1 551.3,382.6 552.3,382.7 553.3,377.2 554.2,370.8 555.2,367.0 556.2,364.4 557.2,362.3 558.1,360.2 559.1,358.1 560.1,358.5 561.1,362.3 562.0,369.5 563.0,375.1 564.0,373.7 565.0,367.6 565.9,361.6 566.9,357.7 567.9,355.5 568.9,353.9 569.8,352.5 570.8,351.1 571.8,350.4 572.8,352.2 573.8,358.0 574.7,364.7 575.7,366.3 576.7,362.0 577.7,357.1 578.6,353.3 579.6,350.4 580.6,348.8 581.6,347.1 582.5,345.0 583.5,345.0 584.5,349.0 585.5,356.4 586.4,363.2 587.4,363.2 588.4,356.4 589.4,349.0 590.4,344.2 591.3,342.0 592.3,340.8 593.3,338.7 594.3,335.8 595.2,334.5 596.2,337.2 597.2,343.5 598.2,348.2 599.1,347.1 600.1,341.3 601.1,335.7 602.1,331.8 603.1,328.9 604.0,327.2 605.0,325.4 606.0,323.7 607.0,324.1 607.9,327.9 608.9,335.3 609.9,341.4 610.9,340.8 611.8,335.0 612.8,329.2 613.8,325.6 614.8,323.3 615.7,322.1 616.7,320.7 617.7,319.0 618.7,319.5 619.6,323.7 620.6,329.9 621.6,335.0 622.6,335.2 623.6,329.9 624.5,323.8 625.5,320.1 626.5,317.5 627.5,315.3 628.4,313.5 629.4,312.1 630.4,312.6 631.4,316.8 632.3,323.0 633.3,328.0 634.3,327.9 635.3,321.9 636.2,315.9 637.2,311.8 638.2,309.4 639.2,307.7 640.1,305.6 641.1,304.1 642.1,304.1 643.1,308.0 644.1,314.3 645.0,318.9 646.0,317.5 647.0,311.9 648.0,306.0 648.9,301.7 649.9,298.6 650.9,296.3 651.9,294.3 652.8,292.1 653.8,291.5 654.8,295.2 655.8,302.1 656.8,307.5 657.7,306.8 658.7,301.1 659.7,295.4 660.7,291.6 661.6,288.5 662.6,286.2 663.6,284.3 664.6,282.9 665.5,283.3 666.5,287.2 667.5,294.1 668.5,300.6 669.4,301.1 670.4,295.1 671.4,288.6 672.4,284.3 673.4,281.8 674.3,279.4 675.3,276.7 676.3,274.7 677.3,274.3 678.2,277.9 679.2,285.3 680.2,290.7 681.2,290.5 682.1,284.7 683.1,278.2 684.1,273.8 685.1,270.2 686.0,267.5 687.0,265.8 688.0,264.3 689.0,264.5 689.9,268.3 690.9,275.8 691.9,282.9 692.9,282.2 693.9,275.8 694.8,269.8 695.8,265.5 696.8,262.7 697.8,260.4 698.7,258.3 699.7,257.1 700.7,257.8 701.7,261.7 702.6,269.3 703.6,274.9 704.6,273.1 705.6,266.8 706.5,260.8 707.5,256.3 708.5,252.9 709.5,250.6 710.4,248.8 711.4,247.1 712.4,247.3 713.4,251.4 714.4,257.9 715.3,263.8 716.3,264.9 717.3,259.8 718.3,253.1 719.2,248.3 720.2,244.9 721.2,242.9 722.2,241.9 723.2,240.7 724.1,240.8 725.1,245.2 726.1,253.9 727.1,260.0 728.0,258.7 729.0,251.7 730.0,245.3 731.0,241.3 731.9,237.9 732.9,234.7 733.9,233.1 734.9,231.8 735.8,231.9 736.8,236.1 737.8,243.5 738.8,248.5 739.7,246.4 740.7,239.5 741.7,233.4 742.7,230.1 743.7,227.6 744.6,225.7 745.6,224.3 746.6,222.6 747.6,222.5 748.5,226.7 749.5,235.3 750.5,241.2 751.5,239.5 752.4,232.5 753.4,226.4 754.4,222.7 755.4,220.1 756.3,217.5 757.3,215.1 758.3,214.0 759.3,214.5 760.2,219.1 761.2,227.3 762.2,232.2 763.2,229.3 764.2,222.1 765.1,215.9 766.1,212.2 767.1,209.2 768.1,206.4 769.0,203.8 770.0,201.8 771.0,201.7 772.0,205.2 772.9,211.9 773.9,217.3 774.9,217.5 775.9,211.7 776.8,205.2 777.8,201.2 778.8,198.4 779.8,196.3 780.8,195.0 781.7,193.4 782.7,193.1 783.7,197.4 784.7,204.5 785.6,209.4 786.6,209.0 787.6,203.4 788.6,196.8 789.5,192.4 790.5,189.2 791.5,186.8 792.5,184.8 793.5,183.0 794.4,183.2 795.4,187.0 796.4,194.5 797.4,200.3 798.3,199.1 799.3,192.6 800.3,185.7 801.3,179.9 802.2,175.7 803.2,172.8 804.2,170.2 805.2,167.9 806.1,167.7 807.1,171.2 808.1,178.0 809.1,183.8 810.0,183.1 811.0,176.6 812.0,170.6 813.0,166.5 814.0,163.6 814.9,161.0 815.9,159.2 816.9,158.0 817.9,157.8 818.8,161.3 819.8,169.0 820.8,175.9 821.8,175.5 822.7,168.8 823.7,162.0 824.7,157.3 825.7,153.8 826.6,150.7 827.6,148.3 828.6,147.0 829.6,147.6 830.5,151.5 831.5,158.5 832.5,164.6 833.5,164.3 834.5,157.7 835.4,151.2 836.4,146.5 837.4,143.2 838.4,141.3 839.3,138.9 840.3,136.9 841.3,136.9 842.3,140.5 843.2,147.8 844.2,153.3 845.2,152.1 846.2,145.3 847.2,139.0 848.1,135.0 849.1,132.1 850.1,129.7 851.1,127.6 852.0,125.7 853.0,125.9 854.0,130.1 855.0,137.7 855.9,144.1 856.9,142.9 857.9,135.5 858.9,128.4 859.8,124.5 860.8,121.8 861.8,119.8 862.8,118.5 863.8,117.0 864.7,116.2 865.7,119.8 866.7,127.5 867.7,133.3 868.6,132.3 869.6,125.8 870.6,118.1 871.6,113.5 872.5,111.0 873.5,108.9 874.5,106.6 875.5,104.7 876.4,105.3 877.4,109.8 878.4,117.6 879.4,123.3 880.3,122.3 881.3,115.6 882.3,108.3 883.3,103.8 884.3,101.4 885.2,99.9 886.2,98.4 887.2,96.2 888.2,96.1 889.1,100.5 890.1,107.9 891.1,113.3 892.1,111.5 893.0,104.1 894.0,96.9 895.0,91.7 896.0,88.4 896.9,86.4 897.9,84.0 898.9,82.2 899.9,83.2" stroke="#F56E42" stroke-width="1.19" stroke-opacity="1.00" fill="none" clip-path="url(#axis_clip)"/>
<polyline class="pl" points="145.1,557.2 146.1,557.3 147.1,556.2 148.0,554.8 149.0,554.2 150.0,554.0 150.9,554.2 151.9,554.3 152.9,555.3 153.9,554.8 154.9,554.5 155.8,554.6 156.8,554.1 157.8,553.6 158.8,553.7 159.7,552.2 160.7,552.4 161.7,551.5 162.6,551.2 163.6,552.3 164.6,550.5 165.6,551.1 166.6,551.3 167.6,550.4 168.5,550.4 169.5,549.5 170.5,549.5 171.4,549.9 172.4,549.3 173.4,548.3 174.4,549.0 175.3,548.3 176.3,549.8 177.3,548.8 178.3,548.7 179.3,548.0 180.2,548.5 181.2,547.5 182.2,546.5 183.1,546.2 184.1,545.5 185.1,545.9 186.1,546.0 187.0,546.2 188.0,546.3 189.0,546.8 190.0,545.5 191.0,544.7 192.0,545.1 192.9,544.9 193.9,544.7 194.9,544.8 195.9,544.0 196.8,544.0 197.8,543.4 198.8,544.1 199.8,543.5 200.8,543.7 201.7,544.1 202.7,544.2 203.7,543.3 204.7,543.7 205.7,543.1 206.6,544.0 207.6,542.9 208.5,540.6 209.5,541.7 210.5,540.1 211.5,541.0 212.5,539.2 213.4,540.2 214.4,539.4 215.4,537.9 216.4,537.0 217.4,536.3 218.3,536.6 219.3,535.1 220.2,534.9 221.2,535.2 222.2,535.1 223.2,536.1 224.2,534.6 225.1,534.0 226.1,533.1 227.1,534.2 228.1,534.0 229.1,532.8 230.0,533.0 231.0,533.2 232.0,533.3 232.9,532.9 233.9,533.0 234.9,531.7 235.9,530.9 236.9,531.3 237.9,531.4 238.8,531.1 239.8,531.1 240.8,530.8 241.7,530.5 242.7,528.7 243.7,528.7 244.7,529.2 245.6,528.4 246.6,528.3 247.6,528.3 248.6,527.2 249.6,526.3 250.5,526.4 251.5,525.4 252.5,525.0 253.4,524.3 254.4,524.1 255.4,522.4 256.4,522.8 257.3,521.3 258.3,522.3 259.3,521.6 260.3,521.7 261.3,521.2 262.3,520.2 263.3,519.7 264.2,519.0 265.1,520.1 266.1,519.1 267.1,518.7 268.1,517.3 269.1,517.0 270.1,516.7 271.1,516.7 272.0,516.7 273.0,515.8 274.0,516.3 275.0,516.5 276.0,517.4 276.9,516.3 277.9,515.3 278.8,514.5 279.8,514.0 280.8,514.8 281.8,513.9 282.8,513.6 283.7,513.4 284.7,513.4 285.7,512.8 286.7,514.0 287.7,511.8 288.6,512.1 289.6,512.5 290.6,511.5 291.5,510.0 292.5,509.2 293.5,507.7 294.5,508.1 295.5,507.8 296.4,506.8 297.4,505.7 298.4,505.3 299.4,505.3 300.3,504.0 301.3,502.3 302.3,501.2 303.2,499.8 304.2,499.8 305.2,499.5 306.2,499.6 307.2,501.2 308.2,501.3 309.1,499.2 310.1,499.2 311.1,498.9 312.0,498.8 313.0,499.4 314.0,498.5 315.0,498.6 315.9,498.4 316.9,498.4 317.9,498.4 318.9,498.3 319.9,497.8 320.8,496.8 321.8,496.7 322.8,495.6 323.7,495.1 324.7,494.2 325.7,494.9 326.7,494.4 327.6,493.9 328.6,493.7 329.6,493.2 330.6,492.2 331.6,491.8 332.6,491.4 333.6,490.4 334.5,490.4 335.5,490.8 336.5,491.0 337.4,490.1 338.4,490.4 339.4,489.7 340.4,489.7 341.4,488.8 342.3,487.6 343.3,486.6 344.3,486.9 345.3,485.5 346.3,484.9 347.2,484.5 348.2,483.0 349.1,482.7 350.1,482.8 351.1,481.1 352.1,481.6 353.1,480.9 354.0,479.7 355.0,478.3 356.0,478.7 357.0,477.7 358.0,477.4 358.9,477.3 359.9,475.8 360.8,475.2 361.8,474.6 362.8,474.5 363.8,474.4 364.8,473.3 365.7,473.5 366.7,472.7 367.7,473.1 368.7,472.0 369.7,470.5 370.7,469.4 371.6,468.5 372.6,468.5 373.6,468.9 374.6,469.9 375.5,468.8 376.5,465.4 377.5,464.1 378.5,464.2 379.4,464.5 380.4,463.2" stroke="#808080" stroke-width="1.80" stroke-opacity="1.00" fill="none" clip-path="url(#axis_clip)"/>
<polyline class="pl" points="380.4,463.2 381.4,461.7 382.4,461.7 383.4,461.0 384.3,458.9 385.3,457.3 386.3,457.1 387.3,456.1 388.2,456.4 389.2,457.6 390.2,457.2 391.2,456.5 392.1,455.9 393.1,455.2 394.1,453.8 395.1,453.5 396.0,454.4 397.0,454.5 398.0,453.6 399.0,452.2 400.0,452.3 400.9,452.0 401.9,451.7 402.9,451.6 403.9,450.6 404.8,449.8 405.8,450.1 406.8,449.8 407.8,450.2 408.7,450.7 409.7,451.2 410.7,452.1 411.7,451.5 412.7,449.6 413.6,448.2 414.6,447.1 415.6,446.3 416.6,446.3 417.5,446.3 418.5,445.3 419.5,443.7 420.5,441.8 421.4,441.0 422.4,441.2 423.4,440.8 424.4,439.9 425.3,439.7 426.3,439.4 427.3,437.6 428.3,436.9 429.2,437.9 430.2,438.1 431.2,437.1 432.2,437.0 433.2,436.0 434.1,433.8 435.1,433.6 436.1,434.5 437.1,434.1 438.0,432.9 439.0,433.2 440.0,432.6 441.0,430.3 441.9,430.2 442.9,430.8 443.9,429.6 444.9,428.3 445.8,428.4 446.8,428.0 447.8,427.1 448.8,426.7 449.7,426.1 450.7,425.4 451.7,425.7 452.7,425.5 453.7,424.5 454.6,423.9 455.6,422.8 456.6,422.2 457.6,421.8 458.5,421.6 459.5,421.0 460.5,420.0 461.5,420.7 462.4,421.7 463.4,420.7 464.4,418.9 465.4,417.0 466.4,415.3 467.3,414.7 468.3,414.6 469.3,413.8 470.3,413.3 471.2,412.3 472.2,411.3 473.2,410.0 474.2,408.9 475.1,407.8 476.1,407.7 477.1,407.1 478.1,405.8 479.0,404.7 480.0,403.8 481.0,402.5 482.0,401.5 483.0,401.2 483.9,400.7 484.9,399.9 485.9,399.8 486.9,399.1 487.8,398.0 488.8,397.9 489.8,398.3 490.8,398.0 491.7,397.9 492.7,397.5 493.7,395.7 494.7,394.9 495.6,394.4 496.6,393.5 497.6,393.1 498.6,392.5 499.5,392.7 500.5,392.9 501.5,392.8 502.5,393.1 503.5,392.5 504.4,391.3 505.4,390.3 506.4,389.1 507.4,388.7 508.3,388.3 509.3,387.4 510.3,386.8 511.3,386.2 512.2,385.3 513.2,385.1 514.2,384.7 515.2,384.3 516.1,384.7 517.1,385.2 518.1,385.4 519.1,385.5 520.0,385.1 521.0,384.1 522.0,383.8 523.0,383.8 524.0,383.0 524.9,381.9 525.9,381.5 526.9,381.3 527.9,381.8 528.8,382.2 529.8,381.9 530.8,381.9 531.8,381.6 532.8,381.1 533.7,381.1 534.7,380.5 535.7,379.9 536.7,379.5 537.6,379.8 538.6,379.5 539.6,378.7 540.6,378.1 541.5,377.5 542.5,377.1 543.5,376.2 544.5,375.6 545.4,374.6 546.4,374.3 547.4,374.2 548.4,373.6 549.3,373.5 550.3,372.7 551.3,371.4 552.3,370.9 553.3,370.3 554.2,369.3 555.2,368.8 556.2,368.2 557.2,367.2 558.1,366.3 559.1,365.7 560.1,365.7 561.1,365.4 562.0,365.1 563.0,364.1 564.0,362.2 565.0,361.1 565.9,360.4 566.9,359.7 567.9,359.6 568.9,359.2 569.8,358.8 570.8,358.7 571.8,357.6 572.8,355.1 573.8,353.4 574.7,353.6 575.7,354.8 576.7,355.5 577.7,355.7 578.6,355.3 579.6,354.6 580.6,354.0 581.6,353.4 582.5,352.5 583.5,352.0 584.5,351.8 585.5,351.9 586.4,352.1 587.4,351.6 588.4,349.8 589.4,347.7 590.4,346.3 591.3,346.1 592.3,345.9 593.3,344.9 594.3,343.2 595.2,341.4 596.2,339.8 597.2,338.9 598.2,337.1 599.1,335.6 600.1,334.9 601.1,334.6 602.1,334.0 603.1,333.1 604.0,332.2 605.0,331.6 606.0,331.0 607.0,330.8 607.9,330.4 608.9,330.7 609.9,330.4 610.9,329.5 611.8,328.7 612.8,328.2 613.8,327.9 614.8,327.4 615.7,327.2 616.7,326.9 617.7,326.5 618.7,326.3 619.6,326.0 620.6,324.8 621.6,323.8 622.6,323.9 623.6,323.7 624.5,323.1 625.5,322.6 626.5,321.5 627.5,320.5 628.4,319.8 629.4,319.6 630.4,319.3 631.4,319.2 632.3,318.1 633.3,317.0 634.3,316.7 635.3,315.7 636.2,315.0 637.2,314.1 638.2,313.7 639.2,313.3 640.1,312.4 641.1,311.9 642.1,311.1 643.1,310.4 644.1,309.3 645.0,307.7 646.0,305.9 647.0,305.3 648.0,304.7 648.9,303.7 649.9,303.0 650.9,302.2 651.9,301.3 652.8,300.1 653.8,298.6 654.8,297.6 655.8,296.9 656.8,296.1 657.7,294.9 658.7,294.3 659.7,293.9 660.7,293.5 661.6,292.9 662.6,292.1 663.6,291.4 664.6,290.9 665.5,290.3 666.5,289.7 667.5,288.8 668.5,288.9 669.4,289.3 670.4,288.5 671.4,287.3 672.4,286.4 673.4,286.2 674.3,285.3 675.3,283.9 676.3,282.8 677.3,281.4 678.2,280.6 679.2,280.1 680.2,279.0 681.2,278.6 682.1,277.8 683.1,276.8 684.1,275.9 685.1,274.7 686.0,273.6 687.0,273.0 688.0,272.4 689.0,271.8 689.9,271.0 690.9,270.5 691.9,270.8 692.9,269.9 693.9,268.8 694.8,268.3 695.8,267.6 696.8,267.2 697.8,266.6 698.7,265.7 699.7,265.3 700.7,265.0 701.7,264.2 702.6,263.6 703.6,262.6 704.6,260.8 705.6,259.9 706.5,259.6 707.5,258.6 708.5,257.5 709.5,256.8 710.4,256.1 711.4,255.1 712.4,254.6 713.4,253.8 714.4,252.1 715.3,251.4 716.3,252.6 717.3,253.3 718.3,252.2 719.2,250.6 720.2,249.6 721.2,249.2 722.2,249.3 723.2,248.7 724.1,247.9 725.1,247.4 726.1,247.6 727.1,247.3 728.0,246.6 729.0,245.4 730.0,244.5 731.0,243.9 731.9,242.4 732.9,240.9 733.9,240.5 734.9,239.9 735.8,239.1 736.8,238.3 737.8,237.3 738.8,235.9 739.7,234.4 740.7,233.1 741.7,232.6 742.7,232.5 743.7,232.3 744.6,232.0 745.6,231.6 746.6,230.7 747.6,229.7 748.5,228.9 749.5,229.2 750.5,228.8 751.5,227.4 752.4,225.9 753.4,225.4 754.4,224.9 755.4,224.8 756.3,223.8 757.3,222.5 758.3,221.9 759.3,221.6 760.2,221.2 761.2,220.9 762.2,219.5 763.2,217.2 764.2,215.8 765.1,215.1 766.1,214.7 767.1,213.6 768.1,212.4 769.0,211.0 770.0,209.8 771.0,208.9 772.0,207.5 772.9,205.8 773.9,205.0 774.9,205.6 775.9,205.4 776.8,204.4 777.8,203.5 778.8,203.1 779.8,202.7 780.8,202.4 781.7,201.6 782.7,200.5 783.7,199.9 784.7,198.6 785.6,196.9 786.6,196.7 787.6,196.6 788.6,195.5 789.5,194.6 790.5,193.9 791.5,193.1 792.5,192.4 793.5,191.3 794.4,190.5 795.4,189.5 796.4,188.8 797.4,188.0 798.3,186.7 799.3,185.6 800.3,184.3 801.3,182.1 802.2,180.2 803.2,179.1 804.2,177.6 805.2,176.2 806.1,175.0 807.1,173.8 808.1,172.6 809.1,171.6 810.0,170.6 811.0,169.6 812.0,169.2 813.0,168.7 814.0,168.4 814.9,167.4 815.9,166.7 816.9,166.3 817.9,165.1 818.8,163.8 819.8,163.4 820.8,163.3 821.8,162.9 822.7,161.8 823.7,160.6 824.7,159.6 825.7,158.5 826.6,156.9 827.6,155.7 828.6,155.1 829.6,154.9 830.5,154.1 831.5,152.8 832.5,152.0 833.5,151.6 834.5,150.9 835.4,150.2 836.4,149.1 837.4,147.7 838.4,147.3 839.3,146.2 840.3,145.1 841.3,144.2 842.3,143.1 843.2,142.1 844.2,140.7 845.2,139.5 846.2,138.5 847.2,138.2 848.1,137.7 849.1,136.9 850.1,135.9 851.1,134.9 852.0,133.8 853.0,133.1 854.0,132.4 855.0,131.7 855.9,131.2 856.9,130.1 857.9,128.7 858.9,127.8 859.8,127.5 860.8,126.7 861.8,126.0 862.8,125.8 863.8,125.3 864.7,123.4 865.7,122.1 866.7,121.6 867.7,120.5 868.6,119.6 869.6,119.0 870.6,117.3 871.6,116.3 872.5,115.8 873.5,115.1 874.5,114.0 875.5,112.9 876.4,112.5 877.4,112.2 878.4,111.7 879.4,110.5 880.3,109.6 881.3,108.8 882.3,107.6 883.3,106.6 884.3,106.3 885.2,106.2 886.2,105.8 887.2,104.4 888.2,103.3 889.1,102.8 890.1,102.0 891.1,100.5 892.1,98.8 893.0,97.3 894.0,96.2 895.0,94.5 896.0,93.3 896.9,92.6 897.9,91.4 898.9,90.4 899.9,90.3" stroke="#000" stroke-width="1.80" stroke-opacity="1.00" fill="none" clip-path="url(#axis_clip)"/>
<g stroke="none" stroke-width="0.9000"  >
  <polygon points="429.2,431.8 393.2,404.8 255.1,404.8 255.1,365.4 437.6,365.4 437.6,404.8 417.2,404.8 429.2,431.8" fill="#F56E42"/>
</g>
<text transform="translate(267.1,385.1)" dy="7.6" font-size="25.20" fill="#FFF" stroke="none">Monthly mean</text>
<g stroke="none" stroke-width="0.9000"  >
  <polygon points="339.4,489.7 387.4,496.5 387.4,485.0 580.7,485.0 580.7,555.7 387.4,555.7 387.4,510.0 339.4,489.7" fill="#808080"/>
</g>
<text transform="translate(399.4,520.4)"  font-size="25.20" fill="#FFF" stroke="none">
      <tspan x="0" y="-6.6">Seasonally</tspan><tspan x="0" y="21.7">corrected trend</tspan>
    </text>
<text transform="translate(145.6,47.2)" dy="0.0" font-size="27.00" fill="#808080" stroke="none">Atmospheric CO<tspan dy="0.2em"><tspan style="font-size:70%">2</tspan></tspan><tspan dy="-0.2em"> </tspan>concentration: Global average</text>
<text transform="translate(157.6,666.1)" font-size="19.80" font-family="Helvetica" fill="#BFBFBF" stroke="none" xml:space="preserve">@robbie_andrew   &#9679;   Data: Scripps/NOAA-ESRL   &#9679;   Updated: 6 August 2024</text>
<text class="twitlink" transform="translate(157.6,666.1)" opacity="0" font-size="19.80" fill="#BFBFBF" stroke="none" xml:space="preserve"></text>
  <g class="dl_el" transform="translate(154.6,578.4)">
    <g class="dl_el_balloon">
      <foreignObject x="0" y="0" width="120" height="500">
      <div xmlns="http://www.w3.org/1999/xhtml" class="dl_fe" style="height:60px">
      <p class="dl_fe_p">Find me on Twitter</p>
      </div>
	    </foreignObject>
      <path stroke="#000" fill="#FDFFDF" d="M0,60H60l5,5l5,-5H120"/>
    </g>
  </g>
<g>
  <rect x="123.0" y="651.4" width="34" height="17" fill="#FFF" stroke="none"/>
  <g transform="translate(124.0,652.4) scale(0.24)">
  <g><circle fill="#FFF" cx="37.79" cy="28.5" r="28.84"/>
     <circle fill="none" cx="37.79" cy="28.5" r="28.84" stroke="#BFBFBF" stroke-width="5.5"/>
     <path fill="#BFBFBF" d="M37.16,23.19 l-4.29,2.23c-0.458-0.951-1.02-1.62-1.69-2c-0.667-0.38-1.29-0.571-1.86-0.571c-2.86,0-4.29,1.89-4.29,5.66 c0,1.71,0.36,3.08,1.09,4.11c0.724,1.03,1.79,1.54,3.2,1.54c1.87,0,3.18-0.915,3.94-2.74l3.94,2 c-0.838,1.56-2,2.79-3.49,3.69c-1.48,0.896-3.12,1.34-4.91,1.34c-2.86,0-5.16-0.875-6.92-2.63 c-1.75-1.75-2.63-4.19-2.63-7.31c0-3.05,0.886-5.47,2.66-7.26c1.77-1.79,4.01-2.69,6.72-2.69 C32.6,18.56,35.44,20.1,37.16,23.19z
              M55.61,23.19l-4.23,2.23c-0.457-0.951-1.02-1.62-1.69-2 c-0.668-0.38-1.31-0.571-1.91-0.571c-2.86,0-4.29,1.89-4.29,5.66c0,1.71,0.363,3.08,1.09,4.11 c0.723,1.03,1.79,1.54,3.2,1.54c1.87,0,3.18-0.915,3.94-2.74l4,2c-0.875,1.56-2.06,2.79-3.54,3.69 c-1.49,0.9-3.11,1.34-4.86,1.34c-2.9,0-5.21-0.875-6.94-2.63c-1.74-1.75-2.6-4.19-2.6-7.31 c0-3.05,0.885-5.47,2.66-7.26c1.77-1.79,4.01-2.69,6.71-2.69C51.12,18.56,53.944,20.1,55.61,23.19z"/>
  </g></g>
  <g transform="translate(140.2,652.4) scale(0.24)">
  <g><circle fill="#FFF" cx="37.79" cy="28.5" r="28.84"/>
     <circle fill="none" cx="37.79" cy="28.5" r="28.84" stroke="#BFBFBF" stroke-width="5.5"/>
     <path fill="#BFBFBF" d="M46.129,20.557v13.085h-3.656v15.542h-9.944V33.643h-3.656V20.557 c0-0.572,0.2-1.057,0.599-1.457c0.401-0.399,0.887-0.6,1.457-0.6h13.144c0.533,0,1.01,0.2,1.428,0.6 C45.918,19.5,46.129,19.986,46.129,20.557z
              M33.042,12.329c0-3.008,1.485-4.514,4.458-4.514s4.457,1.504,4.457,4.514 c0,2.971-1.486,4.457-4.457,4.457S33.042,15.3,33.042,12.329z"/>
  </g></g>
</g>
</g>
</svg>
