<svg version="1.1" xmlns="http://www.w3.org/2000/svg" xmlns:xlink="http://www.w3.org/1999/xlink" width="100%" height="100%" viewBox="0 0 1200.000 674.916">
<title>India's daily power generation from solar</title>
<desc>Created by Robbie Andrew (@robbie_andrew), CICERO Center for International Climate Research. CC-BY: Material may be freely re-used as long as you credit the author</desc>
<style type="text/css">
  #main {font-family:Helvetica,Arial,sans-serif; font-size:27.00px;
         fill-opacity:1; fill:#000000; stroke:none; stroke-linejoin:round; stroke-linecap:round; stroke-width:1.00;}
  a:hover {text-decoration: underline;}
  .marker {stroke-opacity:0;fill-opacity:0;}
  .marker:hover {stroke-opacity:0.5; fill-opacity:1;}
  .ticklabel {font-size:27.00px;fill:#808080;stroke:none;font-family:Helvetica}
  .ytl {text-anchor:end;}
  .dp1 {pointer-events:none;font-size:70%;text-anchor:middle;fill:#000000;}
  .dp2 {pointer-events:none;font-size:70%;text-anchor:middle;fill:#FFFFFF;}
  .numtip {pointer-events:none;}
  .cc {opacity:0.25;}
.dl_fe {background-color:#FDFFDF;display:flex;margin:auto;align-items:center}
.dl_fe_p {font-size:20px;text-align:center;margin:3px}
.dl_el {display:none;pointer-events:none;}
.cc:hover + .dl_el {display:block;}
text:hover + .dl_el {display:block;}
  #lines .pl {transition: all 0.2s ease;}
  #lines:hover .pl {opacity:0.3;}
  #lines:hover .thick {stroke-width:1;}
  #lines:hover .pl_1:hover .pl {opacity:1;}
  #lines:hover .pl_1:hover .pll {stroke-width:3;}
  #lines:hover .pl_1:hover .pldlm {stroke-width:2;}
  #lines:hover .pl_1:hover .thick {stroke-width:12;}
  #lines:hover .pl_2:hover .pl {opacity:1;}
  #lines:hover .pl_2:hover .pll {stroke-width:3;}
  #lines:hover .pl_2:hover .pldlm {stroke-width:2;}
  #lines:hover .pl_2:hover .thick {stroke-width:12;}
  #lines:hover .pl_3:hover .pl {opacity:1;}
  #lines:hover .pl_3:hover .pll {stroke-width:3;}
  #lines:hover .pl_3:hover .pldlm {stroke-width:2;}
  #lines:hover .pl_3:hover .thick {stroke-width:12;}
  #lines:hover .pl_4:hover .pl {opacity:1;}
  #lines:hover .pl_4:hover .pll {stroke-width:3;}
  #lines:hover .pl_4:hover .pldlm {stroke-width:2;}
  #lines:hover .pl_4:hover .thick {stroke-width:12;}
  #lines:hover .pl_5:hover .pl {opacity:1;}
  #lines:hover .pl_5:hover .pll {stroke-width:3;}
  #lines:hover .pl_5:hover .pldlm {stroke-width:2;}
  #lines:hover .pl_5:hover .thick {stroke-width:12;}
  #lines:hover .pl_6:hover .pl {opacity:1;}
  #lines:hover .pl_6:hover .pll {stroke-width:3;}
  #lines:hover .pl_6:hover .pldlm {stroke-width:2;}
  #lines:hover .pl_6:hover .thick {stroke-width:12;}
  #lines:hover .pl_7:hover .pl {opacity:1;}
  #lines:hover .pl_7:hover .pll {stroke-width:3;}
  #lines:hover .pl_7:hover .pldlm {stroke-width:2;}
  #lines:hover .pl_7:hover .thick {stroke-width:12;}
</style>
<defs>
  <clipPath id="axis_clip"><rect x="145.8" y="54.2" width="761.2" height="505.8" /></clipPath>
  <path id="line_y" d="M 0,53.993 v 506.187" stroke="#262626" stroke-opacity="0.15" stroke-width="1.00"/>
  <path id="line_x" d="M 145.600,0 h 761.600" stroke="#262626" stroke-opacity="0.15" stroke-width="1.00"/>
  <path id="tick_y" d="M 145.600,0 h -6.000" stroke="#808080" stroke-width="0.90"/>
  <path id="tick_x" d="M 0,560.180 v 6.000" stroke="#808080" stroke-width="0.90"/>
  <symbol id="line_1" viewBox="0 0 1200.000 674.916">
    <polyline class="pl pll" points="145.6,256.9 147.7,262.9 149.8,269.4 151.9,278.8 153.9,283.7 156.0,284.8 158.1,292.3 160.2,302.9 162.3,311.1 164.4,312.7 166.5,299.8 168.6,288.2 170.6,282.1 172.7,271.7 174.8,253.2 176.9,236.4 179.0,230.7 181.1,236.8 183.2,240.8 185.2,242.5 187.3,244.7 189.4,245.9 191.5,248.0 193.6,245.4 195.7,239.8 197.8,238.6 199.9,237.9 201.9,238.0 204.0,238.0 206.1,241.0 208.2,239.3 210.3,237.6 212.4,237.0 214.5,241.9 216.5,245.1 218.6,240.5 220.7,230.5 222.8,226.3 224.9,220.7 227.0,209.9 229.1,193.0 231.1,178.9 233.2,182.1 235.3,184.3 237.4,181.6 239.5,179.4 241.6,180.3 243.7,178.2 245.8,177.6 247.8,170.9 249.9,165.2 252.0,163.5 254.1,162.9 256.2,159.6 258.3,160.1 260.4,161.6 262.4,169.6 264.5,169.2 266.6,164.1 268.7,161.0 270.8,159.6 272.9,158.1 275.0,150.9 277.1,135.4 279.1,130.1 281.2,133.5 283.3,132.2 285.4,130.3 287.5,128.1 289.6,133.6 291.7,135.6 293.7,135.8 295.8,134.0 297.9,134.3 300.0,137.4 302.1,139.0 304.2,135.8 306.3,135.3 308.4,136.0 310.4,133.4 312.5,138.0 314.6,137.6 316.7,138.4 318.8,140.1 320.9,142.4 323.0,144.3 325.0,146.4 327.1,144.4 329.2,146.4 331.3,143.9 333.4,139.1 335.5,135.9 337.6,134.6 339.7,136.1 341.7,136.9 343.8,142.0 345.9,142.2 348.0,143.2 350.1,141.3 352.2,143.6 354.3,143.9 356.3,144.1 358.4,142.8 360.5,153.6 362.6,159.6 364.7,166.6 366.8,159.4 368.9,159.5 371.0,163.3 373.0,157.2 375.1,150.1 377.2,147.0 379.3,140.2 381.4,137.8 383.5,129.4 385.6,117.8 387.6,114.6 389.7,107.8 391.8,103.2 393.9,101.6 396.0,100.5 398.1,98.6 400.2,96.8 402.2,99.8 404.3,101.0 406.4,100.0 408.5,101.3 410.6,107.3 412.7,109.9 414.8,116.5 416.9,117.4 418.9,120.8 421.0,123.1 423.1,127.8 425.2,129.0 427.3,134.9 429.4,139.2 431.5,144.5 433.5,144.1 435.6,147.4 437.7,146.3 439.8,143.6 441.9,141.9 444.0,136.1 446.1,130.4 448.2,133.1 450.2,132.7 452.3,133.0 454.4,133.2 456.5,128.9 458.6,124.0 460.7,118.8 462.8,113.0 464.8,109.9 466.9,112.0 469.0,114.8 471.1,116.6 473.2,125.0 475.3,134.7 477.4,141.4 479.5,143.9 481.5,143.3 483.6,143.9 485.7,150.0 487.8,150.8 489.9,147.8 492.0,140.5 494.1,137.5 496.1,134.3 498.2,132.7 500.3,131.5 502.4,129.3 504.5,135.1 506.6,146.1 508.7,152.7 510.8,157.8 512.8,165.3 514.9,174.4 517.0,188.8 519.1,194.3 521.2,200.0 523.3,208.5 525.4,215.2 527.4,218.6 529.5,212.6 531.6,209.1 533.7,206.5 535.8,204.4 537.9,206.8 540.0,208.1 542.0,204.5 544.1,199.9 546.2,190.2 548.3,186.5 550.4,185.4 552.5,180.7 554.6,180.3 556.7,179.7 558.7,191.8 560.8,200.3 562.9,204.8 565.0,210.7 567.1,210.2 569.2,210.9 571.3,219.5 573.3,222.8 575.4,230.1 577.5,233.7 579.6,231.6 581.7,234.7 583.8,237.0 585.9,232.2 588.0,223.4 590.0,225.2 592.1,241.2 594.2,246.3 596.3,245.1 598.4,249.7 600.5,265.1 602.6,279.8 604.6,273.3 606.7,252.1 608.8,245.1 610.9,242.3 613.0,227.4 615.1,210.1 617.2,202.7 619.3,201.2 621.3,214.5 623.4,216.7 625.5,210.9 627.6,212.1 629.7,205.4 631.8,191.6 633.9,184.5 635.9,167.9 638.0,166.8 640.1,176.4 642.2,182.5 644.3,197.7 646.4,210.0 648.5,215.5 650.6,220.5 652.6,220.6 654.7,220.0 656.8,219.2 658.9,221.6 661.0,225.4 663.1,222.8 665.2,218.4 667.2,209.6 669.3,202.4 671.4,195.1 673.5,182.0 675.6,170.1 677.7,164.4 679.8,156.8 681.8,150.5 683.9,142.2 686.0,134.2 688.1,126.1 690.2,119.2 692.3,116.0 694.4,116.5 696.5,121.6 698.5,124.8 700.6,129.7 702.7,137.2 704.8,146.0 706.9,155.8 709.0,165.3 711.1,169.6 713.1,173.5" stroke="#A2142F" fill="none" clip-path="url(#axis_clip)"/>
  </symbol>
  <symbol id="line_2" viewBox="0 0 1200.000 674.916">
    <polyline class="pl pll" points="145.6,269.8 147.7,261.8 149.8,260.2 151.9,260.5 154.0,259.0 156.1,262.3 158.2,267.4 160.2,269.3 162.3,272.1 164.4,266.4 166.5,262.1 168.6,257.0 170.7,252.5 172.8,244.4 174.9,238.1 177.0,229.8 179.1,227.4 181.2,225.3 183.3,226.7 185.4,225.0 187.4,229.3 189.5,237.2 191.6,249.9 193.7,261.4 195.8,263.1 197.9,259.7 200.0,255.0 202.1,247.0 204.2,245.2 206.3,244.1 208.4,238.8 210.5,240.9 212.6,242.0 214.6,241.7 216.7,243.3 218.8,234.8 220.9,224.0 223.0,218.7 225.1,213.4 227.2,211.3 229.3,209.5 231.4,207.0 233.5,205.2 235.6,199.4 237.7,194.4 239.8,191.1 241.8,188.3 243.9,185.6 246.0,184.3 248.1,184.8 250.2,187.7 252.3,188.7 254.4,191.5 256.5,190.7 258.6,193.6 260.7,192.8 262.8,193.0 264.9,193.2 267.0,196.4 269.0,198.0 271.1,199.1 273.2,199.6 275.3,206.7 277.4,208.3 279.5,210.0 281.6,211.5 283.7,209.4 285.8,210.0 287.9,207.6 290.0,200.5 292.1,202.5 294.2,204.6 296.2,201.8 298.3,214.7 300.4,225.3 302.5,239.4 304.6,248.4 306.7,253.3 308.8,250.4 310.9,247.8 313.0,234.8 315.1,222.7 317.2,211.2 319.3,206.0 321.4,199.4 323.4,195.6 325.5,194.4 327.6,198.5 329.7,206.5 331.8,204.7 333.9,200.9 336.0,197.3 338.1,199.4 340.2,202.0 342.3,196.5 344.4,188.2 346.5,189.8 348.6,191.4 350.6,192.7 352.7,193.0 354.8,196.9 356.9,195.4 359.0,194.8 361.1,193.2 363.2,194.1 365.3,192.4 367.4,190.4 369.5,185.4 371.6,189.6 373.7,190.9 375.8,189.0 377.8,188.2 379.9,188.7 382.0,189.0 384.1,191.2 386.2,194.4 388.3,201.7 390.4,212.6 392.5,220.6 394.6,231.2 396.7,239.2 398.8,244.1 400.9,243.6 403.0,238.3 405.0,234.0 407.1,227.8 409.2,223.8 411.3,218.2 413.4,210.4 415.5,202.2 417.6,197.4 419.7,191.0 421.8,188.6 423.9,183.3 426.0,182.2 428.1,182.0 430.2,183.3 432.2,183.4 434.3,184.3 436.4,184.5 438.5,185.7 440.6,185.0 442.7,186.3 444.8,188.8 446.9,190.8 449.0,191.3 451.1,192.3 453.2,200.5 455.3,205.6 457.4,216.9 459.4,216.0 461.5,221.2 463.6,222.9 465.7,222.1 467.8,220.2 469.9,216.0 472.0,207.5 474.1,209.5 476.2,203.9 478.3,201.6 480.4,201.0 482.5,195.2 484.6,195.6 486.6,194.0 488.7,193.4 490.8,196.1 492.9,205.7 495.0,221.6 497.1,231.5 499.2,235.9 501.3,239.6 503.4,244.4 505.5,246.7 507.6,244.6 509.7,237.4 511.8,237.1 513.8,244.0 515.9,249.6 518.0,254.3 520.1,259.3 522.2,259.8 524.3,257.3 526.4,253.1 528.5,246.6 530.6,243.9 532.7,243.6 534.8,248.7 536.9,257.2 539.0,266.5 541.0,271.2 543.1,277.2 545.2,281.0 547.3,278.3 549.4,268.4 551.5,258.1 553.6,248.5 555.7,247.0 557.8,247.2 559.9,250.2 562.0,260.7 564.1,268.7 566.2,277.8 568.2,288.2 570.3,293.3 572.4,298.4 574.5,307.5 576.6,310.5 578.7,320.5 580.8,321.0 582.9,314.8 585.0,308.1 587.1,299.1 589.2,283.9 591.3,275.7 593.4,265.4 595.4,259.5 597.5,254.0 599.6,251.3 601.7,251.3 603.8,252.4 605.9,247.7 608.0,242.1 610.1,239.0 612.2,239.3 614.3,239.3 616.4,240.2 618.5,238.8 620.6,234.8 622.6,232.4 624.7,234.5 626.8,241.3 628.9,247.5 631.0,243.0 633.1,240.3 635.2,243.7 637.3,244.3 639.4,240.5 641.5,234.5 643.6,226.2 645.7,223.6 647.8,220.9 649.8,215.3 651.9,210.8 654.0,207.5 656.1,203.4 658.2,205.5 660.3,214.5 662.4,224.3 664.5,227.8 666.6,233.6 668.7,242.1 670.8,248.5 672.9,251.6 675.0,248.0 677.0,240.5 679.1,241.2 681.2,245.5 683.3,246.9 685.4,248.0 687.5,251.5 689.6,260.6 691.7,269.0 693.8,271.4 695.9,269.1 698.0,265.9 700.1,261.9 702.2,258.2 704.2,248.1 706.3,241.8 708.4,241.4 710.5,237.5 712.6,234.8 714.7,234.7 716.8,233.6 718.9,233.6 721.0,228.5 723.1,221.4 725.2,216.5 727.3,210.6 729.4,205.2 731.4,199.0 733.5,194.8 735.6,195.7 737.7,198.2 739.8,200.7 741.9,203.5 744.0,207.5 746.1,211.1 748.2,222.0 750.3,227.7 752.4,226.4 754.5,227.0 756.6,229.2 758.6,229.0 760.7,229.2 762.8,219.0 764.9,213.4 767.0,213.8 769.1,212.0 771.2,209.9 773.3,214.6 775.4,216.4 777.5,222.4 779.6,230.2 781.7,238.3 783.8,245.2 785.8,254.4 787.9,258.3 790.0,263.4 792.1,267.0 794.2,270.8 796.3,276.6 798.4,284.8 800.5,283.1 802.6,278.4 804.7,271.3 806.8,267.9 808.9,268.1 811.0,262.2 813.0,253.6 815.1,255.8 817.2,259.8 819.3,270.6 821.4,272.5 823.5,272.3 825.6,275.8 827.7,282.6 829.8,286.4 831.9,291.8 834.0,304.2 836.1,320.6 838.2,325.6 840.2,328.7 842.3,328.2 844.4,329.5 846.5,325.2 848.6,311.6 850.7,301.6 852.8,298.6 854.9,297.4 857.0,296.9 859.1,292.8 861.2,291.2 863.3,285.7 865.4,275.7 867.4,267.0 869.5,258.8 871.6,251.1 873.7,251.1 875.8,257.3 877.9,264.9 880.0,272.3 882.1,276.2 884.2,280.2 886.3,285.0 888.4,284.5 890.5,274.2 892.6,268.5 894.6,263.1 896.7,259.8 898.8,255.5 900.9,252.5 903.0,250.3 905.1,255.1 907.2,253.7" stroke="#4DBEEE" fill="none" clip-path="url(#axis_clip)"/>
  </symbol>
  <symbol id="line_3" viewBox="0 0 1200.000 674.916">
    <polyline class="pl pll" points="145.6,372.2 147.7,368.5 149.8,364.3 151.9,359.6 154.0,366.1 156.1,370.4 158.2,371.0 160.2,371.5 162.3,372.3 164.4,372.3 166.5,370.4 168.6,362.0 170.7,353.5 172.8,343.4 174.9,337.6 177.0,335.7 179.1,335.2 181.2,331.2 183.3,327.5 185.4,325.2 187.4,324.6 189.5,329.7 191.6,326.5 193.7,323.0 195.8,321.5 197.9,322.0 200.0,322.8 202.1,315.0 204.2,305.0 206.3,300.8 208.4,299.5 210.5,299.4 212.6,297.0 214.6,296.3 216.7,298.4 218.8,297.1 220.9,298.2 223.0,298.1 225.1,298.2 227.2,298.9 229.3,296.2 231.4,296.0 233.5,295.4 235.6,292.6 237.7,290.2 239.8,288.4 241.8,287.5 243.9,286.5 246.0,287.8 248.1,287.8 250.2,286.2 252.3,285.6 254.4,283.0 256.5,280.4 258.6,280.1 260.7,276.6 262.8,274.9 264.9,274.0 267.0,271.9 269.0,270.1 271.1,269.6 273.2,267.2 275.3,265.9 277.4,264.8 279.5,269.3 281.6,271.9 283.7,274.0 285.8,273.5 287.9,275.6 290.0,278.0 292.1,280.1 294.2,276.7 296.2,274.6 298.3,272.7 300.4,272.2 302.5,270.4 304.6,269.5 306.7,269.0 308.8,273.0 310.9,275.3 313.0,280.9 315.1,284.4 317.2,288.6 319.3,291.8 321.4,292.8 323.4,289.9 325.5,287.2 327.6,280.7 329.7,277.0 331.8,271.4 333.9,267.2 336.0,265.1 338.1,263.4 340.2,263.2 342.3,264.3 344.4,263.7 346.5,264.0 348.6,264.5 350.6,265.5 352.7,268.0 354.8,270.1 356.9,270.3 359.0,272.1 361.1,275.3 363.2,276.4 365.3,276.2 367.4,274.3 369.5,272.2 371.6,271.9 373.7,272.1 375.8,271.7 377.8,270.4 379.9,271.3 382.0,270.4 384.1,270.8 386.2,268.7 388.3,265.0 390.4,260.8 392.5,257.6 394.6,253.9 396.7,252.3 398.8,251.5 400.9,252.3 403.0,256.6 405.0,259.4 407.1,261.6 409.2,262.6 411.3,264.8 413.4,267.1 415.5,269.6 417.6,277.4 419.7,283.1 421.8,285.9 423.9,284.9 426.0,284.8 428.1,285.7 430.2,286.2 432.2,280.9 434.3,278.5 436.4,280.1 438.5,285.1 440.6,283.3 442.7,283.5 444.8,280.3 446.9,273.8 449.0,267.2 451.1,260.5 453.2,256.1 455.3,255.2 457.4,249.9 459.4,250.0 461.5,249.1 463.6,249.1 465.7,249.2 467.8,247.0 469.9,242.5 472.0,246.8 474.1,247.3 476.2,248.3 478.3,247.1 480.4,248.4 482.5,249.6 484.6,254.9 486.6,255.7 488.7,256.1 490.8,259.2 492.9,262.9 495.0,265.0 497.1,273.3 499.2,276.7 501.3,277.4 503.4,286.0 505.5,286.0 507.6,285.4 509.7,283.8 511.8,279.9 513.8,278.6 515.9,279.9 518.0,274.8 520.1,275.3 522.2,279.9 524.3,290.4 526.4,299.2 528.5,309.2 530.6,313.4 532.7,316.6 534.8,323.2 536.9,328.8 539.0,329.9 541.0,329.6 543.1,332.0 545.2,335.2 547.3,337.3 549.4,338.9 551.5,338.1 553.6,337.9 555.7,333.9 557.8,330.4 559.9,329.7 562.0,326.9 564.1,317.5 566.2,315.3 568.2,316.9 570.3,323.2 572.4,322.7 574.5,318.5 576.6,329.7 578.7,340.0 580.8,339.9 582.9,330.9 585.0,321.5 587.1,315.0 589.2,315.3 591.3,302.3 593.4,297.1 595.4,301.1 597.5,307.7 599.6,310.8 601.7,318.2 603.8,322.5 605.9,323.5 608.0,319.8 610.1,315.1 612.2,312.1 614.3,316.6 616.4,315.6 618.5,314.8 620.6,313.8 622.6,319.5 624.7,318.3 626.8,315.9 628.9,311.9 631.0,307.7 633.1,302.6 635.2,303.9 637.3,303.9 639.4,303.9 641.5,304.0 643.6,298.1 645.7,296.2 647.8,296.2 649.8,292.3 651.9,284.1 654.0,273.0 656.1,267.2 658.2,261.8 660.3,259.5 662.4,253.3 664.5,250.5 666.6,250.7 668.7,261.1 670.8,264.5 672.9,274.1 675.0,279.3 677.0,286.5 679.1,291.8 681.2,296.3 683.3,299.2 685.4,297.8 687.5,290.4 689.6,281.7 691.7,275.1 693.8,271.1 695.9,266.3 698.0,258.6 700.1,257.6 702.2,258.4 704.2,259.7 706.3,264.3 708.4,263.4 710.5,264.5 712.6,266.4 714.7,270.4 716.8,272.7 718.9,272.5 721.0,263.9 723.1,264.8 725.2,266.3 727.3,273.8 729.4,275.8 731.4,277.7 733.5,285.7 735.6,295.5 737.7,297.6 739.8,298.2 741.9,289.6 744.0,283.0 746.1,279.6 748.2,273.8 750.3,267.6 752.4,264.7 754.5,260.6 756.6,260.0 758.6,261.9 760.7,260.0 762.8,255.8 764.9,253.4 767.0,249.4 769.1,246.5 771.2,245.2 773.3,245.1 775.4,247.6 777.5,253.1 779.6,253.4 781.7,263.5 783.8,273.0 785.8,278.2 787.9,278.5 790.0,277.2 792.1,279.8 794.2,282.8 796.3,280.4 798.4,277.2 800.5,276.1 802.6,282.8 804.7,290.4 806.8,290.9 808.9,295.7 811.0,296.2 813.0,293.7 815.1,289.4 817.2,281.1 819.3,272.9 821.4,267.7 823.5,265.9 825.6,265.6 827.7,269.3 829.8,271.6 831.9,271.6 834.0,272.7 836.1,274.5 838.2,273.2 840.2,271.9 842.3,268.0 844.4,270.8 846.5,276.4 848.6,281.5 850.7,283.5 852.8,284.8 854.9,285.2 857.0,290.9 859.1,290.9 861.2,293.4 863.3,299.4 865.4,306.3 867.4,312.7 869.5,317.9 871.6,315.8 873.7,310.6 875.8,300.0 877.9,288.4 880.0,278.2 882.1,270.0 884.2,265.0 886.3,261.1 888.4,260.5 890.5,259.8 892.6,258.4 894.6,264.2 896.7,268.0 898.8,267.2 900.9,266.9 903.0,272.5 905.1,277.2 907.2,278.0" stroke="#77AC30" fill="none" clip-path="url(#axis_clip)"/>
  </symbol>
  <symbol id="line_4" viewBox="0 0 1200.000 674.916">
    <polyline class="pl pll" points="145.6,384.7 147.7,391.0 149.8,396.9 151.9,403.0 154.0,410.9 156.1,420.4 158.2,423.9 160.2,426.2 162.3,428.7 164.4,426.3 166.5,424.2 168.6,417.6 170.7,408.6 172.8,400.6 174.9,395.6 177.0,388.2 179.1,383.6 181.2,380.5 183.3,378.1 185.4,375.1 187.4,371.4 189.5,371.0 191.6,369.9 193.7,369.1 195.8,365.3 197.9,362.2 200.0,361.1 202.1,360.4 204.2,358.5 206.3,356.1 208.4,355.5 210.5,354.8 212.6,355.1 214.6,355.6 216.7,355.3 218.8,353.5 220.9,351.4 223.0,350.2 225.1,348.1 227.2,346.3 229.3,343.1 231.4,341.6 233.5,339.7 235.6,338.4 237.7,337.9 239.8,339.7 241.8,342.0 243.9,343.9 246.0,346.6 248.1,355.0 250.2,359.3 252.3,365.1 254.4,365.7 256.5,363.2 258.6,361.2 260.7,356.7 262.8,348.5 264.9,345.0 267.0,337.1 269.0,334.2 271.1,333.0 273.2,332.0 275.3,331.5 277.4,329.3 279.5,327.3 281.6,328.6 283.7,329.6 285.8,329.3 287.9,330.1 290.0,330.9 292.1,334.9 294.2,336.5 296.2,336.2 298.3,335.7 300.4,337.5 302.5,339.9 304.6,343.6 306.7,345.2 308.8,346.3 310.9,349.0 313.0,353.0 315.1,352.4 317.2,350.5 319.3,348.9 321.4,345.5 323.4,345.2 325.5,343.6 327.6,340.4 329.7,341.6 331.8,339.9 333.9,334.6 336.0,332.2 338.1,329.1 340.2,327.2 342.3,327.2 344.4,328.3 346.5,330.1 348.6,334.9 350.6,337.1 352.7,338.7 354.8,339.5 356.9,339.5 359.0,339.4 361.1,342.9 363.2,341.2 365.3,341.5 367.4,341.6 369.5,341.3 371.6,340.4 373.7,342.0 375.8,339.2 377.8,340.4 379.9,343.4 382.0,343.7 384.1,343.1 386.2,342.3 388.3,338.1 390.4,337.8 392.5,339.4 394.6,337.3 396.7,340.8 398.8,345.5 400.9,347.6 403.0,350.2 405.0,349.7 407.1,349.7 409.2,349.8 411.3,346.3 413.4,344.2 415.5,344.8 417.6,344.4 419.7,345.7 421.8,346.0 423.9,344.4 426.0,348.5 428.1,352.6 430.2,354.3 432.2,359.0 434.3,361.7 436.4,362.0 438.5,364.6 440.6,365.1 442.7,359.0 444.8,357.4 446.9,352.1 449.0,350.2 451.1,349.0 453.2,346.8 455.3,342.0 457.4,342.8 459.4,339.7 461.5,339.4 463.6,337.6 465.7,340.0 467.8,343.9 469.9,347.9 472.0,349.7 474.1,350.0 476.2,348.4 478.3,351.3 480.4,349.7 482.5,348.5 484.6,348.4 486.6,351.6 488.7,359.0 490.8,364.5 492.9,365.1 495.0,370.2 497.1,373.9 499.2,375.9 501.3,371.4 503.4,365.3 505.5,363.0 507.6,362.8 509.7,359.2 511.8,354.8 513.8,354.2 515.9,362.7 518.0,365.7 520.1,362.2 522.2,357.4 524.3,358.3 526.4,361.4 528.5,358.2 530.6,351.1 532.7,350.3 534.8,352.2 536.9,354.3 539.0,354.3 541.0,355.0 543.1,359.0 545.2,369.3 547.3,375.4 549.4,382.8 551.5,389.5 553.6,390.8 555.7,389.2 557.8,388.1 559.9,386.3 562.0,382.9 564.1,383.9 566.2,389.2 568.2,395.8 570.3,400.6 572.4,400.9 574.5,396.4 576.6,396.4 578.7,395.6 580.8,391.3 582.9,389.0 585.0,387.1 587.1,391.5 589.2,393.7 591.3,394.7 593.4,391.1 595.4,387.3 597.5,381.5 599.6,378.8 601.7,372.2 603.8,365.9 605.9,362.0 608.0,361.4 610.1,358.0 612.2,356.9 614.3,356.4 616.4,355.9 618.5,357.9 620.6,360.9 622.6,363.7 624.7,366.7 626.8,366.5 628.9,368.8 631.0,376.2 633.1,377.3 635.2,373.0 637.3,366.4 639.4,364.0 641.5,363.0 643.6,360.6 645.7,358.5 647.8,360.6 649.8,370.2 651.9,374.9 654.0,375.2 656.1,378.6 658.2,384.7 660.3,382.0 662.4,378.9 664.5,375.4 666.6,375.9 668.7,376.3 670.8,372.6 672.9,366.1 675.0,366.7 677.0,367.2 679.1,365.3 681.2,364.5 683.3,364.3 685.4,362.4 687.5,360.1 689.6,356.6 691.7,355.0 693.8,352.4 695.9,354.3 698.0,357.5 700.1,363.7 702.2,348.9 704.2,348.5 706.3,349.2 708.4,354.3 710.5,351.6 712.6,348.2 714.7,344.8 716.8,360.9 718.9,360.6 721.0,355.3 723.1,346.6 725.2,344.7 727.3,345.0 729.4,342.9 731.4,342.0 733.5,343.7 735.6,344.7 737.7,345.8 739.8,343.1 741.9,339.7 744.0,337.8 746.1,335.0 748.2,334.1 750.3,338.9 752.4,339.4 754.5,340.5 756.6,341.2 758.6,340.8 760.7,340.7 762.8,340.2 764.9,338.9 767.0,337.6 769.1,336.5 771.2,335.2 773.3,335.2 775.4,341.3 777.5,341.3 779.6,340.4 781.7,345.3 783.8,351.0 785.8,356.4 787.9,361.6 790.0,360.4 792.1,361.1 794.2,365.3 796.3,365.9 798.4,365.1 800.5,365.4 802.6,369.9 804.7,375.7 806.8,380.5 808.9,380.5 811.0,380.7 813.0,382.5 815.1,386.8 817.2,392.4 819.3,396.1 821.4,398.7 823.5,399.2 825.6,396.3 827.7,392.4 829.8,386.3 831.9,374.9 834.0,364.6 836.1,359.2 838.2,361.1 840.2,367.2 842.3,371.8 844.4,380.5 846.5,388.1 848.6,390.0 850.7,390.3 852.8,387.3 854.9,382.5 857.0,377.3 859.1,367.7 861.2,363.3 863.3,362.4 865.4,359.6 867.4,356.1 869.5,357.4 871.6,360.4 873.7,363.0 875.8,357.7 877.9,355.3 880.0,351.4 882.1,346.3 884.2,338.6 886.3,332.0 888.4,326.2 890.5,328.1 892.6,328.3 894.6,332.0 896.7,340.8 898.8,347.7 900.9,357.9 903.0,361.4 905.1,361.7 907.2,369.3" stroke="#7E2F8E" fill="none" clip-path="url(#axis_clip)"/>
  </symbol>
  <symbol id="line_5" viewBox="0 0 1200.000 674.916">
    <polyline class="pl pll" points="145.6,426.3 147.7,426.5 149.8,428.6 151.9,429.5 153.9,431.5 156.0,434.5 158.1,436.0 160.2,434.2 162.3,429.4 164.4,425.4 166.5,422.8 168.6,418.8 170.6,415.1 172.7,406.6 174.8,402.1 176.9,401.3 179.0,400.8 181.1,400.8 183.2,401.1 185.2,399.8 187.3,399.5 189.4,399.5 191.5,400.0 193.6,398.0 195.7,396.0 197.8,392.9 199.9,392.4 201.9,394.8 204.0,396.6 206.1,393.4 208.2,392.6 210.3,391.8 212.4,393.4 214.5,391.5 216.5,390.2 218.6,388.7 220.7,389.0 222.8,391.0 224.9,394.2 227.0,394.2 229.1,396.1 231.1,396.8 233.2,397.7 235.3,398.5 237.4,395.1 239.5,389.5 241.6,384.7 243.7,378.8 245.8,373.1 247.8,369.4 249.9,367.8 252.0,370.1 254.1,371.7 256.2,373.3 258.3,377.0 260.4,380.7 262.4,381.5 264.5,382.9 266.6,383.1 268.7,384.4 270.8,385.8 272.9,385.8 275.0,385.7 277.1,386.0 279.1,387.3 281.2,390.8 283.3,391.8 285.4,392.3 287.5,393.7 289.6,392.3 291.7,393.9 293.7,392.9 295.8,388.6 297.9,386.3 300.0,385.3 302.1,382.1 304.2,381.2 306.3,376.7 308.4,374.7 310.4,374.1 312.5,372.0 314.6,371.8 316.7,373.0 318.8,375.1 320.9,379.6 323.0,383.7 325.0,385.7 327.1,385.0 329.2,382.6 331.3,379.9 333.4,378.1 335.5,374.6 337.6,368.8 339.7,365.7 341.7,368.8 343.8,371.7 345.9,374.6 348.0,377.1 350.1,377.8 352.2,380.4 354.3,382.0 356.3,380.0 358.4,378.9 360.5,378.4 362.6,377.5 364.7,378.6 366.8,380.0 368.9,382.0 371.0,383.4 373.0,383.9 375.1,385.3 377.2,384.2 379.3,384.4 381.4,383.3 383.5,383.1 385.6,382.6 387.6,382.6 389.7,379.6 391.8,381.0 393.9,384.4 396.0,385.2 398.1,383.6 400.2,382.6 402.2,382.5 404.3,384.4 406.4,382.1 408.5,379.6 410.6,378.1 412.7,378.1 414.8,379.9 416.9,381.5 418.9,381.8 421.0,382.6 423.1,383.4 425.2,384.9 427.3,385.7 429.4,387.9 431.5,388.7 433.5,391.0 435.6,394.2 437.7,392.6 439.8,390.3 441.9,389.7 444.0,388.1 446.1,386.6 448.2,384.4 450.2,382.3 452.3,382.6 454.4,384.2 456.5,385.7 458.6,388.2 460.7,390.5 462.8,393.5 464.8,395.6 466.9,400.1 469.0,404.5 471.1,407.8 473.2,406.7 475.3,407.0 477.4,404.6 479.5,403.2 481.5,402.4 483.6,405.9 485.7,408.3 487.8,413.1 489.9,414.8 492.0,417.2 494.1,420.9 496.1,422.1 498.2,418.8 500.3,415.7 502.4,411.9 504.5,413.3 506.6,413.9 508.7,412.2 510.8,409.6 512.8,407.7 514.9,406.7 517.0,407.4 519.1,405.4 521.2,404.5 523.3,405.9 525.4,406.2 527.4,406.2 529.5,407.4 531.6,409.4 533.7,414.6 535.8,419.6 537.9,420.5 540.0,422.3 542.0,425.0 544.1,427.1 546.2,425.2 548.3,420.1 550.4,415.9 552.5,417.3 554.6,421.5 556.7,423.8 558.7,422.5 560.8,422.5 562.9,422.5 565.0,423.1 567.1,420.9 569.2,415.9 571.3,414.4 573.3,414.4 575.4,416.5 577.5,415.6 579.6,411.5 581.7,410.3 583.8,412.0 585.9,409.1 588.0,409.3 590.0,408.0 592.1,408.3 594.2,413.1 596.3,416.4 598.4,419.1 600.5,422.3 602.6,424.9 604.6,427.8 606.7,433.7 608.8,438.5 610.9,438.7 613.0,437.9 615.1,441.1 617.2,443.0 619.3,447.1 621.3,449.0 623.4,447.9 625.5,448.0 627.6,447.5 629.7,446.7 631.8,441.9 633.9,432.7 635.9,423.6 638.0,417.5 640.1,411.9 642.2,407.2 644.3,401.3 646.4,397.1 648.5,398.4 650.6,397.2 652.6,396.0 654.7,396.3 656.8,400.6 658.9,399.5 661.0,400.3 663.1,397.6 665.2,395.5 667.2,392.4 669.3,391.1 671.4,383.7 673.5,383.3 675.6,384.4 677.7,387.1 679.8,395.6 681.8,404.6 683.9,408.2 686.0,412.5 688.1,413.0 690.2,414.1 692.3,416.7 694.4,415.1 696.5,411.5 698.5,410.6 700.6,409.3 702.7,407.5 704.8,405.9 706.9,407.5 709.0,401.4 711.1,394.0 713.1,392.9 715.2,393.5 717.3,393.9 719.4,390.6 721.5,383.4 723.6,385.5 725.7,387.3 727.8,382.5 729.8,378.4 731.9,377.3 734.0,379.2 736.1,380.5 738.2,385.7 740.3,391.1 742.4,399.2 744.4,405.3 746.5,404.0 748.6,404.9 750.7,404.1 752.8,400.4 754.9,398.7 757.0,397.2 759.1,396.4 761.1,400.3 763.2,398.8 765.3,396.4 767.4,391.9 769.5,389.5 771.6,384.7 773.7,378.8 775.7,377.5 777.8,376.5 779.9,377.8 782.0,378.1 784.1,377.0 786.2,377.1 788.3,378.3 790.4,376.3 792.4,378.0 794.5,378.9 796.6,380.7 798.7,380.2 800.8,379.4 802.9,378.6 805.0,385.2 807.0,390.0 809.1,390.6 811.2,395.0 813.3,399.5 815.4,406.4 817.5,408.6 819.6,403.3 821.7,396.4 823.7,391.6 825.8,385.0 827.9,383.9 830.0,381.8 832.1,386.3 834.2,396.9 836.3,405.8 838.3,414.4 840.4,421.3 842.5,420.4 844.6,416.0 846.7,410.1 848.8,404.1 850.9,400.3 852.9,397.6 855.0,394.3 857.1,398.5 859.2,403.0 861.3,405.8 863.4,398.5 865.5,396.6 867.6,394.5 869.6,393.7 871.7,390.0 873.8,388.2 875.9,391.3 878.0,397.9 880.1,391.1 882.2,391.5 884.2,391.5 886.3,388.7 888.4,387.0 890.5,381.0 892.6,375.5 894.7,380.2 896.8,378.0 898.9,375.1 900.9,375.5 903.0,375.9 905.1,375.9 907.2,382.3" stroke="#EDB120" fill="none" clip-path="url(#axis_clip)"/>
  </symbol>
  <symbol id="line_6" viewBox="0 0 1200.000 674.916">
    <polyline class="pl pll" points="145.6,437.9 147.7,436.1 149.8,434.0 151.9,433.9 154.0,433.4 156.1,433.6 158.2,434.0 160.2,434.0 162.3,433.9 164.4,434.0 166.5,434.0 168.6,435.5 170.7,436.1 172.8,435.8 174.9,436.0 177.0,436.4 179.1,436.1 181.2,435.2 183.3,433.6 185.4,432.3 187.4,433.1 189.5,434.0 191.6,435.2 193.7,436.4 195.8,439.8 197.9,443.2 200.0,447.7 202.1,450.6 204.2,450.1 206.3,448.0 208.4,447.4 210.5,444.0 212.6,440.1 214.6,434.7 216.7,430.8 218.8,430.5 220.9,431.0 223.0,431.1 225.1,431.1 227.2,431.0 229.3,431.3 231.4,431.8 233.5,431.0 235.6,430.3 237.7,428.6 239.8,427.9 241.8,426.0 243.9,424.6 246.0,423.1 248.1,422.9 250.2,423.8 252.3,423.4 254.4,421.0 256.5,420.2 258.6,419.4 260.7,417.3 262.8,417.2 264.9,415.7 267.0,414.9 269.0,415.7 271.1,419.6 273.2,421.5 275.3,423.1 277.4,421.0 279.5,418.9 281.6,418.0 283.7,417.5 285.8,413.5 287.9,412.7 290.0,411.2 292.1,412.0 294.2,413.8 296.2,414.3 298.3,413.5 300.4,413.1 302.5,410.4 304.6,410.4 306.7,409.3 308.8,409.0 310.9,408.3 313.0,408.6 315.1,409.3 317.2,410.7 319.3,415.1 321.4,414.3 323.4,412.7 325.5,412.2 327.6,412.5 329.7,412.0 331.8,411.1 333.9,405.9 336.0,407.0 338.1,407.5 340.2,408.3 342.3,408.2 344.4,407.5 346.5,408.8 348.6,409.6 350.6,409.8 352.7,409.4 354.8,407.2 356.9,406.6 359.0,406.6 361.1,405.6 363.2,405.9 365.3,407.4 367.4,409.1 369.5,410.1 371.6,409.6 373.7,409.0 375.8,408.0 377.8,406.6 379.9,403.8 382.0,401.4 384.1,401.1 386.2,401.4 388.3,402.9 390.4,404.0 392.5,405.6 394.6,407.2 396.7,410.4 398.8,411.9 400.9,410.9 403.0,409.6 405.0,409.0 407.1,406.2 409.2,404.6 411.3,402.2 413.4,401.1 415.5,401.9 417.6,403.2 419.7,404.6 421.8,406.9 423.9,408.0 426.0,408.3 428.1,408.3 430.2,409.0 432.2,407.8 434.3,406.7 436.4,405.3 438.5,406.2 440.6,405.4 442.7,406.7 444.8,405.9 446.9,405.4 449.0,404.5 451.1,403.8 453.2,400.8 455.3,400.8 457.4,401.9 459.4,402.4 461.5,404.3 463.6,405.1 465.7,408.0 467.8,413.6 469.9,417.2 472.0,415.9 474.1,415.9 476.2,417.2 478.3,417.5 480.4,416.0 482.5,411.9 484.6,409.9 486.6,413.3 488.7,413.8 490.8,410.9 492.9,409.8 495.0,409.6 497.1,410.4 499.2,409.3 501.3,406.6 503.4,409.4 505.5,414.4 507.6,419.3 509.7,422.9 511.8,424.6 513.8,427.8 515.9,428.4 518.0,427.6 520.1,427.6 522.2,429.2 524.3,430.3 526.4,432.1 528.5,432.7 530.6,434.7 532.7,438.1 534.8,439.8 536.9,438.9 539.0,437.1 541.0,437.4 543.1,436.3 545.2,436.8 547.3,434.0 549.4,430.2 551.5,428.7 553.6,428.9 555.7,427.1 557.8,427.4 559.9,426.8 562.0,428.7 564.1,431.8 566.2,432.9 568.2,433.2 570.3,434.5 572.4,435.8 574.5,438.9 576.6,443.2 578.7,446.7 580.8,454.0 582.9,459.6 585.0,464.1 587.1,463.9 589.2,464.1 591.3,464.6 593.4,464.1 595.4,460.1 597.5,457.3 599.6,456.5 601.7,461.5 603.8,464.9 605.9,463.3 608.0,462.0 610.1,459.4 612.2,457.2 614.3,454.8 616.4,450.7 618.5,447.4 620.6,443.8 622.6,441.9 624.7,444.6 626.8,446.6 628.9,445.1 631.0,443.2 633.1,439.2 635.2,437.2 637.3,434.0 639.4,428.9 641.5,426.0 643.6,424.1 645.7,424.6 647.8,424.9 649.8,424.9 651.9,428.6 654.0,433.7 656.1,436.6 658.2,441.9 660.3,445.0 662.4,446.9 664.5,449.5 666.6,449.3 668.7,446.9 670.8,443.5 672.9,439.3 675.0,435.3 677.0,435.6 679.1,434.5 681.2,433.4 683.3,432.9 685.4,434.5 687.5,437.7 689.6,441.4 691.7,442.6 693.8,442.6 695.9,439.8 698.0,439.8 700.1,438.9 702.2,437.7 704.2,434.8 706.3,433.7 708.4,432.7 710.5,433.9 712.6,432.6 714.7,431.6 716.8,428.4 718.9,426.6 721.0,423.6 723.1,421.0 725.2,419.1 727.3,419.3 729.4,420.5 731.4,419.7 733.5,419.3 735.6,419.1 737.7,421.0 739.8,422.6 741.9,421.2 744.0,418.8 746.1,421.0 748.2,424.7 750.3,427.4 752.4,428.6 754.5,430.5 756.6,433.6 758.6,438.9 760.7,440.8 762.8,440.3 764.9,440.8 767.0,442.9 769.1,445.0 771.2,446.1 773.3,446.2 775.4,448.2 777.5,452.5 779.6,453.3 781.7,452.8 783.8,451.9 785.8,451.1 787.9,445.0 790.0,437.9 792.1,430.7 794.2,426.6 796.3,424.2 798.4,420.7 800.5,416.8 802.6,417.6 804.7,419.3 806.8,420.9 808.9,426.2 811.0,429.4 813.0,431.0 815.1,430.5 817.2,431.6 819.3,434.4 821.4,432.7 823.5,427.6 825.6,424.2 827.7,421.3 829.8,421.3 831.9,419.1 834.0,418.1 836.1,419.6 838.2,421.7 840.2,422.5 842.3,426.3 844.4,433.9 846.5,441.9 848.6,445.6 850.7,446.4 852.8,446.7 854.9,448.5 857.0,446.9 859.1,442.9 861.2,436.8 863.3,431.9 865.4,430.8 867.4,431.1 869.5,427.9 871.6,428.4 873.7,427.1 875.8,426.5 877.9,427.0 880.0,427.4 882.1,425.0 884.2,425.8 886.3,424.4 888.4,422.3 890.5,423.4 892.6,423.1 894.6,423.1 896.7,425.0 898.8,422.9 900.9,422.5 903.0,423.3 905.1,422.8 907.2,425.5" stroke="#D95319" fill="none" clip-path="url(#axis_clip)"/>
  </symbol>
  <symbol id="line_7" viewBox="0 0 1200.000 674.916">
    <polyline class="pl pll" points="145.6,493.7 147.7,494.0 149.8,494.3 151.9,494.8 154.0,494.8 156.1,495.1 158.2,495.3 160.2,495.1 162.3,495.4 164.4,495.7 166.5,495.4 168.6,496.1 170.7,496.2 172.8,495.9 174.9,495.9 177.0,495.1 179.1,494.1 181.2,492.7 183.3,489.6 185.4,487.9 187.4,486.1 189.5,485.1 191.6,484.2 193.7,483.7 195.8,483.5 197.9,484.3 200.0,483.9 202.1,483.7 204.2,484.0 206.3,482.6 208.4,480.8 210.5,479.2 212.6,478.1 214.6,476.9 216.7,477.1 218.8,475.7 220.9,477.4 223.0,481.9 225.1,483.9 227.2,485.3 229.3,488.5 231.4,490.3 233.5,491.2 235.6,490.8 237.7,486.9 239.8,486.3 241.8,485.1 243.9,482.1 246.0,479.0 248.1,476.9 250.2,475.2 252.3,474.4 254.4,473.6 256.5,472.8 258.6,472.4 260.7,471.8 262.8,471.2 264.9,470.7 267.0,470.7 269.0,469.9 271.1,468.9 273.2,468.4 275.3,469.2 277.4,469.5 279.5,469.2 281.6,467.3 283.7,465.4 285.8,465.2 287.9,466.2 290.0,466.8 292.1,468.3 294.2,469.5 296.2,472.4 298.3,477.1 300.4,480.3 302.5,480.6 304.6,479.7 306.7,479.2 308.8,477.7 310.9,476.1 313.0,472.8 315.1,469.7 317.2,468.6 319.3,468.1 321.4,466.5 323.4,466.8 325.5,466.3 327.6,467.0 329.7,467.9 331.8,468.1 333.9,467.1 336.0,467.3 338.1,466.5 340.2,466.0 342.3,465.0 344.4,465.4 346.5,463.8 348.6,464.6 350.6,463.9 352.7,462.8 354.8,462.3 356.9,460.7 359.0,458.3 361.1,457.0 363.2,456.5 365.3,455.6 367.4,455.2 369.5,453.6 371.6,453.3 373.7,453.0 375.8,452.4 377.8,451.6 379.9,450.9 382.0,450.4 384.1,449.9 386.2,449.8 388.3,449.1 390.4,450.3 392.5,450.4 394.6,450.6 396.7,450.3 398.8,452.0 400.9,453.2 403.0,454.4 405.0,454.4 407.1,453.6 409.2,454.1 411.3,454.9 413.4,454.8 415.5,455.2 417.6,453.8 419.7,454.1 421.8,454.8 423.9,455.6 426.0,457.0 428.1,457.3 430.2,457.2 432.2,458.8 434.3,458.9 436.4,458.8 438.5,458.8 440.6,457.8 442.7,458.8 444.8,459.3 446.9,459.6 449.0,459.7 451.1,459.1 453.2,458.1 455.3,457.2 457.4,455.9 459.4,454.9 461.5,454.4 463.6,457.0 465.7,458.1 467.8,458.8 469.9,460.1 472.0,460.7 474.1,462.3 476.2,464.7 478.3,465.5 480.4,467.5 482.5,469.7 484.6,470.8 486.6,470.7 488.7,470.7 490.8,468.1 492.9,464.6 495.0,463.1 497.1,462.2 499.2,461.0 501.3,459.7 503.4,459.3 505.5,461.7 507.6,464.6 509.7,464.1 511.8,464.2 513.8,465.5 515.9,469.9 518.0,472.9 520.1,472.6 522.2,470.2 524.3,472.0 526.4,470.8 528.5,471.3 530.6,469.7 532.7,467.0 534.8,467.6 536.9,471.2 539.0,472.9 541.0,476.8 543.1,480.2 545.2,483.7 547.3,487.9 549.4,489.2 551.5,490.1 553.6,492.0 555.7,493.0 557.8,490.9 559.9,488.5 562.0,486.7 564.1,488.0 566.2,487.2 568.2,486.6 570.3,486.1 572.4,487.2 574.5,486.9 576.6,487.9 578.7,486.9 580.8,485.8 582.9,482.9 585.0,479.7 587.1,477.7 589.2,476.9 591.3,473.7 593.4,470.8 595.4,469.9 597.5,470.4 599.6,471.3 601.7,473.2 603.8,475.8 605.9,477.3 608.0,478.5 610.1,481.6 612.2,484.7 614.3,485.5 616.4,484.8 618.5,486.4 620.6,488.8 622.6,489.0 624.7,487.2 626.8,485.6 628.9,487.9 631.0,487.2 633.1,482.6 635.2,479.7 637.3,477.7 639.4,475.3 641.5,473.7 643.6,471.2 645.7,469.9 647.8,471.2 649.8,468.9 651.9,469.4 654.0,469.5 656.1,467.6 658.2,464.9 660.3,462.8 662.4,460.2 664.5,460.4 666.6,459.7 668.7,459.6 670.8,459.6 672.9,460.5 675.0,460.7 677.0,460.5 679.1,459.1 681.2,456.7 683.3,454.0 685.4,453.8 687.5,454.4 689.6,453.8 691.7,454.6 693.8,456.5 695.9,460.4 698.0,462.5 700.1,462.0 702.2,459.7 704.2,459.7 706.3,458.3 708.4,456.4 710.5,453.5 712.6,452.7 714.7,451.1 716.8,450.1 718.9,449.1 721.0,448.7 723.1,449.3 725.2,449.9 727.3,449.1 729.4,449.0 731.4,448.2 733.5,448.0 735.6,447.9 737.7,447.1 739.8,444.5 741.9,443.7 744.0,445.0 746.1,445.8 748.2,447.5 750.3,449.5 752.4,449.3 754.5,448.8 756.6,447.9 758.6,446.1 760.7,444.0 762.8,441.1 764.9,438.7 767.0,439.0 769.1,439.5 771.2,439.0 773.3,437.4 775.4,437.6 777.5,436.8 779.6,436.1 781.7,436.6 783.8,440.6 785.8,444.5 787.9,445.9 790.0,446.1 792.1,447.9 794.2,447.2 796.3,445.4 798.4,440.8 800.5,437.1 802.6,436.0 804.7,435.6 806.8,434.5 808.9,434.8 811.0,434.8 813.0,438.7 815.1,440.3 817.2,442.2 819.3,444.6 821.4,447.1 823.5,448.3 825.6,451.1 827.7,451.2 829.8,451.6 831.9,450.9 834.0,449.5 836.1,447.7 838.2,446.4 840.2,444.8 842.3,442.1 844.4,440.9 846.5,440.5 848.6,441.6 850.7,445.9 852.8,450.4 854.9,450.9 857.0,450.6 859.1,452.0 861.2,454.8 863.3,457.0 865.4,454.6 867.4,452.2 869.5,453.3 871.6,455.1 873.7,454.6 875.8,454.4 877.9,453.6 880.0,454.3 882.1,453.8 884.2,450.6 886.3,448.7 888.4,448.0 890.5,445.6 892.6,444.0 894.6,442.1 896.7,441.3 898.8,442.6 900.9,442.4 903.0,442.2 905.1,442.1 907.2,439.8" stroke="#0072BD" fill="none" clip-path="url(#axis_clip)"/>
  </symbol>
</defs>
<g id="main">
<use xlink:href="#line_y" transform="translate(145.6,0)"/>
<use xlink:href="#line_y" transform="translate(210.3,0)"/>
<use xlink:href="#line_y" transform="translate(268.7,0)"/>
<use xlink:href="#line_y" transform="translate(333.4,0)"/>
<use xlink:href="#line_y" transform="translate(396.0,0)"/>
<use xlink:href="#line_y" transform="translate(460.7,0)"/>
<use xlink:href="#line_y" transform="translate(523.3,0)"/>
<use xlink:href="#line_y" transform="translate(588.0,0)"/>
<use xlink:href="#line_y" transform="translate(652.6,0)"/>
<use xlink:href="#line_y" transform="translate(715.2,0)"/>
<use xlink:href="#line_y" transform="translate(779.9,0)"/>
<use xlink:href="#line_y" transform="translate(842.5,0)"/>
<use xlink:href="#line_y" transform="translate(907.2,0)"/>
<use xlink:href="#line_x" transform="translate(0,560.2)"/>
<use xlink:href="#line_x" transform="translate(0,503.9)"/>
<use xlink:href="#line_x" transform="translate(0,447.7)"/>
<use xlink:href="#line_x" transform="translate(0,391.5)"/>
<use xlink:href="#line_x" transform="translate(0,335.2)"/>
<use xlink:href="#line_x" transform="translate(0,279.0)"/>
<use xlink:href="#line_x" transform="translate(0,222.7)"/>
<use xlink:href="#line_x" transform="translate(0,166.5)"/>
<use xlink:href="#line_x" transform="translate(0,110.2)"/>
<use xlink:href="#line_x" transform="translate(0,54.0)"/>
<use xlink:href="#tick_y" transform="translate(0,560.2)"/>
<use xlink:href="#tick_y" transform="translate(0,503.9)"/>
<use xlink:href="#tick_y" transform="translate(0,447.7)"/>
<use xlink:href="#tick_y" transform="translate(0,391.5)"/>
<use xlink:href="#tick_y" transform="translate(0,335.2)"/>
<use xlink:href="#tick_y" transform="translate(0,279.0)"/>
<use xlink:href="#tick_y" transform="translate(0,222.7)"/>
<use xlink:href="#tick_y" transform="translate(0,166.5)"/>
<use xlink:href="#tick_y" transform="translate(0,110.2)"/>
<use xlink:href="#tick_y" transform="translate(0,54.0)"/>
<use xlink:href="#tick_x" transform="translate(145.6,0)"/>
<use xlink:href="#tick_x" transform="translate(210.3,0)"/>
<use xlink:href="#tick_x" transform="translate(268.7,0)"/>
<use xlink:href="#tick_x" transform="translate(333.4,0)"/>
<use xlink:href="#tick_x" transform="translate(396.0,0)"/>
<use xlink:href="#tick_x" transform="translate(460.7,0)"/>
<use xlink:href="#tick_x" transform="translate(523.3,0)"/>
<use xlink:href="#tick_x" transform="translate(588.0,0)"/>
<use xlink:href="#tick_x" transform="translate(652.6,0)"/>
<use xlink:href="#tick_x" transform="translate(715.2,0)"/>
<use xlink:href="#tick_x" transform="translate(779.9,0)"/>
<use xlink:href="#tick_x" transform="translate(842.5,0)"/>
<use xlink:href="#tick_x" transform="translate(907.2,0)"/>
<polyline points="145.6,53.993 145.6,560.180 907.2,560.180" stroke="#808080" stroke-width="0.90" fill="none"/>
<text class="ticklabel ytl" transform="translate(128.8,568.3)">0</text>
<text class="ticklabel ytl" transform="translate(128.8,512.0)">50</text>
<text class="ticklabel ytl" transform="translate(128.8,455.8)">100</text>
<text class="ticklabel ytl" transform="translate(128.8,399.6)">150</text>
<text class="ticklabel ytl" transform="translate(128.8,343.3)">200</text>
<text class="ticklabel ytl" transform="translate(128.8,287.1)">250</text>
<text class="ticklabel ytl" transform="translate(128.8,230.8)">300</text>
<text class="ticklabel ytl" transform="translate(128.8,174.6)">350</text>
<text class="ticklabel ytl" transform="translate(128.8,118.3)">400</text>
<text class="ticklabel ytl" transform="translate(128.8,62.1)">450 GWh</text>
<g id="lines">
  <g class="pl_1">
    <use xlink:href="#line_1" class="thick" stroke="#000" stroke-width="3" opacity="0"/>
    <use xlink:href="#line_1" class="pl pll" stroke="#A2142F" stroke-width="2.70"/>
    <text class="pl" transform="translate(925.2,173.5)" dy="8.1" font-size="27.00" fill="#A2142F" stroke="none">2024</text>
  </g>
  <g class="pl_2">
    <use xlink:href="#line_2" class="thick" stroke="#000" stroke-width="3" opacity="0"/>
    <use xlink:href="#line_2" class="pl pll" stroke="#4DBEEE" stroke-width="0.90"/>
    <text class="pl" transform="translate(925.2,253.6)" dy="8.1" font-size="27.00" fill="#4DBEEE" stroke="none">2023</text>
  </g>
  <g class="pl_3">
    <use xlink:href="#line_3" class="thick" stroke="#000" stroke-width="3" opacity="0"/>
    <use xlink:href="#line_3" class="pl pll" stroke="#77AC30" stroke-width="0.90"/>
    <text class="pl" transform="translate(925.2,278.2)" dy="8.1" font-size="27.00" fill="#77AC30" stroke="none">2022</text>
  </g>
  <g class="pl_4">
    <use xlink:href="#line_4" class="thick" stroke="#000" stroke-width="3" opacity="0"/>
    <use xlink:href="#line_4" class="pl pll" stroke="#7E2F8E" stroke-width="0.90"/>
    <text class="pl" transform="translate(925.2,363.5)" dy="8.1" font-size="27.00" fill="#7E2F8E" stroke="none">2021</text>
  </g>
  <g class="pl_5">
    <use xlink:href="#line_5" class="thick" stroke="#000" stroke-width="3" opacity="0"/>
    <use xlink:href="#line_5" class="pl pll" stroke="#EDB120" stroke-width="0.90"/>
    <text class="pl" transform="translate(925.2,388.1)" dy="8.1" font-size="27.00" fill="#EDB120" stroke="none">2020</text>
  </g>
  <g class="pl_6">
    <use xlink:href="#line_6" class="thick" stroke="#000" stroke-width="3" opacity="0"/>
    <use xlink:href="#line_6" class="pl pll" stroke="#D95319" stroke-width="0.90"/>
    <text class="pl" transform="translate(925.2,420.4)" dy="8.1" font-size="27.00" fill="#D95319" stroke="none">2019</text>
  </g>
  <g class="pl_7">
    <use xlink:href="#line_7" class="thick" stroke="#000" stroke-width="3" opacity="0"/>
    <use xlink:href="#line_7" class="pl pll" stroke="#0072BD" stroke-width="0.90"/>
    <text class="pl" transform="translate(925.2,445.0)" dy="8.1" font-size="27.00" fill="#0072BD" stroke="none">2018</text>
  </g>
</g>
    <text class="pl" transform="translate(145.6,47.2)" dy="0.0" font-size="27.00" fill="#808080" stroke="none">India's daily power generation from solar</text>
    <text class="pl" transform="translate(177.9,573.0) rotate(-90)" dy="8.1" font-size="27.00" fill="#808080" stroke="none" text-anchor="end">Jan</text>
    <text class="pl" transform="translate(242.6,573.0) rotate(-90)" dy="8.1" font-size="27.00" fill="#808080" stroke="none" text-anchor="end">Feb</text>
    <text class="pl" transform="translate(301.0,573.0) rotate(-90)" dy="8.1" font-size="27.00" fill="#808080" stroke="none" text-anchor="end">Mar</text>
    <text class="pl" transform="translate(365.7,573.0) rotate(-90)" dy="8.1" font-size="27.00" fill="#808080" stroke="none" text-anchor="end">Apr</text>
    <text class="pl" transform="translate(428.3,573.0) rotate(-90)" dy="8.1" font-size="27.00" fill="#808080" stroke="none" text-anchor="end">May</text>
    <text class="pl" transform="translate(493.0,573.0) rotate(-90)" dy="8.1" font-size="27.00" fill="#808080" stroke="none" text-anchor="end">Jun</text>
    <text class="pl" transform="translate(555.6,573.0) rotate(-90)" dy="8.1" font-size="27.00" fill="#808080" stroke="none" text-anchor="end">Jul</text>
    <text class="pl" transform="translate(620.3,573.0) rotate(-90)" dy="8.1" font-size="27.00" fill="#808080" stroke="none" text-anchor="end">Aug</text>
    <text class="pl" transform="translate(685.0,573.0) rotate(-90)" dy="8.1" font-size="27.00" fill="#808080" stroke="none" text-anchor="end">Sep</text>
    <text class="pl" transform="translate(747.6,573.0) rotate(-90)" dy="8.1" font-size="27.00" fill="#808080" stroke="none" text-anchor="end">Oct</text>
    <text class="pl" transform="translate(812.3,573.0) rotate(-90)" dy="8.1" font-size="27.00" fill="#808080" stroke="none" text-anchor="end">Nov</text>
    <text class="pl" transform="translate(874.9,573.0) rotate(-90)" dy="8.1" font-size="27.00" fill="#808080" stroke="none" text-anchor="end">Dec</text>
    <g stroke="none" stroke-width="0.9000"  >
      <polygon class="pl" points="438.9,553.4 438.9,531.8 895.2,531.8 895.2,553.4" fill="#FFF"/>
    </g>
    <text class="pl" transform="translate(895.2,546.7)" dy="0.0" font-size="18.00" fill="#808080" stroke="none" text-anchor="end">Data are smoothed with a 7-day trailing window for clarity</text>
<text transform="translate(157.6,666.1)" font-size="19.80" font-family="Helvetica" fill="#BFBFBF" stroke="none" xml:space="preserve"><a href="https://twitter.com/robbie_andrew" style="fill:#BFBFBF" target="_blank">@robbie_andrew</a>   &#9679;   Data: GRID-INDIA   &#9679;   Data through 29 September 2024</text>
<text class="twitlink" transform="translate(157.6,666.1)" opacity="0" font-size="19.80" fill="#BFBFBF" stroke="none" xml:space="preserve"><a href="https://twitter.com/robbie_andrew" style="fill:#BFBFBF" target="_blank">@robbie_andrew</a></text>
  <g class="dl_el" transform="translate(154.6,578.4)">
    <g class="dl_el_balloon">
      <foreignObject x="0" y="0" width="120" height="500">
      <div xmlns="http://www.w3.org/1999/xhtml" class="dl_fe" style="height:60px">
      <p class="dl_fe_p">Find me on Twitter</p>
      </div>
	    </foreignObject>
      <path stroke="#000" fill="#FDFFDF" d="M0,60H60l5,5l5,-5H120"/>
    </g>
  </g>
<g>
<a href="https://creativecommons.org/licenses/by/4.0/">
  <rect x="123.0" y="651.4" width="34" height="17" fill="#FFF" stroke="none"/>
  <g transform="translate(124.0,652.4) scale(0.24)">
  <g><circle fill="#FFF" cx="37.79" cy="28.5" r="28.84"/>
     <circle fill="none" cx="37.79" cy="28.5" r="28.84" stroke="#BFBFBF" stroke-width="5.5"/>
     <path fill="#BFBFBF" d="M37.16,23.19 l-4.29,2.23c-0.458-0.951-1.02-1.62-1.69-2c-0.667-0.38-1.29-0.571-1.86-0.571c-2.86,0-4.29,1.89-4.29,5.66 c0,1.71,0.36,3.08,1.09,4.11c0.724,1.03,1.79,1.54,3.2,1.54c1.87,0,3.18-0.915,3.94-2.74l3.94,2 c-0.838,1.56-2,2.79-3.49,3.69c-1.48,0.896-3.12,1.34-4.91,1.34c-2.86,0-5.16-0.875-6.92-2.63 c-1.75-1.75-2.63-4.19-2.63-7.31c0-3.05,0.886-5.47,2.66-7.26c1.77-1.79,4.01-2.69,6.72-2.69 C32.6,18.56,35.44,20.1,37.16,23.19z
              M55.61,23.19l-4.23,2.23c-0.457-0.951-1.02-1.62-1.69-2 c-0.668-0.38-1.31-0.571-1.91-0.571c-2.86,0-4.29,1.89-4.29,5.66c0,1.71,0.363,3.08,1.09,4.11 c0.723,1.03,1.79,1.54,3.2,1.54c1.87,0,3.18-0.915,3.94-2.74l4,2c-0.875,1.56-2.06,2.79-3.54,3.69 c-1.49,0.9-3.11,1.34-4.86,1.34c-2.9,0-5.21-0.875-6.94-2.63c-1.74-1.75-2.6-4.19-2.6-7.31 c0-3.05,0.885-5.47,2.66-7.26c1.77-1.79,4.01-2.69,6.71-2.69C51.12,18.56,53.944,20.1,55.61,23.19z"/>
  </g></g>
  <g transform="translate(140.2,652.4) scale(0.24)">
  <g><circle fill="#FFF" cx="37.79" cy="28.5" r="28.84"/>
     <circle fill="none" cx="37.79" cy="28.5" r="28.84" stroke="#BFBFBF" stroke-width="5.5"/>
     <path fill="#BFBFBF" d="M46.129,20.557v13.085h-3.656v15.542h-9.944V33.643h-3.656V20.557 c0-0.572,0.2-1.057,0.599-1.457c0.401-0.399,0.887-0.6,1.457-0.6h13.144c0.533,0,1.01,0.2,1.428,0.6 C45.918,19.5,46.129,19.986,46.129,20.557z
              M33.042,12.329c0-3.008,1.485-4.514,4.458-4.514s4.457,1.504,4.457,4.514 c0,2.971-1.486,4.457-4.457,4.457S33.042,15.3,33.042,12.329z"/>
  </g></g>
  </a>
</g>
  <g class="dl_el" transform="translate(69.1,548.4)">
    <g class="dl_el_balloon">
      <foreignObject x="0" y="0" width="250" height="500">
      <div xmlns="http://www.w3.org/1999/xhtml" class="dl_fe" style="height:90px">
      <p class="dl_fe_p">CC-BY: Material may be freely re-used as long as you credit the author</p>
      </div>
	    </foreignObject>
      <path stroke="#000" fill="#FDFFDF" d="M0,90H70l5,5l5,-5H250"/>
    </g>
  </g>
</g>
</svg>
