<svg version="1.1" xmlns="http://www.w3.org/2000/svg" xmlns:xlink="http://www.w3.org/1999/xlink" width="100%" height="100%" viewBox="0 0 1200.000 674.916">
<title>China's monthly petroleum refining</title>
<desc>Created by Robbie Andrew (@robbie_andrew), CICERO Center for International Climate Research. CC-BY: Material may be freely re-used as long as you credit the author</desc>
<style type="text/css">
  #main {font-family:Helvetica,Arial,sans-serif; font-size:27.00px;
         fill-opacity:1; fill:#000000; stroke:none; stroke-linejoin:round; stroke-linecap:round; stroke-width:1.00;}
  a:hover {text-decoration: underline;}
  .marker {stroke-opacity:0;fill-opacity:0;}
  .marker:hover {stroke-opacity:0.5; fill-opacity:1;}
  .ticklabel {font-size:27.00px;fill:#808080;stroke:none;font-family:Helvetica}
  .ytl {text-anchor:end;}
  .dp1 {pointer-events:none;font-size:70%;text-anchor:middle;fill:#000000;}
  .dp2 {pointer-events:none;font-size:70%;text-anchor:middle;fill:#FFFFFF;}
  .numtip {pointer-events:none;}
  .cc {opacity:0.25;}
.dl_fe {background-color:#FDFFDF;display:flex;margin:auto;align-items:center}
.dl_fe_p {font-size:20px;text-align:center;margin:3px}
.dl_el {display:none;pointer-events:none;}
.cc:hover + .dl_el {display:block;}
text:hover + .dl_el {display:block;}
  #lines .pl {transition: all 0.2s ease;}
  #lines:hover .pl {opacity:0.3;}
  #lines:hover .thick {stroke-width:1;}
  #lines:hover .pl_1:hover .pl {opacity:1;}
  #lines:hover .pl_1:hover .pll {stroke-width:3;}
  #lines:hover .pl_1:hover .pldlm {stroke-width:2;}
  #lines:hover .pl_1:hover .thick {stroke-width:12;}
  #lines:hover .pl_2:hover .pl {opacity:1;}
  #lines:hover .pl_2:hover .pll {stroke-width:3;}
  #lines:hover .pl_2:hover .pldlm {stroke-width:2;}
  #lines:hover .pl_2:hover .thick {stroke-width:12;}
</style>
<defs>
  <clipPath id="axis_clip"><rect x="145.8" y="54.2" width="761.2" height="505.8" /></clipPath>
  <path id="line_y" d="M 0,53.993 v 506.187" stroke="#262626" stroke-opacity="0.15" stroke-width="1.00"/>
  <path id="line_x" d="M 145.600,0 h 761.600" stroke="#262626" stroke-opacity="0.15" stroke-width="1.00"/>
  <g id="mk1"><circle cx="0" cy="0" r="3.00" stroke-width="1" fill="#D95319" stroke="#000"/><polygon class="numtip" points="0,-5 -5,-10 -30,-10 -30,-50 30,-50 30,-10 5,-10 0,-5" fill="#D95319" stroke="#FFF"/></g>
  <g id="mk2"><circle cx="0" cy="0" r="3.00" stroke-width="1" fill="#0072BD" stroke="#000"/><polygon class="numtip" points="0,-5 -5,-10 -30,-10 -30,-50 30,-50 30,-10 5,-10 0,-5" fill="#0072BD" stroke="#FFF"/></g>
  <path id="tick_y" d="M 145.600,0 h -6.000" stroke="#808080" stroke-width="0.90"/>
  <path id="tick_x" d="M 0,560.180 v 6.000" stroke="#808080" stroke-width="0.90"/>
  <symbol id="line_1" viewBox="0 0 1200.000 674.916">
    <polyline class="pl pll" points="142.5,441.8 151.1,472.9 159.5,443.5 165.3,482.9 171.1,470.2 176.9,444.9 182.7,457.6 188.6,452.3 194.3,441.7 200.1,416.5 205.9,437.9 211.7,398.6 220.3,481.0 228.8,396.7 234.6,423.0 240.3,409.6 246.1,419.4 251.9,416.1 257.8,402.5 263.6,434.8 269.4,404.2 275.2,409.7 280.9,377.4 289.6,416.1 298.2,393.0 303.9,395.7 309.7,404.5 315.5,390.2 321.2,386.1 327.1,403.7 332.9,411.7 338.6,356.9 344.4,378.4 350.2,343.8 358.8,385.0 367.3,349.2 373.0,400.7 378.8,364.1 384.6,373.2 390.4,383.1 396.3,355.6 402.1,318.2 407.8,298.5 413.6,316.7 419.4,322.1 428.0,362.7 436.5,281.6 442.3,314.1 448.1,296.0 453.8,310.8 459.6,294.4 465.5,301.8 471.3,284.5 477.1,260.1 482.9,299.4 488.7,287.4 497.2,286.1 505.7,255.8 511.5,271.6 517.3,275.0 523.1,244.7 528.9,263.3 534.7,239.5 540.5,197.6 546.3,174.9 552.1,204.5 557.9,163.5 566.6,313.9 575.1,306.5 580.9,242.1 586.7,173.7 592.4,174.3 598.2,145.8 604.1,147.2 609.8,183.1 615.6,141.4 621.4,166.2 627.1,138.4 635.7,186.9 644.2,141.9 650.0,173.7 655.8,129.9 661.6,124.5 667.3,154.3 673.2,166.3 679.0,204.6 684.8,165.4 690.6,144.4 696.4,159.8 705.0,197.3 713.4,162.2 719.2,276.5 725.0,241.0 730.8,223.8 736.6,252.9 742.5,245.3 748.2,192.2 754.0,161.7 759.8,144.9 765.6,140.4 774.2,171.5 782.7,82.8 788.5,119.2 794.2,104.6 800.0,122.2 805.8,85.5 811.7,59.2 817.5,77.3 823.3,72.1 829.0,146.2 834.8,136.4 843.5,148.9 852.1,74.6 857.8,158.8 863.6,129.6 869.4,166.7" stroke="#D95319" fill="none" clip-path="url(#axis_clip)"/>
  </symbol>
  <symbol id="line_2" viewBox="0 0 1200.000 674.916">
    <polyline class="pl pll" points="142.5,514.9 151.1,548.6 159.5,509.2 165.3,537.7 171.1,529.4 176.9,508.5 182.7,526.2 188.6,522.5 194.3,521.7 200.1,491.2 205.9,502.5 211.7,478.1 220.3,559.7 228.8,465.6 234.6,484.8 240.3,462.7 246.1,475.5 251.9,479.4 257.8,464.5 263.6,487.0 269.4,474.0 275.2,472.4 280.9,439.1 289.6,488.9 298.2,443.7 303.9,459.6 309.7,461.5 315.5,448.3 321.2,454.9 327.1,463.2 332.9,477.9 338.6,417.0 344.4,439.1 350.2,401.9 358.8,452.4 367.3,408.1 373.0,454.9 378.8,418.7 384.6,416.8 390.4,441.0 396.3,428.5 402.1,392.5 407.8,366.1 413.6,393.3 419.4,395.2 428.0,440.8 436.5,385.0 442.3,416.8 448.1,401.8 453.8,410.2 459.6,402.0 465.5,421.2 471.3,390.4 477.1,367.8 482.9,405.7 488.7,401.8 497.2,425.4 505.7,392.2 511.5,419.1 517.3,415.3 523.1,406.3 528.9,412.3 534.7,397.8 540.5,358.3 546.3,340.8 552.1,363.8 557.9,326.2 566.6,473.9 575.1,471.9 580.9,419.4 586.7,381.6 592.4,364.3 598.2,340.8 604.1,348.1 609.8,360.0 615.6,342.9 621.4,343.4 627.1,344.7 635.7,394.3 644.2,331.6 650.0,378.2 655.8,336.2 661.6,319.1 667.3,323.0 673.2,325.7 679.0,335.5 684.8,299.1 690.6,268.9 696.4,276.9 705.0,324.9 713.4,303.4 719.2,405.6 725.0,375.5 730.8,360.7 736.6,353.4 742.5,344.7 748.2,292.2 754.0,263.6 759.8,267.8 765.6,263.9 774.2,283.3 782.7,189.2 788.5,211.0 794.2,195.4 800.0,192.9 805.8,164.4 811.7,142.0 817.5,143.8 823.3,133.1 829.0,199.4 834.8,187.1 843.5,207.6 852.1,151.2 857.8,226.2 863.6,207.2 869.4,226.0" stroke="#0072BD" fill="none" clip-path="url(#axis_clip)"/>
  </symbol>
</defs>
<g id="main">
<use xlink:href="#line_y" transform="translate(145.6,0)"/>
<use xlink:href="#line_y" transform="translate(214.8,0)"/>
<use xlink:href="#line_y" transform="translate(284.1,0)"/>
<use xlink:href="#line_y" transform="translate(353.3,0)"/>
<use xlink:href="#line_y" transform="translate(422.5,0)"/>
<use xlink:href="#line_y" transform="translate(491.8,0)"/>
<use xlink:href="#line_y" transform="translate(561.0,0)"/>
<use xlink:href="#line_y" transform="translate(630.3,0)"/>
<use xlink:href="#line_y" transform="translate(699.5,0)"/>
<use xlink:href="#line_y" transform="translate(768.7,0)"/>
<use xlink:href="#line_y" transform="translate(838.0,0)"/>
<use xlink:href="#line_y" transform="translate(907.2,0)"/>
<use xlink:href="#line_x" transform="translate(0,560.2)"/>
<use xlink:href="#line_x" transform="translate(0,475.8)"/>
<use xlink:href="#line_x" transform="translate(0,391.5)"/>
<use xlink:href="#line_x" transform="translate(0,307.1)"/>
<use xlink:href="#line_x" transform="translate(0,222.7)"/>
<use xlink:href="#line_x" transform="translate(0,138.4)"/>
<use xlink:href="#line_x" transform="translate(0,54.0)"/>
<use xlink:href="#tick_y" transform="translate(0,560.2)"/>
<use xlink:href="#tick_y" transform="translate(0,475.8)"/>
<use xlink:href="#tick_y" transform="translate(0,391.5)"/>
<use xlink:href="#tick_y" transform="translate(0,307.1)"/>
<use xlink:href="#tick_y" transform="translate(0,222.7)"/>
<use xlink:href="#tick_y" transform="translate(0,138.4)"/>
<use xlink:href="#tick_y" transform="translate(0,54.0)"/>
<use xlink:href="#tick_x" transform="translate(145.6,0)"/>
<use xlink:href="#tick_x" transform="translate(214.8,0)"/>
<use xlink:href="#tick_x" transform="translate(284.1,0)"/>
<use xlink:href="#tick_x" transform="translate(353.3,0)"/>
<use xlink:href="#tick_x" transform="translate(422.5,0)"/>
<use xlink:href="#tick_x" transform="translate(491.8,0)"/>
<use xlink:href="#tick_x" transform="translate(561.0,0)"/>
<use xlink:href="#tick_x" transform="translate(630.3,0)"/>
<use xlink:href="#tick_x" transform="translate(699.5,0)"/>
<use xlink:href="#tick_x" transform="translate(768.7,0)"/>
<use xlink:href="#tick_x" transform="translate(838.0,0)"/>
<use xlink:href="#tick_x" transform="translate(907.2,0)"/>
<polyline points="145.6,53.993 145.6,560.180 907.2,560.180" stroke="#808080" stroke-width="0.90" fill="none"/>
<text class="ticklabel ytl" transform="translate(128.8,568.3)">35</text>
<text class="ticklabel ytl" transform="translate(128.8,483.9)">40</text>
<text class="ticklabel ytl" transform="translate(128.8,399.6)">45</text>
<text class="ticklabel ytl" transform="translate(128.8,315.2)">50</text>
<text class="ticklabel ytl" transform="translate(128.8,230.8)">55</text>
<text class="ticklabel ytl" transform="translate(128.8,146.5)">60</text>
<text class="ticklabel ytl" transform="translate(128.8,62.1)">65 Mt</text>
<g id="lines">
  <g class="pl_1">
    <use xlink:href="#line_1" class="thick" stroke="#000" stroke-width="3" opacity="0"/>
    <use xlink:href="#line_1" class="pl pll" stroke="#D95319" stroke-width="0.90"/>
    <text class="pl" transform="translate(925.2,166.7)" dy="8.1" font-size="27.00" fill="#D95319" stroke="none">Processed crude</text>
    <g class="pl pll" fill="#D95319" stroke="none" stroke-width="0.900">
      <circle cx="151.1" cy="472.9" r="2.7" />
      <circle cx="159.5" cy="443.5" r="2.7" />
      <circle cx="165.3" cy="482.9" r="2.7" />
      <circle cx="171.1" cy="470.2" r="2.7" />
      <circle cx="176.9" cy="444.9" r="2.7" />
      <circle cx="182.7" cy="457.6" r="2.7" />
      <circle cx="188.6" cy="452.3" r="2.7" />
      <circle cx="194.3" cy="441.7" r="2.7" />
      <circle cx="200.1" cy="416.5" r="2.7" />
      <circle cx="205.9" cy="437.9" r="2.7" />
      <circle cx="211.7" cy="398.6" r="2.7" />
      <circle cx="220.3" cy="481.0" r="2.7" />
      <circle cx="228.8" cy="396.7" r="2.7" />
      <circle cx="234.6" cy="423.0" r="2.7" />
      <circle cx="240.3" cy="409.6" r="2.7" />
      <circle cx="246.1" cy="419.4" r="2.7" />
      <circle cx="251.9" cy="416.1" r="2.7" />
      <circle cx="257.8" cy="402.5" r="2.7" />
      <circle cx="263.6" cy="434.8" r="2.7" />
      <circle cx="269.4" cy="404.2" r="2.7" />
      <circle cx="275.2" cy="409.7" r="2.7" />
      <circle cx="280.9" cy="377.4" r="2.7" />
      <circle cx="289.6" cy="416.1" r="2.7" />
      <circle cx="298.2" cy="393.0" r="2.7" />
      <circle cx="303.9" cy="395.7" r="2.7" />
      <circle cx="309.7" cy="404.5" r="2.7" />
      <circle cx="315.5" cy="390.2" r="2.7" />
      <circle cx="321.2" cy="386.1" r="2.7" />
      <circle cx="327.1" cy="403.7" r="2.7" />
      <circle cx="332.9" cy="411.7" r="2.7" />
      <circle cx="338.6" cy="356.9" r="2.7" />
      <circle cx="344.4" cy="378.4" r="2.7" />
      <circle cx="350.2" cy="343.8" r="2.7" />
      <circle cx="358.8" cy="385.0" r="2.7" />
      <circle cx="367.3" cy="349.2" r="2.7" />
      <circle cx="373.0" cy="400.7" r="2.7" />
      <circle cx="378.8" cy="364.1" r="2.7" />
      <circle cx="384.6" cy="373.2" r="2.7" />
      <circle cx="390.4" cy="383.1" r="2.7" />
      <circle cx="396.3" cy="355.6" r="2.7" />
      <circle cx="402.1" cy="318.2" r="2.7" />
      <circle cx="407.8" cy="298.5" r="2.7" />
      <circle cx="413.6" cy="316.7" r="2.7" />
      <circle cx="419.4" cy="322.1" r="2.7" />
      <circle cx="428.0" cy="362.7" r="2.7" />
      <circle cx="436.5" cy="281.6" r="2.7" />
      <circle cx="442.3" cy="314.1" r="2.7" />
      <circle cx="448.1" cy="296.0" r="2.7" />
      <circle cx="453.8" cy="310.8" r="2.7" />
      <circle cx="459.6" cy="294.4" r="2.7" />
      <circle cx="465.5" cy="301.8" r="2.7" />
      <circle cx="471.3" cy="284.5" r="2.7" />
      <circle cx="477.1" cy="260.1" r="2.7" />
      <circle cx="482.9" cy="299.4" r="2.7" />
      <circle cx="488.7" cy="287.4" r="2.7" />
      <circle cx="497.2" cy="286.1" r="2.7" />
      <circle cx="505.7" cy="255.8" r="2.7" />
      <circle cx="511.5" cy="271.6" r="2.7" />
      <circle cx="517.3" cy="275.0" r="2.7" />
      <circle cx="523.1" cy="244.7" r="2.7" />
      <circle cx="528.9" cy="263.3" r="2.7" />
      <circle cx="534.7" cy="239.5" r="2.7" />
      <circle cx="540.5" cy="197.6" r="2.7" />
      <circle cx="546.3" cy="174.9" r="2.7" />
      <circle cx="552.1" cy="204.5" r="2.7" />
      <circle cx="557.9" cy="163.5" r="2.7" />
      <circle cx="566.6" cy="313.9" r="2.7" />
      <circle cx="575.1" cy="306.5" r="2.7" />
      <circle cx="580.9" cy="242.1" r="2.7" />
      <circle cx="586.7" cy="173.7" r="2.7" />
      <circle cx="592.4" cy="174.3" r="2.7" />
      <circle cx="598.2" cy="145.8" r="2.7" />
      <circle cx="604.1" cy="147.2" r="2.7" />
      <circle cx="609.8" cy="183.1" r="2.7" />
      <circle cx="615.6" cy="141.4" r="2.7" />
      <circle cx="621.4" cy="166.2" r="2.7" />
      <circle cx="627.1" cy="138.4" r="2.7" />
      <circle cx="635.7" cy="186.9" r="2.7" />
      <circle cx="644.2" cy="141.9" r="2.7" />
      <circle cx="650.0" cy="173.7" r="2.7" />
      <circle cx="655.8" cy="129.9" r="2.7" />
      <circle cx="661.6" cy="124.5" r="2.7" />
      <circle cx="667.3" cy="154.3" r="2.7" />
      <circle cx="673.2" cy="166.3" r="2.7" />
      <circle cx="679.0" cy="204.6" r="2.7" />
      <circle cx="684.8" cy="165.4" r="2.7" />
      <circle cx="690.6" cy="144.4" r="2.7" />
      <circle cx="696.4" cy="159.8" r="2.7" />
      <circle cx="705.0" cy="197.3" r="2.7" />
      <circle cx="713.4" cy="162.2" r="2.7" />
      <circle cx="719.2" cy="276.5" r="2.7" />
      <circle cx="725.0" cy="241.0" r="2.7" />
      <circle cx="730.8" cy="223.8" r="2.7" />
      <circle cx="736.6" cy="252.9" r="2.7" />
      <circle cx="742.5" cy="245.3" r="2.7" />
      <circle cx="748.2" cy="192.2" r="2.7" />
      <circle cx="754.0" cy="161.7" r="2.7" />
      <circle cx="759.8" cy="144.9" r="2.7" />
      <circle cx="765.6" cy="140.4" r="2.7" />
      <circle cx="774.2" cy="171.5" r="2.7" />
      <circle cx="782.7" cy="82.8" r="2.7" />
      <circle cx="788.5" cy="119.2" r="2.7" />
      <circle cx="794.2" cy="104.6" r="2.7" />
      <circle cx="800.0" cy="122.2" r="2.7" />
      <circle cx="805.8" cy="85.5" r="2.7" />
      <circle cx="811.7" cy="59.2" r="2.7" />
      <circle cx="817.5" cy="77.3" r="2.7" />
      <circle cx="823.3" cy="72.1" r="2.7" />
      <circle cx="829.0" cy="146.2" r="2.7" />
      <circle cx="834.8" cy="136.4" r="2.7" />
      <circle cx="843.5" cy="148.9" r="2.7" />
      <circle cx="852.1" cy="74.6" r="2.7" />
      <circle cx="857.8" cy="158.8" r="2.7" />
      <circle cx="863.6" cy="129.6" r="2.7" />
      <circle cx="869.4" cy="166.7" r="2.7" />
    </g>
    <g>
      <g class="pl_1 marker" transform="translate(151.1,472.9)"><use xlink:href="#mk1"/><text class="dp2" y="-25">40.2</text></g>
      <g class="pl_1 marker" transform="translate(159.5,443.5)"><use xlink:href="#mk1"/><text class="dp2" y="-25">41.9</text></g>
      <g class="pl_1 marker" transform="translate(165.3,482.9)"><use xlink:href="#mk1"/><text class="dp2" y="-25">39.6</text></g>
      <g class="pl_1 marker" transform="translate(171.1,470.2)"><use xlink:href="#mk1"/><text class="dp2" y="-25">40.3</text></g>
      <g class="pl_1 marker" transform="translate(176.9,444.9)"><use xlink:href="#mk1"/><text class="dp2" y="-25">41.8</text></g>
      <g class="pl_1 marker" transform="translate(182.7,457.6)"><use xlink:href="#mk1"/><text class="dp2" y="-25">41.1</text></g>
      <g class="pl_1 marker" transform="translate(188.6,452.3)"><use xlink:href="#mk1"/><text class="dp2" y="-25">41.4</text></g>
      <g class="pl_1 marker" transform="translate(194.3,441.7)"><use xlink:href="#mk1"/><text class="dp2" y="-25">42.0</text></g>
      <g class="pl_1 marker" transform="translate(200.1,416.5)"><use xlink:href="#mk1"/><text class="dp2" y="-25">43.5</text></g>
      <g class="pl_1 marker" transform="translate(205.9,437.9)"><use xlink:href="#mk1"/><text class="dp2" y="-25">42.2</text></g>
      <g class="pl_1 marker" transform="translate(211.7,398.6)"><use xlink:href="#mk1"/><text class="dp2" y="-25">44.6</text></g>
      <g class="pl_1 marker" transform="translate(220.3,481.0)"><use xlink:href="#mk1"/><text class="dp2" y="-25">39.7</text></g>
      <g class="pl_1 marker" transform="translate(228.8,396.7)"><use xlink:href="#mk1"/><text class="dp2" y="-25">44.7</text></g>
      <g class="pl_1 marker" transform="translate(234.6,423.0)"><use xlink:href="#mk1"/><text class="dp2" y="-25">43.1</text></g>
      <g class="pl_1 marker" transform="translate(240.3,409.6)"><use xlink:href="#mk1"/><text class="dp2" y="-25">43.9</text></g>
      <g class="pl_1 marker" transform="translate(246.1,419.4)"><use xlink:href="#mk1"/><text class="dp2" y="-25">43.3</text></g>
      <g class="pl_1 marker" transform="translate(251.9,416.1)"><use xlink:href="#mk1"/><text class="dp2" y="-25">43.5</text></g>
      <g class="pl_1 marker" transform="translate(257.8,402.5)"><use xlink:href="#mk1"/><text class="dp2" y="-25">44.3</text></g>
      <g class="pl_1 marker" transform="translate(263.6,434.8)"><use xlink:href="#mk1"/><text class="dp2" y="-25">42.4</text></g>
      <g class="pl_1 marker" transform="translate(269.4,404.2)"><use xlink:href="#mk1"/><text class="dp2" y="-25">44.2</text></g>
      <g class="pl_1 marker" transform="translate(275.2,409.7)"><use xlink:href="#mk1"/><text class="dp2" y="-25">43.9</text></g>
      <g class="pl_1 marker" transform="translate(280.9,377.4)"><use xlink:href="#mk1"/><text class="dp2" y="-25">45.8</text></g>
      <g class="pl_1 marker" transform="translate(289.6,416.1)"><use xlink:href="#mk1"/><text class="dp2" y="-25">43.5</text></g>
      <g class="pl_1 marker" transform="translate(298.2,393.0)"><use xlink:href="#mk1"/><text class="dp2" y="-25">44.9</text></g>
      <g class="pl_1 marker" transform="translate(303.9,395.7)"><use xlink:href="#mk1"/><text class="dp2" y="-25">44.8</text></g>
      <g class="pl_1 marker" transform="translate(309.7,404.5)"><use xlink:href="#mk1"/><text class="dp2" y="-25">44.2</text></g>
      <g class="pl_1 marker" transform="translate(315.5,390.2)"><use xlink:href="#mk1"/><text class="dp2" y="-25">45.1</text></g>
      <g class="pl_1 marker" transform="translate(321.2,386.1)"><use xlink:href="#mk1"/><text class="dp2" y="-25">45.3</text></g>
      <g class="pl_1 marker" transform="translate(327.1,403.7)"><use xlink:href="#mk1"/><text class="dp2" y="-25">44.3</text></g>
      <g class="pl_1 marker" transform="translate(332.9,411.7)"><use xlink:href="#mk1"/><text class="dp2" y="-25">43.8</text></g>
      <g class="pl_1 marker" transform="translate(338.6,356.9)"><use xlink:href="#mk1"/><text class="dp2" y="-25">47.0</text></g>
      <g class="pl_1 marker" transform="translate(344.4,378.4)"><use xlink:href="#mk1"/><text class="dp2" y="-25">45.8</text></g>
      <g class="pl_1 marker" transform="translate(350.2,343.8)"><use xlink:href="#mk1"/><text class="dp2" y="-25">47.8</text></g>
      <g class="pl_1 marker" transform="translate(358.8,385.0)"><use xlink:href="#mk1"/><text class="dp2" y="-25">45.4</text></g>
      <g class="pl_1 marker" transform="translate(367.3,349.2)"><use xlink:href="#mk1"/><text class="dp2" y="-25">47.5</text></g>
      <g class="pl_1 marker" transform="translate(373.0,400.7)"><use xlink:href="#mk1"/><text class="dp2" y="-25">44.5</text></g>
      <g class="pl_1 marker" transform="translate(378.8,364.1)"><use xlink:href="#mk1"/><text class="dp2" y="-25">46.6</text></g>
      <g class="pl_1 marker" transform="translate(384.6,373.2)"><use xlink:href="#mk1"/><text class="dp2" y="-25">46.1</text></g>
      <g class="pl_1 marker" transform="translate(390.4,383.1)"><use xlink:href="#mk1"/><text class="dp2" y="-25">45.5</text></g>
      <g class="pl_1 marker" transform="translate(396.3,355.6)"><use xlink:href="#mk1"/><text class="dp2" y="-25">47.1</text></g>
      <g class="pl_1 marker" transform="translate(402.1,318.2)"><use xlink:href="#mk1"/><text class="dp2" y="-25">49.3</text></g>
      <g class="pl_1 marker" transform="translate(407.8,298.5)"><use xlink:href="#mk1"/><text class="dp2" y="-25">50.5</text></g>
      <g class="pl_1 marker" transform="translate(413.6,316.7)"><use xlink:href="#mk1"/><text class="dp2" y="-25">49.4</text></g>
      <g class="pl_1 marker" transform="translate(419.4,322.1)"><use xlink:href="#mk1"/><text class="dp2" y="-25">49.1</text></g>
      <g class="pl_1 marker" transform="translate(428.0,362.7)"><use xlink:href="#mk1"/><text class="dp2" y="-25">46.7</text></g>
      <g class="pl_1 marker" transform="translate(436.5,281.6)"><use xlink:href="#mk1"/><text class="dp2" y="-25">51.5</text></g>
      <g class="pl_1 marker" transform="translate(442.3,314.1)"><use xlink:href="#mk1"/><text class="dp2" y="-25">49.6</text></g>
      <g class="pl_1 marker" transform="translate(448.1,296.0)"><use xlink:href="#mk1"/><text class="dp2" y="-25">50.7</text></g>
      <g class="pl_1 marker" transform="translate(453.8,310.8)"><use xlink:href="#mk1"/><text class="dp2" y="-25">49.8</text></g>
      <g class="pl_1 marker" transform="translate(459.6,294.4)"><use xlink:href="#mk1"/><text class="dp2" y="-25">50.8</text></g>
      <g class="pl_1 marker" transform="translate(465.5,301.8)"><use xlink:href="#mk1"/><text class="dp2" y="-25">50.3</text></g>
      <g class="pl_1 marker" transform="translate(471.3,284.5)"><use xlink:href="#mk1"/><text class="dp2" y="-25">51.3</text></g>
      <g class="pl_1 marker" transform="translate(477.1,260.1)"><use xlink:href="#mk1"/><text class="dp2" y="-25">52.8</text></g>
      <g class="pl_1 marker" transform="translate(482.9,299.4)"><use xlink:href="#mk1"/><text class="dp2" y="-25">50.5</text></g>
      <g class="pl_1 marker" transform="translate(488.7,287.4)"><use xlink:href="#mk1"/><text class="dp2" y="-25">51.2</text></g>
      <g class="pl_1 marker" transform="translate(497.2,286.1)"><use xlink:href="#mk1"/><text class="dp2" y="-25">51.2</text></g>
      <g class="pl_1 marker" transform="translate(505.7,255.8)"><use xlink:href="#mk1"/><text class="dp2" y="-25">53.0</text></g>
      <g class="pl_1 marker" transform="translate(511.5,271.6)"><use xlink:href="#mk1"/><text class="dp2" y="-25">52.1</text></g>
      <g class="pl_1 marker" transform="translate(517.3,275.0)"><use xlink:href="#mk1"/><text class="dp2" y="-25">51.9</text></g>
      <g class="pl_1 marker" transform="translate(523.1,244.7)"><use xlink:href="#mk1"/><text class="dp2" y="-25">53.7</text></g>
      <g class="pl_1 marker" transform="translate(528.9,263.3)"><use xlink:href="#mk1"/><text class="dp2" y="-25">52.6</text></g>
      <g class="pl_1 marker" transform="translate(534.7,239.5)"><use xlink:href="#mk1"/><text class="dp2" y="-25">54.0</text></g>
      <g class="pl_1 marker" transform="translate(540.5,197.6)"><use xlink:href="#mk1"/><text class="dp2" y="-25">56.5</text></g>
      <g class="pl_1 marker" transform="translate(546.3,174.9)"><use xlink:href="#mk1"/><text class="dp2" y="-25">57.8</text></g>
      <g class="pl_1 marker" transform="translate(552.1,204.5)"><use xlink:href="#mk1"/><text class="dp2" y="-25">56.1</text></g>
      <g class="pl_1 marker" transform="translate(557.9,163.5)"><use xlink:href="#mk1"/><text class="dp2" y="-25">58.5</text></g>
      <g class="pl_1 marker" transform="translate(566.6,313.9)"><use xlink:href="#mk1"/><text class="dp2" y="-25">49.6</text></g>
      <g class="pl_1 marker" transform="translate(575.1,306.5)"><use xlink:href="#mk1"/><text class="dp2" y="-25">50.0</text></g>
      <g class="pl_1 marker" transform="translate(580.9,242.1)"><use xlink:href="#mk1"/><text class="dp2" y="-25">53.9</text></g>
      <g class="pl_1 marker" transform="translate(586.7,173.7)"><use xlink:href="#mk1"/><text class="dp2" y="-25">57.9</text></g>
      <g class="pl_1 marker" transform="translate(592.4,174.3)"><use xlink:href="#mk1"/><text class="dp2" y="-25">57.9</text></g>
      <g class="pl_1 marker" transform="translate(598.2,145.8)"><use xlink:href="#mk1"/><text class="dp2" y="-25">59.6</text></g>
      <g class="pl_1 marker" transform="translate(604.1,147.2)"><use xlink:href="#mk1"/><text class="dp2" y="-25">59.5</text></g>
      <g class="pl_1 marker" transform="translate(609.8,183.1)"><use xlink:href="#mk1"/><text class="dp2" y="-25">57.4</text></g>
      <g class="pl_1 marker" transform="translate(615.6,141.4)"><use xlink:href="#mk1"/><text class="dp2" y="-25">59.8</text></g>
      <g class="pl_1 marker" transform="translate(621.4,166.2)"><use xlink:href="#mk1"/><text class="dp2" y="-25">58.4</text></g>
      <g class="pl_1 marker" transform="translate(627.1,138.4)"><use xlink:href="#mk1"/><text class="dp2" y="-25">60.0</text></g>
      <g class="pl_1 marker" transform="translate(635.7,186.9)"><use xlink:href="#mk1"/><text class="dp2" y="-25">57.1</text></g>
      <g class="pl_1 marker" transform="translate(644.2,141.9)"><use xlink:href="#mk1"/><text class="dp2" y="-25">59.8</text></g>
      <g class="pl_1 marker" transform="translate(650.0,173.7)"><use xlink:href="#mk1"/><text class="dp2" y="-25">57.9</text></g>
      <g class="pl_1 marker" transform="translate(655.8,129.9)"><use xlink:href="#mk1"/><text class="dp2" y="-25">60.5</text></g>
      <g class="pl_1 marker" transform="translate(661.6,124.5)"><use xlink:href="#mk1"/><text class="dp2" y="-25">60.8</text></g>
      <g class="pl_1 marker" transform="translate(667.3,154.3)"><use xlink:href="#mk1"/><text class="dp2" y="-25">59.1</text></g>
      <g class="pl_1 marker" transform="translate(673.2,166.3)"><use xlink:href="#mk1"/><text class="dp2" y="-25">58.3</text></g>
      <g class="pl_1 marker" transform="translate(679.0,204.6)"><use xlink:href="#mk1"/><text class="dp2" y="-25">56.1</text></g>
      <g class="pl_1 marker" transform="translate(684.8,165.4)"><use xlink:href="#mk1"/><text class="dp2" y="-25">58.4</text></g>
      <g class="pl_1 marker" transform="translate(690.6,144.4)"><use xlink:href="#mk1"/><text class="dp2" y="-25">59.6</text></g>
      <g class="pl_1 marker" transform="translate(696.4,159.8)"><use xlink:href="#mk1"/><text class="dp2" y="-25">58.7</text></g>
      <g class="pl_1 marker" transform="translate(705.0,197.3)"><use xlink:href="#mk1"/><text class="dp2" y="-25">56.5</text></g>
      <g class="pl_1 marker" transform="translate(713.4,162.2)"><use xlink:href="#mk1"/><text class="dp2" y="-25">58.6</text></g>
      <g class="pl_1 marker" transform="translate(719.2,276.5)"><use xlink:href="#mk1"/><text class="dp2" y="-25">51.8</text></g>
      <g class="pl_1 marker" transform="translate(725.0,241.0)"><use xlink:href="#mk1"/><text class="dp2" y="-25">53.9</text></g>
      <g class="pl_1 marker" transform="translate(730.8,223.8)"><use xlink:href="#mk1"/><text class="dp2" y="-25">54.9</text></g>
      <g class="pl_1 marker" transform="translate(736.6,252.9)"><use xlink:href="#mk1"/><text class="dp2" y="-25">53.2</text></g>
      <g class="pl_1 marker" transform="translate(742.5,245.3)"><use xlink:href="#mk1"/><text class="dp2" y="-25">53.7</text></g>
      <g class="pl_1 marker" transform="translate(748.2,192.2)"><use xlink:href="#mk1"/><text class="dp2" y="-25">56.8</text></g>
      <g class="pl_1 marker" transform="translate(754.0,161.7)"><use xlink:href="#mk1"/><text class="dp2" y="-25">58.6</text></g>
      <g class="pl_1 marker" transform="translate(759.8,144.9)"><use xlink:href="#mk1"/><text class="dp2" y="-25">59.6</text></g>
      <g class="pl_1 marker" transform="translate(765.6,140.4)"><use xlink:href="#mk1"/><text class="dp2" y="-25">59.9</text></g>
      <g class="pl_1 marker" transform="translate(774.2,171.5)"><use xlink:href="#mk1"/><text class="dp2" y="-25">58.0</text></g>
      <g class="pl_1 marker" transform="translate(782.7,82.8)"><use xlink:href="#mk1"/><text class="dp2" y="-25">63.3</text></g>
      <g class="pl_1 marker" transform="translate(788.5,119.2)"><use xlink:href="#mk1"/><text class="dp2" y="-25">61.1</text></g>
      <g class="pl_1 marker" transform="translate(794.2,104.6)"><use xlink:href="#mk1"/><text class="dp2" y="-25">62.0</text></g>
      <g class="pl_1 marker" transform="translate(800.0,122.2)"><use xlink:href="#mk1"/><text class="dp2" y="-25">61.0</text></g>
      <g class="pl_1 marker" transform="translate(805.8,85.5)"><use xlink:href="#mk1"/><text class="dp2" y="-25">63.1</text></g>
      <g class="pl_1 marker" transform="translate(811.7,59.2)"><use xlink:href="#mk1"/><text class="dp2" y="-25">64.7</text></g>
      <g class="pl_1 marker" transform="translate(817.5,77.3)"><use xlink:href="#mk1"/><text class="dp2" y="-25">63.6</text></g>
      <g class="pl_1 marker" transform="translate(823.3,72.1)"><use xlink:href="#mk1"/><text class="dp2" y="-25">63.9</text></g>
      <g class="pl_1 marker" transform="translate(829.0,146.2)"><use xlink:href="#mk1"/><text class="dp2" y="-25">59.5</text></g>
      <g class="pl_1 marker" transform="translate(834.8,136.4)"><use xlink:href="#mk1"/><text class="dp2" y="-25">60.1</text></g>
      <g class="pl_1 marker" transform="translate(843.5,148.9)"><use xlink:href="#mk1"/><text class="dp2" y="-25">59.4</text></g>
      <g class="pl_1 marker" transform="translate(852.1,74.6)"><use xlink:href="#mk1"/><text class="dp2" y="-25">63.8</text></g>
      <g class="pl_1 marker" transform="translate(857.8,158.8)"><use xlink:href="#mk1"/><text class="dp2" y="-25">58.8</text></g>
      <g class="pl_1 marker" transform="translate(863.6,129.6)"><use xlink:href="#mk1"/><text class="dp2" y="-25">60.5</text></g>
      <g class="pl_1 marker" transform="translate(869.4,166.7)"><use xlink:href="#mk1"/><text class="dp2" y="-25">58.3</text></g>
    </g>
  </g>
  <g class="pl_2">
    <use xlink:href="#line_2" class="thick" stroke="#000" stroke-width="3" opacity="0"/>
    <use xlink:href="#line_2" class="pl pll" stroke="#0072BD" stroke-width="0.90"/>
    <text class="pl" transform="translate(925.2,226.0)" dy="8.1" font-size="27.00" fill="#0072BD" stroke="none">Total products</text>
    <g class="pl pll" fill="#0072BD" stroke="none" stroke-width="0.900">
      <circle cx="151.1" cy="548.6" r="2.7" />
      <circle cx="159.5" cy="509.2" r="2.7" />
      <circle cx="165.3" cy="537.7" r="2.7" />
      <circle cx="171.1" cy="529.4" r="2.7" />
      <circle cx="176.9" cy="508.5" r="2.7" />
      <circle cx="182.7" cy="526.2" r="2.7" />
      <circle cx="188.6" cy="522.5" r="2.7" />
      <circle cx="194.3" cy="521.7" r="2.7" />
      <circle cx="200.1" cy="491.2" r="2.7" />
      <circle cx="205.9" cy="502.5" r="2.7" />
      <circle cx="211.7" cy="478.1" r="2.7" />
      <circle cx="220.3" cy="559.7" r="2.7" />
      <circle cx="228.8" cy="465.6" r="2.7" />
      <circle cx="234.6" cy="484.8" r="2.7" />
      <circle cx="240.3" cy="462.7" r="2.7" />
      <circle cx="246.1" cy="475.5" r="2.7" />
      <circle cx="251.9" cy="479.4" r="2.7" />
      <circle cx="257.8" cy="464.5" r="2.7" />
      <circle cx="263.6" cy="487.0" r="2.7" />
      <circle cx="269.4" cy="474.0" r="2.7" />
      <circle cx="275.2" cy="472.4" r="2.7" />
      <circle cx="280.9" cy="439.1" r="2.7" />
      <circle cx="289.6" cy="488.9" r="2.7" />
      <circle cx="298.2" cy="443.7" r="2.7" />
      <circle cx="303.9" cy="459.6" r="2.7" />
      <circle cx="309.7" cy="461.5" r="2.7" />
      <circle cx="315.5" cy="448.3" r="2.7" />
      <circle cx="321.2" cy="454.9" r="2.7" />
      <circle cx="327.1" cy="463.2" r="2.7" />
      <circle cx="332.9" cy="477.9" r="2.7" />
      <circle cx="338.6" cy="417.0" r="2.7" />
      <circle cx="344.4" cy="439.1" r="2.7" />
      <circle cx="350.2" cy="401.9" r="2.7" />
      <circle cx="358.8" cy="452.4" r="2.7" />
      <circle cx="367.3" cy="408.1" r="2.7" />
      <circle cx="373.0" cy="454.9" r="2.7" />
      <circle cx="378.8" cy="418.7" r="2.7" />
      <circle cx="384.6" cy="416.8" r="2.7" />
      <circle cx="390.4" cy="441.0" r="2.7" />
      <circle cx="396.3" cy="428.5" r="2.7" />
      <circle cx="402.1" cy="392.5" r="2.7" />
      <circle cx="407.8" cy="366.1" r="2.7" />
      <circle cx="413.6" cy="393.3" r="2.7" />
      <circle cx="419.4" cy="395.2" r="2.7" />
      <circle cx="428.0" cy="440.8" r="2.7" />
      <circle cx="436.5" cy="385.0" r="2.7" />
      <circle cx="442.3" cy="416.8" r="2.7" />
      <circle cx="448.1" cy="401.8" r="2.7" />
      <circle cx="453.8" cy="410.2" r="2.7" />
      <circle cx="459.6" cy="402.0" r="2.7" />
      <circle cx="465.5" cy="421.2" r="2.7" />
      <circle cx="471.3" cy="390.4" r="2.7" />
      <circle cx="477.1" cy="367.8" r="2.7" />
      <circle cx="482.9" cy="405.7" r="2.7" />
      <circle cx="488.7" cy="401.8" r="2.7" />
      <circle cx="497.2" cy="425.4" r="2.7" />
      <circle cx="505.7" cy="392.2" r="2.7" />
      <circle cx="511.5" cy="419.1" r="2.7" />
      <circle cx="517.3" cy="415.3" r="2.7" />
      <circle cx="523.1" cy="406.3" r="2.7" />
      <circle cx="528.9" cy="412.3" r="2.7" />
      <circle cx="534.7" cy="397.8" r="2.7" />
      <circle cx="540.5" cy="358.3" r="2.7" />
      <circle cx="546.3" cy="340.8" r="2.7" />
      <circle cx="552.1" cy="363.8" r="2.7" />
      <circle cx="557.9" cy="326.2" r="2.7" />
      <circle cx="566.6" cy="473.9" r="2.7" />
      <circle cx="575.1" cy="471.9" r="2.7" />
      <circle cx="580.9" cy="419.4" r="2.7" />
      <circle cx="586.7" cy="381.6" r="2.7" />
      <circle cx="592.4" cy="364.3" r="2.7" />
      <circle cx="598.2" cy="340.8" r="2.7" />
      <circle cx="604.1" cy="348.1" r="2.7" />
      <circle cx="609.8" cy="360.0" r="2.7" />
      <circle cx="615.6" cy="342.9" r="2.7" />
      <circle cx="621.4" cy="343.4" r="2.7" />
      <circle cx="627.1" cy="344.7" r="2.7" />
      <circle cx="635.7" cy="394.3" r="2.7" />
      <circle cx="644.2" cy="331.6" r="2.7" />
      <circle cx="650.0" cy="378.2" r="2.7" />
      <circle cx="655.8" cy="336.2" r="2.7" />
      <circle cx="661.6" cy="319.1" r="2.7" />
      <circle cx="667.3" cy="323.0" r="2.7" />
      <circle cx="673.2" cy="325.7" r="2.7" />
      <circle cx="679.0" cy="335.5" r="2.7" />
      <circle cx="684.8" cy="299.1" r="2.7" />
      <circle cx="690.6" cy="268.9" r="2.7" />
      <circle cx="696.4" cy="276.9" r="2.7" />
      <circle cx="705.0" cy="324.9" r="2.7" />
      <circle cx="713.4" cy="303.4" r="2.7" />
      <circle cx="719.2" cy="405.6" r="2.7" />
      <circle cx="725.0" cy="375.5" r="2.7" />
      <circle cx="730.8" cy="360.7" r="2.7" />
      <circle cx="736.6" cy="353.4" r="2.7" />
      <circle cx="742.5" cy="344.7" r="2.7" />
      <circle cx="748.2" cy="292.2" r="2.7" />
      <circle cx="754.0" cy="263.6" r="2.7" />
      <circle cx="759.8" cy="267.8" r="2.7" />
      <circle cx="765.6" cy="263.9" r="2.7" />
      <circle cx="774.2" cy="283.3" r="2.7" />
      <circle cx="782.7" cy="189.2" r="2.7" />
      <circle cx="788.5" cy="211.0" r="2.7" />
      <circle cx="794.2" cy="195.4" r="2.7" />
      <circle cx="800.0" cy="192.9" r="2.7" />
      <circle cx="805.8" cy="164.4" r="2.7" />
      <circle cx="811.7" cy="142.0" r="2.7" />
      <circle cx="817.5" cy="143.8" r="2.7" />
      <circle cx="823.3" cy="133.1" r="2.7" />
      <circle cx="829.0" cy="199.4" r="2.7" />
      <circle cx="834.8" cy="187.1" r="2.7" />
      <circle cx="843.5" cy="207.6" r="2.7" />
      <circle cx="852.1" cy="151.2" r="2.7" />
      <circle cx="857.8" cy="226.2" r="2.7" />
      <circle cx="863.6" cy="207.2" r="2.7" />
      <circle cx="869.4" cy="226.0" r="2.7" />
    </g>
    <g>
      <g class="pl_2 marker" transform="translate(151.1,548.6)"><use xlink:href="#mk2"/><text class="dp2" y="-25">35.7</text></g>
      <g class="pl_2 marker" transform="translate(159.5,509.2)"><use xlink:href="#mk2"/><text class="dp2" y="-25">38.0</text></g>
      <g class="pl_2 marker" transform="translate(165.3,537.7)"><use xlink:href="#mk2"/><text class="dp2" y="-25">36.3</text></g>
      <g class="pl_2 marker" transform="translate(171.1,529.4)"><use xlink:href="#mk2"/><text class="dp2" y="-25">36.8</text></g>
      <g class="pl_2 marker" transform="translate(176.9,508.5)"><use xlink:href="#mk2"/><text class="dp2" y="-25">38.1</text></g>
      <g class="pl_2 marker" transform="translate(182.7,526.2)"><use xlink:href="#mk2"/><text class="dp2" y="-25">37.0</text></g>
      <g class="pl_2 marker" transform="translate(188.6,522.5)"><use xlink:href="#mk2"/><text class="dp2" y="-25">37.2</text></g>
      <g class="pl_2 marker" transform="translate(194.3,521.7)"><use xlink:href="#mk2"/><text class="dp2" y="-25">37.3</text></g>
      <g class="pl_2 marker" transform="translate(200.1,491.2)"><use xlink:href="#mk2"/><text class="dp2" y="-25">39.1</text></g>
      <g class="pl_2 marker" transform="translate(205.9,502.5)"><use xlink:href="#mk2"/><text class="dp2" y="-25">38.4</text></g>
      <g class="pl_2 marker" transform="translate(211.7,478.1)"><use xlink:href="#mk2"/><text class="dp2" y="-25">39.9</text></g>
      <g class="pl_2 marker" transform="translate(220.3,559.7)"><use xlink:href="#mk2"/><text class="dp2" y="-25">35.0</text></g>
      <g class="pl_2 marker" transform="translate(228.8,465.6)"><use xlink:href="#mk2"/><text class="dp2" y="-25">40.6</text></g>
      <g class="pl_2 marker" transform="translate(234.6,484.8)"><use xlink:href="#mk2"/><text class="dp2" y="-25">39.5</text></g>
      <g class="pl_2 marker" transform="translate(240.3,462.7)"><use xlink:href="#mk2"/><text class="dp2" y="-25">40.8</text></g>
      <g class="pl_2 marker" transform="translate(246.1,475.5)"><use xlink:href="#mk2"/><text class="dp2" y="-25">40.0</text></g>
      <g class="pl_2 marker" transform="translate(251.9,479.4)"><use xlink:href="#mk2"/><text class="dp2" y="-25">39.8</text></g>
      <g class="pl_2 marker" transform="translate(257.8,464.5)"><use xlink:href="#mk2"/><text class="dp2" y="-25">40.7</text></g>
      <g class="pl_2 marker" transform="translate(263.6,487.0)"><use xlink:href="#mk2"/><text class="dp2" y="-25">39.3</text></g>
      <g class="pl_2 marker" transform="translate(269.4,474.0)"><use xlink:href="#mk2"/><text class="dp2" y="-25">40.1</text></g>
      <g class="pl_2 marker" transform="translate(275.2,472.4)"><use xlink:href="#mk2"/><text class="dp2" y="-25">40.2</text></g>
      <g class="pl_2 marker" transform="translate(280.9,439.1)"><use xlink:href="#mk2"/><text class="dp2" y="-25">42.2</text></g>
      <g class="pl_2 marker" transform="translate(289.6,488.9)"><use xlink:href="#mk2"/><text class="dp2" y="-25">39.2</text></g>
      <g class="pl_2 marker" transform="translate(298.2,443.7)"><use xlink:href="#mk2"/><text class="dp2" y="-25">41.9</text></g>
      <g class="pl_2 marker" transform="translate(303.9,459.6)"><use xlink:href="#mk2"/><text class="dp2" y="-25">41.0</text></g>
      <g class="pl_2 marker" transform="translate(309.7,461.5)"><use xlink:href="#mk2"/><text class="dp2" y="-25">40.8</text></g>
      <g class="pl_2 marker" transform="translate(315.5,448.3)"><use xlink:href="#mk2"/><text class="dp2" y="-25">41.6</text></g>
      <g class="pl_2 marker" transform="translate(321.2,454.9)"><use xlink:href="#mk2"/><text class="dp2" y="-25">41.2</text></g>
      <g class="pl_2 marker" transform="translate(327.1,463.2)"><use xlink:href="#mk2"/><text class="dp2" y="-25">40.7</text></g>
      <g class="pl_2 marker" transform="translate(332.9,477.9)"><use xlink:href="#mk2"/><text class="dp2" y="-25">39.9</text></g>
      <g class="pl_2 marker" transform="translate(338.6,417.0)"><use xlink:href="#mk2"/><text class="dp2" y="-25">43.5</text></g>
      <g class="pl_2 marker" transform="translate(344.4,439.1)"><use xlink:href="#mk2"/><text class="dp2" y="-25">42.2</text></g>
      <g class="pl_2 marker" transform="translate(350.2,401.9)"><use xlink:href="#mk2"/><text class="dp2" y="-25">44.4</text></g>
      <g class="pl_2 marker" transform="translate(358.8,452.4)"><use xlink:href="#mk2"/><text class="dp2" y="-25">41.4</text></g>
      <g class="pl_2 marker" transform="translate(367.3,408.1)"><use xlink:href="#mk2"/><text class="dp2" y="-25">44.0</text></g>
      <g class="pl_2 marker" transform="translate(373.0,454.9)"><use xlink:href="#mk2"/><text class="dp2" y="-25">41.2</text></g>
      <g class="pl_2 marker" transform="translate(378.8,418.7)"><use xlink:href="#mk2"/><text class="dp2" y="-25">43.4</text></g>
      <g class="pl_2 marker" transform="translate(384.6,416.8)"><use xlink:href="#mk2"/><text class="dp2" y="-25">43.5</text></g>
      <g class="pl_2 marker" transform="translate(390.4,441.0)"><use xlink:href="#mk2"/><text class="dp2" y="-25">42.1</text></g>
      <g class="pl_2 marker" transform="translate(396.3,428.5)"><use xlink:href="#mk2"/><text class="dp2" y="-25">42.8</text></g>
      <g class="pl_2 marker" transform="translate(402.1,392.5)"><use xlink:href="#mk2"/><text class="dp2" y="-25">44.9</text></g>
      <g class="pl_2 marker" transform="translate(407.8,366.1)"><use xlink:href="#mk2"/><text class="dp2" y="-25">46.5</text></g>
      <g class="pl_2 marker" transform="translate(413.6,393.3)"><use xlink:href="#mk2"/><text class="dp2" y="-25">44.9</text></g>
      <g class="pl_2 marker" transform="translate(419.4,395.2)"><use xlink:href="#mk2"/><text class="dp2" y="-25">44.8</text></g>
      <g class="pl_2 marker" transform="translate(428.0,440.8)"><use xlink:href="#mk2"/><text class="dp2" y="-25">42.1</text></g>
      <g class="pl_2 marker" transform="translate(436.5,385.0)"><use xlink:href="#mk2"/><text class="dp2" y="-25">45.4</text></g>
      <g class="pl_2 marker" transform="translate(442.3,416.8)"><use xlink:href="#mk2"/><text class="dp2" y="-25">43.5</text></g>
      <g class="pl_2 marker" transform="translate(448.1,401.8)"><use xlink:href="#mk2"/><text class="dp2" y="-25">44.4</text></g>
      <g class="pl_2 marker" transform="translate(453.8,410.2)"><use xlink:href="#mk2"/><text class="dp2" y="-25">43.9</text></g>
      <g class="pl_2 marker" transform="translate(459.6,402.0)"><use xlink:href="#mk2"/><text class="dp2" y="-25">44.4</text></g>
      <g class="pl_2 marker" transform="translate(465.5,421.2)"><use xlink:href="#mk2"/><text class="dp2" y="-25">43.2</text></g>
      <g class="pl_2 marker" transform="translate(471.3,390.4)"><use xlink:href="#mk2"/><text class="dp2" y="-25">45.1</text></g>
      <g class="pl_2 marker" transform="translate(477.1,367.8)"><use xlink:href="#mk2"/><text class="dp2" y="-25">46.4</text></g>
      <g class="pl_2 marker" transform="translate(482.9,405.7)"><use xlink:href="#mk2"/><text class="dp2" y="-25">44.2</text></g>
      <g class="pl_2 marker" transform="translate(488.7,401.8)"><use xlink:href="#mk2"/><text class="dp2" y="-25">44.4</text></g>
      <g class="pl_2 marker" transform="translate(497.2,425.4)"><use xlink:href="#mk2"/><text class="dp2" y="-25">43.0</text></g>
      <g class="pl_2 marker" transform="translate(505.7,392.2)"><use xlink:href="#mk2"/><text class="dp2" y="-25">45.0</text></g>
      <g class="pl_2 marker" transform="translate(511.5,419.1)"><use xlink:href="#mk2"/><text class="dp2" y="-25">43.4</text></g>
      <g class="pl_2 marker" transform="translate(517.3,415.3)"><use xlink:href="#mk2"/><text class="dp2" y="-25">43.6</text></g>
      <g class="pl_2 marker" transform="translate(523.1,406.3)"><use xlink:href="#mk2"/><text class="dp2" y="-25">44.1</text></g>
      <g class="pl_2 marker" transform="translate(528.9,412.3)"><use xlink:href="#mk2"/><text class="dp2" y="-25">43.8</text></g>
      <g class="pl_2 marker" transform="translate(534.7,397.8)"><use xlink:href="#mk2"/><text class="dp2" y="-25">44.6</text></g>
      <g class="pl_2 marker" transform="translate(540.5,358.3)"><use xlink:href="#mk2"/><text class="dp2" y="-25">47.0</text></g>
      <g class="pl_2 marker" transform="translate(546.3,340.8)"><use xlink:href="#mk2"/><text class="dp2" y="-25">48.0</text></g>
      <g class="pl_2 marker" transform="translate(552.1,363.8)"><use xlink:href="#mk2"/><text class="dp2" y="-25">46.6</text></g>
      <g class="pl_2 marker" transform="translate(557.9,326.2)"><use xlink:href="#mk2"/><text class="dp2" y="-25">48.9</text></g>
      <g class="pl_2 marker" transform="translate(566.6,473.9)"><use xlink:href="#mk2"/><text class="dp2" y="-25">40.1</text></g>
      <g class="pl_2 marker" transform="translate(575.1,471.9)"><use xlink:href="#mk2"/><text class="dp2" y="-25">40.2</text></g>
      <g class="pl_2 marker" transform="translate(580.9,419.4)"><use xlink:href="#mk2"/><text class="dp2" y="-25">43.3</text></g>
      <g class="pl_2 marker" transform="translate(586.7,381.6)"><use xlink:href="#mk2"/><text class="dp2" y="-25">45.6</text></g>
      <g class="pl_2 marker" transform="translate(592.4,364.3)"><use xlink:href="#mk2"/><text class="dp2" y="-25">46.6</text></g>
      <g class="pl_2 marker" transform="translate(598.2,340.8)"><use xlink:href="#mk2"/><text class="dp2" y="-25">48.0</text></g>
      <g class="pl_2 marker" transform="translate(604.1,348.1)"><use xlink:href="#mk2"/><text class="dp2" y="-25">47.6</text></g>
      <g class="pl_2 marker" transform="translate(609.8,360.0)"><use xlink:href="#mk2"/><text class="dp2" y="-25">46.9</text></g>
      <g class="pl_2 marker" transform="translate(615.6,342.9)"><use xlink:href="#mk2"/><text class="dp2" y="-25">47.9</text></g>
      <g class="pl_2 marker" transform="translate(621.4,343.4)"><use xlink:href="#mk2"/><text class="dp2" y="-25">47.8</text></g>
      <g class="pl_2 marker" transform="translate(627.1,344.7)"><use xlink:href="#mk2"/><text class="dp2" y="-25">47.8</text></g>
      <g class="pl_2 marker" transform="translate(635.7,394.3)"><use xlink:href="#mk2"/><text class="dp2" y="-25">44.8</text></g>
      <g class="pl_2 marker" transform="translate(644.2,331.6)"><use xlink:href="#mk2"/><text class="dp2" y="-25">48.5</text></g>
      <g class="pl_2 marker" transform="translate(650.0,378.2)"><use xlink:href="#mk2"/><text class="dp2" y="-25">45.8</text></g>
      <g class="pl_2 marker" transform="translate(655.8,336.2)"><use xlink:href="#mk2"/><text class="dp2" y="-25">48.3</text></g>
      <g class="pl_2 marker" transform="translate(661.6,319.1)"><use xlink:href="#mk2"/><text class="dp2" y="-25">49.3</text></g>
      <g class="pl_2 marker" transform="translate(667.3,323.0)"><use xlink:href="#mk2"/><text class="dp2" y="-25">49.1</text></g>
      <g class="pl_2 marker" transform="translate(673.2,325.7)"><use xlink:href="#mk2"/><text class="dp2" y="-25">48.9</text></g>
      <g class="pl_2 marker" transform="translate(679.0,335.5)"><use xlink:href="#mk2"/><text class="dp2" y="-25">48.3</text></g>
      <g class="pl_2 marker" transform="translate(684.8,299.1)"><use xlink:href="#mk2"/><text class="dp2" y="-25">50.5</text></g>
      <g class="pl_2 marker" transform="translate(690.6,268.9)"><use xlink:href="#mk2"/><text class="dp2" y="-25">52.3</text></g>
      <g class="pl_2 marker" transform="translate(696.4,276.9)"><use xlink:href="#mk2"/><text class="dp2" y="-25">51.8</text></g>
      <g class="pl_2 marker" transform="translate(705.0,324.9)"><use xlink:href="#mk2"/><text class="dp2" y="-25">48.9</text></g>
      <g class="pl_2 marker" transform="translate(713.4,303.4)"><use xlink:href="#mk2"/><text class="dp2" y="-25">50.2</text></g>
      <g class="pl_2 marker" transform="translate(719.2,405.6)"><use xlink:href="#mk2"/><text class="dp2" y="-25">44.2</text></g>
      <g class="pl_2 marker" transform="translate(725.0,375.5)"><use xlink:href="#mk2"/><text class="dp2" y="-25">45.9</text></g>
      <g class="pl_2 marker" transform="translate(730.8,360.7)"><use xlink:href="#mk2"/><text class="dp2" y="-25">46.8</text></g>
      <g class="pl_2 marker" transform="translate(736.6,353.4)"><use xlink:href="#mk2"/><text class="dp2" y="-25">47.3</text></g>
      <g class="pl_2 marker" transform="translate(742.5,344.7)"><use xlink:href="#mk2"/><text class="dp2" y="-25">47.8</text></g>
      <g class="pl_2 marker" transform="translate(748.2,292.2)"><use xlink:href="#mk2"/><text class="dp2" y="-25">50.9</text></g>
      <g class="pl_2 marker" transform="translate(754.0,263.6)"><use xlink:href="#mk2"/><text class="dp2" y="-25">52.6</text></g>
      <g class="pl_2 marker" transform="translate(759.8,267.8)"><use xlink:href="#mk2"/><text class="dp2" y="-25">52.3</text></g>
      <g class="pl_2 marker" transform="translate(765.6,263.9)"><use xlink:href="#mk2"/><text class="dp2" y="-25">52.6</text></g>
      <g class="pl_2 marker" transform="translate(774.2,283.3)"><use xlink:href="#mk2"/><text class="dp2" y="-25">51.4</text></g>
      <g class="pl_2 marker" transform="translate(782.7,189.2)"><use xlink:href="#mk2"/><text class="dp2" y="-25">57.0</text></g>
      <g class="pl_2 marker" transform="translate(788.5,211.0)"><use xlink:href="#mk2"/><text class="dp2" y="-25">55.7</text></g>
      <g class="pl_2 marker" transform="translate(794.2,195.4)"><use xlink:href="#mk2"/><text class="dp2" y="-25">56.6</text></g>
      <g class="pl_2 marker" transform="translate(800.0,192.9)"><use xlink:href="#mk2"/><text class="dp2" y="-25">56.8</text></g>
      <g class="pl_2 marker" transform="translate(805.8,164.4)"><use xlink:href="#mk2"/><text class="dp2" y="-25">58.5</text></g>
      <g class="pl_2 marker" transform="translate(811.7,142.0)"><use xlink:href="#mk2"/><text class="dp2" y="-25">59.8</text></g>
      <g class="pl_2 marker" transform="translate(817.5,143.8)"><use xlink:href="#mk2"/><text class="dp2" y="-25">59.7</text></g>
      <g class="pl_2 marker" transform="translate(823.3,133.1)"><use xlink:href="#mk2"/><text class="dp2" y="-25">60.3</text></g>
      <g class="pl_2 marker" transform="translate(829.0,199.4)"><use xlink:href="#mk2"/><text class="dp2" y="-25">56.4</text></g>
      <g class="pl_2 marker" transform="translate(834.8,187.1)"><use xlink:href="#mk2"/><text class="dp2" y="-25">57.1</text></g>
      <g class="pl_2 marker" transform="translate(843.5,207.6)"><use xlink:href="#mk2"/><text class="dp2" y="-25">55.9</text></g>
      <g class="pl_2 marker" transform="translate(852.1,151.2)"><use xlink:href="#mk2"/><text class="dp2" y="-25">59.2</text></g>
      <g class="pl_2 marker" transform="translate(857.8,226.2)"><use xlink:href="#mk2"/><text class="dp2" y="-25">54.8</text></g>
      <g class="pl_2 marker" transform="translate(863.6,207.2)"><use xlink:href="#mk2"/><text class="dp2" y="-25">55.9</text></g>
      <g class="pl_2 marker" transform="translate(869.4,226.0)"><use xlink:href="#mk2"/><text class="dp2" y="-25">54.8</text></g>
    </g>
  </g>
</g>
    <text class="pl" transform="translate(180.2,573.0) rotate(-90)" dy="8.1" font-size="27.00" fill="#808080" stroke="none" text-anchor="end">2014</text>
    <text class="pl" transform="translate(249.5,573.0) rotate(-90)" dy="8.1" font-size="27.00" fill="#808080" stroke="none" text-anchor="end">2015</text>
    <text class="pl" transform="translate(318.7,573.0) rotate(-90)" dy="8.1" font-size="27.00" fill="#808080" stroke="none" text-anchor="end">2016</text>
    <text class="pl" transform="translate(387.9,573.0) rotate(-90)" dy="8.1" font-size="27.00" fill="#808080" stroke="none" text-anchor="end">2017</text>
    <text class="pl" transform="translate(457.2,573.0) rotate(-90)" dy="8.1" font-size="27.00" fill="#808080" stroke="none" text-anchor="end">2018</text>
    <text class="pl" transform="translate(526.4,573.0) rotate(-90)" dy="8.1" font-size="27.00" fill="#808080" stroke="none" text-anchor="end">2019</text>
    <text class="pl" transform="translate(595.6,573.0) rotate(-90)" dy="8.1" font-size="27.00" fill="#808080" stroke="none" text-anchor="end">2020</text>
    <text class="pl" transform="translate(664.9,573.0) rotate(-90)" dy="8.1" font-size="27.00" fill="#808080" stroke="none" text-anchor="end">2021</text>
    <text class="pl" transform="translate(734.1,573.0) rotate(-90)" dy="8.1" font-size="27.00" fill="#808080" stroke="none" text-anchor="end">2022</text>
    <text class="pl" transform="translate(803.3,573.0) rotate(-90)" dy="8.1" font-size="27.00" fill="#808080" stroke="none" text-anchor="end">2023</text>
    <text class="pl" transform="translate(872.6,573.0) rotate(-90)" dy="8.1" font-size="27.00" fill="#808080" stroke="none" text-anchor="end">2024</text>
    <text class="pl" transform="translate(145.6,47.2)" dy="0.0" font-size="27.00" fill="#808080" stroke="none">China's monthly petroleum refining</text>
    <text class="pl" transform="translate(157.6,60.7)"  font-size="18.00" fill="#808080" stroke="none">
      <tspan x="0" y="15.0">NBS reports only the sum of Jan/Feb. Here I plot this sum</tspan><tspan x="0" y="35.1">divided by 2 as a single Jan/Feb point.</tspan>
    </text>
<text transform="translate(157.6,666.1)" font-size="19.80" font-family="Helvetica" fill="#BFBFBF" stroke="none" xml:space="preserve"><a href="https://twitter.com/robbie_andrew" style="fill:#BFBFBF" target="_blank">@robbie_andrew</a>   &#9679;   Data: NBS   &#9679;   Data through June 2024</text>
<text class="twitlink" transform="translate(157.6,666.1)" opacity="0" font-size="19.80" fill="#BFBFBF" stroke="none" xml:space="preserve"><a href="https://twitter.com/robbie_andrew" style="fill:#BFBFBF" target="_blank">@robbie_andrew</a></text>
  <g class="dl_el" transform="translate(154.6,578.4)">
    <g class="dl_el_balloon">
      <foreignObject x="0" y="0" width="120" height="500">
      <div xmlns="http://www.w3.org/1999/xhtml" class="dl_fe" style="height:60px">
      <p class="dl_fe_p">Find me on Twitter</p>
      </div>
	    </foreignObject>
      <path stroke="#000" fill="#FDFFDF" d="M0,60H60l5,5l5,-5H120"/>
    </g>
  </g>
<g>
<a href="https://creativecommons.org/licenses/by/4.0/">
  <rect x="123.0" y="651.4" width="34" height="17" fill="#FFF" stroke="none"/>
  <g transform="translate(124.0,652.4) scale(0.24)">
  <g><circle fill="#FFF" cx="37.79" cy="28.5" r="28.84"/>
     <circle fill="none" cx="37.79" cy="28.5" r="28.84" stroke="#BFBFBF" stroke-width="5.5"/>
     <path fill="#BFBFBF" d="M37.16,23.19 l-4.29,2.23c-0.458-0.951-1.02-1.62-1.69-2c-0.667-0.38-1.29-0.571-1.86-0.571c-2.86,0-4.29,1.89-4.29,5.66 c0,1.71,0.36,3.08,1.09,4.11c0.724,1.03,1.79,1.54,3.2,1.54c1.87,0,3.18-0.915,3.94-2.74l3.94,2 c-0.838,1.56-2,2.79-3.49,3.69c-1.48,0.896-3.12,1.34-4.91,1.34c-2.86,0-5.16-0.875-6.92-2.63 c-1.75-1.75-2.63-4.19-2.63-7.31c0-3.05,0.886-5.47,2.66-7.26c1.77-1.79,4.01-2.69,6.72-2.69 C32.6,18.56,35.44,20.1,37.16,23.19z
              M55.61,23.19l-4.23,2.23c-0.457-0.951-1.02-1.62-1.69-2 c-0.668-0.38-1.31-0.571-1.91-0.571c-2.86,0-4.29,1.89-4.29,5.66c0,1.71,0.363,3.08,1.09,4.11 c0.723,1.03,1.79,1.54,3.2,1.54c1.87,0,3.18-0.915,3.94-2.74l4,2c-0.875,1.56-2.06,2.79-3.54,3.69 c-1.49,0.9-3.11,1.34-4.86,1.34c-2.9,0-5.21-0.875-6.94-2.63c-1.74-1.75-2.6-4.19-2.6-7.31 c0-3.05,0.885-5.47,2.66-7.26c1.77-1.79,4.01-2.69,6.71-2.69C51.12,18.56,53.944,20.1,55.61,23.19z"/>
  </g></g>
  <g transform="translate(140.2,652.4) scale(0.24)">
  <g><circle fill="#FFF" cx="37.79" cy="28.5" r="28.84"/>
     <circle fill="none" cx="37.79" cy="28.5" r="28.84" stroke="#BFBFBF" stroke-width="5.5"/>
     <path fill="#BFBFBF" d="M46.129,20.557v13.085h-3.656v15.542h-9.944V33.643h-3.656V20.557 c0-0.572,0.2-1.057,0.599-1.457c0.401-0.399,0.887-0.6,1.457-0.6h13.144c0.533,0,1.01,0.2,1.428,0.6 C45.918,19.5,46.129,19.986,46.129,20.557z
              M33.042,12.329c0-3.008,1.485-4.514,4.458-4.514s4.457,1.504,4.457,4.514 c0,2.971-1.486,4.457-4.457,4.457S33.042,15.3,33.042,12.329z"/>
  </g></g>
  </a>
</g>
  <g class="dl_el" transform="translate(69.1,548.4)">
    <g class="dl_el_balloon">
      <foreignObject x="0" y="0" width="250" height="500">
      <div xmlns="http://www.w3.org/1999/xhtml" class="dl_fe" style="height:90px">
      <p class="dl_fe_p">CC-BY: Material may be freely re-used as long as you credit the author</p>
      </div>
	    </foreignObject>
      <path stroke="#000" fill="#FDFFDF" d="M0,90H70l5,5l5,-5H250"/>
    </g>
  </g>
</g>
</svg>
