"YYYYMM","Diesel","Petrol","Hybrid","Battery electric","LPG"
201906,98988,57797,5271,0,8839
201912,112039,82101,8001,0,13712
202006,97148,98122,6471,0,13381
202012,152487,198935,15103,0,19878
202106,92706,204615,27738,0,18131
202112,51934,176358,27571,1474,13510
202206,45879,187479,25551,2582,6467
202212,55929,209433,22528,5730,4702
202306,85217,292362,37542,12957,6740
202312,68458,333139,50391,52601,6361
202406,63378,331830,65394,42662,5537
202412,23139,106572,29351,14372,1683
