<svg version="1.1" xmlns="http://www.w3.org/2000/svg" xmlns:xlink="http://www.w3.org/1999/xlink" width="100%" height="100%" viewBox="0 0 1200.000 674.916">
<title>Norwegian natural gas production</title>
<desc>Created by Robbie Andrew (@robbie_andrew), CICERO Center for International Climate Research. CC-BY: Material may be freely re-used as long as you credit the author</desc>
<style type="text/css">
  #main {font-family:Helvetica,Arial,sans-serif; font-size:27.00px;
         fill-opacity:1; fill:#000000; stroke:none; stroke-linejoin:round; stroke-linecap:round; stroke-width:1.00;}
  a:hover {text-decoration: underline;}
  .marker {stroke-opacity:0;fill-opacity:0;}
  .marker:hover {stroke-opacity:0.5; fill-opacity:1;}
  .ticklabel {font-size:27.00px;fill:#808080;stroke:none;font-family:Helvetica}
  .ytl {text-anchor:end;}
  .dp1 {pointer-events:none;font-size:70%;text-anchor:middle;fill:#000000;}
  .dp2 {pointer-events:none;font-size:70%;text-anchor:middle;fill:#FFFFFF;}
  .numtip {pointer-events:none;}
  .cc {opacity:0.25;}
.dl_fe {background-color:#FDFFDF;display:flex;margin:auto;align-items:center}
.dl_fe_p {font-size:20px;text-align:center;margin:3px}
.dl_el {display:none;pointer-events:none;}
.cc:hover + .dl_el {display:block;}
text:hover + .dl_el {display:block;}
  #lines .pl {transition: all 0.2s ease;}
  #lines:hover .pl {opacity:0.3;}
  #lines:hover .thick {stroke-width:1;}
  #lines:hover .pl_1:hover .pl {opacity:1;}
  #lines:hover .pl_1:hover .pll {stroke-width:3;}
  #lines:hover .pl_1:hover .pldlm {stroke-width:2;}
  #lines:hover .pl_1:hover .thick {stroke-width:12;}
</style>
<defs>
  <clipPath id="axis_clip"><rect x="145.8" y="54.2" width="761.2" height="505.8" /></clipPath>
  <path id="line_y" d="M 0,53.993 v 506.187" stroke="#262626" stroke-opacity="0.15" stroke-width="1.00"/>
  <path id="line_x" d="M 145.600,0 h 761.600" stroke="#262626" stroke-opacity="0.15" stroke-width="1.00"/>
  <g id="mk1"><circle cx="0" cy="0" r="3.00" stroke-width="1" fill="#0072BD" stroke="#000"/><polygon class="numtip" points="0,-5 -5,-10 -30,-10 -30,-50 30,-50 30,-10 5,-10 0,-5" fill="#0072BD" stroke="#FFF"/></g>
  <path id="tick_y" d="M 145.600,0 h -6.000" stroke="#808080" stroke-width="0.90"/>
  <path id="tick_x" d="M 0,560.180 v 6.000" stroke="#808080" stroke-width="0.90"/>
  <symbol id="line_1" viewBox="0 0 1200.000 674.916">
<polyline class="pl" points="143.3,190.8 147.6,145.4 151.7,215.3 155.8,161.4 160.1,302.2 164.3,263.9 168.6,306.4 172.8,371.0 177.1,484.0 181.3,504.2 185.6,243.2 189.8,188.9 194.1,137.8 198.4,168.2 202.5,234.8 206.6,180.4 210.8,384.6 215.1,464.3 219.3,466.1 223.6,396.0 227.9,353.0 232.1,382.8 236.4,325.8 240.6,218.5 244.9,163.7 249.2,114.6 253.3,148.4 257.5,126.4 261.7,240.7 265.9,280.7 270.2,305.9 274.4,268.8 278.7,333.5 282.9,420.3 287.2,200.0 291.4,196.3 295.6,129.4 299.9,157.7 304.0,281.0 308.1,230.7 312.4,262.2 316.6,269.3 320.9,323.4 325.1,257.5 329.4,393.1 333.7,355.5 337.9,244.7 342.2,241.0 346.4,181.2 350.7,207.6 354.8,256.0 358.9,170.3 363.2,277.2 367.4,339.5 371.6,392.0 375.9,350.5 380.2,396.2 384.4,351.8 388.7,165.7 392.9,188.2 397.2,134.1 401.5,179.9 405.6,196.1 409.7,137.0 413.9,356.0 418.2,293.9 422.4,324.1 426.7,225.1 431.0,225.0 435.2,249.1 439.5,142.6 443.7,156.2 447.9,114.6 452.3,113.6 456.4,158.3 460.6,113.9 464.8,167.5 469.0,228.8 473.3,329.5 477.5,270.7 481.8,340.9 486.0,462.5 490.3,143.3 494.5,145.5 498.7,142.8 503.0,85.9 507.1,188.2 511.2,118.0 515.5,155.3 519.7,260.1 524.0,296.4 528.2,156.3 532.5,168.3 536.8,235.2 541.0,137.1 545.2,130.4 549.5,113.8 553.8,105.3 557.9,196.0 562.0,137.8 566.3,194.2 570.5,236.0 574.7,255.7 579.0,157.8 583.3,185.8 587.5,269.4 591.8,157.9 596.0,181.3 600.3,144.0 604.6,115.3 608.7,189.8 612.8,133.5 617.0,191.5 621.3,216.8 625.5,246.5 629.8,228.9 634.1,329.8 638.3,493.1 642.6,249.0 646.8,195.4 651.0,143.6 655.3,163.5 659.5,207.2 663.7,146.7 667.9,264.3 672.1,329.3 676.4,315.0 680.6,236.6 684.9,279.0 689.1,320.5 693.4,272.8 697.6,226.1 701.8,177.5 706.1,182.1 710.2,271.4 714.3,208.5 718.6,250.5 722.8,293.5 727.1,354.2 731.3,226.1 735.6,231.8 739.9,268.4 744.1,149.2 748.3,169.7 752.6,125.0 756.9,151.6 761.0,215.9 765.1,162.7 769.3,207.5 773.6,194.4 777.8,198.2 782.1,131.8 786.4,144.8 790.6,259.5 794.9,134.6 799.1,169.3 803.4,108.7 807.7,122.5 811.8,200.4 815.9,126.4 820.1,179.2 824.4,302.1 828.6,372.7 832.8,193.1 837.2,217.7 841.4,484.1 845.6,183.8 849.9,130.0 854.1,65.1 858.4,71.4 862.6,166.1 866.8,100.9 871.0,169.4 875.2,199.6 879.5,171.7 883.7,113.2" stroke="#0072BD" stroke-width="0.90" stroke-opacity="1.00" fill="none" clip-path="url(#axis_clip)"/>
  </symbol>
</defs>
<g id="main">
<use xlink:href="#line_y" transform="translate(145.6,0)"/>
<use xlink:href="#line_y" transform="translate(196.4,0)"/>
<use xlink:href="#line_y" transform="translate(247.1,0)"/>
<use xlink:href="#line_y" transform="translate(297.9,0)"/>
<use xlink:href="#line_y" transform="translate(348.7,0)"/>
<use xlink:href="#line_y" transform="translate(399.5,0)"/>
<use xlink:href="#line_y" transform="translate(450.2,0)"/>
<use xlink:href="#line_y" transform="translate(501.0,0)"/>
<use xlink:href="#line_y" transform="translate(551.8,0)"/>
<use xlink:href="#line_y" transform="translate(602.6,0)"/>
<use xlink:href="#line_y" transform="translate(653.3,0)"/>
<use xlink:href="#line_y" transform="translate(704.1,0)"/>
<use xlink:href="#line_y" transform="translate(754.9,0)"/>
<use xlink:href="#line_y" transform="translate(805.7,0)"/>
<use xlink:href="#line_y" transform="translate(856.4,0)"/>
<use xlink:href="#line_y" transform="translate(907.2,0)"/>
<use xlink:href="#line_x" transform="translate(0,560.2)"/>
<use xlink:href="#line_x" transform="translate(0,487.9)"/>
<use xlink:href="#line_x" transform="translate(0,415.6)"/>
<use xlink:href="#line_x" transform="translate(0,343.2)"/>
<use xlink:href="#line_x" transform="translate(0,270.9)"/>
<use xlink:href="#line_x" transform="translate(0,198.6)"/>
<use xlink:href="#line_x" transform="translate(0,126.3)"/>
<use xlink:href="#line_x" transform="translate(0,54.0)"/>
<use xlink:href="#tick_y" transform="translate(0,560.2)"/>
<use xlink:href="#tick_y" transform="translate(0,487.9)"/>
<use xlink:href="#tick_y" transform="translate(0,415.6)"/>
<use xlink:href="#tick_y" transform="translate(0,343.2)"/>
<use xlink:href="#tick_y" transform="translate(0,270.9)"/>
<use xlink:href="#tick_y" transform="translate(0,198.6)"/>
<use xlink:href="#tick_y" transform="translate(0,126.3)"/>
<use xlink:href="#tick_y" transform="translate(0,54.0)"/>
<use xlink:href="#tick_x" transform="translate(145.6,0)"/>
<use xlink:href="#tick_x" transform="translate(196.4,0)"/>
<use xlink:href="#tick_x" transform="translate(247.1,0)"/>
<use xlink:href="#tick_x" transform="translate(297.9,0)"/>
<use xlink:href="#tick_x" transform="translate(348.7,0)"/>
<use xlink:href="#tick_x" transform="translate(399.5,0)"/>
<use xlink:href="#tick_x" transform="translate(450.2,0)"/>
<use xlink:href="#tick_x" transform="translate(501.0,0)"/>
<use xlink:href="#tick_x" transform="translate(551.8,0)"/>
<use xlink:href="#tick_x" transform="translate(602.6,0)"/>
<use xlink:href="#tick_x" transform="translate(653.3,0)"/>
<use xlink:href="#tick_x" transform="translate(704.1,0)"/>
<use xlink:href="#tick_x" transform="translate(754.9,0)"/>
<use xlink:href="#tick_x" transform="translate(805.7,0)"/>
<use xlink:href="#tick_x" transform="translate(856.4,0)"/>
<use xlink:href="#tick_x" transform="translate(907.2,0)"/>
<polyline points="145.6,53.993 145.6,560.180 907.2,560.180" stroke="#808080" stroke-width="0.90" fill="none"/>
<text class="ticklabel ytl" transform="translate(128.8,568.3)">5</text>
<text class="ticklabel ytl" transform="translate(128.8,496.0)">6</text>
<text class="ticklabel ytl" transform="translate(128.8,423.7)">7</text>
<text class="ticklabel ytl" transform="translate(128.8,351.3)">8</text>
<text class="ticklabel ytl" transform="translate(128.8,279.0)">9</text>
<text class="ticklabel ytl" transform="translate(128.8,206.7)">10</text>
<text class="ticklabel ytl" transform="translate(128.8,134.4)">11</text>
<text class="ticklabel ytl" transform="translate(128.8,62.1)">12 kSm3</text>
<g id="lines">
  <g class="pl_1">
    <use xlink:href="#line_1" class="thick" stroke="#000" stroke-width="3" opacity="0"/>
    <use xlink:href="#line_1" class="pl pll" stroke="#0072BD" stroke-width="0.90"/>
    <g>
      <g class="pl_1 marker" transform="translate(147.6,145.4)"><use xlink:href="#mk1"/><text class="dp2" y="-25">10.7</text></g>
      <g class="pl_1 marker" transform="translate(151.7,215.3)"><use xlink:href="#mk1"/><text class="dp2" y="-25">9.8</text></g>
      <g class="pl_1 marker" transform="translate(155.8,161.4)"><use xlink:href="#mk1"/><text class="dp2" y="-25">10.5</text></g>
      <g class="pl_1 marker" transform="translate(160.1,302.2)"><use xlink:href="#mk1"/><text class="dp2" y="-25">8.6</text></g>
      <g class="pl_1 marker" transform="translate(164.3,263.9)"><use xlink:href="#mk1"/><text class="dp2" y="-25">9.1</text></g>
      <g class="pl_1 marker" transform="translate(168.6,306.4)"><use xlink:href="#mk1"/><text class="dp2" y="-25">8.5</text></g>
      <g class="pl_1 marker" transform="translate(172.8,371.0)"><use xlink:href="#mk1"/><text class="dp2" y="-25">7.6</text></g>
      <g class="pl_1 marker" transform="translate(177.1,484.0)"><use xlink:href="#mk1"/><text class="dp2" y="-25">6.1</text></g>
      <g class="pl_1 marker" transform="translate(181.3,504.2)"><use xlink:href="#mk1"/><text class="dp2" y="-25">5.8</text></g>
      <g class="pl_1 marker" transform="translate(185.6,243.2)"><use xlink:href="#mk1"/><text class="dp2" y="-25">9.4</text></g>
      <g class="pl_1 marker" transform="translate(189.8,188.9)"><use xlink:href="#mk1"/><text class="dp2" y="-25">10.1</text></g>
      <g class="pl_1 marker" transform="translate(194.1,137.8)"><use xlink:href="#mk1"/><text class="dp2" y="-25">10.8</text></g>
      <g class="pl_1 marker" transform="translate(198.4,168.2)"><use xlink:href="#mk1"/><text class="dp2" y="-25">10.4</text></g>
      <g class="pl_1 marker" transform="translate(202.5,234.8)"><use xlink:href="#mk1"/><text class="dp2" y="-25">9.5</text></g>
      <g class="pl_1 marker" transform="translate(206.6,180.4)"><use xlink:href="#mk1"/><text class="dp2" y="-25">10.3</text></g>
      <g class="pl_1 marker" transform="translate(210.8,384.6)"><use xlink:href="#mk1"/><text class="dp2" y="-25">7.4</text></g>
      <g class="pl_1 marker" transform="translate(215.1,464.3)"><use xlink:href="#mk1"/><text class="dp2" y="-25">6.3</text></g>
      <g class="pl_1 marker" transform="translate(219.3,466.1)"><use xlink:href="#mk1"/><text class="dp2" y="-25">6.3</text></g>
      <g class="pl_1 marker" transform="translate(223.6,396.0)"><use xlink:href="#mk1"/><text class="dp2" y="-25">7.3</text></g>
      <g class="pl_1 marker" transform="translate(227.9,353.0)"><use xlink:href="#mk1"/><text class="dp2" y="-25">7.9</text></g>
      <g class="pl_1 marker" transform="translate(232.1,382.8)"><use xlink:href="#mk1"/><text class="dp2" y="-25">7.5</text></g>
      <g class="pl_1 marker" transform="translate(236.4,325.8)"><use xlink:href="#mk1"/><text class="dp2" y="-25">8.2</text></g>
      <g class="pl_1 marker" transform="translate(240.6,218.5)"><use xlink:href="#mk1"/><text class="dp2" y="-25">9.7</text></g>
      <g class="pl_1 marker" transform="translate(244.9,163.7)"><use xlink:href="#mk1"/><text class="dp2" y="-25">10.5</text></g>
      <g class="pl_1 marker" transform="translate(249.2,114.6)"><use xlink:href="#mk1"/><text class="dp2" y="-25">11.2</text></g>
      <g class="pl_1 marker" transform="translate(253.3,148.4)"><use xlink:href="#mk1"/><text class="dp2" y="-25">10.7</text></g>
      <g class="pl_1 marker" transform="translate(257.5,126.4)"><use xlink:href="#mk1"/><text class="dp2" y="-25">11.0</text></g>
      <g class="pl_1 marker" transform="translate(261.7,240.7)"><use xlink:href="#mk1"/><text class="dp2" y="-25">9.4</text></g>
      <g class="pl_1 marker" transform="translate(265.9,280.7)"><use xlink:href="#mk1"/><text class="dp2" y="-25">8.9</text></g>
      <g class="pl_1 marker" transform="translate(270.2,305.9)"><use xlink:href="#mk1"/><text class="dp2" y="-25">8.5</text></g>
      <g class="pl_1 marker" transform="translate(274.4,268.8)"><use xlink:href="#mk1"/><text class="dp2" y="-25">9.0</text></g>
      <g class="pl_1 marker" transform="translate(278.7,333.5)"><use xlink:href="#mk1"/><text class="dp2" y="-25">8.1</text></g>
      <g class="pl_1 marker" transform="translate(282.9,420.3)"><use xlink:href="#mk1"/><text class="dp2" y="-25">6.9</text></g>
      <g class="pl_1 marker" transform="translate(287.2,200.0)"><use xlink:href="#mk1"/><text class="dp2" y="-25">10.0</text></g>
      <g class="pl_1 marker" transform="translate(291.4,196.3)"><use xlink:href="#mk1"/><text class="dp2" y="-25">10.0</text></g>
      <g class="pl_1 marker" transform="translate(295.6,129.4)"><use xlink:href="#mk1"/><text class="dp2" y="-25">11.0</text></g>
      <g class="pl_1 marker" transform="translate(299.9,157.7)"><use xlink:href="#mk1"/><text class="dp2" y="-25">10.6</text></g>
      <g class="pl_1 marker" transform="translate(304.0,281.0)"><use xlink:href="#mk1"/><text class="dp2" y="-25">8.9</text></g>
      <g class="pl_1 marker" transform="translate(308.1,230.7)"><use xlink:href="#mk1"/><text class="dp2" y="-25">9.6</text></g>
      <g class="pl_1 marker" transform="translate(312.4,262.2)"><use xlink:href="#mk1"/><text class="dp2" y="-25">9.1</text></g>
      <g class="pl_1 marker" transform="translate(316.6,269.3)"><use xlink:href="#mk1"/><text class="dp2" y="-25">9.0</text></g>
      <g class="pl_1 marker" transform="translate(320.9,323.4)"><use xlink:href="#mk1"/><text class="dp2" y="-25">8.3</text></g>
      <g class="pl_1 marker" transform="translate(325.1,257.5)"><use xlink:href="#mk1"/><text class="dp2" y="-25">9.2</text></g>
      <g class="pl_1 marker" transform="translate(329.4,393.1)"><use xlink:href="#mk1"/><text class="dp2" y="-25">7.3</text></g>
      <g class="pl_1 marker" transform="translate(333.7,355.5)"><use xlink:href="#mk1"/><text class="dp2" y="-25">7.8</text></g>
      <g class="pl_1 marker" transform="translate(337.9,244.7)"><use xlink:href="#mk1"/><text class="dp2" y="-25">9.4</text></g>
      <g class="pl_1 marker" transform="translate(342.2,241.0)"><use xlink:href="#mk1"/><text class="dp2" y="-25">9.4</text></g>
      <g class="pl_1 marker" transform="translate(346.4,181.2)"><use xlink:href="#mk1"/><text class="dp2" y="-25">10.2</text></g>
      <g class="pl_1 marker" transform="translate(350.7,207.6)"><use xlink:href="#mk1"/><text class="dp2" y="-25">9.9</text></g>
      <g class="pl_1 marker" transform="translate(354.8,256.0)"><use xlink:href="#mk1"/><text class="dp2" y="-25">9.2</text></g>
      <g class="pl_1 marker" transform="translate(358.9,170.3)"><use xlink:href="#mk1"/><text class="dp2" y="-25">10.4</text></g>
      <g class="pl_1 marker" transform="translate(363.2,277.2)"><use xlink:href="#mk1"/><text class="dp2" y="-25">8.9</text></g>
      <g class="pl_1 marker" transform="translate(367.4,339.5)"><use xlink:href="#mk1"/><text class="dp2" y="-25">8.1</text></g>
      <g class="pl_1 marker" transform="translate(371.6,392.0)"><use xlink:href="#mk1"/><text class="dp2" y="-25">7.3</text></g>
      <g class="pl_1 marker" transform="translate(375.9,350.5)"><use xlink:href="#mk1"/><text class="dp2" y="-25">7.9</text></g>
      <g class="pl_1 marker" transform="translate(380.2,396.2)"><use xlink:href="#mk1"/><text class="dp2" y="-25">7.3</text></g>
      <g class="pl_1 marker" transform="translate(384.4,351.8)"><use xlink:href="#mk1"/><text class="dp2" y="-25">7.9</text></g>
      <g class="pl_1 marker" transform="translate(388.7,165.7)"><use xlink:href="#mk1"/><text class="dp2" y="-25">10.5</text></g>
      <g class="pl_1 marker" transform="translate(392.9,188.2)"><use xlink:href="#mk1"/><text class="dp2" y="-25">10.1</text></g>
      <g class="pl_1 marker" transform="translate(397.2,134.1)"><use xlink:href="#mk1"/><text class="dp2" y="-25">10.9</text></g>
      <g class="pl_1 marker" transform="translate(401.5,179.9)"><use xlink:href="#mk1"/><text class="dp2" y="-25">10.3</text></g>
      <g class="pl_1 marker" transform="translate(405.6,196.1)"><use xlink:href="#mk1"/><text class="dp2" y="-25">10.0</text></g>
      <g class="pl_1 marker" transform="translate(409.7,137.0)"><use xlink:href="#mk1"/><text class="dp2" y="-25">10.9</text></g>
      <g class="pl_1 marker" transform="translate(413.9,356.0)"><use xlink:href="#mk1"/><text class="dp2" y="-25">7.8</text></g>
      <g class="pl_1 marker" transform="translate(418.2,293.9)"><use xlink:href="#mk1"/><text class="dp2" y="-25">8.7</text></g>
      <g class="pl_1 marker" transform="translate(422.4,324.1)"><use xlink:href="#mk1"/><text class="dp2" y="-25">8.3</text></g>
      <g class="pl_1 marker" transform="translate(426.7,225.1)"><use xlink:href="#mk1"/><text class="dp2" y="-25">9.6</text></g>
      <g class="pl_1 marker" transform="translate(431.0,225.0)"><use xlink:href="#mk1"/><text class="dp2" y="-25">9.6</text></g>
      <g class="pl_1 marker" transform="translate(435.2,249.1)"><use xlink:href="#mk1"/><text class="dp2" y="-25">9.3</text></g>
      <g class="pl_1 marker" transform="translate(439.5,142.6)"><use xlink:href="#mk1"/><text class="dp2" y="-25">10.8</text></g>
      <g class="pl_1 marker" transform="translate(443.7,156.2)"><use xlink:href="#mk1"/><text class="dp2" y="-25">10.6</text></g>
      <g class="pl_1 marker" transform="translate(447.9,114.6)"><use xlink:href="#mk1"/><text class="dp2" y="-25">11.2</text></g>
      <g class="pl_1 marker" transform="translate(452.3,113.6)"><use xlink:href="#mk1"/><text class="dp2" y="-25">11.2</text></g>
      <g class="pl_1 marker" transform="translate(456.4,158.3)"><use xlink:href="#mk1"/><text class="dp2" y="-25">10.6</text></g>
      <g class="pl_1 marker" transform="translate(460.6,113.9)"><use xlink:href="#mk1"/><text class="dp2" y="-25">11.2</text></g>
      <g class="pl_1 marker" transform="translate(464.8,167.5)"><use xlink:href="#mk1"/><text class="dp2" y="-25">10.4</text></g>
      <g class="pl_1 marker" transform="translate(469.0,228.8)"><use xlink:href="#mk1"/><text class="dp2" y="-25">9.6</text></g>
      <g class="pl_1 marker" transform="translate(473.3,329.5)"><use xlink:href="#mk1"/><text class="dp2" y="-25">8.2</text></g>
      <g class="pl_1 marker" transform="translate(477.5,270.7)"><use xlink:href="#mk1"/><text class="dp2" y="-25">9.0</text></g>
      <g class="pl_1 marker" transform="translate(481.8,340.9)"><use xlink:href="#mk1"/><text class="dp2" y="-25">8.0</text></g>
      <g class="pl_1 marker" transform="translate(486.0,462.5)"><use xlink:href="#mk1"/><text class="dp2" y="-25">6.4</text></g>
      <g class="pl_1 marker" transform="translate(490.3,143.3)"><use xlink:href="#mk1"/><text class="dp2" y="-25">10.8</text></g>
      <g class="pl_1 marker" transform="translate(494.5,145.5)"><use xlink:href="#mk1"/><text class="dp2" y="-25">10.7</text></g>
      <g class="pl_1 marker" transform="translate(498.7,142.8)"><use xlink:href="#mk1"/><text class="dp2" y="-25">10.8</text></g>
      <g class="pl_1 marker" transform="translate(503.0,85.9)"><use xlink:href="#mk1"/><text class="dp2" y="-25">11.6</text></g>
      <g class="pl_1 marker" transform="translate(507.1,188.2)"><use xlink:href="#mk1"/><text class="dp2" y="-25">10.1</text></g>
      <g class="pl_1 marker" transform="translate(511.2,118.0)"><use xlink:href="#mk1"/><text class="dp2" y="-25">11.1</text></g>
      <g class="pl_1 marker" transform="translate(515.5,155.3)"><use xlink:href="#mk1"/><text class="dp2" y="-25">10.6</text></g>
      <g class="pl_1 marker" transform="translate(519.7,260.1)"><use xlink:href="#mk1"/><text class="dp2" y="-25">9.1</text></g>
      <g class="pl_1 marker" transform="translate(524.0,296.4)"><use xlink:href="#mk1"/><text class="dp2" y="-25">8.6</text></g>
      <g class="pl_1 marker" transform="translate(528.2,156.3)"><use xlink:href="#mk1"/><text class="dp2" y="-25">10.6</text></g>
      <g class="pl_1 marker" transform="translate(532.5,168.3)"><use xlink:href="#mk1"/><text class="dp2" y="-25">10.4</text></g>
      <g class="pl_1 marker" transform="translate(536.8,235.2)"><use xlink:href="#mk1"/><text class="dp2" y="-25">9.5</text></g>
      <g class="pl_1 marker" transform="translate(541.0,137.1)"><use xlink:href="#mk1"/><text class="dp2" y="-25">10.9</text></g>
      <g class="pl_1 marker" transform="translate(545.2,130.4)"><use xlink:href="#mk1"/><text class="dp2" y="-25">10.9</text></g>
      <g class="pl_1 marker" transform="translate(549.5,113.8)"><use xlink:href="#mk1"/><text class="dp2" y="-25">11.2</text></g>
      <g class="pl_1 marker" transform="translate(553.8,105.3)"><use xlink:href="#mk1"/><text class="dp2" y="-25">11.3</text></g>
      <g class="pl_1 marker" transform="translate(557.9,196.0)"><use xlink:href="#mk1"/><text class="dp2" y="-25">10.0</text></g>
      <g class="pl_1 marker" transform="translate(562.0,137.8)"><use xlink:href="#mk1"/><text class="dp2" y="-25">10.8</text></g>
      <g class="pl_1 marker" transform="translate(566.3,194.2)"><use xlink:href="#mk1"/><text class="dp2" y="-25">10.1</text></g>
      <g class="pl_1 marker" transform="translate(570.5,236.0)"><use xlink:href="#mk1"/><text class="dp2" y="-25">9.5</text></g>
      <g class="pl_1 marker" transform="translate(574.7,255.7)"><use xlink:href="#mk1"/><text class="dp2" y="-25">9.2</text></g>
      <g class="pl_1 marker" transform="translate(579.0,157.8)"><use xlink:href="#mk1"/><text class="dp2" y="-25">10.6</text></g>
      <g class="pl_1 marker" transform="translate(583.3,185.8)"><use xlink:href="#mk1"/><text class="dp2" y="-25">10.2</text></g>
      <g class="pl_1 marker" transform="translate(587.5,269.4)"><use xlink:href="#mk1"/><text class="dp2" y="-25">9.0</text></g>
      <g class="pl_1 marker" transform="translate(591.8,157.9)"><use xlink:href="#mk1"/><text class="dp2" y="-25">10.6</text></g>
      <g class="pl_1 marker" transform="translate(596.0,181.3)"><use xlink:href="#mk1"/><text class="dp2" y="-25">10.2</text></g>
      <g class="pl_1 marker" transform="translate(600.3,144.0)"><use xlink:href="#mk1"/><text class="dp2" y="-25">10.8</text></g>
      <g class="pl_1 marker" transform="translate(604.6,115.3)"><use xlink:href="#mk1"/><text class="dp2" y="-25">11.2</text></g>
      <g class="pl_1 marker" transform="translate(608.7,189.8)"><use xlink:href="#mk1"/><text class="dp2" y="-25">10.1</text></g>
      <g class="pl_1 marker" transform="translate(612.8,133.5)"><use xlink:href="#mk1"/><text class="dp2" y="-25">10.9</text></g>
      <g class="pl_1 marker" transform="translate(617.0,191.5)"><use xlink:href="#mk1"/><text class="dp2" y="-25">10.1</text></g>
      <g class="pl_1 marker" transform="translate(621.3,216.8)"><use xlink:href="#mk1"/><text class="dp2" y="-25">9.7</text></g>
      <g class="pl_1 marker" transform="translate(625.5,246.5)"><use xlink:href="#mk1"/><text class="dp2" y="-25">9.3</text></g>
      <g class="pl_1 marker" transform="translate(629.8,228.9)"><use xlink:href="#mk1"/><text class="dp2" y="-25">9.6</text></g>
      <g class="pl_1 marker" transform="translate(634.1,329.8)"><use xlink:href="#mk1"/><text class="dp2" y="-25">8.2</text></g>
      <g class="pl_1 marker" transform="translate(638.3,493.1)"><use xlink:href="#mk1"/><text class="dp2" y="-25">5.9</text></g>
      <g class="pl_1 marker" transform="translate(642.6,249.0)"><use xlink:href="#mk1"/><text class="dp2" y="-25">9.3</text></g>
      <g class="pl_1 marker" transform="translate(646.8,195.4)"><use xlink:href="#mk1"/><text class="dp2" y="-25">10.0</text></g>
      <g class="pl_1 marker" transform="translate(651.0,143.6)"><use xlink:href="#mk1"/><text class="dp2" y="-25">10.8</text></g>
      <g class="pl_1 marker" transform="translate(655.3,163.5)"><use xlink:href="#mk1"/><text class="dp2" y="-25">10.5</text></g>
      <g class="pl_1 marker" transform="translate(659.5,207.2)"><use xlink:href="#mk1"/><text class="dp2" y="-25">9.9</text></g>
      <g class="pl_1 marker" transform="translate(663.7,146.7)"><use xlink:href="#mk1"/><text class="dp2" y="-25">10.7</text></g>
      <g class="pl_1 marker" transform="translate(667.9,264.3)"><use xlink:href="#mk1"/><text class="dp2" y="-25">9.1</text></g>
      <g class="pl_1 marker" transform="translate(672.1,329.3)"><use xlink:href="#mk1"/><text class="dp2" y="-25">8.2</text></g>
      <g class="pl_1 marker" transform="translate(676.4,315.0)"><use xlink:href="#mk1"/><text class="dp2" y="-25">8.4</text></g>
      <g class="pl_1 marker" transform="translate(680.6,236.6)"><use xlink:href="#mk1"/><text class="dp2" y="-25">9.5</text></g>
      <g class="pl_1 marker" transform="translate(684.9,279.0)"><use xlink:href="#mk1"/><text class="dp2" y="-25">8.9</text></g>
      <g class="pl_1 marker" transform="translate(689.1,320.5)"><use xlink:href="#mk1"/><text class="dp2" y="-25">8.3</text></g>
      <g class="pl_1 marker" transform="translate(693.4,272.8)"><use xlink:href="#mk1"/><text class="dp2" y="-25">9.0</text></g>
      <g class="pl_1 marker" transform="translate(697.6,226.1)"><use xlink:href="#mk1"/><text class="dp2" y="-25">9.6</text></g>
      <g class="pl_1 marker" transform="translate(701.8,177.5)"><use xlink:href="#mk1"/><text class="dp2" y="-25">10.3</text></g>
      <g class="pl_1 marker" transform="translate(706.1,182.1)"><use xlink:href="#mk1"/><text class="dp2" y="-25">10.2</text></g>
      <g class="pl_1 marker" transform="translate(710.2,271.4)"><use xlink:href="#mk1"/><text class="dp2" y="-25">9.0</text></g>
      <g class="pl_1 marker" transform="translate(714.3,208.5)"><use xlink:href="#mk1"/><text class="dp2" y="-25">9.9</text></g>
      <g class="pl_1 marker" transform="translate(718.6,250.5)"><use xlink:href="#mk1"/><text class="dp2" y="-25">9.3</text></g>
      <g class="pl_1 marker" transform="translate(722.8,293.5)"><use xlink:href="#mk1"/><text class="dp2" y="-25">8.7</text></g>
      <g class="pl_1 marker" transform="translate(727.1,354.2)"><use xlink:href="#mk1"/><text class="dp2" y="-25">7.8</text></g>
      <g class="pl_1 marker" transform="translate(731.3,226.1)"><use xlink:href="#mk1"/><text class="dp2" y="-25">9.6</text></g>
      <g class="pl_1 marker" transform="translate(735.6,231.8)"><use xlink:href="#mk1"/><text class="dp2" y="-25">9.5</text></g>
      <g class="pl_1 marker" transform="translate(739.9,268.4)"><use xlink:href="#mk1"/><text class="dp2" y="-25">9.0</text></g>
      <g class="pl_1 marker" transform="translate(744.1,149.2)"><use xlink:href="#mk1"/><text class="dp2" y="-25">10.7</text></g>
      <g class="pl_1 marker" transform="translate(748.3,169.7)"><use xlink:href="#mk1"/><text class="dp2" y="-25">10.4</text></g>
      <g class="pl_1 marker" transform="translate(752.6,125.0)"><use xlink:href="#mk1"/><text class="dp2" y="-25">11.0</text></g>
      <g class="pl_1 marker" transform="translate(756.9,151.6)"><use xlink:href="#mk1"/><text class="dp2" y="-25">10.7</text></g>
      <g class="pl_1 marker" transform="translate(761.0,215.9)"><use xlink:href="#mk1"/><text class="dp2" y="-25">9.8</text></g>
      <g class="pl_1 marker" transform="translate(765.1,162.7)"><use xlink:href="#mk1"/><text class="dp2" y="-25">10.5</text></g>
      <g class="pl_1 marker" transform="translate(769.3,207.5)"><use xlink:href="#mk1"/><text class="dp2" y="-25">9.9</text></g>
      <g class="pl_1 marker" transform="translate(773.6,194.4)"><use xlink:href="#mk1"/><text class="dp2" y="-25">10.1</text></g>
      <g class="pl_1 marker" transform="translate(777.8,198.2)"><use xlink:href="#mk1"/><text class="dp2" y="-25">10.0</text></g>
      <g class="pl_1 marker" transform="translate(782.1,131.8)"><use xlink:href="#mk1"/><text class="dp2" y="-25">10.9</text></g>
      <g class="pl_1 marker" transform="translate(786.4,144.8)"><use xlink:href="#mk1"/><text class="dp2" y="-25">10.7</text></g>
      <g class="pl_1 marker" transform="translate(790.6,259.5)"><use xlink:href="#mk1"/><text class="dp2" y="-25">9.2</text></g>
      <g class="pl_1 marker" transform="translate(794.9,134.6)"><use xlink:href="#mk1"/><text class="dp2" y="-25">10.9</text></g>
      <g class="pl_1 marker" transform="translate(799.1,169.3)"><use xlink:href="#mk1"/><text class="dp2" y="-25">10.4</text></g>
      <g class="pl_1 marker" transform="translate(803.4,108.7)"><use xlink:href="#mk1"/><text class="dp2" y="-25">11.2</text></g>
      <g class="pl_1 marker" transform="translate(807.7,122.5)"><use xlink:href="#mk1"/><text class="dp2" y="-25">11.1</text></g>
      <g class="pl_1 marker" transform="translate(811.8,200.4)"><use xlink:href="#mk1"/><text class="dp2" y="-25">10.0</text></g>
      <g class="pl_1 marker" transform="translate(815.9,126.4)"><use xlink:href="#mk1"/><text class="dp2" y="-25">11.0</text></g>
      <g class="pl_1 marker" transform="translate(820.1,179.2)"><use xlink:href="#mk1"/><text class="dp2" y="-25">10.3</text></g>
      <g class="pl_1 marker" transform="translate(824.4,302.1)"><use xlink:href="#mk1"/><text class="dp2" y="-25">8.6</text></g>
      <g class="pl_1 marker" transform="translate(828.6,372.7)"><use xlink:href="#mk1"/><text class="dp2" y="-25">7.6</text></g>
      <g class="pl_1 marker" transform="translate(832.8,193.1)"><use xlink:href="#mk1"/><text class="dp2" y="-25">10.1</text></g>
      <g class="pl_1 marker" transform="translate(837.2,217.7)"><use xlink:href="#mk1"/><text class="dp2" y="-25">9.7</text></g>
      <g class="pl_1 marker" transform="translate(841.4,484.1)"><use xlink:href="#mk1"/><text class="dp2" y="-25">6.1</text></g>
      <g class="pl_1 marker" transform="translate(845.6,183.8)"><use xlink:href="#mk1"/><text class="dp2" y="-25">10.2</text></g>
      <g class="pl_1 marker" transform="translate(849.9,130.0)"><use xlink:href="#mk1"/><text class="dp2" y="-25">10.9</text></g>
      <g class="pl_1 marker" transform="translate(854.1,65.1)"><use xlink:href="#mk1"/><text class="dp2" y="-25">11.8</text></g>
      <g class="pl_1 marker" transform="translate(858.4,71.4)"><use xlink:href="#mk1"/><text class="dp2" y="-25">11.8</text></g>
      <g class="pl_1 marker" transform="translate(862.6,166.1)"><use xlink:href="#mk1"/><text class="dp2" y="-25">10.5</text></g>
      <g class="pl_1 marker" transform="translate(866.8,100.9)"><use xlink:href="#mk1"/><text class="dp2" y="-25">11.4</text></g>
      <g class="pl_1 marker" transform="translate(871.0,169.4)"><use xlink:href="#mk1"/><text class="dp2" y="-25">10.4</text></g>
      <g class="pl_1 marker" transform="translate(875.2,199.6)"><use xlink:href="#mk1"/><text class="dp2" y="-25">10.0</text></g>
      <g class="pl_1 marker" transform="translate(879.5,171.7)"><use xlink:href="#mk1"/><text class="dp2" y="-25">10.4</text></g>
      <g class="pl_1 marker" transform="translate(883.7,113.2)"><use xlink:href="#mk1"/><text class="dp2" y="-25">11.2</text></g>
    </g>
  </g>
</g>
    <text class="pl" transform="translate(171.0,86.0)" dy="5.8" font-size="19.44" fill="#808080" stroke="none" text-anchor="middle">107.0</text>
    <g stroke="none" stroke-width="0.9000"  >
      <polygon class="pl" points="142.4,108.3 150.2,97.9 157.9,108.3 142.4,108.3" fill="#F60"/>
    </g>
    <text class="pl" transform="translate(161.8,104.8)" dy="4.9" font-size="16.20" fill="#F60" stroke="none">2.6%</text>
    <text class="pl" transform="translate(221.8,86.0)" dy="5.8" font-size="19.44" fill="#808080" stroke="none" text-anchor="middle">101.3</text>
    <g stroke="none" stroke-width="0.9000"  >
      <polygon class="pl" points="193.2,97.9 200.9,108.3 208.7,97.9 193.2,97.9" fill="#54B547"/>
    </g>
    <text class="pl" transform="translate(212.6,104.8)" dy="4.9" font-size="16.20" fill="#54B547" stroke="none">5.4%</text>
    <text class="pl" transform="translate(272.5,86.0)" dy="5.8" font-size="19.44" fill="#808080" stroke="none" text-anchor="middle">114.7</text>
    <g stroke="none" stroke-width="0.9000"  >
      <polygon class="pl" points="239.6,108.3 247.4,97.9 255.2,108.3 239.6,108.3" fill="#F60"/>
    </g>
    <text class="pl" transform="translate(259.1,104.8)" dy="4.9" font-size="16.20" fill="#F60" stroke="none">13.0%</text>
    <text class="pl" transform="translate(323.3,86.0)" dy="5.8" font-size="19.44" fill="#808080" stroke="none" text-anchor="middle">108.7</text>
    <g stroke="none" stroke-width="0.9000"  >
      <polygon class="pl" points="294.7,97.9 302.5,108.3 310.3,97.9 294.7,97.9" fill="#54B547"/>
    </g>
    <text class="pl" transform="translate(314.1,104.8)" dy="4.9" font-size="16.20" fill="#54B547" stroke="none">5.0%</text>
    <text class="pl" transform="translate(374.1,86.0)" dy="5.8" font-size="19.44" fill="#808080" stroke="none" text-anchor="middle">108.3</text>
    <g stroke="none" stroke-width="0.9000"  >
      <polygon class="pl" points="345.5,97.9 353.3,108.3 361.0,97.9 345.5,97.9" fill="#54B547"/>
    </g>
    <text class="pl" transform="translate(364.9,104.8)" dy="4.9" font-size="16.20" fill="#54B547" stroke="none">0.4%</text>
    <text class="pl" transform="translate(424.9,86.0)" dy="5.8" font-size="19.44" fill="#808080" stroke="none" text-anchor="middle">117.0</text>
    <g stroke="none" stroke-width="0.9000"  >
      <polygon class="pl" points="396.3,108.3 404.0,97.9 411.8,108.3 396.3,108.3" fill="#F60"/>
    </g>
    <text class="pl" transform="translate(415.7,104.8)" dy="4.9" font-size="16.20" fill="#F60" stroke="none">8.0%</text>
    <text class="pl" transform="translate(475.6,86.0)" dy="5.8" font-size="19.44" fill="#808080" stroke="none" text-anchor="middle">116.8</text>
    <g stroke="none" stroke-width="0.9000"  >
      <polygon class="pl" points="447.0,97.9 454.8,108.3 462.6,97.9 447.0,97.9" fill="#54B547"/>
    </g>
    <text class="pl" transform="translate(466.5,104.8)" dy="4.9" font-size="16.20" fill="#54B547" stroke="none">0.5%</text>
    <text class="pl" transform="translate(526.4,86.0)" dy="5.8" font-size="19.44" fill="#808080" stroke="none" text-anchor="middle">124.7</text>
    <g stroke="none" stroke-width="0.9000"  >
      <polygon class="pl" points="497.8,108.3 505.6,97.9 513.4,108.3 497.8,108.3" fill="#F60"/>
    </g>
    <text class="pl" transform="translate(517.2,104.8)" dy="4.9" font-size="16.20" fill="#F60" stroke="none">7.1%</text>
    <text class="pl" transform="translate(577.2,86.0)" dy="5.8" font-size="19.44" fill="#808080" stroke="none" text-anchor="middle">122.2</text>
    <g stroke="none" stroke-width="0.9000"  >
      <polygon class="pl" points="548.6,97.9 556.4,108.3 564.1,97.9 548.6,97.9" fill="#54B547"/>
    </g>
    <text class="pl" transform="translate(568.0,104.8)" dy="4.9" font-size="16.20" fill="#54B547" stroke="none">2.0%</text>
    <text class="pl" transform="translate(627.9,86.0)" dy="5.8" font-size="19.44" fill="#808080" stroke="none" text-anchor="middle">115.2</text>
    <g stroke="none" stroke-width="0.9000"  >
      <polygon class="pl" points="599.3,97.9 607.1,108.3 614.9,97.9 599.3,97.9" fill="#54B547"/>
    </g>
    <text class="pl" transform="translate(618.8,104.8)" dy="4.9" font-size="16.20" fill="#54B547" stroke="none">5.8%</text>
    <text class="pl" transform="translate(678.7,86.0)" dy="5.8" font-size="19.44" fill="#808080" stroke="none" text-anchor="middle">112.3</text>
    <g stroke="none" stroke-width="0.9000"  >
      <polygon class="pl" points="650.1,97.9 657.9,108.3 665.7,97.9 650.1,97.9" fill="#54B547"/>
    </g>
    <text class="pl" transform="translate(669.6,104.8)" dy="4.9" font-size="16.20" fill="#54B547" stroke="none">2.7%</text>
    <text class="pl" transform="translate(729.5,86.0)" dy="5.8" font-size="19.44" fill="#808080" stroke="none" text-anchor="middle">115.2</text>
    <g stroke="none" stroke-width="0.9000"  >
      <polygon class="pl" points="700.9,108.3 708.7,97.9 716.4,108.3 700.9,108.3" fill="#F60"/>
    </g>
    <text class="pl" transform="translate(720.3,104.8)" dy="4.9" font-size="16.20" fill="#F60" stroke="none">2.8%</text>
    <text class="pl" transform="translate(780.3,86.0)" dy="5.8" font-size="19.44" fill="#808080" stroke="none" text-anchor="middle">124.2</text>
    <g stroke="none" stroke-width="0.9000"  >
      <polygon class="pl" points="751.7,108.3 759.4,97.9 767.2,108.3 751.7,108.3" fill="#F60"/>
    </g>
    <text class="pl" transform="translate(771.1,104.8)" dy="4.9" font-size="16.20" fill="#F60" stroke="none">7.8%</text>
    <text class="pl" transform="translate(831.0,86.0)" dy="5.8" font-size="19.44" fill="#808080" stroke="none" text-anchor="middle">117.3</text>
    <g stroke="none" stroke-width="0.9000"  >
      <polygon class="pl" points="802.4,97.9 810.2,108.3 818.0,97.9 802.4,97.9" fill="#54B547"/>
    </g>
    <text class="pl" transform="translate(821.9,104.8)" dy="4.9" font-size="16.20" fill="#54B547" stroke="none">5.5%</text>
    <text class="pl" transform="translate(881.8,86.0)" dy="5.8" font-size="19.44" fill="#808080" stroke="none" text-anchor="middle">So far</text>
    <g stroke="none" stroke-width="0.9000"  >
      <polygon class="pl" points="853.2,108.3 861.0,97.9 868.8,108.3 853.2,108.3" fill="#F60"/>
    </g>
    <text class="pl" transform="translate(872.7,104.8)" dy="4.9" font-size="16.20" fill="#F60" stroke="none">9.7%</text>
    <text class="pl" transform="translate(171.0,573.0) rotate(-90)" dy="8.1" font-size="27.00" fill="#808080" stroke="none" text-anchor="end">2010</text>
    <text class="pl" transform="translate(221.8,573.0) rotate(-90)" dy="8.1" font-size="27.00" fill="#808080" stroke="none" text-anchor="end">2011</text>
    <text class="pl" transform="translate(272.5,573.0) rotate(-90)" dy="8.1" font-size="27.00" fill="#808080" stroke="none" text-anchor="end">2012</text>
    <text class="pl" transform="translate(323.3,573.0) rotate(-90)" dy="8.1" font-size="27.00" fill="#808080" stroke="none" text-anchor="end">2013</text>
    <text class="pl" transform="translate(374.1,573.0) rotate(-90)" dy="8.1" font-size="27.00" fill="#808080" stroke="none" text-anchor="end">2014</text>
    <text class="pl" transform="translate(424.9,573.0) rotate(-90)" dy="8.1" font-size="27.00" fill="#808080" stroke="none" text-anchor="end">2015</text>
    <text class="pl" transform="translate(475.6,573.0) rotate(-90)" dy="8.1" font-size="27.00" fill="#808080" stroke="none" text-anchor="end">2016</text>
    <text class="pl" transform="translate(526.4,573.0) rotate(-90)" dy="8.1" font-size="27.00" fill="#808080" stroke="none" text-anchor="end">2017</text>
    <text class="pl" transform="translate(577.2,573.0) rotate(-90)" dy="8.1" font-size="27.00" fill="#808080" stroke="none" text-anchor="end">2018</text>
    <text class="pl" transform="translate(627.9,573.0) rotate(-90)" dy="8.1" font-size="27.00" fill="#808080" stroke="none" text-anchor="end">2019</text>
    <text class="pl" transform="translate(678.7,573.0) rotate(-90)" dy="8.1" font-size="27.00" fill="#808080" stroke="none" text-anchor="end">2020</text>
    <text class="pl" transform="translate(729.5,573.0) rotate(-90)" dy="8.1" font-size="27.00" fill="#808080" stroke="none" text-anchor="end">2021</text>
    <text class="pl" transform="translate(780.3,573.0) rotate(-90)" dy="8.1" font-size="27.00" fill="#808080" stroke="none" text-anchor="end">2022</text>
    <text class="pl" transform="translate(831.0,573.0) rotate(-90)" dy="8.1" font-size="27.00" fill="#808080" stroke="none" text-anchor="end">2023</text>
    <text class="pl" transform="translate(881.8,573.0) rotate(-90)" dy="8.1" font-size="27.00" fill="#808080" stroke="none" text-anchor="end">2024</text>
    <text class="pl" transform="translate(145.6,47.2)" dy="0.0" font-size="27.00" fill="#808080" stroke="none">Norwegian natural gas production</text>
<text transform="translate(157.6,666.1)" font-size="19.80" font-family="Helvetica" fill="#BFBFBF" stroke="none" xml:space="preserve"><a href="https://twitter.com/robbie_andrew" style="fill:#BFBFBF" target="_blank">@robbie_andrew</a>   &#9679;   Data: DISKOS   &#9679;   Data through July 2024</text>
<text class="twitlink" transform="translate(157.6,666.1)" opacity="0" font-size="19.80" fill="#BFBFBF" stroke="none" xml:space="preserve"><a href="https://twitter.com/robbie_andrew" style="fill:#BFBFBF" target="_blank">@robbie_andrew</a></text>
  <g class="dl_el" transform="translate(154.6,578.4)">
    <g class="dl_el_balloon">
      <foreignObject x="0" y="0" width="120" height="500">
      <div xmlns="http://www.w3.org/1999/xhtml" class="dl_fe" style="height:60px">
      <p class="dl_fe_p">Find me on Twitter</p>
      </div>
	    </foreignObject>
      <path stroke="#000" fill="#FDFFDF" d="M0,60H60l5,5l5,-5H120"/>
    </g>
  </g>
<g>
<a href="https://creativecommons.org/licenses/by/4.0/">
  <rect x="123.0" y="651.4" width="34" height="17" fill="#FFF" stroke="none"/>
  <g transform="translate(124.0,652.4) scale(0.24)">
  <g><circle fill="#FFF" cx="37.79" cy="28.5" r="28.84"/>
     <circle fill="none" cx="37.79" cy="28.5" r="28.84" stroke="#BFBFBF" stroke-width="5.5"/>
     <path fill="#BFBFBF" d="M37.16,23.19 l-4.29,2.23c-0.458-0.951-1.02-1.62-1.69-2c-0.667-0.38-1.29-0.571-1.86-0.571c-2.86,0-4.29,1.89-4.29,5.66 c0,1.71,0.36,3.08,1.09,4.11c0.724,1.03,1.79,1.54,3.2,1.54c1.87,0,3.18-0.915,3.94-2.74l3.94,2 c-0.838,1.56-2,2.79-3.49,3.69c-1.48,0.896-3.12,1.34-4.91,1.34c-2.86,0-5.16-0.875-6.92-2.63 c-1.75-1.75-2.63-4.19-2.63-7.31c0-3.05,0.886-5.47,2.66-7.26c1.77-1.79,4.01-2.69,6.72-2.69 C32.6,18.56,35.44,20.1,37.16,23.19z
              M55.61,23.19l-4.23,2.23c-0.457-0.951-1.02-1.62-1.69-2 c-0.668-0.38-1.31-0.571-1.91-0.571c-2.86,0-4.29,1.89-4.29,5.66c0,1.71,0.363,3.08,1.09,4.11 c0.723,1.03,1.79,1.54,3.2,1.54c1.87,0,3.18-0.915,3.94-2.74l4,2c-0.875,1.56-2.06,2.79-3.54,3.69 c-1.49,0.9-3.11,1.34-4.86,1.34c-2.9,0-5.21-0.875-6.94-2.63c-1.74-1.75-2.6-4.19-2.6-7.31 c0-3.05,0.885-5.47,2.66-7.26c1.77-1.79,4.01-2.69,6.71-2.69C51.12,18.56,53.944,20.1,55.61,23.19z"/>
  </g></g>
  <g transform="translate(140.2,652.4) scale(0.24)">
  <g><circle fill="#FFF" cx="37.79" cy="28.5" r="28.84"/>
     <circle fill="none" cx="37.79" cy="28.5" r="28.84" stroke="#BFBFBF" stroke-width="5.5"/>
     <path fill="#BFBFBF" d="M46.129,20.557v13.085h-3.656v15.542h-9.944V33.643h-3.656V20.557 c0-0.572,0.2-1.057,0.599-1.457c0.401-0.399,0.887-0.6,1.457-0.6h13.144c0.533,0,1.01,0.2,1.428,0.6 C45.918,19.5,46.129,19.986,46.129,20.557z
              M33.042,12.329c0-3.008,1.485-4.514,4.458-4.514s4.457,1.504,4.457,4.514 c0,2.971-1.486,4.457-4.457,4.457S33.042,15.3,33.042,12.329z"/>
  </g></g>
  </a>
</g>
  <g class="dl_el" transform="translate(69.1,548.4)">
    <g class="dl_el_balloon">
      <foreignObject x="0" y="0" width="250" height="500">
      <div xmlns="http://www.w3.org/1999/xhtml" class="dl_fe" style="height:90px">
      <p class="dl_fe_p">CC-BY: Material may be freely re-used as long as you credit the author</p>
      </div>
	    </foreignObject>
      <path stroke="#000" fill="#FDFFDF" d="M0,90H70l5,5l5,-5H250"/>
    </g>
  </g>
    <g>
      <g class="pl_1 marker" transform="translate(147.6,145.4)"><use xlink:href="#mk1"/><text class="dp2" y="-25">10.7</text></g>
      <g class="pl_1 marker" transform="translate(151.7,215.3)"><use xlink:href="#mk1"/><text class="dp2" y="-25">9.8</text></g>
      <g class="pl_1 marker" transform="translate(155.8,161.4)"><use xlink:href="#mk1"/><text class="dp2" y="-25">10.5</text></g>
      <g class="pl_1 marker" transform="translate(160.1,302.2)"><use xlink:href="#mk1"/><text class="dp2" y="-25">8.6</text></g>
      <g class="pl_1 marker" transform="translate(164.3,263.9)"><use xlink:href="#mk1"/><text class="dp2" y="-25">9.1</text></g>
      <g class="pl_1 marker" transform="translate(168.6,306.4)"><use xlink:href="#mk1"/><text class="dp2" y="-25">8.5</text></g>
      <g class="pl_1 marker" transform="translate(172.8,371.0)"><use xlink:href="#mk1"/><text class="dp2" y="-25">7.6</text></g>
      <g class="pl_1 marker" transform="translate(177.1,484.0)"><use xlink:href="#mk1"/><text class="dp2" y="-25">6.1</text></g>
      <g class="pl_1 marker" transform="translate(181.3,504.2)"><use xlink:href="#mk1"/><text class="dp2" y="-25">5.8</text></g>
      <g class="pl_1 marker" transform="translate(185.6,243.2)"><use xlink:href="#mk1"/><text class="dp2" y="-25">9.4</text></g>
      <g class="pl_1 marker" transform="translate(189.8,188.9)"><use xlink:href="#mk1"/><text class="dp2" y="-25">10.1</text></g>
      <g class="pl_1 marker" transform="translate(194.1,137.8)"><use xlink:href="#mk1"/><text class="dp2" y="-25">10.8</text></g>
      <g class="pl_1 marker" transform="translate(198.4,168.2)"><use xlink:href="#mk1"/><text class="dp2" y="-25">10.4</text></g>
      <g class="pl_1 marker" transform="translate(202.5,234.8)"><use xlink:href="#mk1"/><text class="dp2" y="-25">9.5</text></g>
      <g class="pl_1 marker" transform="translate(206.6,180.4)"><use xlink:href="#mk1"/><text class="dp2" y="-25">10.3</text></g>
      <g class="pl_1 marker" transform="translate(210.8,384.6)"><use xlink:href="#mk1"/><text class="dp2" y="-25">7.4</text></g>
      <g class="pl_1 marker" transform="translate(215.1,464.3)"><use xlink:href="#mk1"/><text class="dp2" y="-25">6.3</text></g>
      <g class="pl_1 marker" transform="translate(219.3,466.1)"><use xlink:href="#mk1"/><text class="dp2" y="-25">6.3</text></g>
      <g class="pl_1 marker" transform="translate(223.6,396.0)"><use xlink:href="#mk1"/><text class="dp2" y="-25">7.3</text></g>
      <g class="pl_1 marker" transform="translate(227.9,353.0)"><use xlink:href="#mk1"/><text class="dp2" y="-25">7.9</text></g>
      <g class="pl_1 marker" transform="translate(232.1,382.8)"><use xlink:href="#mk1"/><text class="dp2" y="-25">7.5</text></g>
      <g class="pl_1 marker" transform="translate(236.4,325.8)"><use xlink:href="#mk1"/><text class="dp2" y="-25">8.2</text></g>
      <g class="pl_1 marker" transform="translate(240.6,218.5)"><use xlink:href="#mk1"/><text class="dp2" y="-25">9.7</text></g>
      <g class="pl_1 marker" transform="translate(244.9,163.7)"><use xlink:href="#mk1"/><text class="dp2" y="-25">10.5</text></g>
      <g class="pl_1 marker" transform="translate(249.2,114.6)"><use xlink:href="#mk1"/><text class="dp2" y="-25">11.2</text></g>
      <g class="pl_1 marker" transform="translate(253.3,148.4)"><use xlink:href="#mk1"/><text class="dp2" y="-25">10.7</text></g>
      <g class="pl_1 marker" transform="translate(257.5,126.4)"><use xlink:href="#mk1"/><text class="dp2" y="-25">11.0</text></g>
      <g class="pl_1 marker" transform="translate(261.7,240.7)"><use xlink:href="#mk1"/><text class="dp2" y="-25">9.4</text></g>
      <g class="pl_1 marker" transform="translate(265.9,280.7)"><use xlink:href="#mk1"/><text class="dp2" y="-25">8.9</text></g>
      <g class="pl_1 marker" transform="translate(270.2,305.9)"><use xlink:href="#mk1"/><text class="dp2" y="-25">8.5</text></g>
      <g class="pl_1 marker" transform="translate(274.4,268.8)"><use xlink:href="#mk1"/><text class="dp2" y="-25">9.0</text></g>
      <g class="pl_1 marker" transform="translate(278.7,333.5)"><use xlink:href="#mk1"/><text class="dp2" y="-25">8.1</text></g>
      <g class="pl_1 marker" transform="translate(282.9,420.3)"><use xlink:href="#mk1"/><text class="dp2" y="-25">6.9</text></g>
      <g class="pl_1 marker" transform="translate(287.2,200.0)"><use xlink:href="#mk1"/><text class="dp2" y="-25">10.0</text></g>
      <g class="pl_1 marker" transform="translate(291.4,196.3)"><use xlink:href="#mk1"/><text class="dp2" y="-25">10.0</text></g>
      <g class="pl_1 marker" transform="translate(295.6,129.4)"><use xlink:href="#mk1"/><text class="dp2" y="-25">11.0</text></g>
      <g class="pl_1 marker" transform="translate(299.9,157.7)"><use xlink:href="#mk1"/><text class="dp2" y="-25">10.6</text></g>
      <g class="pl_1 marker" transform="translate(304.0,281.0)"><use xlink:href="#mk1"/><text class="dp2" y="-25">8.9</text></g>
      <g class="pl_1 marker" transform="translate(308.1,230.7)"><use xlink:href="#mk1"/><text class="dp2" y="-25">9.6</text></g>
      <g class="pl_1 marker" transform="translate(312.4,262.2)"><use xlink:href="#mk1"/><text class="dp2" y="-25">9.1</text></g>
      <g class="pl_1 marker" transform="translate(316.6,269.3)"><use xlink:href="#mk1"/><text class="dp2" y="-25">9.0</text></g>
      <g class="pl_1 marker" transform="translate(320.9,323.4)"><use xlink:href="#mk1"/><text class="dp2" y="-25">8.3</text></g>
      <g class="pl_1 marker" transform="translate(325.1,257.5)"><use xlink:href="#mk1"/><text class="dp2" y="-25">9.2</text></g>
      <g class="pl_1 marker" transform="translate(329.4,393.1)"><use xlink:href="#mk1"/><text class="dp2" y="-25">7.3</text></g>
      <g class="pl_1 marker" transform="translate(333.7,355.5)"><use xlink:href="#mk1"/><text class="dp2" y="-25">7.8</text></g>
      <g class="pl_1 marker" transform="translate(337.9,244.7)"><use xlink:href="#mk1"/><text class="dp2" y="-25">9.4</text></g>
      <g class="pl_1 marker" transform="translate(342.2,241.0)"><use xlink:href="#mk1"/><text class="dp2" y="-25">9.4</text></g>
      <g class="pl_1 marker" transform="translate(346.4,181.2)"><use xlink:href="#mk1"/><text class="dp2" y="-25">10.2</text></g>
      <g class="pl_1 marker" transform="translate(350.7,207.6)"><use xlink:href="#mk1"/><text class="dp2" y="-25">9.9</text></g>
      <g class="pl_1 marker" transform="translate(354.8,256.0)"><use xlink:href="#mk1"/><text class="dp2" y="-25">9.2</text></g>
      <g class="pl_1 marker" transform="translate(358.9,170.3)"><use xlink:href="#mk1"/><text class="dp2" y="-25">10.4</text></g>
      <g class="pl_1 marker" transform="translate(363.2,277.2)"><use xlink:href="#mk1"/><text class="dp2" y="-25">8.9</text></g>
      <g class="pl_1 marker" transform="translate(367.4,339.5)"><use xlink:href="#mk1"/><text class="dp2" y="-25">8.1</text></g>
      <g class="pl_1 marker" transform="translate(371.6,392.0)"><use xlink:href="#mk1"/><text class="dp2" y="-25">7.3</text></g>
      <g class="pl_1 marker" transform="translate(375.9,350.5)"><use xlink:href="#mk1"/><text class="dp2" y="-25">7.9</text></g>
      <g class="pl_1 marker" transform="translate(380.2,396.2)"><use xlink:href="#mk1"/><text class="dp2" y="-25">7.3</text></g>
      <g class="pl_1 marker" transform="translate(384.4,351.8)"><use xlink:href="#mk1"/><text class="dp2" y="-25">7.9</text></g>
      <g class="pl_1 marker" transform="translate(388.7,165.7)"><use xlink:href="#mk1"/><text class="dp2" y="-25">10.5</text></g>
      <g class="pl_1 marker" transform="translate(392.9,188.2)"><use xlink:href="#mk1"/><text class="dp2" y="-25">10.1</text></g>
      <g class="pl_1 marker" transform="translate(397.2,134.1)"><use xlink:href="#mk1"/><text class="dp2" y="-25">10.9</text></g>
      <g class="pl_1 marker" transform="translate(401.5,179.9)"><use xlink:href="#mk1"/><text class="dp2" y="-25">10.3</text></g>
      <g class="pl_1 marker" transform="translate(405.6,196.1)"><use xlink:href="#mk1"/><text class="dp2" y="-25">10.0</text></g>
      <g class="pl_1 marker" transform="translate(409.7,137.0)"><use xlink:href="#mk1"/><text class="dp2" y="-25">10.9</text></g>
      <g class="pl_1 marker" transform="translate(413.9,356.0)"><use xlink:href="#mk1"/><text class="dp2" y="-25">7.8</text></g>
      <g class="pl_1 marker" transform="translate(418.2,293.9)"><use xlink:href="#mk1"/><text class="dp2" y="-25">8.7</text></g>
      <g class="pl_1 marker" transform="translate(422.4,324.1)"><use xlink:href="#mk1"/><text class="dp2" y="-25">8.3</text></g>
      <g class="pl_1 marker" transform="translate(426.7,225.1)"><use xlink:href="#mk1"/><text class="dp2" y="-25">9.6</text></g>
      <g class="pl_1 marker" transform="translate(431.0,225.0)"><use xlink:href="#mk1"/><text class="dp2" y="-25">9.6</text></g>
      <g class="pl_1 marker" transform="translate(435.2,249.1)"><use xlink:href="#mk1"/><text class="dp2" y="-25">9.3</text></g>
      <g class="pl_1 marker" transform="translate(439.5,142.6)"><use xlink:href="#mk1"/><text class="dp2" y="-25">10.8</text></g>
      <g class="pl_1 marker" transform="translate(443.7,156.2)"><use xlink:href="#mk1"/><text class="dp2" y="-25">10.6</text></g>
      <g class="pl_1 marker" transform="translate(447.9,114.6)"><use xlink:href="#mk1"/><text class="dp2" y="-25">11.2</text></g>
      <g class="pl_1 marker" transform="translate(452.3,113.6)"><use xlink:href="#mk1"/><text class="dp2" y="-25">11.2</text></g>
      <g class="pl_1 marker" transform="translate(456.4,158.3)"><use xlink:href="#mk1"/><text class="dp2" y="-25">10.6</text></g>
      <g class="pl_1 marker" transform="translate(460.6,113.9)"><use xlink:href="#mk1"/><text class="dp2" y="-25">11.2</text></g>
      <g class="pl_1 marker" transform="translate(464.8,167.5)"><use xlink:href="#mk1"/><text class="dp2" y="-25">10.4</text></g>
      <g class="pl_1 marker" transform="translate(469.0,228.8)"><use xlink:href="#mk1"/><text class="dp2" y="-25">9.6</text></g>
      <g class="pl_1 marker" transform="translate(473.3,329.5)"><use xlink:href="#mk1"/><text class="dp2" y="-25">8.2</text></g>
      <g class="pl_1 marker" transform="translate(477.5,270.7)"><use xlink:href="#mk1"/><text class="dp2" y="-25">9.0</text></g>
      <g class="pl_1 marker" transform="translate(481.8,340.9)"><use xlink:href="#mk1"/><text class="dp2" y="-25">8.0</text></g>
      <g class="pl_1 marker" transform="translate(486.0,462.5)"><use xlink:href="#mk1"/><text class="dp2" y="-25">6.4</text></g>
      <g class="pl_1 marker" transform="translate(490.3,143.3)"><use xlink:href="#mk1"/><text class="dp2" y="-25">10.8</text></g>
      <g class="pl_1 marker" transform="translate(494.5,145.5)"><use xlink:href="#mk1"/><text class="dp2" y="-25">10.7</text></g>
      <g class="pl_1 marker" transform="translate(498.7,142.8)"><use xlink:href="#mk1"/><text class="dp2" y="-25">10.8</text></g>
      <g class="pl_1 marker" transform="translate(503.0,85.9)"><use xlink:href="#mk1"/><text class="dp2" y="-25">11.6</text></g>
      <g class="pl_1 marker" transform="translate(507.1,188.2)"><use xlink:href="#mk1"/><text class="dp2" y="-25">10.1</text></g>
      <g class="pl_1 marker" transform="translate(511.2,118.0)"><use xlink:href="#mk1"/><text class="dp2" y="-25">11.1</text></g>
      <g class="pl_1 marker" transform="translate(515.5,155.3)"><use xlink:href="#mk1"/><text class="dp2" y="-25">10.6</text></g>
      <g class="pl_1 marker" transform="translate(519.7,260.1)"><use xlink:href="#mk1"/><text class="dp2" y="-25">9.1</text></g>
      <g class="pl_1 marker" transform="translate(524.0,296.4)"><use xlink:href="#mk1"/><text class="dp2" y="-25">8.6</text></g>
      <g class="pl_1 marker" transform="translate(528.2,156.3)"><use xlink:href="#mk1"/><text class="dp2" y="-25">10.6</text></g>
      <g class="pl_1 marker" transform="translate(532.5,168.3)"><use xlink:href="#mk1"/><text class="dp2" y="-25">10.4</text></g>
      <g class="pl_1 marker" transform="translate(536.8,235.2)"><use xlink:href="#mk1"/><text class="dp2" y="-25">9.5</text></g>
      <g class="pl_1 marker" transform="translate(541.0,137.1)"><use xlink:href="#mk1"/><text class="dp2" y="-25">10.9</text></g>
      <g class="pl_1 marker" transform="translate(545.2,130.4)"><use xlink:href="#mk1"/><text class="dp2" y="-25">10.9</text></g>
      <g class="pl_1 marker" transform="translate(549.5,113.8)"><use xlink:href="#mk1"/><text class="dp2" y="-25">11.2</text></g>
      <g class="pl_1 marker" transform="translate(553.8,105.3)"><use xlink:href="#mk1"/><text class="dp2" y="-25">11.3</text></g>
      <g class="pl_1 marker" transform="translate(557.9,196.0)"><use xlink:href="#mk1"/><text class="dp2" y="-25">10.0</text></g>
      <g class="pl_1 marker" transform="translate(562.0,137.8)"><use xlink:href="#mk1"/><text class="dp2" y="-25">10.8</text></g>
      <g class="pl_1 marker" transform="translate(566.3,194.2)"><use xlink:href="#mk1"/><text class="dp2" y="-25">10.1</text></g>
      <g class="pl_1 marker" transform="translate(570.5,236.0)"><use xlink:href="#mk1"/><text class="dp2" y="-25">9.5</text></g>
      <g class="pl_1 marker" transform="translate(574.7,255.7)"><use xlink:href="#mk1"/><text class="dp2" y="-25">9.2</text></g>
      <g class="pl_1 marker" transform="translate(579.0,157.8)"><use xlink:href="#mk1"/><text class="dp2" y="-25">10.6</text></g>
      <g class="pl_1 marker" transform="translate(583.3,185.8)"><use xlink:href="#mk1"/><text class="dp2" y="-25">10.2</text></g>
      <g class="pl_1 marker" transform="translate(587.5,269.4)"><use xlink:href="#mk1"/><text class="dp2" y="-25">9.0</text></g>
      <g class="pl_1 marker" transform="translate(591.8,157.9)"><use xlink:href="#mk1"/><text class="dp2" y="-25">10.6</text></g>
      <g class="pl_1 marker" transform="translate(596.0,181.3)"><use xlink:href="#mk1"/><text class="dp2" y="-25">10.2</text></g>
      <g class="pl_1 marker" transform="translate(600.3,144.0)"><use xlink:href="#mk1"/><text class="dp2" y="-25">10.8</text></g>
      <g class="pl_1 marker" transform="translate(604.6,115.3)"><use xlink:href="#mk1"/><text class="dp2" y="-25">11.2</text></g>
      <g class="pl_1 marker" transform="translate(608.7,189.8)"><use xlink:href="#mk1"/><text class="dp2" y="-25">10.1</text></g>
      <g class="pl_1 marker" transform="translate(612.8,133.5)"><use xlink:href="#mk1"/><text class="dp2" y="-25">10.9</text></g>
      <g class="pl_1 marker" transform="translate(617.0,191.5)"><use xlink:href="#mk1"/><text class="dp2" y="-25">10.1</text></g>
      <g class="pl_1 marker" transform="translate(621.3,216.8)"><use xlink:href="#mk1"/><text class="dp2" y="-25">9.7</text></g>
      <g class="pl_1 marker" transform="translate(625.5,246.5)"><use xlink:href="#mk1"/><text class="dp2" y="-25">9.3</text></g>
      <g class="pl_1 marker" transform="translate(629.8,228.9)"><use xlink:href="#mk1"/><text class="dp2" y="-25">9.6</text></g>
      <g class="pl_1 marker" transform="translate(634.1,329.8)"><use xlink:href="#mk1"/><text class="dp2" y="-25">8.2</text></g>
      <g class="pl_1 marker" transform="translate(638.3,493.1)"><use xlink:href="#mk1"/><text class="dp2" y="-25">5.9</text></g>
      <g class="pl_1 marker" transform="translate(642.6,249.0)"><use xlink:href="#mk1"/><text class="dp2" y="-25">9.3</text></g>
      <g class="pl_1 marker" transform="translate(646.8,195.4)"><use xlink:href="#mk1"/><text class="dp2" y="-25">10.0</text></g>
      <g class="pl_1 marker" transform="translate(651.0,143.6)"><use xlink:href="#mk1"/><text class="dp2" y="-25">10.8</text></g>
      <g class="pl_1 marker" transform="translate(655.3,163.5)"><use xlink:href="#mk1"/><text class="dp2" y="-25">10.5</text></g>
      <g class="pl_1 marker" transform="translate(659.5,207.2)"><use xlink:href="#mk1"/><text class="dp2" y="-25">9.9</text></g>
      <g class="pl_1 marker" transform="translate(663.7,146.7)"><use xlink:href="#mk1"/><text class="dp2" y="-25">10.7</text></g>
      <g class="pl_1 marker" transform="translate(667.9,264.3)"><use xlink:href="#mk1"/><text class="dp2" y="-25">9.1</text></g>
      <g class="pl_1 marker" transform="translate(672.1,329.3)"><use xlink:href="#mk1"/><text class="dp2" y="-25">8.2</text></g>
      <g class="pl_1 marker" transform="translate(676.4,315.0)"><use xlink:href="#mk1"/><text class="dp2" y="-25">8.4</text></g>
      <g class="pl_1 marker" transform="translate(680.6,236.6)"><use xlink:href="#mk1"/><text class="dp2" y="-25">9.5</text></g>
      <g class="pl_1 marker" transform="translate(684.9,279.0)"><use xlink:href="#mk1"/><text class="dp2" y="-25">8.9</text></g>
      <g class="pl_1 marker" transform="translate(689.1,320.5)"><use xlink:href="#mk1"/><text class="dp2" y="-25">8.3</text></g>
      <g class="pl_1 marker" transform="translate(693.4,272.8)"><use xlink:href="#mk1"/><text class="dp2" y="-25">9.0</text></g>
      <g class="pl_1 marker" transform="translate(697.6,226.1)"><use xlink:href="#mk1"/><text class="dp2" y="-25">9.6</text></g>
      <g class="pl_1 marker" transform="translate(701.8,177.5)"><use xlink:href="#mk1"/><text class="dp2" y="-25">10.3</text></g>
      <g class="pl_1 marker" transform="translate(706.1,182.1)"><use xlink:href="#mk1"/><text class="dp2" y="-25">10.2</text></g>
      <g class="pl_1 marker" transform="translate(710.2,271.4)"><use xlink:href="#mk1"/><text class="dp2" y="-25">9.0</text></g>
      <g class="pl_1 marker" transform="translate(714.3,208.5)"><use xlink:href="#mk1"/><text class="dp2" y="-25">9.9</text></g>
      <g class="pl_1 marker" transform="translate(718.6,250.5)"><use xlink:href="#mk1"/><text class="dp2" y="-25">9.3</text></g>
      <g class="pl_1 marker" transform="translate(722.8,293.5)"><use xlink:href="#mk1"/><text class="dp2" y="-25">8.7</text></g>
      <g class="pl_1 marker" transform="translate(727.1,354.2)"><use xlink:href="#mk1"/><text class="dp2" y="-25">7.8</text></g>
      <g class="pl_1 marker" transform="translate(731.3,226.1)"><use xlink:href="#mk1"/><text class="dp2" y="-25">9.6</text></g>
      <g class="pl_1 marker" transform="translate(735.6,231.8)"><use xlink:href="#mk1"/><text class="dp2" y="-25">9.5</text></g>
      <g class="pl_1 marker" transform="translate(739.9,268.4)"><use xlink:href="#mk1"/><text class="dp2" y="-25">9.0</text></g>
      <g class="pl_1 marker" transform="translate(744.1,149.2)"><use xlink:href="#mk1"/><text class="dp2" y="-25">10.7</text></g>
      <g class="pl_1 marker" transform="translate(748.3,169.7)"><use xlink:href="#mk1"/><text class="dp2" y="-25">10.4</text></g>
      <g class="pl_1 marker" transform="translate(752.6,125.0)"><use xlink:href="#mk1"/><text class="dp2" y="-25">11.0</text></g>
      <g class="pl_1 marker" transform="translate(756.9,151.6)"><use xlink:href="#mk1"/><text class="dp2" y="-25">10.7</text></g>
      <g class="pl_1 marker" transform="translate(761.0,215.9)"><use xlink:href="#mk1"/><text class="dp2" y="-25">9.8</text></g>
      <g class="pl_1 marker" transform="translate(765.1,162.7)"><use xlink:href="#mk1"/><text class="dp2" y="-25">10.5</text></g>
      <g class="pl_1 marker" transform="translate(769.3,207.5)"><use xlink:href="#mk1"/><text class="dp2" y="-25">9.9</text></g>
      <g class="pl_1 marker" transform="translate(773.6,194.4)"><use xlink:href="#mk1"/><text class="dp2" y="-25">10.1</text></g>
      <g class="pl_1 marker" transform="translate(777.8,198.2)"><use xlink:href="#mk1"/><text class="dp2" y="-25">10.0</text></g>
      <g class="pl_1 marker" transform="translate(782.1,131.8)"><use xlink:href="#mk1"/><text class="dp2" y="-25">10.9</text></g>
      <g class="pl_1 marker" transform="translate(786.4,144.8)"><use xlink:href="#mk1"/><text class="dp2" y="-25">10.7</text></g>
      <g class="pl_1 marker" transform="translate(790.6,259.5)"><use xlink:href="#mk1"/><text class="dp2" y="-25">9.2</text></g>
      <g class="pl_1 marker" transform="translate(794.9,134.6)"><use xlink:href="#mk1"/><text class="dp2" y="-25">10.9</text></g>
      <g class="pl_1 marker" transform="translate(799.1,169.3)"><use xlink:href="#mk1"/><text class="dp2" y="-25">10.4</text></g>
      <g class="pl_1 marker" transform="translate(803.4,108.7)"><use xlink:href="#mk1"/><text class="dp2" y="-25">11.2</text></g>
      <g class="pl_1 marker" transform="translate(807.7,122.5)"><use xlink:href="#mk1"/><text class="dp2" y="-25">11.1</text></g>
      <g class="pl_1 marker" transform="translate(811.8,200.4)"><use xlink:href="#mk1"/><text class="dp2" y="-25">10.0</text></g>
      <g class="pl_1 marker" transform="translate(815.9,126.4)"><use xlink:href="#mk1"/><text class="dp2" y="-25">11.0</text></g>
      <g class="pl_1 marker" transform="translate(820.1,179.2)"><use xlink:href="#mk1"/><text class="dp2" y="-25">10.3</text></g>
      <g class="pl_1 marker" transform="translate(824.4,302.1)"><use xlink:href="#mk1"/><text class="dp2" y="-25">8.6</text></g>
      <g class="pl_1 marker" transform="translate(828.6,372.7)"><use xlink:href="#mk1"/><text class="dp2" y="-25">7.6</text></g>
      <g class="pl_1 marker" transform="translate(832.8,193.1)"><use xlink:href="#mk1"/><text class="dp2" y="-25">10.1</text></g>
      <g class="pl_1 marker" transform="translate(837.2,217.7)"><use xlink:href="#mk1"/><text class="dp2" y="-25">9.7</text></g>
      <g class="pl_1 marker" transform="translate(841.4,484.1)"><use xlink:href="#mk1"/><text class="dp2" y="-25">6.1</text></g>
      <g class="pl_1 marker" transform="translate(845.6,183.8)"><use xlink:href="#mk1"/><text class="dp2" y="-25">10.2</text></g>
      <g class="pl_1 marker" transform="translate(849.9,130.0)"><use xlink:href="#mk1"/><text class="dp2" y="-25">10.9</text></g>
      <g class="pl_1 marker" transform="translate(854.1,65.1)"><use xlink:href="#mk1"/><text class="dp2" y="-25">11.8</text></g>
      <g class="pl_1 marker" transform="translate(858.4,71.4)"><use xlink:href="#mk1"/><text class="dp2" y="-25">11.8</text></g>
      <g class="pl_1 marker" transform="translate(862.6,166.1)"><use xlink:href="#mk1"/><text class="dp2" y="-25">10.5</text></g>
      <g class="pl_1 marker" transform="translate(866.8,100.9)"><use xlink:href="#mk1"/><text class="dp2" y="-25">11.4</text></g>
      <g class="pl_1 marker" transform="translate(871.0,169.4)"><use xlink:href="#mk1"/><text class="dp2" y="-25">10.4</text></g>
      <g class="pl_1 marker" transform="translate(875.2,199.6)"><use xlink:href="#mk1"/><text class="dp2" y="-25">10.0</text></g>
      <g class="pl_1 marker" transform="translate(879.5,171.7)"><use xlink:href="#mk1"/><text class="dp2" y="-25">10.4</text></g>
      <g class="pl_1 marker" transform="translate(883.7,113.2)"><use xlink:href="#mk1"/><text class="dp2" y="-25">11.2</text></g>
    </g>
</g>
</svg>
